time(ms) energy(J) hostname
271338607 0.000000 box
271338707 0.946838 box
271338807 0.947632 box
271338907 0.947021 box
271339007 0.947083 box
271339107 0.945862 box
271339207 0.945435 box
271339307 0.946167 box
271339407 0.947083 box
271339507 0.947144 box
271339607 0.946106 box
271339707 0.945435 box
271339807 0.946533 box
271339907 0.946594 box
271340007 0.947510 box
271340107 0.946533 box
271340207 0.946533 box
271340307 0.944397 box
271340407 0.947693 box
271340507 0.946838 box
271340607 0.946350 box
271340707 0.947815 box
271340807 0.945435 box
271340907 0.944092 box
271341007 0.947693 box
271341107 0.946289 box
271341207 0.946167 box
271341307 0.947083 box
271341407 0.946594 box
271341507 0.945740 box
271341607 0.946167 box
271341707 0.946533 box
271341807 0.945557 box
271341907 0.946045 box
271342007 0.948120 box
271342107 0.946899 box
271342207 0.943420 box
271342307 0.948364 box
271342407 0.945068 box
271342507 0.945679 box
271342607 0.949219 box
271342707 0.946838 box
271342807 0.946045 box
271342907 0.945618 box
271343007 0.945679 box
271343107 0.945801 box
271343207 0.949097 box
271343307 0.946899 box
271343407 0.945374 box
271343507 0.946838 box
271343607 0.944641 box
271343707 0.946411 box
271343807 0.947876 box
271343907 0.947021 box
271344007 0.945557 box
271344107 0.946289 box
271344207 0.944763 box
271344307 0.947510 box
271344407 0.947266 box
271344507 0.948059 box
271344607 0.944946 box
271344707 0.946228 box
271344807 0.944580 box
271344907 0.947449 box
271345007 0.947266 box
271345107 0.947571 box
271345207 0.945190 box
271345307 0.945801 box
271345407 0.944702 box
271345507 0.947693 box
271345607 0.948303 box
271345707 0.945557 box
271345807 0.945435 box
271345907 0.946960 box
271346007 0.946594 box
271346107 0.946106 box
271346207 0.946838 box
271346307 0.947205 box
271346407 0.943604 box
271346507 0.948730 box
271346607 0.946411 box
271346707 0.946228 box
271346807 0.947449 box
271346907 0.945984 box
271347007 0.945496 box
271347107 0.947144 box
271347207 0.945679 box
271347307 0.946472 box
271347407 0.945923 box
271347507 0.948303 box
271347607 0.945618 box
271347707 0.945923 box
271347807 0.946228 box
271347907 0.946106 box
271348007 0.945923 box
271348107 0.948059 box
271348207 0.945862 box
271348307 0.944092 box
271348407 0.948914 box
271348507 0.945129 box
271348607 0.947571 box
271348707 0.949402 box
271348807 0.946167 box
271348907 0.946716 box
271349007 0.946228 box
271349107 0.944214 box
271349207 0.945435 box
271349307 0.949219 box
271349407 0.946289 box
271349507 0.947632 box
271349607 0.946289 box
271349707 0.944885 box
271349807 0.947205 box
271349907 0.947815 box
271350007 0.947327 box
271350107 0.944824 box
271350207 0.946411 box
271350307 0.945190 box
271350407 0.947327 box
271350507 0.947510 box
271350607 0.947449 box
271350707 0.945557 box
271350807 0.946350 box
271350907 0.944763 box
271351007 0.947510 box
271351107 0.946899 box
271351207 0.947205 box
271351307 0.945740 box
271351407 0.946289 box
271351507 0.944763 box
271351607 0.947815 box
271351707 0.947449 box
271351807 0.945740 box
271351907 0.947083 box
271352007 0.945679 box
271352107 0.946045 box
271352207 0.947144 box
271352307 0.947205 box
271352407 0.946289 box
271352507 0.944458 box
271352607 0.947571 box
271352707 0.946533 box
271352807 0.946655 box
271352907 0.947144 box
271353007 0.945312 box
271353107 0.946533 box
271353207 0.946228 box
271353307 0.945862 box
271353407 0.946228 box
271353507 0.945007 box
271353607 0.949219 box
271353707 0.946899 box
271353807 0.945740 box
271353907 0.946716 box
271354007 0.944153 box
271354107 0.948303 box
271354207 0.947083 box
271354307 0.946594 box
271354407 0.944763 box
271354507 0.946655 box
271354607 0.946716 box
271354707 0.947083 box
271354807 0.946228 box
271354907 0.946777 box
271355007 0.946350 box
271355107 0.943542 box
271355207 0.948486 box
271355307 0.944702 box
271355407 0.946106 box
271355507 0.949158 box
271355607 0.946716 box
271355707 0.946716 box
271355807 0.944946 box
271355907 0.945557 box
271356007 0.947632 box
271356107 0.947449 box
271356207 0.945496 box
271356307 0.944946 box
271356407 0.947632 box
271356507 0.945984 box
271356607 0.946655 box
271356707 0.945557 box
271356807 0.947937 box
271356907 0.946960 box
271357007 0.945190 box
271357107 0.946594 box
271357207 0.944580 box
271357307 0.946716 box
271357407 0.948364 box
271357507 0.946960 box
271357607 0.944885 box
271357707 0.946594 box
271357807 0.945007 box
271357907 0.947937 box
271358007 0.946655 box
271358107 0.946411 box
271358207 0.945190 box
271358307 0.947815 box
271358407 0.946472 box
271358507 0.945312 box
271358607 0.946289 box
271358707 0.948364 box
271358807 0.947021 box
271358907 0.946228 box
271359007 0.945679 box
271359107 0.944458 box
271359207 0.948181 box
271359307 0.947144 box
271359407 0.947266 box
271359507 0.945618 box
271359607 0.946777 box
271359707 0.945923 box
271359807 0.946472 box
271359907 0.946899 box
271360007 0.946838 box
271360107 0.945557 box
271360207 0.946777 box
271360307 0.946472 box
271360407 0.945068 box
271360507 0.945740 box
271360607 0.948669 box
271360707 0.946960 box
271360807 0.946472 box
271360907 0.946106 box
271361007 0.944580 box
271361107 0.948181 box
271361207 0.947632 box
271361307 0.947266 box
271361407 0.945068 box
271361507 0.945984 box
271361607 0.946167 box
271361707 0.946167 box
271361807 0.947815 box
271361907 0.946533 box
271362007 0.945557 box
271362107 0.948975 box
271362207 0.946228 box
271362307 0.945618 box
271362407 0.945435 box
271362507 0.949402 box
271362607 0.946289 box
271362707 0.945984 box
271362807 0.946228 box
271362907 0.944763 box
271363007 0.947205 box
271363107 0.947571 box
271363207 0.947693 box
271363307 0.944214 box
271363407 0.947327 box
271363507 0.946716 box
271363607 0.946045 box
271363707 0.945007 box
271363807 0.948853 box
271363907 0.946899 box
271364007 0.946228 box
271364107 0.945129 box
271364207 0.947144 box
271364307 0.947144 box
271364407 0.946838 box
271364507 0.946533 box
271364607 0.945557 box
271364707 0.945862 box
271364807 0.946472 box
271364907 0.945068 box
271365007 0.947937 box
271365107 0.946594 box
271365207 0.946899 box
271365307 0.944641 box
271365407 0.947693 box
271365507 0.946533 box
271365607 0.944824 box
271365707 0.945496 box
271365807 0.949341 box
271365907 0.946899 box
271366007 0.946350 box
271366107 0.945374 box
271366207 0.946228 box
271366307 0.946838 box
271366407 0.946411 box
271366507 0.946472 box
271366607 0.946777 box
271366707 0.945618 box
271366807 0.946289 box
271366907 0.945984 box
271367007 0.947754 box
271367107 0.946411 box
271367207 0.946289 box
271367307 0.945312 box
271367407 0.947388 box
271367507 0.945190 box
271367607 0.946289 box
271367707 0.945374 box
271367807 0.949890 box
271367907 0.947083 box
271368007 0.945068 box
271368107 0.945557 box
271368207 0.945618 box
271368307 0.947510 box
271368407 0.946594 box
271368507 0.946472 box
271368607 0.947327 box
271368707 0.945129 box
271368807 0.945862 box
271368907 0.944702 box
271369007 0.947998 box
271369107 0.947327 box
271369207 0.946350 box
271369307 0.944763 box
271369407 0.947876 box
271369507 0.945557 box
271369607 0.945374 box
271369707 0.945740 box
271369807 0.949463 box
271369907 0.947266 box
271370007 0.945007 box
271370107 0.946289 box
271370207 0.946167 box
271370307 0.946106 box
271370407 0.947021 box
271370507 0.946289 box
271370607 0.946716 box
271370707 0.946228 box
271370807 0.946350 box
271370907 0.944092 box
271371007 0.948547 box
271371107 0.947632 box
271371207 0.945801 box
271371307 0.944885 box
271371407 0.947510 box
271371507 0.946350 box
271371607 0.945862 box
271371707 0.945007 box
271371807 0.948853 box
271371907 0.947754 box
271372007 0.944458 box
271372107 0.945496 box
271372207 0.945862 box
271372307 0.947632 box
271372407 0.946655 box
271372507 0.946777 box
271372607 0.946106 box
271372707 0.946106 box
271372807 0.946350 box
271372907 0.944763 box
271373007 0.947754 box
271373107 0.947571 box
271373207 0.947205 box
271373307 0.943970 box
271373407 0.946838 box
271373507 0.947205 box
271373607 0.946106 box
271373707 0.945862 box
271373807 0.947937 box
271373907 0.945740 box
271374007 0.946655 box
271374107 0.946045 box
271374207 0.945374 box
271374307 0.947449 box
271374407 0.947510 box
271374507 0.946472 box
271374607 0.945618 box
271374707 0.944946 box
271374807 0.947388 box
271374907 0.945435 box
271375007 0.947266 box
271375107 0.946655 box
271375207 0.948059 box
271375307 0.944824 box
271375407 0.947937 box
271375507 0.946167 box
271375607 0.946655 box
271375707 0.946167 box
271375807 0.947510 box
271375907 0.946533 box
271376007 0.945740 box
271376107 0.946472 box
271376207 0.945435 box
271376307 0.946960 box
271376407 0.947388 box
271376507 0.947388 box
271376607 0.945740 box
271376707 0.946472 box
271376807 0.946045 box
271376907 0.946167 box
271377007 0.946228 box
271377107 0.947571 box
271377207 0.947632 box
271377307 0.945312 box
271377407 0.946411 box
271377507 0.946167 box
271377607 0.946899 box
271377707 0.944763 box
271377807 0.948242 box
271377907 0.946350 box
271378007 0.946045 box
271378107 0.945984 box
271378207 0.945129 box
271378307 0.947510 box
271378407 0.946777 box
271378507 0.946716 box
271378607 0.945862 box
271378707 0.945251 box
271378807 0.947571 box
271378907 0.944946 box
271379007 0.946472 box
271379107 0.948303 box
271379207 0.946899 box
271379307 0.945740 box
271379407 0.945862 box
271379507 0.946350 box
271379607 0.946899 box
271379707 0.945435 box
271379807 0.948242 box
271379907 0.946167 box
271380007 0.945740 box
271380107 0.945312 box
271380207 0.945923 box
271380307 0.946838 box
271380407 0.947266 box
271380507 0.945984 box
271380607 0.944641 box
271380707 0.947754 box
271380807 0.945740 box
271380907 0.945679 box
271381007 0.945557 box
271381107 0.949707 box
271381207 0.946655 box
271381307 0.945679 box
271381407 0.946350 box
271381507 0.946045 box
271381607 0.947205 box
271381707 0.946777 box
271381807 0.946106 box
271381907 0.946655 box
271382007 0.945618 box
271382107 0.945923 box
271382207 0.944763 box
271382307 0.947937 box
271382407 0.947693 box
271382507 0.946716 box
271382607 0.944275 box
271382707 0.947937 box
271382807 0.946533 box
271382907 0.946350 box
271383007 0.946716 box
271383107 0.946594 box
271383207 0.946472 box
271383307 0.943420 box
271383407 0.948425 box
271383507 0.944519 box
271383607 0.946594 box
271383707 0.949036 box
271383807 0.946899 box
271383907 0.945740 box
271384007 0.946106 box
271384107 0.945007 box
271384207 0.947449 box
271384307 0.947693 box
271384407 0.946472 box
271384507 0.943787 box
271384607 0.948486 box
271384707 0.946167 box
271384807 0.945679 box
271384907 0.945984 box
271385007 0.948486 box
271385107 0.947144 box
271385207 0.945557 box
271385307 0.945923 box
271385407 0.944763 box
271385507 0.947693 box
271385607 0.947144 box
271385707 0.947571 box
271385807 0.945557 box
271385907 0.945435 box
271386007 0.947021 box
271386107 0.946533 box
271386207 0.946899 box
271386307 0.947571 box
271386407 0.945496 box
271386507 0.944641 box
271386607 0.948181 box
271386707 0.945007 box
271386807 0.946045 box
271386907 0.948975 box
271387007 0.947693 box
271387107 0.944885 box
271387207 0.946350 box
271387307 0.945618 box
271387407 0.947021 box
271387507 0.947144 box
271387607 0.946106 box
271387707 0.944763 box
271387807 0.948669 box
271387907 0.945862 box
271388007 0.945801 box
271388107 0.946350 box
271388207 0.947632 box
271388307 0.947449 box
271388407 0.945312 box
271388507 0.945679 box
271388607 0.945435 box
271388707 0.947632 box
271388807 0.949219 box
271388907 0.946411 box
271389007 0.944092 box
271389107 0.947449 box
271389207 0.947754 box
271389307 0.945312 box
271389407 0.945007 box
271389507 0.948914 box
271389607 0.947083 box
271389707 0.946167 box
271389807 0.945496 box
271389907 0.946594 box
271390007 0.947388 box
271390107 0.946838 box
271390207 0.946350 box
271390307 0.944763 box
271390407 0.947510 box
271390507 0.946350 box
271390607 0.946533 box
271390707 0.945007 box
271390807 0.948120 box
271390907 0.946655 box
271391007 0.946350 box
271391107 0.946106 box
271391207 0.944519 box
271391307 0.948425 box
271391407 0.947693 box
271391507 0.947693 box
271391607 0.945496 box
271391707 0.946045 box
271391807 0.945251 box
271391907 0.947205 box
271392007 0.946899 box
271392107 0.946655 box
271392207 0.946228 box
271392307 0.944763 box
271392407 0.947571 box
271392507 0.946106 box
271392607 0.945496 box
271392707 0.948914 box
271392807 0.947144 box
271392907 0.945190 box
271393007 0.946106 box
271393107 0.945435 box
271393207 0.947693 box
271393307 0.947510 box
271393407 0.945557 box
271393507 0.944885 box
271393607 0.947083 box
271393707 0.945740 box
271393807 0.947327 box
271393907 0.946106 box
271394007 0.947571 box
271394107 0.946045 box
271394207 0.945435 box
271394307 0.946289 box
271394407 0.944763 box
271394507 0.946655 box
271394607 0.948425 box
271394707 0.947144 box
271394807 0.945679 box
271394907 0.945618 box
271395007 0.945923 box
271395107 0.947754 box
271395207 0.947510 box
271395307 0.946289 box
271395407 0.944458 box
271395507 0.947205 box
271395607 0.946594 box
271395707 0.945740 box
271395807 0.946472 box
271395907 0.948242 box
271396007 0.947021 box
271396107 0.945435 box
271396207 0.945801 box
271396307 0.945068 box
271396407 0.948120 box
271396507 0.947205 box
271396607 0.946045 box
271396707 0.945862 box
271396807 0.946167 box
271396907 0.946899 box
271397007 0.946045 box
271397107 0.947327 box
271397207 0.946350 box
271397307 0.945984 box
271397407 0.944336 box
271397507 0.948669 box
271397607 0.944885 box
271397707 0.945984 box
271397807 0.948425 box
271397907 0.947937 box
271398007 0.945374 box
271398107 0.945923 box
271398207 0.944885 box
271398307 0.947266 box
271398407 0.947144 box
271398507 0.946960 box
271398607 0.944275 box
271398707 0.947144 box
271398807 0.947449 box
271398907 0.945251 box
271399007 0.945801 box
271399107 0.948669 box
271399207 0.946289 box
271399307 0.945679 box
271399407 0.946411 box
271399507 0.945374 box
271399607 0.947205 box
271399707 0.947815 box
271399807 0.946838 box
271399907 0.945496 box
271400007 0.946167 box
271400107 0.945312 box
271400207 0.946716 box
271400307 0.947510 box
271400407 0.946228 box
271400507 0.945068 box
271400607 0.946167 box
271400707 0.946472 box
271400807 0.945679 box
271400907 0.945618 box
271401007 0.949524 box
271401107 0.947327 box
271401207 0.944946 box
271401307 0.946167 box
271401407 0.945129 box
271401507 0.947998 box
271401607 0.947083 box
271401707 0.946594 box
271401807 0.944336 box
271401907 0.948120 box
271402007 0.946838 box
271402107 0.945435 box
271402207 0.945374 box
271402307 0.948669 box
271402407 0.946350 box
271402507 0.945740 box
271402607 0.945984 box
271402707 0.948181 box
271402807 0.947388 box
271402907 0.947388 box
271403007 0.947632 box
271403107 0.945190 box
271403207 0.945923 box
271403307 0.945862 box
271403407 0.947021 box
271403507 0.946777 box
271403607 0.946411 box
271403707 0.945251 box
271403807 0.947205 box
271403907 0.946716 box
271404007 0.945984 box
271404107 0.945312 box
271404207 0.948975 box
271404307 0.946411 box
271404407 0.945496 box
271404507 0.945190 box
271404607 0.945862 box
271404707 0.947693 box
271404807 0.947144 box
271404907 0.947632 box
271405007 0.945740 box
271405107 0.945374 box
271405207 0.945862 box
271405307 0.947327 box
271405407 0.947937 box
271405507 0.946472 box
271405607 0.945129 box
271405707 0.946289 box
271405807 0.946472 box
271405907 0.945251 box
271406007 0.946228 box
271406107 0.948669 box
271406207 0.947083 box
271406307 0.945801 box
271406407 0.945312 box
271406507 0.945251 box
271406607 0.947327 box
271406707 0.947449 box
271406807 0.946350 box
271406907 0.945129 box
271407007 0.947144 box
271407107 0.946106 box
271407207 0.946106 box
271407307 0.946411 box
271407407 0.947266 box
271407507 0.945557 box
271407607 0.944275 box
271407707 0.948669 box
271407807 0.944763 box
271407907 0.945862 box
271408007 0.948975 box
271408107 0.947327 box
271408207 0.944824 box
271408307 0.946045 box
271408407 0.946533 box
271408507 0.946350 box
271408607 0.947388 box
271408707 0.946411 box
271408807 0.944275 box
271408907 0.948120 box
271409007 0.946594 box
271409107 0.946289 box
271409207 0.945557 box
271409307 0.948120 box
271409407 0.945496 box
271409507 0.945557 box
271409607 0.946106 box
271409707 0.945190 box
271409807 0.947388 box
271409907 0.948242 box
271410007 0.946899 box
271410107 0.944946 box
271410207 0.946106 box
271410307 0.945862 box
271410407 0.946960 box
271410507 0.946289 box
271410607 0.945618 box
271410707 0.945190 box
271410807 0.947510 box
271410907 0.947266 box
271411007 0.945679 box
271411107 0.945862 box
271411207 0.948120 box
271411307 0.947021 box
271411407 0.945984 box
271411507 0.945984 box
271411607 0.944580 box
271411707 0.947876 box
271411807 0.947388 box
271411907 0.947144 box
271412007 0.945862 box
271412107 0.945068 box
271412207 0.946472 box
271412307 0.946960 box
271412407 0.946655 box
271412507 0.946594 box
271412607 0.945068 box
271412707 0.947021 box
271412807 0.946167 box
271412907 0.945679 box
271413007 0.945557 box
271413107 0.948914 box
271413207 0.946899 box
271413307 0.946472 box
271413407 0.945435 box
271413507 0.945312 box
271413607 0.946838 box
271413707 0.947937 box
271413807 0.947327 box
271413907 0.945435 box
271414007 0.945190 box
271414107 0.946838 box
271414207 0.946411 box
271414307 0.947205 box
271414407 0.946228 box
271414507 0.946106 box
271414607 0.945740 box
271414707 0.947144 box
271414807 0.945801 box
271414907 0.945190 box
271415007 0.949158 box
271415107 0.946899 box
271415207 0.946411 box
271415307 0.945801 box
271415407 0.945312 box
271415507 0.947693 box
271415607 0.947021 box
271415707 0.945801 box
271415807 0.945007 box
271415907 0.947693 box
271416007 0.947266 box
271416107 0.946167 box
271416207 0.946899 box
271416307 0.946899 box
271416407 0.945557 box
271416507 0.944397 box
271416607 0.947998 box
271416707 0.945496 box
271416807 0.947083 box
271416907 0.949707 box
271417007 0.947266 box
271417107 0.945435 box
271417207 0.946411 box
271417307 0.945251 box
271417407 0.947205 box
271417507 0.946960 box
271417607 0.946167 box
271417707 0.945496 box
271417807 0.947083 box
271417907 0.947144 box
271418007 0.947205 box
271418107 0.945007 box
271418207 0.948120 box
271418307 0.945618 box
271418407 0.946045 box
271418507 0.946472 box
271418607 0.944824 box
271418707 0.946533 box
271418807 0.949036 box
271418907 0.946594 box
271419007 0.945984 box
271419107 0.945984 box
271419207 0.944885 box
271419307 0.946838 box
271419407 0.946838 box
271419507 0.947205 box
271419607 0.943848 box
271419707 0.947632 box
271419807 0.946106 box
271419907 0.946228 box
271420007 0.946228 box
271420107 0.948792 box
271420207 0.946777 box
271420307 0.945618 box
271420407 0.946350 box
271420507 0.944641 box
271420607 0.947388 box
271420707 0.947388 box
271420807 0.947571 box
271420907 0.944946 box
271421007 0.945557 box
271421107 0.945557 box
271421207 0.947510 box
271421307 0.947021 box
271421407 0.946289 box
271421507 0.945557 box
271421607 0.947083 box
271421707 0.946228 box
271421807 0.945496 box
271421907 0.945679 box
271422007 0.949524 box
271422107 0.946533 box
271422207 0.945862 box
271422307 0.945740 box
271422407 0.944824 box
271422507 0.947998 box
271422607 0.947021 box
271422707 0.946228 box
271422807 0.945618 box
271422907 0.947327 box
271423007 0.946350 box
271423107 0.945557 box
271423207 0.945496 box
271423307 0.948425 box
271423407 0.946106 box
271423507 0.945007 box
271423607 0.946899 box
271423707 0.944580 box
271423807 0.946777 box
271423907 0.948792 box
271424007 0.947144 box
271424107 0.945251 box
271424207 0.945984 box
271424307 0.945190 box
271424407 0.948364 box
271424507 0.946960 box
271424607 0.946045 box
271424707 0.944824 box
271424807 0.947327 box
271424907 0.945862 box
271425007 0.947327 box
271425107 0.945374 box
271425207 0.948242 box
271425307 0.946899 box
271425407 0.945129 box
271425507 0.946472 box
271425607 0.944702 box
271425707 0.946472 box
271425807 0.948547 box
271425907 0.947327 box
271426007 0.945679 box
271426107 0.945190 box
271426207 0.945923 box
271426307 0.947327 box
271426407 0.947815 box
271426507 0.945740 box
271426607 0.944519 box
271426707 0.947937 box
271426807 0.946106 box
271426907 0.945618 box
271427007 0.946045 box
271427107 0.948608 box
271427207 0.947266 box
271427307 0.946167 box
271427407 0.945557 box
271427507 0.945007 box
271427607 0.947937 box
271427707 0.946716 box
271427807 0.947693 box
271427907 0.945251 box
271428007 0.945312 box
271428107 0.946167 box
271428207 0.946838 box
271428307 0.947083 box
271428407 0.947144 box
271428507 0.944824 box
271428607 0.947205 box
271428707 0.946472 box
271428807 0.945679 box
271428907 0.946167 box
271429007 0.948364 box
271429107 0.946716 box
271429207 0.946716 box
271429307 0.946228 box
271429407 0.945007 box
271429507 0.947266 box
271429607 0.947388 box
271429707 0.948242 box
271429807 0.945374 box
271429907 0.946655 box
271430007 0.945862 box
271430107 0.945984 box
271430207 0.947205 box
271430307 0.946228 box
271430407 0.945740 box
271430507 0.947815 box
271430607 0.947876 box
271430707 0.945679 box
271430807 0.944885 box
271430907 0.949219 box
271431007 0.946533 box
271431107 0.945862 box
271431207 0.945862 box
271431307 0.944275 box
271431407 0.947754 box
271431507 0.947632 box
271431607 0.947632 box
271431707 0.945801 box
271431807 0.946045 box
271431907 0.945923 box
271432007 0.946594 box
271432107 0.946899 box
271432207 0.946167 box
271432307 0.946655 box
271432407 0.944336 box
271432507 0.947815 box
271432607 0.945251 box
271432707 0.946533 box
271432807 0.949341 box
271432907 0.946228 box
271433007 0.946411 box
271433107 0.946228 box
271433207 0.945190 box
271433307 0.947510 box
271433407 0.947571 box
271433507 0.946289 box
271433607 0.945984 box
271433707 0.946045 box
271433807 0.947021 box
271433907 0.946167 box
271434007 0.947144 box
271434107 0.946960 box
271434207 0.945984 box
271434307 0.945435 box
271434407 0.947449 box
271434507 0.945190 box
271434607 0.945679 box
271434707 0.949341 box
271434807 0.946838 box
271434907 0.945496 box
271435007 0.946350 box
271435107 0.944946 box
271435207 0.947083 box
271435307 0.947815 box
271435407 0.946167 box
271435507 0.944641 box
271435607 0.947449 box
271435707 0.946106 box
271435807 0.946899 box
271435907 0.946594 box
271436007 0.946350 box
271436107 0.946228 box
271436207 0.944275 box
271436307 0.948059 box
271436407 0.944519 box
271436507 0.945801 box
271436607 0.949341 box
271436707 0.947449 box
271436807 0.944885 box
271436907 0.946228 box
271437007 0.945190 box
271437107 0.947449 box
271437207 0.947754 box
271437307 0.945862 box
271437407 0.944763 box
271437507 0.947693 box
271437607 0.946716 box
271437707 0.945862 box
271437807 0.946167 box
271437907 0.947693 box
271438007 0.946350 box
271438107 0.944763 box
271438207 0.946655 box
271438307 0.944702 box
271438407 0.946289 box
271438507 0.948486 box
271438607 0.947449 box
271438707 0.945435 box
271438807 0.945740 box
271438907 0.944946 box
271439007 0.947815 box
271439107 0.946716 box
271439207 0.946289 box
271439307 0.945312 box
271439407 0.947266 box
271439507 0.947693 box
271439607 0.945435 box
271439707 0.946106 box
271439807 0.948120 box
271439907 0.945862 box
271440007 0.944946 box
271440107 0.947876 box
271440207 0.945374 box
271440307 0.946106 box
271440407 0.948730 box
271440507 0.947327 box
271440607 0.944885 box
271440707 0.945923 box
271440807 0.945557 box
271440907 0.947510 box
271441007 0.947632 box
271441107 0.945984 box
271441207 0.944641 box
271441307 0.947510 box
271441407 0.947021 box
271441507 0.945801 box
271441607 0.946228 box
271441707 0.947510 box
271441807 0.946228 box
271441907 0.944946 box
271442007 0.947327 box
271442107 0.944275 box
271442207 0.946899 box
271442307 0.947998 box
271442407 0.947937 box
271442507 0.945374 box
271442607 0.945190 box
271442707 0.946289 box
271442807 0.946411 box
271442907 0.947571 box
271443007 0.946106 box
271443107 0.944519 box
271443207 0.947876 box
271443307 0.946045 box
271443407 0.946411 box
271443507 0.945679 box
271443607 0.947754 box
271443707 0.946838 box
271443807 0.946106 box
271443907 0.945801 box
271444007 0.945251 box
271444107 0.946777 box
271444207 0.947754 box
271444307 0.947021 box
271444407 0.945557 box
271444507 0.947754 box
271444607 0.946472 box
271444707 0.947144 box
271444807 0.947021 box
271444907 0.946350 box
271445007 0.944458 box
271445107 0.947693 box
271445207 0.945862 box
271445307 0.946289 box
271445407 0.945679 box
271445507 0.949219 box
271445607 0.946777 box
271445707 0.944397 box
271445807 0.946533 box
271445907 0.945496 box
271446007 0.945496 box
271446107 0.949158 box
271446207 0.947693 box
271446307 0.944946 box
271446407 0.946167 box
271446507 0.945129 box
271446607 0.948181 box
271446707 0.947266 box
271446807 0.946716 box
271446907 0.944702 box
271447007 0.947510 box
271447107 0.946411 box
271447207 0.946045 box
271447307 0.947449 box
271447407 0.946655 box
271447507 0.945984 box
271447607 0.944580 box
271447707 0.948608 box
271447807 0.945068 box
271447907 0.945435 box
271448007 0.950317 box
271448107 0.946533 box
271448207 0.945496 box
271448307 0.945435 box
271448407 0.944946 box
271448507 0.947998 box
271448607 0.947937 box
271448707 0.946289 box
271448807 0.944885 box
271448907 0.946106 box
271449007 0.946716 box
271449107 0.946045 box
271449207 0.947815 box
271449307 0.946106 box
271449407 0.945190 box
271449507 0.946167 box
271449607 0.947205 box
271449707 0.944519 box
271449807 0.946167 box
271449907 0.949036 box
271450007 0.946289 box
271450107 0.945923 box
271450207 0.945251 box
271450307 0.945312 box
271450407 0.948059 box
271450507 0.946716 box
271450607 0.945923 box
271450707 0.945251 box
271450807 0.947083 box
271450907 0.947021 box
271451007 0.946899 box
271451107 0.947388 box
271451207 0.946899 box
271451307 0.945679 box
271451407 0.944275 box
271451507 0.947693 box
271451607 0.945496 box
271451707 0.945251 box
271451807 0.950134 box
271451907 0.947266 box
271452007 0.945068 box
271452107 0.945618 box
271452207 0.944519 box
271452307 0.948120 box
271452407 0.947266 box
271452507 0.947388 box
271452607 0.945801 box
271452707 0.945496 box
271452807 0.946350 box
271452907 0.947754 box
271453007 0.946960 box
271453107 0.946472 box
271453207 0.945068 box
271453307 0.947327 box
271453407 0.946106 box
271453507 0.946045 box
271453607 0.945984 box
271453707 0.948181 box
271453807 0.947449 box
271453907 0.945618 box
271454007 0.945740 box
271454107 0.945007 box
271454207 0.947388 box
271454307 0.946960 box
271454407 0.947449 box
271454507 0.945557 box
271454607 0.944946 box
271454707 0.945496 box
271454807 0.947693 box
271454907 0.947083 box
271455007 0.946289 box
271455107 0.944214 box
271455207 0.947815 box
271455307 0.946899 box
271455407 0.945801 box
271455507 0.946411 box
271455607 0.947571 box
271455707 0.947021 box
271455807 0.945496 box
271455907 0.946045 box
271456007 0.945496 box
271456107 0.947083 box
271456207 0.947144 box
271456307 0.947876 box
271456407 0.945740 box
271456507 0.945740 box
271456607 0.946594 box
271456707 0.946960 box
271456807 0.947144 box
271456907 0.946594 box
271457007 0.945007 box
271457107 0.946350 box
271457207 0.946228 box
271457307 0.946472 box
271457407 0.945496 box
271457507 0.948425 box
271457607 0.946533 box
271457707 0.945740 box
271457807 0.946106 box
271457907 0.944580 box
271458007 0.947998 box
271458107 0.947449 box
271458207 0.950195 box
271458307 0.945007 box
271458407 0.945618 box
271458507 0.946777 box
271458607 0.946167 box
271458707 0.946960 box
271458807 0.946228 box
271458907 0.943970 box
271459007 0.948669 box
271459107 0.946594 box
271459207 0.945190 box
271459307 0.947205 box
271459407 0.947937 box
271459507 0.946655 box
271459607 0.946350 box
271459707 0.946045 box
271459807 0.944397 box
271459907 0.945984 box
271460007 0.948608 box
271460107 0.947937 box
271460207 0.945374 box
271460307 0.945679 box
271460407 0.945740 box
271460507 0.947876 box
271460607 0.947449 box
271460707 0.946411 box
271460807 0.944092 box
271460907 0.947815 box
271461007 0.946594 box
271461107 0.946167 box
271461207 0.946777 box
271461307 0.946594 box
271461407 0.946228 box
271461507 0.945190 box
271461607 0.947876 box
271461707 0.944946 box
271461807 0.945862 box
271461907 0.949707 box
271462007 0.946533 box
271462107 0.946106 box
271462207 0.945007 box
271462307 0.945129 box
271462407 0.947388 box
271462507 0.948059 box
271462607 0.946960 box
271462707 0.945801 box
271462807 0.945190 box
271462907 0.945068 box
271463007 0.947510 box
271463107 0.947388 box
271463207 0.946289 box
271463307 0.944946 box
271463407 0.947021 box
271463507 0.946472 box
271463607 0.945923 box
271463707 0.946045 box
271463807 0.947998 box
271463907 0.945496 box
271464007 0.946167 box
271464107 0.946472 box
271464207 0.944763 box
271464307 0.947083 box
271464407 0.948486 box
271464507 0.947144 box
271464607 0.945251 box
271464707 0.946411 box
271464807 0.945374 box
271464907 0.947083 box
271465007 0.946716 box
271465107 0.946228 box
271465207 0.945007 box
271465307 0.947449 box
271465407 0.945679 box
271465507 0.947083 box
271465607 0.945862 box
271465707 0.947327 box
271465807 0.946594 box
271465907 0.942993 box
271466007 0.947998 box
271466107 0.944885 box
271466207 0.946411 box
271466307 0.948669 box
271466407 0.946838 box
271466507 0.945984 box
271466607 0.945984 box
271466707 0.945007 box
271466807 0.947449 box
271466907 0.947754 box
271467007 0.947144 box
271467107 0.945190 box
271467207 0.945923 box
271467307 0.946106 box
271467407 0.946960 box
271467507 0.947632 box
271467607 0.946289 box
271467707 0.943726 box
271467807 0.948120 box
271467907 0.946045 box
271468007 0.946594 box
271468107 0.945312 box
271468207 0.947571 box
271468307 0.947144 box
271468407 0.945190 box
271468507 0.946350 box
271468607 0.945129 box
271468707 0.945496 box
271468807 0.949585 box
271468907 0.946594 box
271469007 0.945496 box
271469107 0.946411 box
271469207 0.945496 box
271469307 0.947998 box
271469407 0.947693 box
271469507 0.946716 box
271469607 0.945740 box
271469707 0.945618 box
271469807 0.946289 box
271469907 0.946533 box
271470007 0.947205 box
271470107 0.945923 box
271470207 0.945496 box
271470307 0.946716 box
271470407 0.946594 box
271470507 0.945618 box
271470607 0.946594 box
271470707 0.947998 box
271470807 0.946533 box
271470907 0.946533 box
271471007 0.945557 box
271471107 0.945923 box
271471207 0.947144 box
271471307 0.947266 box
271471407 0.947937 box
271471507 0.944641 box
271471607 0.946838 box
271471707 0.944763 box
271471807 0.947205 box
271471907 0.947144 box
271472007 0.946289 box
271472107 0.946960 box
271472207 0.947327 box
271472307 0.946899 box
271472407 0.946472 box
271472507 0.947266 box
271472607 0.946472 box
271472707 0.946228 box
271472807 0.946106 box
271472907 0.945984 box
271473007 0.946350 box
271473107 0.945679 box
271473207 0.949890 box
271473307 0.946838 box
271473407 0.946655 box
271473507 0.945984 box
271473607 0.944885 box
271473707 0.947571 box
271473807 0.947021 box
271473907 0.947266 box
271474007 0.945923 box
271474107 0.945862 box
271474207 0.944702 box
271474307 0.948425 box
271474407 0.947021 box
271474507 0.946838 box
271474607 0.944214 box
271474707 0.947571 box
271474807 0.945557 box
271474907 0.946289 box
271475007 0.946716 box
271475107 0.946899 box
271475207 0.945557 box
271475307 0.944763 box
271475407 0.947998 box
271475507 0.945496 box
271475607 0.945740 box
271475707 0.949402 box
271475807 0.946838 box
271475907 0.945923 box
271476007 0.945801 box
271476107 0.944458 box
271476207 0.947998 box
271476307 0.947998 box
271476407 0.947327 box
271476507 0.945557 box
271476607 0.945557 box
271476707 0.945557 box
271476807 0.947021 box
271476907 0.948059 box
271477007 0.945801 box
271477107 0.944641 box
271477207 0.947693 box
271477307 0.946472 box
271477407 0.946899 box
271477507 0.945496 box
271477607 0.947449 box
271477707 0.947388 box
271477807 0.944214 box
271477907 0.947083 box
271478007 0.945312 box
271478107 0.945679 box
271478207 0.949158 box
271478307 0.947144 box
271478407 0.944824 box
271478507 0.946472 box
271478607 0.944397 box
271478707 0.947998 box
271478807 0.947571 box
271478907 0.946350 box
271479007 0.945312 box
271479107 0.945251 box
271479207 0.946472 box
271479307 0.946838 box
271479407 0.947754 box
271479507 0.945740 box
271479607 0.944336 box
271479707 0.947632 box
271479807 0.946411 box
271479907 0.946411 box
271480007 0.946045 box
271480107 0.948242 box
271480207 0.946472 box
271480307 0.945312 box
271480407 0.946716 box
271480507 0.945496 box
271480607 0.945618 box
271480707 0.949524 box
271480807 0.947083 box
271480907 0.945190 box
271481007 0.945801 box
271481107 0.944763 box
271481207 0.948975 box
271481307 0.947388 box
271481407 0.945618 box
271481507 0.946045 box
271481607 0.946411 box
271481707 0.947205 box
271481807 0.945923 box
271481907 0.947388 box
271482007 0.946716 box
271482107 0.944519 box
271482207 0.947083 box
271482307 0.946167 box
271482407 0.945618 box
271482507 0.946228 box
271482607 0.948181 box
271482707 0.946167 box
271482807 0.945862 box
271482907 0.946045 box
271483007 0.944458 box
271483107 0.947998 box
271483207 0.947327 box
271483307 0.947510 box
271483407 0.945190 box
271483507 0.945740 box
271483607 0.945007 box
271483707 0.948059 box
271483807 0.947266 box
271483907 0.947021 box
271484007 0.944519 box
271484107 0.947693 box
271484207 0.946777 box
271484307 0.945496 box
271484407 0.946228 box
271484507 0.948120 box
271484607 0.946472 box
271484707 0.942993 box
271484807 0.948792 box
271484907 0.946106 box
271485007 0.944458 box
271485107 0.949280 box
271485207 0.947144 box
271485307 0.945862 box
271485407 0.945740 box
271485507 0.945679 box
271485607 0.946838 box
271485707 0.947388 box
271485807 0.947815 box
271485907 0.944275 box
271486007 0.948914 box
271486107 0.946167 box
271486207 0.946411 box
271486307 0.946594 box
271486407 0.946899 box
271486507 0.944275 box
271486607 0.948120 box
271486707 0.945984 box
271486807 0.946045 box
271486907 0.945679 box
271487007 0.948547 box
271487107 0.946838 box
271487207 0.945251 box
271487307 0.946411 box
271487407 0.945190 box
271487507 0.946533 box
271487607 0.948547 box
271487707 0.947449 box
271487807 0.945618 box
271487907 0.945801 box
271488007 0.945679 box
271488107 0.947021 box
271488207 0.947998 box
271488307 0.946228 box
271488407 0.946045 box
271488507 0.946655 box
271488607 0.946289 box
271488707 0.946655 box
271488807 0.947021 box
271488907 0.946472 box
271489007 0.945557 box
271489107 0.946777 box
271489207 0.946411 box
271489307 0.945801 box
271489407 0.946533 box
271489507 0.947998 box
271489607 0.946472 box
271489707 0.946167 box
271489807 0.946106 box
271489907 0.945312 box
271490007 0.946960 box
271490107 0.948120 box
271490207 0.947510 box
271490307 0.945129 box
271490407 0.946228 box
271490507 0.945679 box
271490607 0.946655 box
271490707 0.948059 box
271490807 0.946106 box
271490907 0.945679 box
271491007 0.946838 box
271491107 0.946777 box
271491207 0.946716 box
271491307 0.946594 box
271491407 0.946533 box
271491507 0.946167 box
271491607 0.945007 box
271491707 0.946289 box
271491807 0.945923 box
271491907 0.946960 box
271492007 0.947693 box
271492107 0.947021 box
271492207 0.945129 box
271492307 0.946106 box
271492407 0.944641 box
271492507 0.947632 box
271492607 0.947998 box
271492707 0.946655 box
271492807 0.945374 box
271492907 0.945618 box
271493007 0.946411 box
271493107 0.948059 box
271493207 0.946228 box
271493307 0.946655 box
271493407 0.945740 box
271493507 0.945801 box
271493607 0.946472 box
271493707 0.946594 box
271493807 0.947266 box
271493907 0.945801 box
271494007 0.944885 box
271494107 0.946411 box
271494207 0.946960 box
271494307 0.945618 box
271494407 0.946411 box
271494507 0.947937 box
271494607 0.946655 box
271494707 0.944946 box
271494807 0.946045 box
271494907 0.945801 box
271495007 0.945923 box
271495107 0.948669 box
271495207 0.947144 box
271495307 0.946045 box
271495407 0.945190 box
271495507 0.945557 box
271495607 0.947266 box
271495707 0.947693 box
271495807 0.947632 box
271495907 0.945374 box
271496007 0.944885 box
271496107 0.945984 box
271496207 0.946838 box
271496307 0.946899 box
271496407 0.946533 box
271496507 0.944458 box
271496607 0.947754 box
271496707 0.946045 box
271496807 0.945923 box
271496907 0.946716 box
271497007 0.946716 box
271497107 0.945801 box
271497207 0.945374 box
271497307 0.946960 box
271497407 0.945801 box
271497507 0.945862 box
271497607 0.948608 box
271497707 0.946716 box
271497807 0.946411 box
271497907 0.944946 box
271498007 0.946228 box
271498107 0.947266 box
271498207 0.947083 box
271498307 0.947327 box
271498407 0.944214 box
271498507 0.946777 box
271498607 0.945312 box
271498707 0.947754 box
271498807 0.947205 box
271498907 0.946655 box
271499007 0.945801 box
271499107 0.945984 box
271499207 0.946594 box
271499307 0.945801 box
271499407 0.946960 box
271499507 0.946167 box
271499607 0.945374 box
271499707 0.946960 box
271499807 0.946594 box
271499907 0.945312 box
271500007 0.948608 box
271500107 0.947937 box
271500207 0.946655 box
271500307 0.946838 box
271500407 0.945801 box
271500507 0.944763 box
271500607 0.946106 box
271500707 0.949036 box
271500807 0.947449 box
271500907 0.945557 box
271501007 0.945740 box
271501107 0.945923 box
271501207 0.947266 box
271501307 0.947754 box
271501407 0.945679 box
271501507 0.945496 box
271501607 0.947388 box
271501707 0.946289 box
271501807 0.946716 box
271501907 0.947388 box
271502007 0.945862 box
271502107 0.945007 box
271502207 0.947327 box
271502307 0.946777 box
271502407 0.946411 box
271502507 0.945801 box
271502607 0.949036 box
271502707 0.945923 box
271502807 0.945129 box
271502907 0.947571 box
271503007 0.945129 box
271503107 0.946472 box
271503207 0.949036 box
271503307 0.946472 box
271503407 0.946167 box
271503507 0.945557 box
271503607 0.945435 box
271503707 0.947937 box
271503807 0.947815 box
271503907 0.947083 box
271504007 0.945007 box
271504107 0.945557 box
271504207 0.946716 box
271504307 0.946899 box
271504407 0.946960 box
271504507 0.945862 box
271504607 0.944397 box
271504707 0.947937 box
271504807 0.946533 box
271504907 0.946228 box
271505007 0.947205 box
271505107 0.946289 box
271505207 0.946045 box
271505307 0.944702 box
271505407 0.947144 box
271505507 0.945374 box
271505607 0.946045 box
271505707 0.948853 box
271505807 0.947205 box
271505907 0.945190 box
271506007 0.945679 box
271506107 0.945801 box
271506207 0.947449 box
271506307 0.947327 box
271506407 0.946716 box
271506507 0.945679 box
271506607 0.945984 box
271506707 0.944946 box
271506807 0.947571 box
271506907 0.947021 box
271507007 0.947083 box
271507107 0.946106 box
271507207 0.945557 box
271507307 0.946655 box
271507407 0.946289 box
271507507 0.946899 box
271507607 0.946228 box
271507707 0.944336 box
271507807 0.947021 box
271507907 0.945679 box
271508007 0.946716 box
271508107 0.946594 box
271508207 0.947449 box
271508307 0.946045 box
271508407 0.945496 box
271508507 0.946899 box
271508607 0.945740 box
271508707 0.945740 box
271508807 0.948730 box
271508907 0.946472 box
271509007 0.945007 box
271509107 0.946350 box
271509207 0.945190 box
271509307 0.945496 box
271509407 0.949585 box
271509507 0.946533 box
271509607 0.945618 box
271509707 0.946289 box
271509807 0.944702 box
271509907 0.947876 box
271510007 0.947144 box
271510107 0.947510 box
271510207 0.945618 box
271510307 0.946289 box
271510407 0.944397 box
271510507 0.947449 box
271510607 0.947510 box
271510707 0.945984 box
271510807 0.945374 box
271510907 0.947632 box
271511007 0.945557 box
271511107 0.946899 box
271511207 0.947876 box
271511307 0.945984 box
271511407 0.945312 box
271511507 0.946533 box
271511607 0.946533 box
271511707 0.946289 box
271511807 0.945801 box
271511907 0.947815 box
271512007 0.946045 box
271512107 0.944336 box
271512207 0.948364 box
271512307 0.945007 box
271512407 0.945374 box
271512507 0.949402 box
271512607 0.946350 box
271512707 0.946960 box
271512807 0.945190 box
271512907 0.944885 box
271513007 0.947388 box
271513107 0.947510 box
271513207 0.947205 box
271513307 0.945557 box
271513407 0.946838 box
271513507 0.944458 box
271513607 0.946716 box
271513707 0.947388 box
271513807 0.948303 box
271513907 0.944946 box
271514007 0.945007 box
271514107 0.948975 box
271514207 0.946960 box
271514307 0.946838 box
271514407 0.946594 box
271514507 0.944946 box
271514607 0.947266 box
271514707 0.946716 box
271514807 0.946167 box
271514907 0.947205 box
271515007 0.946228 box
271515107 0.946350 box
271515207 0.947266 box
271515307 0.945801 box
271515407 0.946289 box
271515507 0.946838 box
271515607 0.947571 box
271515707 0.946411 box
271515807 0.945068 box
271515907 0.946594 box
271516007 0.945923 box
271516107 0.945862 box
271516207 0.948730 box
271516307 0.947205 box
271516407 0.945862 box
271516507 0.945984 box
271516607 0.944580 box
271516707 0.947937 box
271516807 0.948425 box
271516907 0.947021 box
271517007 0.945496 box
271517107 0.945984 box
271517207 0.945435 box
271517307 0.947266 box
271517407 0.947510 box
271517507 0.946716 box
271517607 0.946167 box
271517707 0.945679 box
271517807 0.945618 box
271517907 0.946960 box
271518007 0.948364 box
271518107 0.946228 box
271518207 0.944763 box
271518307 0.947144 box
271518407 0.946289 box
271518507 0.946472 box
271518607 0.946472 box
271518707 0.948242 box
271518807 0.946350 box
271518907 0.945190 box
271519007 0.946777 box
271519107 0.945679 box
271519207 0.945984 box
271519307 0.948914 box
271519407 0.946655 box
271519507 0.945251 box
271519607 0.946106 box
271519707 0.945068 box
271519807 0.947327 box
271519907 0.948120 box
271520007 0.946716 box
271520107 0.945312 box
271520207 0.944946 box
271520307 0.945374 box
271520407 0.947327 box
271520507 0.948303 box
271520607 0.946899 box
271520707 0.946106 box
271520807 0.945862 box
271520907 0.944641 box
271521007 0.948303 box
271521107 0.947327 box
271521207 0.945862 box
271521307 0.944519 box
271521407 0.946716 box
271521507 0.946045 box
271521607 0.947327 box
271521707 0.947510 box
271521807 0.946472 box
271521907 0.945190 box
271522007 0.946899 box
271522107 0.946655 box
271522207 0.945984 box
271522307 0.946167 box
271522407 0.947632 box
271522507 0.945801 box
271522607 0.944580 box
271522707 0.947815 box
271522807 0.945251 box
271522907 0.945007 box
271523007 0.949341 box
271523107 0.947388 box
271523207 0.945801 box
271523307 0.945007 box
271523407 0.944702 box
271523507 0.946594 box
271523607 0.948120 box
271523707 0.947510 box
271523807 0.945007 box
271523907 0.945923 box
271524007 0.944580 box
271524107 0.948364 box
271524207 0.947083 box
271524307 0.948242 box
271524407 0.944641 box
271524507 0.945557 box
271524607 0.945190 box
271524707 0.947998 box
271524807 0.946899 box
271524907 0.946594 box
271525007 0.945496 box
271525107 0.946655 box
271525207 0.946533 box
271525307 0.946716 box
271525407 0.947388 box
271525507 0.946838 box
271525607 0.944580 box
271525707 0.946899 box
271525807 0.947021 box
271525907 0.946716 box
271526007 0.946838 box
271526107 0.947144 box
271526207 0.945801 box
271526307 0.945740 box
271526407 0.946045 box
271526507 0.945618 box
271526607 0.946655 box
271526707 0.947571 box
271526807 0.946533 box
271526907 0.944824 box
271527007 0.946960 box
271527107 0.946350 box
271527207 0.944702 box
271527307 0.949585 box
271527407 0.946655 box
271527507 0.946228 box
271527607 0.945190 box
271527707 0.945496 box
271527807 0.947815 box
271527907 0.947021 box
271528007 0.946838 box
271528107 0.945862 box
271528207 0.948547 box
271528307 0.945068 box
271528407 0.947815 box
271528507 0.946777 box
271528607 0.948120 box
271528707 0.945068 box
271528807 0.945435 box
271528907 0.946106 box
271529007 0.946533 box
271529107 0.947632 box
271529207 0.946167 box
271529307 0.945862 box
271529407 0.947266 box
271529507 0.945618 box
271529607 0.946960 box
271529707 0.946716 box
271529807 0.947083 box
271529907 0.944580 box
271530007 0.947510 box
271530107 0.946106 box
271530207 0.946350 box
271530307 0.945312 box
271530407 0.948853 box
271530507 0.946594 box
271530607 0.944519 box
271530707 0.948303 box
271530807 0.944702 box
271530907 0.945312 box
271531007 0.948730 box
271531107 0.947083 box
271531207 0.945862 box
271531307 0.946472 box
271531407 0.945435 box
271531507 0.946167 box
271531607 0.948486 box
271531707 0.946655 box
271531807 0.945984 box
271531907 0.945984 box
271532007 0.944580 box
271532107 0.946716 box
271532207 0.948059 box
271532307 0.947510 box
271532407 0.945312 box
271532507 0.945618 box
271532607 0.945984 box
271532707 0.946533 box
271532807 0.947571 box
271532907 0.945984 box
271533007 0.946289 box
271533107 0.945251 box
271533207 0.945801 box
271533307 0.947205 box
271533407 0.947754 box
271533507 0.946289 box
271533607 0.944458 box
271533707 0.947876 box
271533807 0.946472 box
271533907 0.945984 box
271534007 0.947083 box
271534107 0.946533 box
271534207 0.945984 box
271534307 0.946777 box
271534407 0.946289 box
271534507 0.944885 box
271534607 0.946533 box
271534707 0.949097 box
271534807 0.945679 box
271534907 0.944214 box
271535007 0.948059 box
271535107 0.945435 box
271535207 0.945435 box
271535307 0.949829 box
271535407 0.946228 box
271535507 0.946167 box
271535607 0.946411 box
271535707 0.944336 box
271535807 0.948120 box
271535907 0.948059 box
271536007 0.946289 box
271536107 0.945557 box
271536207 0.946228 box
271536307 0.944763 box
271536407 0.948242 box
271536507 0.947083 box
271536607 0.947754 box
271536707 0.945496 box
271536807 0.946045 box
271536907 0.944885 box
271537007 0.948120 box
271537107 0.947144 box
271537207 0.946533 box
271537307 0.945129 box
271537407 0.946533 box
271537507 0.946960 box
271537607 0.945984 box
271537707 0.947632 box
271537807 0.946472 box
271537907 0.944153 box
271538007 0.947449 box
271538107 0.946899 box
271538207 0.945557 box
271538307 0.946838 box
271538407 0.945801 box
271538507 0.946289 box
271538607 0.946533 box
271538707 0.946655 box
271538807 0.945129 box
271538907 0.945923 box
271539007 0.948669 box
271539107 0.947388 box
271539207 0.943298 box
271539307 0.946899 box
271539407 0.946045 box
271539507 0.944946 box
271539607 0.949463 box
271539707 0.947021 box
271539807 0.946350 box
271539907 0.945496 box
271540007 0.945557 box
271540107 0.947083 box
271540207 0.947693 box
271540307 0.947327 box
271540407 0.945007 box
271540507 0.945862 box
271540607 0.944519 box
271540707 0.948669 box
271540807 0.947083 box
271540907 0.947754 box
271541007 0.944580 box
271541107 0.946106 box
271541207 0.945923 box
271541307 0.947205 box
271541407 0.947205 box
271541507 0.946777 box
271541607 0.946472 box
271541707 0.945496 box
271541807 0.945374 box
271541907 0.947510 box
271542007 0.947327 box
271542107 0.945862 box
271542207 0.944763 box
271542307 0.950134 box
271542407 0.947449 box
271542507 0.945618 box
271542607 0.947876 box
271542707 0.946716 box
271542807 0.944641 box
271542907 0.947021 box
271543007 0.946716 box
271543107 0.946045 box
271543207 0.945312 box
271543307 0.948792 box
271543407 0.946472 box
271543507 0.944824 box
271543607 0.946350 box
271543707 0.946167 box
271543807 0.945801 box
271543907 0.948181 box
271544007 0.946594 box
271544107 0.945435 box
271544207 0.946045 box
271544307 0.946533 box
271544407 0.945557 box
271544507 0.948669 box
271544607 0.946655 box
271544707 0.946289 box
271544807 0.945190 box
271544907 0.945129 box
