------------
Profiler Configuration
output path: /home/tc/pwr2018_data/output_graph500_proc1/cap_11-5/profiler-4
monitoring frequency: 100000000 nano seconds
------------
SCALE:                          20
edgefactor:                     16
NBFS:                           64
graph_generation:               6.44635
num_mpi_processes:              1
construction_time:              1.03904
bfs  min_time:                  0.258902
bfs  firstquartile_time:        0.258991
bfs  median_time:               0.259039
bfs  thirdquartile_time:        0.259063
bfs  max_time:                  0.259301
bfs  mean_time:                 0.259042
bfs  stddev_time:               8.03907e-05
min_nedge:                      16775818
firstquartile_nedge:            16775818
median_nedge:                   16775818
thirdquartile_nedge:            16775818
max_nedge:                      16775818
mean_nedge:                     16775818
stddev_nedge:                   0
bfs  min_TEPS:                  6.46964e+07
bfs  firstquartile_TEPS:        6.47557e+07
bfs  median_TEPS:               6.47618e+07
bfs  thirdquartile_TEPS:        6.47738e+07
bfs  max_TEPS:                  6.47961e+07
bfs  harmonic_mean_TEPS:     !  6.47611e+07
bfs  harmonic_stddev_TEPS:      2532.09
bfs  min_validate:              1.60116
bfs  firstquartile_validate:    1.60353
bfs  median_validate:           1.60693
bfs  thirdquartile_validate:    1.61048
bfs  max_validate:              1.61208
bfs  mean_validate:             1.60683
bfs  stddev_validate:           0.00347454
