time(ms) energy(J) hostname
421735308 0.000000 box
421735408 1.054382 box
421735508 1.035400 box
421735608 1.052795 box
421735708 1.038391 box
421735808 1.043030 box
421735908 1.041382 box
421736008 1.046448 box
421736108 1.044128 box
421736208 1.040527 box
421736308 1.053955 box
421736408 1.031311 box
421736508 1.047974 box
421736608 1.055725 box
421736708 1.033020 box
421736808 1.045166 box
421736908 1.053284 box
421737008 1.042786 box
421737108 1.042664 box
421737208 1.031494 box
421737308 1.056580 box
421737408 1.034180 box
421737508 1.052734 box
421737608 1.045715 box
421737708 1.032837 box
421737808 1.053101 box
421737908 1.032227 box
421738008 1.045044 box
421738108 1.046143 box
421738208 1.041504 box
421738308 1.042969 box
421738408 1.044678 box
421738508 1.043640 box
421738608 1.044128 box
421738708 1.040710 box
421738808 1.043945 box
421738908 1.055420 box
421739008 1.044678 box
421739108 1.044250 box
421739208 1.030518 box
421739308 1.054382 box
421739408 1.044739 box
421739508 1.032715 box
421739608 1.044922 box
421739708 1.054077 box
421739808 1.047546 box
421739908 1.033142 box
421740008 1.039856 box
421740108 1.053650 box
421740208 1.033813 box
421740308 1.043701 box
421740408 1.045654 box
421740508 1.042419 box
421740608 1.046448 box
421740708 1.043274 box
421740808 1.041809 box
421740908 1.042297 box
421741008 1.043457 box
421741108 1.044739 box
421741208 1.044800 box
421741308 1.041138 box
421741408 1.046265 box
421741508 1.043762 box
421741608 1.054932 box
421741708 1.033264 box
421741808 1.051025 box
421741908 1.043152 box
421742008 1.043823 box
421742108 1.035767 box
421742208 1.045471 box
421742308 1.053833 box
421742408 1.043091 box
421742508 1.034241 box
421742608 1.041016 box
421742708 1.052307 box
421742808 1.033203 box
421742908 1.044861 box
421743008 1.045959 box
421743108 1.044128 box
421743208 1.052673 box
421743308 1.033325 box
421743408 1.043457 box
421743508 1.053772 box
421743608 1.032043 box
421743708 1.043884 box
421743808 1.054626 box
421743908 1.045898 box
421744008 1.034180 box
421744108 1.044128 box
421744208 1.044800 box
421744308 1.053284 box
421744408 1.041138 box
421744508 1.034363 box
421744608 1.044250 box
421744708 1.045044 box
421744808 1.043335 box
421744908 1.042175 box
421745008 1.052979 box
421745108 1.035034 box
421745208 1.042053 box
421745308 1.054565 box
421745408 1.033386 box
421745508 1.045715 box
421745608 1.044861 box
421745708 1.050903 box
421745808 1.035339 box
421745908 1.055481 box
421746008 1.033020 box
421746108 1.043884 box
421746208 1.043701 box
421746308 1.046570 box
421746408 1.042114 box
421746508 1.041931 box
421746608 1.045044 box
421746708 1.053833 box
421746808 1.033997 box
421746908 1.043091 box
421747008 1.057312 box
421747108 1.033630 box
421747208 1.042725 box
421747308 1.056213 box
421747408 1.041992 box
421747508 1.044128 box
421747608 1.032349 box
421747708 1.041931 box
421747808 1.043823 box
421747908 1.045288 box
421748008 1.056519 box
421748108 1.032837 box
421748208 1.041748 box
421748308 1.055054 box
421748408 1.032776 box
421748508 1.044067 box
421748608 1.045471 box
421748708 1.045898 box
421748808 1.043945 box
421748908 1.043701 box
421749008 1.052979 box
421749108 1.032349 box
421749208 1.044434 box
421749308 1.054626 box
421749408 1.046570 box
421749508 1.042419 box
421749608 1.045532 box
421749708 1.045227 box
421749808 1.041504 box
421749908 1.041138 box
421750008 1.033203 box
421750108 1.042908 box
421750208 1.046631 box
421750308 1.043091 box
421750408 1.046265 box
421750508 1.043518 box
421750608 1.040833 box
421750708 1.055359 box
421750808 1.042175 box
421750908 1.032227 box
421751008 1.055847 box
421751108 1.042358 box
421751208 1.036072 box
421751308 1.043152 box
421751408 1.041809 box
421751508 1.046021 box
421751608 1.041992 box
421751708 1.043274 box
421751808 1.043274 box
421751908 1.052734 box
421752008 1.046875 box
421752108 1.042969 box
421752208 1.043396 box
421752308 1.033081 box
421752408 1.043030 box
421752508 1.042969 box
421752608 1.041443 box
421752708 1.044800 box
421752808 1.046265 box
421752908 1.043945 box
421753008 1.045044 box
421753108 1.053772 box
421753208 1.032166 box
421753308 1.044189 box
421753408 1.042053 box
421753508 1.044250 box
421753608 1.055847 box
421753708 1.034302 box
421753808 1.054077 box
421753908 1.044373 box
421754008 1.035095 box
421754108 1.051392 box
421754208 1.033020 box
421754308 1.043457 box
421754408 1.046082 box
421754508 1.044128 box
421754608 1.042480 box
421754708 1.045410 box
421754808 1.043335 box
421754908 1.052917 box
421755008 1.031372 box
421755108 1.044739 box
421755208 1.054932 box
421755308 1.036499 box
421755408 1.053223 box
421755508 1.039795 box
421755608 1.033813 box
421755708 1.046204 box
421755808 1.043335 box
421755908 1.044312 box
421756008 1.050781 box
421756108 1.036743 box
421756208 1.044800 box
421756308 1.045044 box
421756408 1.053589 box
421756508 1.041199 box
421756608 1.032227 box
421756708 1.054321 box
421756808 1.047119 box
421756908 1.032776 box
421757008 1.054932 box
421757108 1.043213 box
421757208 1.045349 box
421757308 1.034058 box
421757408 1.041504 box
421757508 1.041748 box
421757608 1.045898 box
421757708 1.046448 box
421757808 1.044189 box
421757908 1.053528 box
421758008 1.041565 box
421758108 1.035767 box
421758208 1.042297 box
421758308 1.042908 box
421758408 1.044067 box
421758508 1.045166 box
421758608 1.045166 box
421758708 1.044922 box
421758808 1.040466 box
421758908 1.045166 box
421759008 1.046143 box
421759108 1.043945 box
421759208 1.042480 box
421759308 1.042175 box
421759408 1.048523 box
421759508 1.053223 box
421759608 1.031372 box
421759708 1.044312 box
421759808 1.042542 box
421759908 1.045471 box
421760008 1.043091 box
421760108 1.045349 box
421760208 1.043945 box
421760308 1.044006 box
421760408 1.045715 box
421760508 1.041748 box
421760608 1.043152 box
421760708 1.053162 box
421760808 1.032776 box
421760908 1.045959 box
421761008 1.053406 box
421761108 1.033691 box
421761208 1.055298 box
421761308 1.040894 box
421761408 1.034546 box
421761508 1.043762 box
421761608 1.053955 box
421761708 1.033020 box
421761808 1.052856 box
421761908 1.035522 box
421762008 1.044250 box
421762108 1.040894 box
421762208 1.048706 box
421762308 1.042053 box
421762408 1.042908 box
421762508 1.042847 box
421762608 1.041626 box
421762708 1.048218 box
421762808 1.053833 box
421762908 1.031738 box
421763008 1.055298 box
421763108 1.034363 box
421763208 1.042297 box
421763308 1.042419 box
421763408 1.042786 box
421763508 1.057922 box
421763608 1.032410 box
421763708 1.043518 box
421763808 1.053345 box
421763908 1.042297 box
421764008 1.034607 box
421764108 1.043823 box
421764208 1.044556 box
421764308 1.042969 box
421764408 1.045166 box
421764508 1.043213 box
421764608 1.051453 box
421764708 1.035706 box
421764808 1.054321 box
421764908 1.031921 box
421765008 1.042175 box
421765108 1.042664 box
421765208 1.047119 box
421765308 1.043823 box
421765408 1.042419 box
421765508 1.054199 box
421765608 1.042969 box
421765708 1.043945 box
421765808 1.045105 box
421765908 1.036072 box
421766008 1.052063 box
421766108 1.036133 box
421766208 1.043518 box
421766308 1.054199 box
421766408 1.044373 box
421766508 1.043945 box
421766608 1.031555 box
421766708 1.042908 box
421766808 1.044678 box
421766908 1.055420 box
421767008 1.045105 box
421767108 1.034729 box
421767208 1.048340 box
421767308 1.032837 box
421767408 1.044617 box
421767508 1.042236 box
421767608 1.044678 box
421767708 1.053467 box
421767808 1.035645 box
421767908 1.045410 box
421768008 1.044067 box
421768108 1.044373 box
421768208 1.054382 box
421768308 1.032654 box
421768408 1.041992 box
421768508 1.044312 box
421768608 1.042480 box
421768708 1.045898 box
421768808 1.044189 box
421768908 1.044312 box
421769008 1.044495 box
421769108 1.042419 box
421769208 1.041870 box
421769308 1.052002 box
421769408 1.033142 box
421769508 1.046875 box
421769608 1.043518 box
421769708 1.044128 box
421769808 1.051025 box
421769908 1.034851 box
421770008 1.044861 box
421770108 1.045898 box
421770208 1.044617 box
421770308 1.044861 box
421770408 1.045288 box
421770508 1.043762 box
421770608 1.043396 box
421770708 1.053833 box
421770808 1.032532 box
421770908 1.041748 box
421771008 1.042603 box
421771108 1.044128 box
421771208 1.044739 box
421771308 1.047424 box
421771408 1.043701 box
421771508 1.042053 box
421771608 1.043030 box
421771708 1.051697 box
421771808 1.032349 box
421771908 1.053040 box
421772008 1.035400 box
421772108 1.055969 box
421772208 1.033752 box
421772308 1.045532 box
421772408 1.041565 box
421772508 1.043152 box
421772608 1.046082 box
421772708 1.042114 box
421772808 1.042236 box
421772908 1.043884 box
421773008 1.045166 box
421773108 1.054504 box
421773208 1.043091 box
421773308 1.044189 box
421773408 1.032410 box
421773508 1.042419 box
421773608 1.042053 box
421773708 1.043152 box
421773808 1.042114 box
421773908 1.047119 box
421774008 1.043457 box
421774108 1.041992 box
421774208 1.047363 box
421774308 1.052917 box
421774408 1.033630 box
421774508 1.043518 box
421774608 1.044617 box
421774708 1.045654 box
421774808 1.044617 box
421774908 1.042725 box
421775008 1.041809 box
421775108 1.045105 box
421775208 1.043701 box
421775308 1.042297 box
421775408 1.044373 box
421775508 1.041870 box
421775608 1.047241 box
421775708 1.046265 box
421775808 1.045898 box
421775908 1.043274 box
421776008 1.054688 box
421776108 1.033142 box
421776208 1.043396 box
421776308 1.046631 box
421776408 1.042419 box
421776508 1.045837 box
421776608 1.042847 box
421776708 1.040527 box
421776808 1.045959 box
421776908 1.053894 box
421777008 1.044067 box
421777108 1.031799 box
421777208 1.042542 box
421777308 1.046387 box
421777408 1.054016 box
421777508 1.030701 box
421777608 1.053650 box
421777708 1.032654 box
421777808 1.052612 box
421777908 1.044250 box
421778008 1.035522 box
421778108 1.043213 box
421778208 1.047546 box
421778308 1.045593 box
421778408 1.054443 box
421778508 1.035645 box
421778608 1.053284 box
421778708 1.042847 box
421778808 1.031372 box
421778908 1.044678 box
421779008 1.044312 box
421779108 1.044861 box
421779208 1.045288 box
421779308 1.050415 box
421779408 1.032166 box
421779508 1.043945 box
421779608 1.041504 box
421779708 1.044067 box
421779808 1.042542 box
421779908 1.046631 box
421780008 1.043823 box
421780108 1.053833 box
421780208 1.044434 box
421780308 1.033752 box
421780408 1.044617 box
421780508 1.052185 box
421780608 1.034302 box
421780708 1.042603 box
421780808 1.045959 box
421780908 1.042969 box
421781008 1.042175 box
421781108 1.044800 box
421781208 1.042603 box
421781308 1.043030 box
421781408 1.041748 box
421781508 1.045166 box
421781608 1.046875 box
421781708 1.044006 box
421781808 1.043152 box
421781908 1.042786 box
421782008 1.053101 box
421782108 1.037476 box
421782208 1.043274 box
421782308 1.045654 box
421782408 1.042053 box
421782508 1.046692 box
421782608 1.042480 box
421782708 1.052856 box
421782808 1.031738 box
421782908 1.054504 box
421783008 1.034424 box
421783108 1.042725 box
421783208 1.044434 box
421783308 1.045410 box
421783408 1.044556 box
421783508 1.044128 box
421783608 1.038818 box
421783708 1.045959 box
421783808 1.053345 box
421783908 1.044617 box
421784008 1.034851 box
421784108 1.044312 box
421784208 1.043884 box
421784308 1.043091 box
421784408 1.041931 box
421784508 1.045532 box
421784608 1.040527 box
421784708 1.043884 box
421784808 1.054199 box
421784908 1.034607 box
421785008 1.043762 box
421785108 1.053223 box
421785208 1.033325 box
421785308 1.053467 box
421785408 1.033447 box
421785508 1.042053 box
421785608 1.042297 box
421785708 1.045837 box
421785808 1.054871 box
421785908 1.033875 box
421786008 1.054749 box
421786108 1.041626 box
421786208 1.036072 box
421786308 1.043823 box
421786408 1.043152 box
421786508 1.043396 box
421786608 1.042603 box
421786708 1.045715 box
421786808 1.044922 box
421786908 1.040344 box
421787008 1.044983 box
421787108 1.045288 box
421787208 1.042542 box
421787308 1.043152 box
421787408 1.041565 box
421787508 1.047241 box
421787608 1.042480 box
421787708 1.043579 box
421787808 1.045044 box
421787908 1.042358 box
421788008 1.043701 box
421788108 1.042969 box
421788208 1.042480 box
421788308 1.045471 box
421788408 1.043579 box
421788508 1.056335 box
421788608 1.041992 box
421788708 1.041077 box
421788808 1.031921 box
421788908 1.042908 box
421789008 1.047363 box
421789108 1.043579 box
421789208 1.044556 box
421789308 1.045654 box
421789408 1.040771 box
421789508 1.054626 box
421789608 1.043457 box
421789708 1.031189 box
421789808 1.044434 box
421789908 1.051941 box
421790008 1.036926 box
421790108 1.044067 box
421790208 1.041321 box
421790308 1.046753 box
421790408 1.052979 box
421790508 1.031982 box
421790608 1.043274 box
421790708 1.042908 box
421790808 1.047729 box
421790908 1.043579 box
421791008 1.044312 box
421791108 1.045288 box
421791208 1.044006 box
421791308 1.042175 box
421791408 1.041016 box
421791508 1.044495 box
421791608 1.046265 box
421791708 1.042114 box
421791808 1.042603 box
421791908 1.041199 box
421792008 1.043396 box
421792108 1.044312 box
421792208 1.042603 box
421792308 1.045349 box
421792408 1.042297 box
421792508 1.045166 box
421792608 1.045105 box
421792708 1.041992 box
421792808 1.041199 box
421792908 1.043640 box
421793008 1.044434 box
421793108 1.044983 box
421793208 1.051941 box
421793308 1.037231 box
421793408 1.044983 box
421793508 1.041016 box
421793608 1.044922 box
421793708 1.043152 box
421793808 1.053833 box
421793908 1.030945 box
421794008 1.044312 box
421794108 1.045654 box
421794208 1.042664 box
421794308 1.054077 box
421794408 1.033630 box
421794508 1.054504 box
421794608 1.032288 box
421794708 1.041443 box
421794808 1.044739 box
421794908 1.046692 box
421795008 1.042786 box
421795108 1.055481 box
421795208 1.030396 box
421795308 1.044922 box
421795408 1.054321 box
421795508 1.033569 box
421795608 1.042664 box
421795708 1.053406 box
421795808 1.036621 box
421795908 1.042114 box
421796008 1.039917 box
421796108 1.043396 box
421796208 1.044983 box
421796308 1.044556 box
421796408 1.054199 box
421796508 1.030823 box
421796608 1.046692 box
421796708 1.043152 box
421796808 1.044495 box
421796908 1.041260 box
421797008 1.041992 box
421797108 1.043579 box
421797208 1.044128 box
421797308 1.045776 box
421797408 1.045471 box
421797508 1.044128 box
421797608 1.043274 box
421797708 1.054382 box
421797808 1.033020 box
421797908 1.041931 box
421798008 1.051819 box
421798108 1.034546 box
421798208 1.045471 box
421798308 1.044556 box
421798408 1.043396 box
421798508 1.052673 box
421798608 1.034058 box
421798708 1.043457 box
421798808 1.053345 box
421798908 1.034363 box
421799008 1.053894 box
421799108 1.035645 box
421799208 1.053162 box
421799308 1.032104 box
421799408 1.043762 box
421799508 1.045166 box
421799608 1.041443 box
421799708 1.044067 box
421799808 1.043518 box
421799908 1.046753 box
421800008 1.043152 box
421800108 1.041077 box
421800208 1.054565 box
421800308 1.044373 box
421800408 1.034912 box
421800508 1.041687 box
421800608 1.043274 box
421800708 1.045288 box
421800808 1.043701 box
421800908 1.053650 box
421801008 1.033813 box
421801108 1.040527 box
421801208 1.043091 box
421801308 1.043823 box
421801408 1.045715 box
421801508 1.045105 box
421801608 1.043884 box
421801708 1.043701 box
421801808 1.043579 box
421801908 1.042847 box
421802008 1.042053 box
421802108 1.042847 box
421802208 1.045898 box
421802308 1.043762 box
421802408 1.045105 box
421802508 1.044373 box
421802608 1.051819 box
421802708 1.044617 box
421802808 1.033386 box
421802908 1.041809 box
421803008 1.043762 box
421803108 1.041992 box
421803208 1.046387 box
421803308 1.044922 box
421803408 1.043091 box
421803508 1.047119 box
421803608 1.055847 box
421803708 1.029724 box
421803808 1.045593 box
421803908 1.041992 box
421804008 1.047974 box
421804108 1.042297 box
421804208 1.043213 box
421804308 1.043274 box
421804408 1.044861 box
421804508 1.043152 box
421804608 1.042969 box
421804708 1.044067 box
421804808 1.046692 box
421804908 1.043579 box
421805008 1.041809 box
421805108 1.041626 box
421805208 1.044434 box
421805308 1.043091 box
421805408 1.044006 box
421805508 1.045410 box
421805608 1.052673 box
421805708 1.034668 box
421805808 1.045349 box
421805908 1.051331 box
421806008 1.032166 box
421806108 1.042786 box
421806208 1.043457 box
421806308 1.046570 box
421806408 1.042297 box
421806508 1.046509 box
421806608 1.044128 box
421806708 1.039978 box
421806808 1.045288 box
421806908 1.044373 box
421807008 1.040649 box
421807108 1.045837 box
421807208 1.042053 box
421807308 1.046631 box
421807408 1.043823 box
421807508 1.041931 box
421807608 1.045227 box
421807708 1.052917 box
421807808 1.032837 box
421807908 1.041809 box
421808008 1.043884 box
421808108 1.046143 box
421808208 1.045471 box
421808308 1.043213 box
421808408 1.045105 box
421808508 1.042786 box
421808608 1.041321 box
421808708 1.042114 box
421808808 1.044739 box
421808908 1.046448 box
421809008 1.040833 box
421809108 1.044922 box
421809208 1.044312 box
421809308 1.044128 box
421809408 1.044434 box
421809508 1.040771 box
421809608 1.043579 box
421809708 1.045593 box
421809808 1.043274 box
421809908 1.044373 box
421810008 1.049683 box
421810108 1.045105 box
421810208 1.034668 box
421810308 1.043213 box
421810408 1.043945 box
421810508 1.052368 box
421810608 1.036560 box
421810708 1.044434 box
421810808 1.039795 box
421810908 1.055481 box
421811008 1.031982 box
421811108 1.044189 box
421811208 1.044006 box
421811308 1.041443 box
421811408 1.047241 box
421811508 1.043640 box
421811608 1.054810 box
421811708 1.032959 box
421811808 1.042603 box
421811908 1.042480 box
421812008 1.043030 box
421812108 1.046326 box
421812208 1.044739 box
421812308 1.042175 box
421812408 1.044006 box
421812508 1.044189 box
421812608 1.043335 box
421812708 1.041260 box
421812808 1.043030 box
421812908 1.044800 box
421813008 1.046082 box
421813108 1.054565 box
421813208 1.035950 box
421813308 1.043579 box
421813408 1.042664 box
421813508 1.042664 box
421813608 1.042175 box
421813708 1.043884 box
421813808 1.044678 box
421813908 1.045959 box
421814008 1.042725 box
421814108 1.051880 box
421814208 1.045044 box
421814308 1.034607 box
421814408 1.042175 box
421814508 1.045288 box
421814608 1.043518 box
421814708 1.046082 box
421814808 1.043030 box
421814908 1.041626 box
421815008 1.055237 box
421815108 1.034058 box
421815208 1.044067 box
421815308 1.042480 box
421815408 1.041443 box
421815508 1.048157 box
421815608 1.042358 box
421815708 1.042725 box
421815808 1.053345 box
421815908 1.031311 box
421816008 1.044434 box
421816108 1.043701 box
421816208 1.044556 box
421816308 1.044739 box
421816408 1.043152 box
421816508 1.054077 box
421816608 1.032959 box
421816708 1.041138 box
421816808 1.043213 box
421816908 1.042725 box
421817008 1.045532 box
421817108 1.055115 box
421817208 1.033264 box
421817308 1.043945 box
421817408 1.040771 box
421817508 1.056580 box
421817608 1.030334 box
421817708 1.051819 box
421817808 1.033020 box
421817908 1.042419 box
421818008 1.046570 box
421818108 1.056763 box
421818208 1.031128 box
421818308 1.044983 box
421818408 1.043823 box
421818508 1.042908 box
421818608 1.043213 box
421818708 1.040039 box
421818808 1.047729 box
421818908 1.043945 box
421819008 1.042786 box
421819108 1.045227 box
421819208 1.042786 box
421819308 1.042664 box
421819408 1.042358 box
421819508 1.044434 box
421819608 1.047424 box
421819708 1.041016 box
421819808 1.043640 box
421819908 1.043640 box
421820008 1.042603 box
421820108 1.044250 box
421820208 1.043213 box
421820308 1.044067 box
421820408 1.054688 box
421820508 1.034485 box
421820608 1.042969 box
421820708 1.040344 box
421820808 1.043274 box
421820908 1.043152 box
421821008 1.043762 box
421821108 1.045593 box
421821208 1.042603 box
421821308 1.045593 box
421821408 1.044800 box
421821508 1.051086 box
421821608 1.044250 box
421821708 1.031677 box
421821808 1.042603 box
421821908 1.046387 box
421822008 1.041565 box
421822108 1.047363 box
421822208 1.043335 box
421822308 1.043945 box
421822408 1.044128 box
421822508 1.043152 box
421822608 1.043396 box
421822708 1.041870 box
421822808 1.044312 box
421822908 1.045837 box
421823008 1.044983 box
421823108 1.043335 box
421823208 1.045288 box
421823308 1.043518 box
421823408 1.042969 box
421823508 1.043274 box
421823608 1.043091 box
421823708 1.046326 box
421823808 1.042542 box
421823908 1.044006 box
421824008 1.044189 box
421824108 1.054260 box
421824208 1.033691 box
421824308 1.040588 box
421824408 1.044983 box
421824508 1.045898 box
421824608 1.044495 box
421824708 1.053284 box
421824808 1.041992 box
421824908 1.035767 box
421825008 1.046265 box
421825108 1.041504 box
421825208 1.044922 box
421825308 1.041931 box
421825408 1.045837 box
421825508 1.054260 box
421825608 1.030823 box
421825708 1.043823 box
421825808 1.045471 box
421825908 1.043762 box
421826008 1.043884 box
421826108 1.041443 box
421826208 1.047302 box
421826308 1.044128 box
421826408 1.041077 box
421826508 1.043701 box
421826608 1.042297 box
421826708 1.045166 box
421826808 1.043884 box
421826908 1.044983 box
421827008 1.045166 box
421827108 1.045105 box
421827208 1.044006 box
421827308 1.043213 box
421827408 1.040039 box
421827508 1.044128 box
421827608 1.043640 box
421827708 1.047485 box
421827808 1.043274 box
421827908 1.044006 box
421828008 1.042908 box
421828108 1.043762 box
421828208 1.042725 box
421828308 1.053345 box
421828408 1.031555 box
421828508 1.045654 box
421828608 1.044678 box
421828708 1.044556 box
421828808 1.043640 box
421828908 1.044373 box
421829008 1.043457 box
421829108 1.042542 box
421829208 1.042297 box
421829308 1.043396 box
421829408 1.043335 box
421829508 1.045898 box
421829608 1.045044 box
421829708 1.040955 box
421829808 1.043701 box
421829908 1.043945 box
421830008 1.043030 box
421830108 1.043945 box
421830208 1.043274 box
421830308 1.046326 box
421830408 1.043213 box
421830508 1.041321 box
421830608 1.045715 box
421830708 1.054932 box
421830808 1.032410 box
421830908 1.042725 box
421831008 1.041321 box
421831108 1.047119 box
421831208 1.042664 box
421831308 1.045227 box
421831408 1.045410 box
421831508 1.044006 box
421831608 1.043152 box
421831708 1.041199 box
421831808 1.044556 box
421831908 1.046631 box
421832008 1.042297 box
421832108 1.043518 box
421832208 1.043396 box
421832308 1.044128 box
421832408 1.044556 box
421832508 1.043457 box
421832608 1.045349 box
421832708 1.045776 box
421832808 1.044067 box
421832908 1.042480 box
421833008 1.043823 box
421833108 1.041809 box
421833208 1.043579 box
421833308 1.043884 box
421833408 1.046021 box
421833508 1.052063 box
421833608 1.035278 box
421833708 1.045105 box
421833808 1.040894 box
421833908 1.043030 box
421834008 1.043823 box
421834108 1.041809 box
421834208 1.046326 box
421834308 1.043518 box
421834408 1.046875 box
421834508 1.044739 box
421834608 1.041321 box
421834708 1.043213 box
421834808 1.043640 box
421834908 1.040955 box
421835008 1.046265 box
421835108 1.041809 box
421835208 1.047058 box
421835308 1.044617 box
421835408 1.043457 box
421835508 1.045532 box
421835608 1.043152 box
421835708 1.042664 box
421835808 1.044006 box
421835908 1.044128 box
421836008 1.046204 box
421836108 1.044678 box
421836208 1.044189 box
421836308 1.044128 box
421836408 1.042053 box
421836508 1.052979 box
421836608 1.031799 box
421836708 1.043701 box
421836808 1.047302 box
421836908 1.045593 box
421837008 1.043396 box
421837108 1.045166 box
421837208 1.044373 box
421837308 1.042542 box
421837408 1.041870 box
421837508 1.043579 box
421837608 1.046631 box
421837708 1.041992 box
421837808 1.044312 box
421837908 1.054565 box
421838008 1.035400 box
421838108 1.042419 box
421838208 1.041687 box
421838308 1.044739 box
421838408 1.045288 box
421838508 1.043579 box
421838608 1.044861 box
421838708 1.040039 box
421838808 1.046387 box
421838908 1.045288 box
421839008 1.040710 box
421839108 1.043335 box
421839208 1.043457 box
421839308 1.047363 box
421839408 1.043579 box
421839508 1.040955 box
421839608 1.043884 box
421839708 1.045654 box
421839808 1.044434 box
421839908 1.043335 box
421840008 1.040283 box
421840108 1.048584 box
421840208 1.043274 box
421840308 1.042236 box
421840408 1.041626 box
421840508 1.043518 box
421840608 1.045410 box
421840708 1.043701 box
421840808 1.043701 box
421840908 1.046875 box
421841008 1.043701 box
421841108 1.042908 box
421841208 1.043884 box
421841308 1.042419 box
421841408 1.044250 box
421841508 1.044617 box
421841608 1.045837 box
421841708 1.043945 box
421841808 1.043762 box
421841908 1.043945 box
421842008 1.043701 box
421842108 1.041504 box
421842208 1.043213 box
421842308 1.042908 box
421842408 1.046570 box
421842508 1.043762 box
421842608 1.043762 box
421842708 1.053345 box
421842808 1.034912 box
421842908 1.041931 box
421843008 1.042542 box
421843108 1.042969 box
421843208 1.046265 box
421843308 1.054626 box
421843408 1.035156 box
421843508 1.043335 box
421843608 1.043518 box
421843708 1.044312 box
421843808 1.041504 box
421843908 1.041626 box
421844008 1.046204 box
421844108 1.053589 box
421844208 1.036499 box
421844308 1.044678 box
421844408 1.051086 box
421844508 1.035583 box
421844608 1.042664 box
421844708 1.042786 box
421844808 1.043640 box
421844908 1.043213 box
421845008 1.047119 box
421845108 1.043579 box
421845208 1.051941 box
421845308 1.031311 box
421845408 1.045288 box
421845508 1.041199 box
421845608 1.045227 box
421845708 1.052490 box
421845808 1.038269 box
421845908 1.042969 box
421846008 1.041687 box
421846108 1.045776 box
421846208 1.043945 box
421846308 1.041870 box
421846408 1.043884 box
421846508 1.040405 box
421846608 1.048401 box
421846708 1.044250 box
421846808 1.043701 box
421846908 1.056458 box
421847008 1.031738 box
421847108 1.043152 box
421847208 1.042053 box
421847308 1.041870 box
421847408 1.046509 box
421847508 1.044861 box
421847608 1.042786 box
421847708 1.046143 box
421847808 1.041931 box
421847908 1.053711 box
421848008 1.032104 box
421848108 1.044189 box
421848208 1.046631 box
421848308 1.042969 box
421848408 1.043823 box
421848508 1.045227 box
421848608 1.042725 box
421848708 1.053650 box
421848808 1.031982 box
421848908 1.044495 box
421849008 1.046814 box
421849108 1.042297 box
421849208 1.043396 box
421849308 1.043091 box
421849408 1.044556 box
421849508 1.044006 box
421849608 1.042969 box
421849708 1.044006 box
421849808 1.056152 box
421849908 1.034729 box
421850008 1.043030 box
421850108 1.042603 box
421850208 1.043518 box
421850308 1.044556 box
421850408 1.040771 box
421850508 1.044312 box
421850608 1.055908 box
421850708 1.036072 box
421850808 1.042358 box
421850908 1.041687 box
421851008 1.042786 box
421851108 1.045593 box
421851208 1.041992 box
421851308 1.044373 box
421851408 1.044067 box
421851508 1.047302 box
421851608 1.044556 box
421851708 1.040466 box
421851808 1.042358 box
421851908 1.047363 box
421852008 1.043457 box
421852108 1.044861 box
421852208 1.043152 box
421852308 1.046387 box
421852408 1.044189 box
421852508 1.039917 box
421852608 1.044067 box
421852708 1.044617 box
421852808 1.045044 box
421852908 1.044006 box
421853008 1.040222 box
421853108 1.046936 box
421853208 1.054443 box
421853308 1.031555 box
421853408 1.044067 box
421853508 1.042664 box
421853608 1.046692 box
421853708 1.043945 box
421853808 1.040588 box
421853908 1.048157 box
421854008 1.044067 box
421854108 1.043152 box
421854208 1.043091 box
421854308 1.042847 box
421854408 1.044739 box
421854508 1.043457 box
421854608 1.043762 box
421854708 1.045471 box
421854808 1.044434 box
421854908 1.044617 box
421855008 1.042725 box
421855108 1.042725 box
421855208 1.043030 box
421855308 1.044678 box
421855408 1.045227 box
421855508 1.045227 box
421855608 1.044128 box
421855708 1.054565 box
421855808 1.033325 box
421855908 1.041687 box
421856008 1.044495 box
421856108 1.044495 box
421856208 1.045715 box
421856308 1.044312 box
421856408 1.043579 box
421856508 1.044739 box
421856608 1.042358 box
421856708 1.041687 box
421856808 1.045288 box
421856908 1.043030 box
421857008 1.046265 box
421857108 1.044434 box
421857208 1.045227 box
421857308 1.053711 box
421857408 1.032959 box
421857508 1.044067 box
421857608 1.042603 box
421857708 1.043274 box
421857808 1.046082 box
421857908 1.044189 box
421858008 1.045044 box
421858108 1.054016 box
421858208 1.033264 box
421858308 1.042114 box
421858408 1.043091 box
421858508 1.043945 box
421858608 1.045471 box
421858708 1.045410 box
421858808 1.043213 box
421858908 1.043884 box
421859008 1.043640 box
421859108 1.039856 box
421859208 1.043091 box
421859308 1.043274 box
421859408 1.049438 box
421859508 1.043457 box
421859608 1.042908 box
421859708 1.045471 box
421859808 1.041931 box
421859908 1.044312 box
421860008 1.044312 box
421860108 1.042114 box
421860208 1.047302 box
421860308 1.043274 box
421860408 1.045349 box
421860508 1.043518 box
421860608 1.042053 box
421860708 1.043579 box
421860808 1.042114 box
421860908 1.043823 box
421861008 1.047058 box
421861108 1.043762 box
421861208 1.045471 box
421861308 1.044250 box
421861408 1.043091 box
421861508 1.042358 box
421861608 1.042969 box
421861708 1.043091 box
421861808 1.047668 box
421861908 1.051758 box
421862008 1.036682 box
421862108 1.044983 box
421862208 1.040283 box
421862308 1.042603 box
421862408 1.044250 box
421862508 1.043213 box
421862608 1.046387 box
421862708 1.043091 box
421862808 1.045349 box
421862908 1.045471 box
421863008 1.039551 box
421863108 1.042847 box
421863208 1.044861 box
421863308 1.042603 box
421863408 1.046448 box
421863508 1.052185 box
421863608 1.036438 box
421863708 1.045105 box
421863808 1.040588 box
421863908 1.054749 box
421864008 1.032959 box
421864108 1.042603 box
421864208 1.046814 box
421864308 1.041199 box
421864408 1.047119 box
421864508 1.044373 box
421864608 1.040833 box
421864708 1.042297 box
421864808 1.054688 box
421864908 1.031921 box
421865008 1.046326 box
421865108 1.040833 box
421865208 1.047180 box
421865308 1.045654 box
421865408 1.041016 box
421865508 1.043884 box
421865608 1.043762 box
421865708 1.043518 box
421865808 1.055725 box
421865908 1.031799 box
421866008 1.046631 box
421866108 1.044800 box
421866208 1.040955 box
421866308 1.044067 box
421866408 1.042786 box
421866508 1.044312 box
421866608 1.045898 box
421866708 1.041504 box
421866808 1.047668 box
421866908 1.044006 box
421867008 1.042358 box
421867108 1.042664 box
421867208 1.043396 box
421867308 1.045471 box
421867408 1.043274 box
421867508 1.040894 box
421867608 1.047485 box
421867708 1.043640 box
421867808 1.041809 box
421867908 1.044312 box
421868008 1.042847 box
421868108 1.044128 box
421868208 1.044617 box
421868308 1.041382 box
421868408 1.045837 box
421868508 1.043518 box
421868608 1.042236 box
421868708 1.043823 box
421868808 1.041382 box
421868908 1.045227 box
421869008 1.044250 box
421869108 1.042480 box
421869208 1.046448 box
421869308 1.044495 box
421869408 1.044128 box
421869508 1.041931 box
421869608 1.042480 box
421869708 1.046570 box
421869808 1.044006 box
421869908 1.042114 box
421870008 1.046631 box
421870108 1.044250 box
421870208 1.043213 box
421870308 1.043091 box
421870408 1.042847 box
421870508 1.044678 box
421870608 1.044067 box
421870708 1.044861 box
421870808 1.046021 box
421870908 1.044312 box
421871008 1.042175 box
421871108 1.043335 box
421871208 1.040649 box
421871308 1.044373 box
421871408 1.044617 box
421871508 1.045105 box
421871608 1.045227 box
421871708 1.043701 box
421871808 1.044128 box
421871908 1.042908 box
421872008 1.052185 box
421872108 1.035950 box
421872208 1.043457 box
421872308 1.044495 box
421872408 1.045471 box
421872508 1.044312 box
421872608 1.042908 box
421872708 1.042725 box
421872808 1.044189 box
421872908 1.044006 box
421873008 1.043457 box
421873108 1.045349 box
421873208 1.046875 box
421873308 1.042847 box
421873408 1.054260 box
421873508 1.030823 box
421873608 1.043457 box
421873708 1.045654 box
421873808 1.042542 box
421873908 1.044800 box
421874008 1.046143 box
421874108 1.044189 box
421874208 1.043945 box
421874308 1.042603 box
421874408 1.043152 box
421874508 1.044861 box
421874608 1.043518 box
421874708 1.045227 box
421874808 1.046448 box
421874908 1.044922 box
421875008 1.042786 box
421875108 1.041382 box
421875208 1.042908 box
421875308 1.045349 box
421875408 1.042847 box
421875508 1.043274 box
421875608 1.045593 box
421875708 1.044312 box
421875808 1.042847 box
421875908 1.041809 box
421876008 1.044128 box
421876108 1.044739 box
421876208 1.041809 box
421876308 1.045349 box
421876408 1.046082 box
421876508 1.043579 box
421876608 1.043030 box
421876708 1.044128 box
421876808 1.043396 box
421876908 1.044373 box
421877008 1.042358 box
421877108 1.044067 box
421877208 1.047058 box
421877308 1.043457 box
421877408 1.044128 box
421877508 1.052185 box
421877608 1.032532 box
421877708 1.043884 box
421877808 1.043274 box
421877908 1.043274 box
421878008 1.056091 box
421878108 1.034546 box
421878208 1.042480 box
421878308 1.043823 box
421878408 1.044128 box
421878508 1.044678 box
421878608 1.042725 box
421878708 1.045227 box
421878808 1.046570 box
421878908 1.043274 box
421879008 1.042725 box
421879108 1.043823 box
421879208 1.052551 box
421879308 1.034973 box
421879408 1.042236 box
421879508 1.045044 box
421879608 1.046753 box
421879708 1.042786 box
421879808 1.044495 box
421879908 1.045105 box
421880008 1.044006 box
421880108 1.042786 box
421880208 1.041260 box
421880308 1.045288 box
421880408 1.045349 box
421880508 1.042542 box
421880608 1.044189 box
421880708 1.045105 box
421880808 1.043274 box
421880908 1.043335 box
421881008 1.043030 box
421881108 1.043579 box
421881208 1.055359 box
421881308 1.035706 box
421881408 1.043823 box
421881508 1.045044 box
421881608 1.043884 box
421881708 1.042664 box
421881808 1.042114 box
421881908 1.045410 box
421882008 1.046448 box
421882108 1.045105 box
421882208 1.044678 box
421882308 1.044800 box
421882408 1.044067 box
421882508 1.042603 box
421882608 1.042053 box
421882708 1.045715 box
421882808 1.044983 box
421882908 1.043823 box
421883008 1.044189 box
421883108 1.043640 box
421883208 1.043823 box
421883308 1.042847 box
421883408 1.043152 box
421883508 1.045349 box
421883608 1.046143 box
421883708 1.044800 box
421883808 1.044250 box
421883908 1.054260 box
421884008 1.033386 box
421884108 1.042908 box
421884208 1.042603 box
421884308 1.045959 box
421884408 1.046631 box
421884508 1.043152 box
421884608 1.043030 box
421884708 1.043579 box
421884808 1.044312 box
421884908 1.043396 box
421885008 1.042603 box
421885108 1.046265 box
421885208 1.046753 box
421885308 1.043945 box
421885408 1.044495 box
421885508 1.044189 box
421885608 1.043823 box
421885708 1.042480 box
421885808 1.043335 box
421885908 1.046021 box
421886008 1.044678 box
421886108 1.044983 box
421886208 1.042847 box
421886308 1.043762 box
421886408 1.042603 box
421886508 1.041809 box
421886608 1.044128 box
421886708 1.046631 box
421886808 1.043701 box
421886908 1.043518 box
421887008 1.043762 box
421887108 1.041687 box
421887208 1.042297 box
421887308 1.044922 box
421887408 1.044312 box
421887508 1.044617 box
421887608 1.046753 box
421887708 1.044250 box
421887808 1.045349 box
421887908 1.042786 box
421888008 1.043335 box
421888108 1.043518 box
421888208 1.043640 box
421888308 1.044556 box
421888408 1.046692 box
421888508 1.044128 box
421888608 1.041504 box
421888708 1.043213 box
421888808 1.044067 box
421888908 1.044617 box
421889008 1.043518 box
421889108 1.043884 box
421889208 1.046448 box
421889308 1.044250 box
421889408 1.042664 box
421889508 1.043945 box
421889608 1.043762 box
421889708 1.044861 box
421889808 1.043274 box
421889908 1.043213 box
421890008 1.046387 box
421890108 1.043518 box
421890208 1.043213 box
421890308 1.043396 box
421890408 1.044067 box
421890508 1.045593 box
421890608 1.041138 box
421890708 1.044556 box
421890808 1.046387 box
421890908 1.043762 box
421891008 1.042236 box
421891108 1.044373 box
421891208 1.045044 box
421891308 1.043945 box
421891408 1.040710 box
421891508 1.045471 box
421891608 1.046265 box
421891708 1.042603 box
421891808 1.052368 box
421891908 1.035339 box
421892008 1.044983 box
421892108 1.042542 box
421892208 1.042725 box
421892308 1.045105 box
421892408 1.045959 box
421892508 1.043457 box
421892608 1.044800 box
421892708 1.045227 box
421892808 1.042542 box
421892908 1.042480 box
421893008 1.043335 box
421893108 1.045593 box
421893208 1.045532 box
421893308 1.045166 box
421893408 1.042542 box
421893508 1.044617 box
421893608 1.043091 box
421893708 1.054565 box
421893808 1.031616 box
421893908 1.044739 box
421894008 1.045654 box
421894108 1.045166 box
421894208 1.043152 box
421894308 1.044189 box
421894408 1.043030 box
421894508 1.042542 box
421894608 1.042786 box
421894708 1.046631 box
421894808 1.045288 box
421894908 1.043213 box
421895008 1.045166 box
421895108 1.044739 box
421895208 1.042358 box
421895308 1.053284 box
421895408 1.032715 box
421895508 1.046021 box
421895608 1.045166 box
421895708 1.043762 box
421895808 1.043579 box
421895908 1.043823 box
421896008 1.041565 box
421896108 1.044434 box
421896208 1.045349 box
421896308 1.040588 box
421896408 1.048035 box
421896508 1.043091 box
421896608 1.042297 box
421896708 1.044312 box
421896808 1.043457 box
421896908 1.044617 box
421897008 1.042908 box
421897108 1.040100 box
421897208 1.048706 box
421897308 1.043091 box
421897408 1.041687 box
421897508 1.045410 box
421897608 1.045410 box
421897708 1.044495 box
421897808 1.042969 box
421897908 1.043579 box
421898008 1.047607 box
421898108 1.042114 box
421898208 1.039795 box
421898308 1.045410 box
421898408 1.046143 box
421898508 1.040039 box
421898608 1.043396 box
421898708 1.054504 box
421898808 1.037048 box
421898908 1.045410 box
421899008 1.042419 box
421899108 1.045532 box
421899208 1.044617 box
421899308 1.041748 box
421899408 1.044556 box
421899508 1.042969 box
421899608 1.046204 box
421899708 1.045044 box
421899808 1.041382 box
421899908 1.045532 box
421900008 1.044373 box
421900108 1.041870 box
421900208 1.045044 box
421900308 1.046143 box
421900408 1.043091 box
421900508 1.044739 box
421900608 1.044922 box
421900708 1.041687 box
421900808 1.041931 box
421900908 1.043823 box
421901008 1.046631 box
421901108 1.045105 box
421901208 1.043579 box
421901308 1.044617 box
421901408 1.044250 box
421901508 1.041382 box
421901608 1.045532 box
421901708 1.043945 box
421901808 1.043884 box
421901908 1.049072 box
421902008 1.044006 box
421902108 1.042908 box
421902208 1.042603 box
421902308 1.043457 box
421902408 1.045837 box
421902508 1.042236 box
421902608 1.044922 box
421902708 1.047119 box
421902808 1.044373 box
421902908 1.042358 box
421903008 1.044922 box
421903108 1.044250 box
421903208 1.042786 box
421903308 1.041199 box
421903408 1.045349 box
421903508 1.045593 box
421903608 1.044312 box
421903708 1.043518 box
421903808 1.046143 box
421903908 1.043030 box
421904008 1.043335 box
421904108 1.043396 box
421904208 1.042480 box
421904308 1.048828 box
421904408 1.044312 box
421904508 1.043091 box
421904608 1.045837 box
421904708 1.053284 box
421904808 1.031799 box
421904908 1.044800 box
421905008 1.042664 box
421905108 1.046448 box
421905208 1.044495 box
421905308 1.041748 box
421905408 1.046265 box
421905508 1.042236 box
421905608 1.042725 box
421905708 1.047241 box
421905808 1.043274 box
421905908 1.045959 box
421906008 1.045898 box
421906108 1.039856 box
421906208 1.043579 box
421906308 1.043945 box
421906408 1.043945 box
421906508 1.045349 box
421906608 1.043823 box
421906708 1.047363 box
421906808 1.043335 box
421906908 1.042542 box
421907008 1.044006 box
421907108 1.045532 box
421907208 1.043518 box
421907308 1.043945 box
421907408 1.046204 box
421907508 1.042358 box
421907608 1.043884 box
421907708 1.054871 box
421907808 1.034180 box
421907908 1.042908 box
421908008 1.042480 box
421908108 1.044067 box
421908208 1.046631 box
421908308 1.043640 box
421908408 1.043640 box
421908508 1.043823 box
421908608 1.044067 box
421908708 1.042358 box
421908808 1.042603 box
421908908 1.045959 box
421909008 1.045898 box
421909108 1.045532 box
421909208 1.045105 box
421909308 1.044922 box
421909408 1.042725 box
421909508 1.043762 box
421909608 1.043091 box
421909708 1.045288 box
421909808 1.045715 box
421909908 1.045044 box
421910008 1.046265 box
421910108 1.044800 box
421910208 1.041687 box
421910308 1.042664 box
421910408 1.044861 box
421910508 1.043823 box
421910608 1.045471 box
421910708 1.044739 box
421910808 1.044495 box
421910908 1.043701 box
421911008 1.043091 box
421911108 1.045959 box
421911208 1.043152 box
421911308 1.043701 box
421911408 1.048645 box
421911508 1.042236 box
421911608 1.040955 box
421911708 1.045715 box
421911808 1.045105 box
421911908 1.043213 box
421912008 1.043274 box
421912108 1.043457 box
421912208 1.046143 box
421912308 1.043396 box
421912408 1.041931 box
421912508 1.044373 box
421912608 1.046936 box
421912708 1.041748 box
421912808 1.046204 box
421912908 1.053223 box
421913008 1.035706 box
421913108 1.044495 box
421913208 1.041626 box
421913308 1.045410 box
421913408 1.043823 box
421913508 1.042053 box
421913608 1.046814 box
421913708 1.045593 box
421913808 1.044678 box
421913908 1.044739 box
421914008 1.044434 box
421914108 1.043762 box
421914208 1.042236 box
421914308 1.043579 box
421914408 1.046814 box
421914508 1.045044 box
421914608 1.043457 box
421914708 1.044800 box
421914808 1.043762 box
421914908 1.043518 box
421915008 1.044067 box
421915108 1.045288 box
421915208 1.045959 box
421915308 1.046692 box
421915408 1.044617 box
421915508 1.042969 box
421915608 1.041870 box
421915708 1.045166 box
421915808 1.044739 box
421915908 1.041565 box
421916008 1.044922 box
421916108 1.047302 box
421916208 1.043701 box
421916308 1.044861 box
421916408 1.044556 box
421916508 1.043457 box
421916608 1.044189 box
421916708 1.042969 box
421916808 1.043640 box
421916908 1.046692 box
421917008 1.045044 box
421917108 1.043579 box
421917208 1.046753 box
421917308 1.043945 box
421917408 1.044006 box
421917508 1.042603 box
421917608 1.043518 box
421917708 1.048279 box
421917808 1.043518 box
421917908 1.042603 box
421918008 1.044861 box
421918108 1.053284 box
421918208 1.032043 box
421918308 1.056030 box
421918408 1.032837 box
421918508 1.047363 box
421918608 1.044067 box
421918708 1.041748 box
421918808 1.042480 box
421918908 1.044922 box
421919008 1.044189 box
421919108 1.047058 box
421919208 1.042908 box
421919308 1.046143 box
421919408 1.046753 box
421919508 1.038574 box
421919608 1.052673 box
421919708 1.035339 box
421919808 1.045471 box
421919908 1.045532 box
421920008 1.044128 box
421920108 1.045532 box
421920208 1.043396 box
421920308 1.042419 box
421920408 1.044678 box
421920508 1.045898 box
421920608 1.042297 box
421920708 1.044800 box
421920808 1.046143 box
421920908 1.042908 box
421921008 1.045227 box
421921108 1.043335 box
421921208 1.045166 box
421921308 1.043335 box
421921408 1.041687 box
421921508 1.044434 box
421921608 1.045471 box
421921708 1.045410 box
421921808 1.043396 box
421921908 1.044556 box
421922008 1.043213 box
421922108 1.044861 box
421922208 1.042419 box
421922308 1.045532 box
421922408 1.046570 box
421922508 1.043762 box
421922608 1.043640 box
421922708 1.045227 box
421922808 1.043030 box
421922908 1.042664 box
421923008 1.043762 box
421923108 1.046570 box
421923208 1.045105 box
421923308 1.045105 box
421923408 1.046448 box
421923508 1.043579 box
421923608 1.042908 box
421923708 1.042847 box
421923808 1.045776 box
421923908 1.044006 box
421924008 1.044983 box
421924108 1.044861 box
421924208 1.043701 box
421924308 1.043701 box
421924408 1.042847 box
421924508 1.046387 box
421924608 1.043762 box
421924708 1.042603 box
421924808 1.048462 box
421924908 1.043152 box
421925008 1.053223 box
421925108 1.033081 box
421925208 1.046387 box
421925308 1.041321 box
421925408 1.044067 box
421925508 1.045349 box
421925608 1.045532 box
421925708 1.045471 box
421925808 1.042603 box
421925908 1.044800 box
421926008 1.045532 box
421926108 1.042114 box
421926208 1.043396 box
421926308 1.044617 box
421926408 1.045654 box
421926508 1.044800 box
421926608 1.042725 box
421926708 1.045776 box
421926808 1.043213 box
421926908 1.042358 box
421927008 1.045227 box
421927108 1.044678 box
421927208 1.046204 box
421927308 1.043274 box
421927408 1.043640 box
421927508 1.042175 box
421927608 1.043152 box
421927708 1.044312 box
421927808 1.046326 box
421927908 1.044922 box
421928008 1.045166 box
421928108 1.044128 box
421928208 1.042480 box
421928308 1.044250 box
421928408 1.042725 box
421928508 1.044128 box
421928608 1.042847 box
421928708 1.046509 box
421928808 1.043640 box
421928908 1.041443 box
421929008 1.046448 box
421929108 1.044800 box
421929208 1.045410 box
421929308 1.040771 box
421929408 1.045044 box
421929508 1.047302 box
421929608 1.042297 box
421929708 1.043091 box
421929808 1.045959 box
421929908 1.042542 box
421930008 1.042786 box
421930108 1.042786 box
421930208 1.043579 box
421930308 1.048767 box
421930408 1.042786 box
421930508 1.043335 box
421930608 1.046448 box
421930708 1.042664 box
421930808 1.042114 box
421930908 1.044800 box
421931008 1.041443 box
421931108 1.048157 box
421931208 1.044250 box
421931308 1.043762 box
421931408 1.043030 box
421931508 1.044373 box
421931608 1.043884 box
421931708 1.046814 box
421931808 1.042786 box
421931908 1.045654 box
421932008 1.046143 box
421932108 1.041077 box
421932208 1.043823 box
421932308 1.045288 box
421932408 1.043701 box
421932508 1.045044 box
421932608 1.045532 box
421932708 1.045227 box
421932808 1.043701 box
421932908 1.052612 box
421933008 1.033936 box
421933108 1.044495 box
421933208 1.041809 box
421734315 1.045471 box
421734415 1.044006 box
421734515 1.043762 box
421734615 1.042664 box
421734715 1.044128 box
421734815 1.045349 box
421734915 1.042725 box
421735015 1.046936 box
421735115 1.044983 box
421735215 0.973022 box
