time(ms) energy(J) hostname
436187197 0.000000 box
436187297 1.287354 box
436187397 1.236389 box
436187497 1.229675 box
436187597 1.253967 box
436187697 1.286255 box
436187797 1.288208 box
436187897 1.291565 box
436187997 1.291748 box
436188097 1.294312 box
436188197 1.294800 box
436188297 1.294617 box
436188397 1.293030 box
436188497 1.292053 box
436188597 1.291260 box
436188697 1.291870 box
436188797 1.294128 box
436188897 1.294312 box
436188997 1.294434 box
436189097 1.291626 box
436189197 1.292603 box
436189297 1.291382 box
436189397 1.290161 box
436189497 1.294556 box
436189597 1.293152 box
436189697 1.294739 box
436189797 1.292480 box
436189897 1.290588 box
436189997 1.291138 box
436190097 1.290039 box
436190197 1.295410 box
436190297 1.293823 box
436190397 1.294617 box
436190497 1.290894 box
436190597 1.290955 box
436190697 1.291016 box
436190797 1.290527 box
436190897 1.292053 box
436190997 1.295288 box
436191097 1.295410 box
436191197 1.295044 box
436191297 1.293152 box
436191397 1.291809 box
436191497 1.290222 box
436191597 1.291809 box
436191697 1.292969 box
436191797 1.294983 box
436191897 1.295166 box
436191997 1.293396 box
436192097 1.291992 box
436192197 1.291138 box
436192297 1.290771 box
436192397 1.291931 box
436192497 1.294678 box
436192597 1.295166 box
436192697 1.296814 box
436192797 1.292297 box
436192897 1.292725 box
436192997 1.292664 box
436193097 1.291504 box
436193197 1.291016 box
436193297 1.295837 box
436193397 1.294678 box
436193497 1.293701 box
436193597 1.292847 box
436193697 1.294189 box
436193797 1.290955 box
436193897 1.292358 box
436193997 1.291504 box
436194097 1.294250 box
436194197 1.295593 box
436194297 1.293213 box
436194397 1.291992 box
436194497 1.291077 box
436194597 1.291138 box
436194697 1.292908 box
436194797 1.292358 box
436194897 1.294556 box
436194997 1.294739 box
436195097 1.291809 box
436195197 1.292053 box
436195297 1.292358 box
436195397 1.291870 box
436195497 1.293640 box
436195597 1.296204 box
436195697 1.291626 box
436195797 1.291931 box
436195897 1.290344 box
436195997 1.291199 box
436196097 1.291138 box
436196197 1.293823 box
436196297 1.294250 box
436196397 1.292236 box
436196497 1.292419 box
436196597 1.290283 box
436196697 1.291504 box
436196797 1.292358 box
436196897 1.293335 box
436196997 1.295410 box
436197097 1.293457 box
436197197 1.292114 box
436197297 1.290894 box
436197397 1.292175 box
436197497 1.291382 box
436197597 1.292236 box
436197697 1.294800 box
436197797 1.294739 box
436197897 1.293274 box
436197997 1.291931 box
436198097 1.292114 box
436198197 1.289612 box
436198297 1.292542 box
436198397 1.294495 box
436198497 1.294189 box
436198597 1.295593 box
436198697 1.294800 box
436198797 1.293335 box
436198897 1.293701 box
436198997 1.291199 box
436199097 1.292542 box
436199197 1.292908 box
436199297 1.294495 box
436199397 1.294189 box
436199497 1.292175 box
436199597 1.290649 box
436199697 1.290405 box
436199797 1.291016 box
436199897 1.293518 box
436199997 1.297058 box
436200097 1.293579 box
436200197 1.291565 box
436200297 1.291565 box
436200397 1.291687 box
436200497 1.294250 box
436200597 1.294922 box
436200697 1.294128 box
436200797 1.293274 box
436200897 1.292236 box
436200997 1.291138 box
436201097 1.292664 box
436201197 1.292664 box
436201297 1.294617 box
436201397 1.294983 box
436201497 1.291748 box
436201597 1.290771 box
436201697 1.290588 box
436201797 1.292297 box
436201897 1.293213 box
436201997 1.294434 box
436202097 1.295776 box
436202197 1.291077 box
436202297 1.291687 box
436202397 1.291382 box
436202497 1.294189 box
436202597 1.294617 box
436202697 1.294800 box
436202797 1.293396 box
436202897 1.292786 box
436202997 1.291809 box
436203097 1.292114 box
436203197 1.291199 box
436203297 1.291748 box
436203397 1.293335 box
436203497 1.293823 box
436203597 1.295410 box
436203697 1.293213 box
436203797 1.291443 box
436203897 1.291199 box
436203997 1.291443 box
436204097 1.290649 box
436204197 1.292664 box
436204297 1.295410 box
436204397 1.295166 box
436204497 1.293274 box
436204597 1.292908 box
436204697 1.292603 box
436204797 1.291870 box
436204897 1.291321 box
436204997 1.292908 box
436205097 1.292725 box
436205197 1.295715 box
436205297 1.295715 box
436205397 1.295471 box
436205497 1.293701 box
436205597 1.293030 box
436205697 1.290771 box
436205797 1.291138 box
436205897 1.290771 box
436205997 1.292969 box
436206097 1.295837 box
436206197 1.295044 box
436206297 1.293823 box
436206397 1.294373 box
436206497 1.291504 box
436206597 1.291321 box
436206697 1.291748 box
436206797 1.292847 box
436206897 1.294739 box
436206997 1.295898 box
436207097 1.295837 box
436207197 1.291687 box
436207297 1.292480 box
436207397 1.292114 box
436207497 1.290405 box
436207597 1.294006 box
436207697 1.293030 box
436207797 1.294922 box
436207897 1.294006 box
436207997 1.293152 box
436208097 1.294006 box
436208197 1.291199 box
436208297 1.292175 box
436208397 1.293030 box
436208497 1.294983 box
436208597 1.294312 box
436208697 1.294067 box
436208797 1.291565 box
436208897 1.289856 box
436208997 1.292480 box
436209097 1.291687 box
436209197 1.293640 box
436209297 1.294312 box
436209397 1.294922 box
436209497 1.294617 box
436209597 1.292175 box
436209697 1.291199 box
436209797 1.290039 box
436209897 1.292358 box
436209997 1.292175 box
436210097 1.295105 box
436210197 1.294556 box
436210297 1.293762 box
436210397 1.290955 box
436210497 1.291077 box
436210597 1.290710 box
436210697 1.291687 box
436210797 1.291565 box
436210897 1.294861 box
436210997 1.295166 box
436211097 1.293884 box
436211197 1.294983 box
436211297 1.290833 box
436211397 1.291260 box
436211497 1.290649 box
436211597 1.292480 box
436211697 1.291809 box
436211797 1.296204 box
436211897 1.294800 box
436211997 1.296204 box
436212097 1.294067 box
436212197 1.292480 box
436212297 1.294067 box
436212397 1.291077 box
436212497 1.292297 box
436212597 1.292603 box
436212697 1.293945 box
436212797 1.295166 box
436212897 1.294128 box
436212997 1.295837 box
436213097 1.294983 box
436213197 1.294556 box
436213297 1.293457 box
436213397 1.292542 box
436213497 1.292542 box
436213597 1.291809 box
436213697 1.292725 box
436213797 1.291443 box
436213897 1.290283 box
436213997 1.291748 box
436214097 1.293030 box
436214197 1.292603 box
436214297 1.295532 box
436214397 1.294800 box
436214497 1.295105 box
436214597 1.293640 box
436214697 1.295959 box
436214797 1.296814 box
436214897 1.292542 box
436214997 1.292480 box
436215097 1.292175 box
436215197 1.293335 box
436215297 1.291565 box
436215397 1.292297 box
436215497 1.291992 box
436215597 1.291199 box
436215697 1.293213 box
436215797 1.293030 box
436215897 1.293091 box
436215997 1.294006 box
436216097 1.296204 box
436216197 1.294373 box
436216297 1.296387 box
436216397 1.295105 box
436216497 1.291138 box
436216597 1.292480 box
436216697 1.292297 box
436216797 1.291016 box
436216897 1.289917 box
436216997 1.292358 box
436217097 1.291870 box
436217197 1.293213 box
436217297 1.294434 box
436217397 1.294128 box
436217497 1.294983 box
436217597 1.295227 box
436217697 1.295532 box
436217797 1.292908 box
436217897 1.293823 box
436217997 1.293762 box
436218097 1.291870 box
436218197 1.290161 box
436218297 1.291992 box
436218397 1.291199 box
436218497 1.290710 box
436218597 1.294495 box
436218697 1.294800 box
436218797 1.295898 box
436218897 1.294067 box
436218997 1.295166 box
436219097 1.291870 box
436219197 1.292419 box
436219297 1.291382 box
436219397 1.292664 box
436219497 1.293274 box
436219597 1.291260 box
436219697 1.291504 box
436219797 1.291016 box
436219897 1.292847 box
436219997 1.293945 box
436220097 1.294128 box
436220197 1.295288 box
436220297 1.295410 box
436220397 1.296753 box
436220497 1.293213 box
436220597 1.292664 box
436220697 1.291565 box
436220797 1.293152 box
436220897 1.291321 box
436220997 1.293701 box
436221097 1.292603 box
436221197 1.291199 box
436221297 1.293335 box
436221397 1.290405 box
436221497 1.294373 box
436221597 1.295349 box
436221697 1.295715 box
436221797 1.295593 box
436221897 1.296204 box
436221997 1.295288 box
436222097 1.293274 box
436222197 1.292664 box
436222297 1.291870 box
436222397 1.291687 box
436222497 1.290955 box
436222597 1.291077 box
436222697 1.291443 box
436222797 1.291931 box
436222897 1.293335 box
436222997 1.292725 box
436223097 1.293823 box
436223197 1.295471 box
436223297 1.295105 box
436223397 1.294250 box
436223497 1.295105 box
436223597 1.293091 box
436223697 1.292725 box
436223797 1.292175 box
436223897 1.292297 box
436223997 1.290833 box
436224097 1.291809 box
436224197 1.290894 box
436224297 1.289917 box
436224397 1.293030 box
436224497 1.293579 box
436224597 1.294556 box
436224697 1.295593 box
436224797 1.295715 box
436224897 1.295410 box
436224997 1.295776 box
436225097 1.293335 box
436225197 1.294312 box
436225297 1.294739 box
436225397 1.294922 box
436225497 1.292847 box
436225597 1.291077 box
436225697 1.291687 box
436225797 1.291931 box
436225897 1.292603 box
436225997 1.292419 box
436226097 1.292847 box
436226197 1.294678 box
436226297 1.295105 box
436226397 1.295532 box
436226497 1.295471 box
436226597 1.293945 box
436226697 1.294312 box
436226797 1.294006 box
436226897 1.293335 box
436226997 1.293823 box
436227097 1.291687 box
436227197 1.291809 box
436227297 1.291565 box
436227397 1.291504 box
436227497 1.290771 box
436227597 1.291504 box
436227697 1.293701 box
436227797 1.294739 box
436227897 1.293640 box
436227997 1.295471 box
436228097 1.295532 box
436228197 1.294067 box
436228297 1.294434 box
436228397 1.292969 box
436228497 1.293396 box
436228597 1.292664 box
436228697 1.292297 box
436228797 1.292725 box
436228897 1.290771 box
436228997 1.293152 box
436229097 1.292603 box
436229197 1.293091 box
436229297 1.293701 box
436229397 1.295593 box
436229497 1.295471 box
436229597 1.295227 box
436229697 1.293823 box
436229797 1.293152 box
436229897 1.292908 box
436229997 1.290466 box
436230097 1.291077 box
436230197 1.292297 box
436230297 1.291870 box
436230397 1.291809 box
436230497 1.291626 box
436230597 1.293030 box
436230697 1.292847 box
436230797 1.293945 box
436230897 1.295471 box
436230997 1.295288 box
436231097 1.296387 box
436231197 1.294556 box
436231297 1.291809 box
436231397 1.292358 box
436231497 1.292664 box
436231597 1.290344 box
436231697 1.291748 box
436231797 1.292419 box
436231897 1.290649 box
436231997 1.294739 box
436232097 1.294983 box
436232197 1.296082 box
436232297 1.295288 box
436232397 1.295288 box
436232497 1.293823 box
436232597 1.293152 box
436232697 1.293335 box
436232797 1.290344 box
436232897 1.292725 box
436232997 1.290161 box
436233097 1.291931 box
436233197 1.291382 box
436233297 1.291016 box
436233397 1.292542 box
436233497 1.294678 box
436233597 1.296387 box
436233697 1.296082 box
436233797 1.295837 box
436233897 1.294006 box
436233997 1.292786 box
436234097 1.293152 box
436234197 1.290771 box
436234297 1.292297 box
436234397 1.291443 box
436234497 1.291565 box
436234597 1.291870 box
436234697 1.291504 box
436234797 1.292786 box
436234897 1.293457 box
436234997 1.293030 box
436235097 1.293457 box
436235197 1.294922 box
436235297 1.297913 box
436235397 1.294861 box
436235497 1.296326 box
436235597 1.292664 box
436235697 1.294250 box
436235797 1.292542 box
436235897 1.293274 box
436235997 1.291199 box
436236097 1.291809 box
436236197 1.290039 box
436236297 1.293274 box
436236397 1.291382 box
436236497 1.291565 box
436236597 1.292725 box
436236697 1.293945 box
436236797 1.294312 box
436236897 1.295593 box
436236997 1.295227 box
436237097 1.295654 box
436237197 1.294434 box
436237297 1.293518 box
436237397 1.293091 box
436237497 1.292419 box
436237597 1.290771 box
436237697 1.292175 box
436237797 1.291809 box
436237897 1.291809 box
436237997 1.292419 box
436238097 1.293152 box
436238197 1.293030 box
436238297 1.294006 box
436238397 1.295105 box
436238497 1.295349 box
436238597 1.295044 box
436238697 1.295044 box
436238797 1.295471 box
436238897 1.293457 box
436238997 1.292969 box
436239097 1.293640 box
436239197 1.292053 box
436239297 1.291443 box
436239397 1.291321 box
436239497 1.291443 box
436239597 1.291870 box
436239697 1.292175 box
436239797 1.293213 box
436239897 1.293396 box
436239997 1.295227 box
436240097 1.295593 box
436240197 1.295410 box
436240297 1.294739 box
436240397 1.294800 box
436240497 1.293884 box
436240597 1.291870 box
436240697 1.292603 box
436240797 1.293457 box
436240897 1.292419 box
436240997 1.291809 box
436241097 1.291626 box
436241197 1.289856 box
436241297 1.291199 box
436241397 1.293701 box
436241497 1.294556 box
436241597 1.294983 box
436241697 1.295410 box
436241797 1.295166 box
436241897 1.296692 box
436241997 1.295044 box
436242097 1.294861 box
436242197 1.293640 box
436242297 1.292236 box
436242397 1.292603 box
436242497 1.291443 box
436242597 1.290771 box
436242697 1.294495 box
436242797 1.294312 box
436242897 1.294189 box
436242997 1.291443 box
436243097 1.292297 box
436243197 1.292053 box
436243297 1.291260 box
436243397 1.295105 box
436243497 1.292786 box
436243597 1.292969 box
436243697 1.291931 box
436243797 1.290527 box
436243897 1.291260 box
436243997 1.294006 box
436244097 1.294067 box
436244197 1.294617 box
436244297 1.291260 box
436244397 1.291992 box
436244497 1.291321 box
436244597 1.294189 box
436244697 1.294067 box
436244797 1.294373 box
436244897 1.292480 box
436244997 1.292175 box
436245097 1.290527 box
436245197 1.291870 box
436245297 1.292358 box
436245397 1.294067 box
436245497 1.295837 box
436245597 1.292480 box
436245697 1.292236 box
436245797 1.291443 box
436245897 1.291687 box
436245997 1.294067 box
436246097 1.293457 box
436246197 1.295837 box
436246297 1.293274 box
436246397 1.292053 box
436246497 1.293518 box
436246597 1.293091 box
436246697 1.292664 box
436246797 1.295837 box
436246897 1.294556 box
436246997 1.294006 box
436247097 1.294250 box
436247197 1.294067 box
436247297 1.291870 box
436247397 1.292053 box
436247497 1.292603 box
436247597 1.292786 box
436247697 1.293457 box
436247797 1.295410 box
436247897 1.291199 box
436247997 1.292358 box
436248097 1.291870 box
436248197 1.293091 box
436248297 1.294800 box
436248397 1.295105 box
436248497 1.291809 box
436248597 1.293579 box
436248697 1.290100 box
436248797 1.292969 box
436248897 1.292969 box
436248997 1.293823 box
436249097 1.294373 box
436249197 1.293396 box
436249297 1.291382 box
436249397 1.291077 box
436249497 1.291565 box
436249597 1.293762 box
436249697 1.294922 box
436249797 1.293396 box
436249897 1.292114 box
436249997 1.291077 box
436250097 1.291931 box
436250197 1.293274 box
436250297 1.295044 box
436250397 1.295654 box
436250497 1.293030 box
436250597 1.290222 box
436250697 1.292297 box
436250797 1.291443 box
436250897 1.293091 box
436250997 1.294861 box
436251097 1.294373 box
436251197 1.291138 box
436251297 1.291016 box
436251397 1.291870 box
436251497 1.291138 box
436251597 1.294373 box
436251697 1.293579 box
436251797 1.294739 box
436251897 1.291748 box
436251997 1.290405 box
436252097 1.289429 box
436252197 1.291748 box
436252297 1.294495 box
436252397 1.295166 box
436252497 1.294373 box
436252597 1.295654 box
436252697 1.290894 box
436252797 1.291321 box
436252897 1.291626 box
436252997 1.292969 box
436253097 1.294556 box
436253197 1.294373 box
436253297 1.292786 box
436253397 1.293213 box
436253497 1.290161 box
436253597 1.292297 box
436253697 1.293335 box
436253797 1.295105 box
436253897 1.294556 box
436253997 1.292908 box
436254097 1.292603 box
436254197 1.291931 box
436254297 1.292114 box
436254397 1.292725 box
436254497 1.297302 box
436254597 1.294067 box
436254697 1.291016 box
436254797 1.291687 box
436254897 1.292542 box
436254997 1.292664 box
436255097 1.294678 box
436255197 1.293945 box
436255297 1.291443 box
436255397 1.291687 box
436255497 1.290771 box
436255597 1.291138 box
436255697 1.295349 box
436255797 1.293152 box
436255897 1.291809 box
436255997 1.291321 box
436256097 1.292297 box
436256197 1.292358 box
436256297 1.293823 box
436256397 1.294312 box
436256497 1.294373 box
436256597 1.293884 box
436256697 1.291748 box
436256797 1.291992 box
436256897 1.291565 box
436256997 1.293213 box
436257097 1.294250 box
436257197 1.291992 box
436257297 1.293396 box
436257397 1.290710 box
436257497 1.292358 box
436257597 1.291138 box
436257697 1.294739 box
436257797 1.295105 box
436257897 1.293701 box
436257997 1.294067 box
436258097 1.292725 box
436258197 1.292786 box
436258297 1.292847 box
436258397 1.291504 box
436258497 1.294434 box
436258597 1.295044 box
436258697 1.293213 box
436258797 1.293030 box
436258897 1.291992 box
436258997 1.291687 box
436259097 1.291321 box
436259197 1.295105 box
436259297 1.295593 box
436259397 1.295044 box
436259497 1.291809 box
436259597 1.290344 box
436259697 1.291077 box
436259797 1.291992 box
436259897 1.295410 box
436259997 1.294495 box
436260097 1.291809 box
436260197 1.292786 box
436260297 1.290710 box
436260397 1.291504 box
436260497 1.292297 box
436260597 1.294312 box
436260697 1.295410 box
436260797 1.292480 box
436260897 1.291626 box
436260997 1.292114 box
436261097 1.295044 box
436261197 1.295410 box
436261297 1.292847 box
436261397 1.293640 box
436261497 1.291748 box
436261597 1.291138 box
436261697 1.291870 box
436261797 1.295288 box
436261897 1.295654 box
436261997 1.291382 box
436262097 1.291687 box
436262197 1.290649 box
436262297 1.291626 box
436262397 1.293823 box
436262497 1.294861 box
436262597 1.294983 box
436262697 1.292725 box
436262797 1.291626 box
436262897 1.291687 box
436262997 1.292358 box
436263097 1.293945 box
436263197 1.296082 box
436263297 1.291260 box
436263397 1.292664 box
436263497 1.291870 box
436263597 1.290894 box
436263697 1.292786 box
436263797 1.293030 box
436263897 1.296936 box
436263997 1.295471 box
436264097 1.291748 box
436264197 1.291077 box
436264297 1.292297 box
436264397 1.291565 box
436264497 1.292969 box
436264597 1.294678 box
436264697 1.293762 box
436264797 1.294495 box
436264897 1.293884 box
436264997 1.291809 box
436265097 1.291260 box
436265197 1.293274 box
436265297 1.294983 box
436265397 1.294800 box
436265497 1.291870 box
436265597 1.292847 box
436265697 1.292603 box
436265797 1.292297 box
436265897 1.295471 box
436265997 1.295471 box
436266097 1.291748 box
436266197 1.293274 box
436266297 1.292358 box
436266397 1.292053 box
436266497 1.294067 box
436266597 1.295532 box
436266697 1.293457 box
436266797 1.291138 box
436266897 1.290527 box
436266997 1.292175 box
436267097 1.293274 box
436267197 1.294922 box
436267297 1.295044 box
436267397 1.292603 box
436267497 1.291016 box
436267597 1.290894 box
436267697 1.292542 box
436267797 1.295288 box
436267897 1.294678 box
436267997 1.294312 box
436268097 1.291504 box
436268197 1.291626 box
436268297 1.291260 box
436268397 1.292847 box
436268497 1.294678 box
436268597 1.295898 box
436268697 1.292297 box
436268797 1.292419 box
436268897 1.291138 box
436268997 1.291626 box
436269097 1.291809 box
436269197 1.294006 box
436269297 1.296509 box
436269397 1.294250 box
436269497 1.294495 box
436269597 1.291748 box
436269697 1.291443 box
436269797 1.292419 box
436269897 1.293945 box
436269997 1.294861 box
436270097 1.294250 box
436270197 1.291931 box
436270297 1.291260 box
436270397 1.290833 box
436270497 1.292664 box
436270597 1.295227 box
436270697 1.294128 box
436270797 1.292480 box
436270897 1.291260 box
436270997 1.291016 box
436271097 1.292847 box
436271197 1.292847 box
436271297 1.295593 box
436271397 1.292786 box
436271497 1.292236 box
436271597 1.291016 box
436271697 1.291199 box
436271797 1.291687 box
436271897 1.296204 box
436271997 1.294312 box
436272097 1.292847 box
436272197 1.291199 box
436272297 1.291260 box
436272397 1.292053 box
436272497 1.295898 box
436272597 1.293396 box
436272697 1.292053 box
436272797 1.292480 box
436272897 1.292114 box
436272997 1.293152 box
436273097 1.293884 box
436273197 1.294800 box
436273297 1.294434 box
436273397 1.292114 box
436273497 1.291504 box
436273597 1.291870 box
436273697 1.293457 box
436273797 1.294800 box
436273897 1.294678 box
436273997 1.294373 box
436274097 1.291504 box
436274197 1.290649 box
436274297 1.291748 box
436274397 1.294006 box
436274497 1.294434 box
436274597 1.293579 box
436274697 1.292664 box
436274797 1.294006 box
436274897 1.293396 box
436274997 1.292114 box
436275097 1.293579 box
436275197 1.293701 box
436275297 1.293640 box
436275397 1.295227 box
436275497 1.292603 box
436275597 1.292175 box
436275697 1.292175 box
436275797 1.293335 box
436275897 1.292847 box
436275997 1.296875 box
436276097 1.293762 box
436276197 1.291992 box
436276297 1.291077 box
436276397 1.291138 box
436276497 1.295349 box
436276597 1.294312 box
436276697 1.293762 box
436276797 1.292786 box
436276897 1.293030 box
436276997 1.290833 box
436277097 1.292786 box
436277197 1.295410 box
436277297 1.295227 box
436277397 1.293213 box
436277497 1.292236 box
436277597 1.291870 box
436277697 1.293945 box
436277797 1.295349 box
436277897 1.294739 box
436277997 1.290344 box
436278097 1.293945 box
436278197 1.289795 box
436278297 1.291748 box
436278397 1.294922 box
436278497 1.294983 box
436278597 1.293579 box
436278697 1.291077 box
436278797 1.290955 box
436278897 1.291809 box
436278997 1.292786 box
436279097 1.294739 box
436279197 1.293884 box
436279297 1.294189 box
436279397 1.291321 box
436279497 1.291260 box
436279597 1.292480 box
436279697 1.293518 box
436279797 1.294556 box
436279897 1.292419 box
436279997 1.291504 box
436280097 1.290588 box
436280197 1.290588 box
436280297 1.293701 box
436280397 1.297974 box
436280497 1.295227 box
436280597 1.293396 box
436280697 1.291016 box
436280797 1.291565 box
436280897 1.291138 box
436280997 1.291992 box
436281097 1.294983 box
436281197 1.294250 box
436281297 1.294250 box
436281397 1.291687 box
436281497 1.291870 box
436281597 1.291626 box
436281697 1.296082 box
436281797 1.294434 box
436281897 1.293213 box
436281997 1.290527 box
436282097 1.291138 box
436282197 1.291443 box
436282297 1.294800 box
436282397 1.295227 box
436282497 1.292969 box
436282597 1.293884 box
436282697 1.291626 box
436282797 1.291626 box
436282897 1.293701 box
436282997 1.295959 box
436283097 1.291260 box
436283197 1.291382 box
436283297 1.290344 box
436283397 1.291382 box
436283497 1.294128 box
436283597 1.296082 box
436283697 1.292542 box
436283797 1.292786 box
436283897 1.291199 box
436283997 1.290955 box
436284097 1.293823 box
436284197 1.294617 box
436284297 1.293579 box
436284397 1.291016 box
436284497 1.290466 box
436284597 1.292358 box
436284697 1.293518 box
436284797 1.297607 box
436284897 1.294067 box
436284997 1.289978 box
436285097 1.291626 box
436285197 1.291016 box
436285297 1.293152 box
436285397 1.294373 box
436285497 1.294678 box
436285597 1.293579 box
436285697 1.294128 box
436285797 1.293579 box
436285897 1.290527 box
436285997 1.293213 box
436286097 1.294067 box
436286197 1.294861 box
436286297 1.293091 box
436286397 1.292786 box
436286497 1.292969 box
436286597 1.291565 box
436286697 1.295776 box
436286797 1.295654 box
436286897 1.292236 box
436286997 1.292542 box
436287097 1.291626 box
436287197 1.292847 box
436287297 1.294373 box
436287397 1.295837 box
436287497 1.293091 box
436287597 1.291443 box
436287697 1.291443 box
436287797 1.292786 box
436287897 1.294678 box
436287997 1.296387 box
436288097 1.292908 box
436288197 1.291870 box
436288297 1.291382 box
436288397 1.292542 box
436288497 1.294067 box
436288597 1.294067 box
436288697 1.292358 box
436288797 1.291687 box
436288897 1.293518 box
436288997 1.293335 box
436289097 1.294556 box
436289197 1.293701 box
436289297 1.292236 box
436289397 1.293945 box
436289497 1.290161 box
436289597 1.291931 box
436289697 1.294434 box
436289797 1.295410 box
436289897 1.291687 box
436289997 1.293884 box
436290097 1.290649 box
436290197 1.291931 box
436290297 1.294556 box
436290397 1.294861 box
436290497 1.294434 box
436290597 1.292664 box
436290697 1.293823 box
436290797 1.291809 box
436290897 1.293884 box
436290997 1.295837 box
436291097 1.294067 box
436291197 1.295288 box
436291297 1.291809 box
436291397 1.291870 box
436291497 1.292175 box
436291597 1.294373 box
436291697 1.292297 box
436291797 1.295837 box
436291897 1.290344 box
436291997 1.291443 box
436292097 1.293884 box
436292197 1.293030 box
436292297 1.295837 box
436292397 1.294067 box
436292497 1.291199 box
436292597 1.292725 box
436292697 1.291931 box
436292797 1.293701 box
436292897 1.295715 box
436292997 1.293884 box
436293097 1.291931 box
436293197 1.291992 box
436293297 1.292725 box
436293397 1.294434 box
436293497 1.294617 box
436293597 1.291687 box
436293697 1.292175 box
436293797 1.290955 box
436293897 1.293274 box
436293997 1.297363 box
436294097 1.295654 box
436294197 1.293091 box
436294297 1.291016 box
436294397 1.291565 box
436294497 1.292786 box
436294597 1.294800 box
436294697 1.296265 box
436294797 1.291748 box
436294897 1.291199 box
436294997 1.291626 box
436295097 1.292664 box
436295197 1.294617 box
436295297 1.294128 box
436295397 1.292603 box
436295497 1.290588 box
436295597 1.290955 box
436295697 1.292847 box
436295797 1.295837 box
436295897 1.294922 box
436295997 1.295593 box
436296097 1.293030 box
436296197 1.291504 box
436296297 1.291809 box
436296397 1.293823 box
436296497 1.293579 box
436296597 1.295471 box
436296697 1.291748 box
436296797 1.293274 box
436296897 1.291016 box
436296997 1.294556 box
436297097 1.295593 box
436297197 1.292542 box
436297297 1.293152 box
436297397 1.290466 box
436297497 1.291687 box
436297597 1.293213 box
436297697 1.295471 box
436297797 1.293762 box
436297897 1.293152 box
436297997 1.291565 box
436298097 1.292419 box
436298197 1.293396 box
436298297 1.295349 box
436298397 1.292969 box
436298497 1.291992 box
436298597 1.290283 box
436298697 1.295227 box
436298797 1.293518 box
436298897 1.294189 box
436298997 1.294189 box
436299097 1.289612 box
436299197 1.291382 box
436299297 1.293518 box
436299397 1.295349 box
436299497 1.294983 box
436299597 1.292786 box
436299697 1.290222 box
436299797 1.292053 box
436299897 1.294556 box
436299997 1.294800 box
436300097 1.293640 box
436300197 1.292542 box
436300297 1.291443 box
436300397 1.291931 box
436300497 1.293579 box
436300597 1.293152 box
436300697 1.293884 box
436300797 1.293274 box
436300897 1.293457 box
436300997 1.291687 box
436301097 1.293152 box
436301197 1.294617 box
436301297 1.294434 box
436301397 1.292419 box
436301497 1.291748 box
436301597 1.292114 box
436301697 1.291199 box
436301797 1.294983 box
436301897 1.296204 box
436301997 1.292053 box
436302097 1.293335 box
436302197 1.291687 box
436302297 1.292725 box
436302397 1.294922 box
436302497 1.293457 box
436302597 1.291992 box
436302697 1.289551 box
436302797 1.291016 box
436302897 1.293823 box
436302997 1.296509 box
436303097 1.292969 box
436303197 1.291870 box
436303297 1.291992 box
436303397 1.290588 box
436303497 1.294373 box
436303597 1.295654 box
436303697 1.290649 box
436303797 1.291077 box
436303897 1.292175 box
436303997 1.292542 box
436304097 1.295471 box
436304197 1.292114 box
436304297 1.292542 box
436304397 1.290833 box
436304497 1.291748 box
436304597 1.292175 box
436304697 1.296143 box
436304797 1.293518 box
436304897 1.292114 box
436304997 1.291199 box
436305097 1.292419 box
436305197 1.293884 box
436305297 1.295288 box
436305397 1.293823 box
436305497 1.291870 box
436305597 1.292419 box
436305697 1.292480 box
436305797 1.293640 box
436305897 1.294861 box
436305997 1.294434 box
436306097 1.293640 box
436306197 1.290527 box
436306297 1.291565 box
436306397 1.292297 box
436306497 1.294250 box
436306597 1.293518 box
436306697 1.291748 box
436306797 1.292603 box
436306897 1.292053 box
436306997 1.292358 box
436307097 1.296631 box
436307197 1.293884 box
436307297 1.292297 box
436307397 1.290100 box
436307497 1.292603 box
436307597 1.294556 box
436307697 1.295471 box
436307797 1.293274 box
436307897 1.292542 box
436307997 1.290833 box
436308097 1.295837 box
436308197 1.294983 box
436308297 1.293335 box
436308397 1.289978 box
436308497 1.292725 box
436308597 1.292664 box
436308697 1.292969 box
436308797 1.297546 box
436308897 1.292480 box
436308997 1.290466 box
436309097 1.290161 box
436309197 1.294128 box
436309297 1.294373 box
436309397 1.294128 box
436309497 1.290588 box
436309597 1.292114 box
436309697 1.291199 box
436309797 1.291687 box
436309897 1.296265 box
436309997 1.293823 box
436310097 1.290222 box
436310197 1.292175 box
436310297 1.291809 box
436310397 1.291565 box
436310497 1.296204 box
436310597 1.294495 box
436310697 1.294739 box
436310797 1.291504 box
436310897 1.292664 box
436310997 1.290466 box
436311097 1.294373 box
436311197 1.294983 box
436311297 1.292236 box
436311397 1.291382 box
436311497 1.292480 box
436311597 1.291748 box
436311697 1.296265 box
436311797 1.294373 box
436311897 1.291443 box
436311997 1.291992 box
436312097 1.290344 box
436312197 1.293762 box
436312297 1.296326 box
436312397 1.294312 box
436312497 1.291809 box
436312597 1.292603 box
436312697 1.292480 box
436312797 1.294922 box
436312897 1.294800 box
436312997 1.291321 box
436313097 1.292175 box
436313197 1.289612 box
436313297 1.294189 box
436313397 1.295410 box
436313497 1.294250 box
436313597 1.291565 box
436313697 1.292725 box
436313797 1.290833 box
436313897 1.293213 box
436313997 1.296021 box
436314097 1.292786 box
436314197 1.291809 box
436314297 1.292297 box
436314397 1.294006 box
436314497 1.295166 box
436314597 1.293640 box
436314697 1.291199 box
436314797 1.291565 box
436314897 1.292053 box
436314997 1.292603 box
436315097 1.295654 box
436315197 1.293640 box
436315297 1.294739 box
436315397 1.293274 box
436315497 1.292542 box
436315597 1.293640 box
436315697 1.292908 box
436315797 1.294861 box
436315897 1.293640 box
436315997 1.291504 box
436316097 1.293213 box
436316197 1.291382 box
436316297 1.296143 box
436316397 1.296082 box
436316497 1.291870 box
436316597 1.292419 box
436316697 1.292908 box
436316797 1.294312 box
436316897 1.296082 box
436316997 1.294067 box
436317097 1.291321 box
436317197 1.291321 box
436317297 1.293396 box
436317397 1.295105 box
436317497 1.295837 box
436317597 1.291077 box
436317697 1.292053 box
436317797 1.291687 box
436317897 1.293701 box
436317997 1.294312 box
436318097 1.293396 box
436318197 1.291260 box
436318297 1.291626 box
436318397 1.294983 box
436318497 1.294983 box
436318597 1.293640 box
436318697 1.291321 box
436318797 1.292053 box
436318897 1.293274 box
436318997 1.293823 box
436319097 1.295593 box
436319197 1.292969 box
436319297 1.292114 box
436319397 1.291809 box
436319497 1.292114 box
436319597 1.295349 box
436319697 1.293640 box
436319797 1.292847 box
436319897 1.292603 box
436319997 1.292908 box
436320097 1.293335 box
436320197 1.296326 box
436320297 1.295349 box
436320397 1.294128 box
436320497 1.292419 box
436320597 1.291992 box
436320697 1.292908 box
436320797 1.294128 box
436320897 1.294678 box
436320997 1.294128 box
436321097 1.291809 box
436321197 1.292725 box
436321297 1.294800 box
436321397 1.295410 box
436321497 1.293518 box
436321597 1.293884 box
436321697 1.292175 box
436321797 1.293213 box
436321897 1.294800 box
436321997 1.295288 box
436322097 1.293396 box
436322197 1.294189 box
436322297 1.291260 box
436322397 1.294800 box
436322497 1.296631 box
436322597 1.291870 box
436322697 1.291504 box
436322797 1.292908 box
436322897 1.293396 box
436322997 1.295227 box
436323097 1.295044 box
436323197 1.291687 box
436323297 1.291260 box
436323397 1.292297 box
436323497 1.294861 box
436323597 1.294983 box
436323697 1.292175 box
436323797 1.293091 box
436323897 1.292358 box
436323997 1.293274 box
436324097 1.295410 box
436324197 1.294067 box
436324297 1.292419 box
436324397 1.290894 box
436324497 1.292114 box
436324597 1.294189 box
436324697 1.295166 box
436324797 1.295349 box
436324897 1.293823 box
436324997 1.291260 box
436325097 1.291321 box
436325197 1.293396 box
436325297 1.295105 box
436325397 1.293518 box
436325497 1.292236 box
436325597 1.291992 box
436325697 1.292297 box
436325797 1.295105 box
436325897 1.295166 box
436325997 1.290710 box
436326097 1.292114 box
436326197 1.292725 box
436326297 1.293396 box
436326397 1.294983 box
436326497 1.291199 box
436326597 1.292480 box
436326697 1.292603 box
436326797 1.293823 box
436326897 1.295776 box
436326997 1.293030 box
436327097 1.290771 box
436327197 1.291870 box
436327297 1.293396 box
436327397 1.295776 box
436327497 1.293884 box
436327597 1.292786 box
436327697 1.290955 box
436327797 1.292480 box
436327897 1.294312 box
436327997 1.294067 box
436328097 1.291626 box
436328197 1.291870 box
436328297 1.292175 box
436328397 1.294189 box
436328497 1.295776 box
436328597 1.292114 box
436328697 1.292542 box
436328797 1.290894 box
436328897 1.293579 box
436328997 1.295105 box
436329097 1.293457 box
436329197 1.295044 box
436329297 1.293823 box
436329397 1.292603 box
436329497 1.292969 box
436329597 1.294006 box
436329697 1.296021 box
436329797 1.293091 box
436329897 1.291687 box
436329997 1.291199 box
436330097 1.295593 box
436330197 1.294556 box
436330297 1.292542 box
436330397 1.291321 box
436330497 1.293152 box
436330597 1.294006 box
436330697 1.296204 box
436330797 1.292786 box
436330897 1.293335 box
436330997 1.292236 box
436331097 1.293823 box
436331197 1.296448 box
436331297 1.292786 box
436331397 1.292786 box
436331497 1.292725 box
436331597 1.292480 box
436331697 1.295105 box
436331797 1.292786 box
436331897 1.292053 box
436331997 1.292603 box
436332097 1.294434 box
436332197 1.294739 box
436332297 1.294556 box
436332397 1.292847 box
436332497 1.291992 box
436332597 1.291992 box
436332697 1.295105 box
436332797 1.294983 box
436332897 1.292175 box
436332997 1.291809 box
436333097 1.292969 box
436333197 1.294617 box
436333297 1.294434 box
436333397 1.293396 box
436333497 1.294006 box
436333597 1.292969 box
436333697 1.295044 box
436333797 1.294678 box
436333897 1.296753 box
436333997 1.293335 box
436334097 1.291626 box
436334197 1.291016 box
436334297 1.293884 box
436334397 1.294189 box
436334497 1.295227 box
436334597 1.292480 box
436334697 1.291626 box
436334797 1.291504 box
436334897 1.295105 box
436334997 1.293945 box
436335097 1.292053 box
436335197 1.292114 box
436335297 1.291931 box
436335397 1.295288 box
436335497 1.295044 box
436335597 1.292786 box
436335697 1.290894 box
436335797 1.293762 box
436335897 1.296265 box
436335997 1.292725 box
436336097 1.291443 box
436336197 1.292297 box
436336297 1.294128 box
436336397 1.296448 box
436336497 1.294006 box
436336597 1.291992 box
436336697 1.289612 box
436336797 1.292908 box
436336897 1.295288 box
436336997 1.293884 box
436337097 1.295166 box
436337197 1.291016 box
436337297 1.294678 box
436337397 1.294800 box
436337497 1.294800 box
436337597 1.291931 box
436337697 1.290894 box
436337797 1.291870 box
436337897 1.294861 box
436337997 1.296753 box
436338097 1.292786 box
436338197 1.292053 box
436338297 1.293640 box
436338397 1.293457 box
436338497 1.294128 box
436338597 1.296387 box
436338697 1.292358 box
436338797 1.292480 box
436338897 1.293091 box
436338997 1.294800 box
436339097 1.294800 box
436339197 1.292969 box
436339297 1.292419 box
436339397 1.293518 box
436339497 1.295044 box
436339597 1.294800 box
436339697 1.294250 box
436339797 1.291809 box
436339897 1.294128 box
436339997 1.294983 box
436340097 1.294373 box
436340197 1.291077 box
436340297 1.290771 box
436340397 1.292603 box
436340497 1.296021 box
436340597 1.295654 box
436340697 1.292847 box
436340797 1.291504 box
436340897 1.290710 box
436340997 1.295837 box
436341097 1.294800 box
436341197 1.291992 box
436341297 1.292114 box
436341397 1.293518 box
436341497 1.294617 box
436341597 1.294983 box
436341697 1.291931 box
436341797 1.292664 box
436341897 1.291626 box
436341997 1.295105 box
436342097 1.296753 box
436342197 1.294861 box
436342297 1.294189 box
436342397 1.291565 box
436342497 1.292725 box
436342597 1.294800 box
436342697 1.294189 box
436342797 1.293274 box
436342897 1.291504 box
436342997 1.294128 box
436343097 1.293884 box
436343197 1.295105 box
436343297 1.293518 box
436343397 1.291748 box
436343497 1.293152 box
436343597 1.295166 box
436343697 1.295288 box
436343797 1.292236 box
436343897 1.291138 box
436343997 1.293945 box
436344097 1.294128 box
436344197 1.295105 box
436344297 1.292542 box
436344397 1.292175 box
436344497 1.290894 box
436344597 1.295837 box
436344697 1.294312 box
436344797 1.291870 box
436344897 1.292419 box
436344997 1.291382 box
436345097 1.292114 box
436345197 1.295959 box
436345297 1.290833 box
436345397 1.292908 box
436345497 1.291016 box
436345597 1.294617 box
436345697 1.294617 box
436345797 1.291565 box
436345897 1.292358 box
436345997 1.291321 box
436346097 1.292358 box
436346197 1.296753 box
436346297 1.292358 box
436346397 1.294189 box
436346497 1.292847 box
436346597 1.294250 box
436346697 1.292664 box
436346797 1.294983 box
436346897 1.292786 box
436346997 1.292969 box
436347097 1.292358 box
436347197 1.292419 box
436347297 1.296387 box
436347397 1.293945 box
436347497 1.292664 box
436347597 1.291931 box
436347697 1.292847 box
436347797 1.295776 box
436347897 1.293335 box
436347997 1.292114 box
436348097 1.292542 box
436348197 1.293823 box
436348297 1.295166 box
436348397 1.293030 box
436348497 1.291382 box
436348597 1.291870 box
436348697 1.293701 box
436348797 1.294434 box
436348897 1.293640 box
436348997 1.291199 box
436349097 1.293457 box
436349197 1.294617 box
436349297 1.296448 box
436349397 1.292175 box
436349497 1.291199 box
436349597 1.292908 box
436349697 1.294983 box
436349797 1.295227 box
436349897 1.292542 box
436349997 1.292847 box
436350097 1.292236 box
436350197 1.293152 box
436350297 1.295959 box
436350397 1.293213 box
436350497 1.292664 box
436350597 1.292297 box
436350697 1.293457 box
436350797 1.296753 box
436350897 1.296326 box
436350997 1.294617 box
436351097 1.291992 box
436351197 1.291748 box
436351297 1.293152 box
436351397 1.297546 box
436351497 1.293152 box
436351597 1.295471 box
436351697 1.291748 box
436351797 1.293701 box
436351897 1.294128 box
436351997 1.295471 box
436352097 1.293030 box
436352197 1.292297 box
436352297 1.293457 box
436352397 1.294006 box
436352497 1.296387 box
436352597 1.293640 box
436352697 1.290955 box
436352797 1.293396 box
436352897 1.296692 box
436352997 1.291565 box
436353097 1.293335 box
436353197 1.292786 box
436353297 1.292175 box
436353397 1.295959 box
436353497 1.294922 box
436353597 1.291199 box
436353697 1.291016 box
436353797 1.293823 box
436353897 1.295227 box
436353997 1.294739 box
436354097 1.292542 box
436354197 1.291748 box
436354297 1.294678 box
436354397 1.295471 box
436354497 1.294861 box
436354597 1.292603 box
436354697 1.290833 box
436354797 1.293701 box
436354897 1.293396 box
436354997 1.296509 box
436355097 1.296509 box
436355197 1.293945 box
436355297 1.291321 box
436355397 1.292847 box
436355497 1.295776 box
436355597 1.294739 box
436355697 1.293701 box
436355797 1.290771 box
436355897 1.293030 box
436355997 1.296021 box
436356097 1.295227 box
436356197 1.291382 box
436356297 1.292297 box
436356397 1.292480 box
436356497 1.294739 box
436356597 1.295410 box
436356697 1.291931 box
436356797 1.292725 box
436356897 1.293152 box
436356997 1.295471 box
436357097 1.293335 box
436357197 1.292114 box
436357297 1.291992 box
436357397 1.294678 box
436357497 1.294678 box
436357597 1.292908 box
436357697 1.291992 box
436357797 1.291931 box
436357897 1.293579 box
436357997 1.295715 box
436358097 1.293274 box
436358197 1.290649 box
436358297 1.293335 box
436358397 1.293518 box
436358497 1.296631 box
436358597 1.293030 box
436358697 1.291809 box
436358797 1.290771 box
436358897 1.294067 box
436358997 1.296631 box
436359097 1.292542 box
436359197 1.294800 box
436359297 1.293884 box
436359397 1.291992 box
436359497 1.293213 box
436359597 1.294922 box
436359697 1.294312 box
436359797 1.293701 box
436359897 1.293274 box
436359997 1.292175 box
436360097 1.296753 box
436360197 1.294495 box
436360297 1.291443 box
436360397 1.292908 box
436360497 1.293274 box
436360597 1.295837 box
436360697 1.294434 box
436360797 1.292297 box
436360897 1.292969 box
436360997 1.295105 box
436361097 1.295654 box
436361197 1.292542 box
436361297 1.292725 box
436361397 1.292664 box
436361497 1.293762 box
436361597 1.295349 box
436361697 1.292847 box
436361797 1.292358 box
436361897 1.293396 box
436361997 1.296082 box
436362097 1.294250 box
436362197 1.293762 box
436362297 1.292053 box
436362397 1.294617 box
436362497 1.294800 box
436362597 1.294250 box
436362697 1.292786 box
436362797 1.292419 box
436362897 1.294861 box
436362997 1.295166 box
436363097 1.294861 box
436363197 1.292358 box
436363297 1.292480 box
436363397 1.294250 box
436363497 1.296326 box
436363597 1.294556 box
436363697 1.293762 box
436363797 1.293640 box
436363897 1.292664 box
