------------
Profiler Configuration
output path: /home/tc/pwr2018_data/output_fixed/graph500_proc1/cap_14-5/nowrapper-2
monitoring frequency: 100000000 nano seconds
------------
SCALE:                          20
edgefactor:                     16
NBFS:                           64
graph_generation:               6.44116
num_mpi_processes:              1
construction_time:              1.03882
bfs  min_time:                  0.256179
bfs  firstquartile_time:        0.260285
bfs  median_time:               0.260351
bfs  thirdquartile_time:        0.260388
bfs  max_time:                  0.260475
bfs  mean_time:                 0.260278
bfs  stddev_time:               0.000525315
min_nedge:                      16775818
firstquartile_nedge:            16775818
median_nedge:                   16775818
thirdquartile_nedge:            16775818
max_nedge:                      16775818
mean_nedge:                     16775818
stddev_nedge:                   0
bfs  min_TEPS:                  6.44048e+07
bfs  firstquartile_TEPS:        6.44263e+07
bfs  median_TEPS:               6.44353e+07
bfs  thirdquartile_TEPS:        6.44517e+07
bfs  max_TEPS:                  6.54847e+07
bfs  harmonic_mean_TEPS:     !  6.44534e+07
bfs  harmonic_stddev_TEPS:      16389.2
bfs  min_validate:              1.60139
bfs  firstquartile_validate:    1.60404
bfs  median_validate:           1.60808
bfs  thirdquartile_validate:    1.61113
bfs  max_validate:              1.61383
bfs  mean_validate:             1.60742
bfs  stddev_validate:           0.00367292
