time(ms) energy(J) hostname
233265383 0.000000 box
233265484 0.906433 box
233265584 0.905396 box
233265684 0.888184 box
233265784 0.878296 box
233265884 0.879150 box
233265984 0.878723 box
233266084 0.877014 box
233266184 0.879272 box
233266284 0.877502 box
233266384 0.878479 box
233266484 0.879944 box
233266584 0.878418 box
233266684 0.878296 box
233266784 0.878662 box
233266884 0.879089 box
233266984 0.877625 box
233267084 0.878113 box
233267184 0.878723 box
233267284 0.878357 box
233267384 0.881104 box
233267484 0.878235 box
233267584 0.878540 box
233267684 0.879395 box
233267784 0.878357 box
233267884 0.879211 box
233267984 0.880249 box
233268084 0.878967 box
233268184 0.878418 box
233268284 0.879395 box
233268384 0.880615 box
233268484 0.878113 box
233268584 0.878479 box
233268684 0.879456 box
233268784 0.879150 box
233268884 0.878662 box
233268984 0.879272 box
233269084 0.879761 box
233269184 0.879395 box
233269284 0.879028 box
233269384 0.880066 box
233269484 0.879639 box
233269584 0.878906 box
233269684 0.877869 box
233269784 0.879578 box
233269884 0.879944 box
233269984 0.879028 box
233270084 0.878296 box
233270184 0.879761 box
233270284 0.878723 box
233270384 0.880920 box
233270484 0.880432 box
233270584 0.879028 box
233270684 0.878967 box
233270784 0.878540 box
233270884 0.880066 box
233270984 0.879089 box
233271084 0.880188 box
233271184 0.879150 box
233271284 0.879456 box
233271384 0.880859 box
233271484 0.880371 box
233271584 0.879883 box
233271684 0.878845 box
233271784 0.880859 box
233271884 0.989868 box
233271984 1.029175 box
233272084 1.013428 box
233272184 0.738708 box
233272284 0.616455 box
233272384 0.705811 box
233272484 0.763062 box
233272584 0.763428 box
233272684 0.763000 box
233272784 0.897278 box
233272884 0.959900 box
233272984 1.067017 box
233273084 1.014587 box
233273184 0.820862 box
233273284 0.797546 box
233273384 0.782837 box
233273484 0.782776 box
233273584 0.801331 box
233273684 0.830994 box
233273784 0.808716 box
233273884 0.800598 box
233273984 0.820251 box
233274084 0.824219 box
233274184 0.829407 box
233274284 0.833679 box
233274384 0.831238 box
233274484 0.824890 box
233274584 0.821350 box
233274684 0.798401 box
233274784 0.770935 box
233274884 1.054565 box
233274984 1.034241 box
233275084 0.887146 box
233275184 1.011169 box
233275284 0.895935 box
233275384 0.803223 box
233275484 0.782959 box
233275584 0.782288 box
233275684 0.820007 box
233275784 0.824524 box
233275884 0.792908 box
233275984 0.816284 box
233276084 0.822754 box
233276184 0.825684 box
233276284 0.831177 box
233276384 0.831299 box
233276484 0.828430 box
233276584 0.824280 box
233276684 0.818970 box
233276784 0.780884 box
233276884 0.876770 box
233276984 1.061584 box
233277084 0.974182 box
233277184 0.922302 box
233277284 1.011414 box
233277384 0.823792 box
233277484 0.782959 box
233277584 0.775635 box
233277684 0.808960 box
233277784 0.831665 box
233277884 0.817139 box
233277984 0.794556 box
233278084 0.817444 box
233278184 0.822571 box
233278284 0.825867 box
233278384 0.830383 box
233278484 0.829285 box
233278584 0.825562 box
233278684 0.822937 box
233278784 0.801208 box
233278884 0.772888 box
233278984 0.991455 box
233279084 1.046936 box
233279184 0.886292 box
233279284 1.000305 box
233279384 0.947266 box
233279484 0.798645 box
233279584 0.782471 box
233279684 0.775208 box
233279784 0.828369 box
233279884 0.830933 box
233279984 0.795288 box
233280084 0.813477 box
233280184 0.818970 box
233280284 0.823914 box
233280384 0.829163 box
233280484 0.830688 box
233280584 0.828125 box
233280684 0.824402 box
233280784 0.816895 box
233280884 0.785767 box
233280984 0.803284 box
233281084 1.067261 box
233281184 1.016113 box
233281284 0.894165 box
233281384 1.022095 box
233281484 0.850891 box
233281584 0.772522 box
233281684 0.785706 box
233281784 0.825073 box
233281884 0.824280 box
233281984 0.821960 box
233282084 0.791077 box
233282184 0.819275 box
233282284 0.823364 box
233282384 0.826843 box
233282484 0.828491 box
233282584 0.829163 box
233282684 0.825867 box
233282784 0.821289 box
233282884 0.812744 box
233282984 0.775757 box
233283084 0.924927 box
233283184 1.059509 box
233283284 0.926453 box
233283384 0.963135 box
233283484 0.984009 box
233283584 0.794067 box
233283684 0.773499 box
233283784 0.824402 box
233283884 0.824585 box
233283984 0.826538 box
233284084 0.801453 box
233284184 0.802979 box
233284284 0.817078 box
233284384 0.822327 box
233284484 0.825012 box
233284584 0.827942 box
233284684 0.825073 box
233284784 0.822388 box
233284884 0.818115 box
233284984 0.793762 box
233285084 0.772644 box
233285184 1.057739 box
233285284 1.035339 box
233285384 0.886414 box
233285484 1.009827 box
233285584 0.892517 box
233285684 0.795715 box
233285784 0.781860 box
233285884 0.786499 box
233285984 0.828369 box
233286084 0.823059 box
233286184 0.789551 box
233286284 0.812744 box
233286384 0.819397 box
233286484 0.823303 box
233286584 0.828430 box
233286684 0.826660 box
233286784 0.823242 box
233286884 0.821899 box
233286984 0.814026 box
233287084 0.776611 box
233287184 0.874023 box
233287284 1.063721 box
233287384 0.971680 box
233287484 0.925171 box
233287584 1.007935 box
233287684 0.811035 box
233287784 0.756104 box
233287884 0.820374 box
233287984 0.823792 box
233288084 0.823669 box
233288184 0.812927 box
233288284 0.795410 box
233288384 0.814636 box
233288484 0.821228 box
233288584 0.823364 box
233288684 0.826538 box
233288784 0.825867 box
233288884 0.822632 box
233288984 0.817932 box
233289084 0.802185 box
233289184 0.771240 box
233289284 1.010681 box
233289384 1.046082 box
233289484 0.884460 box
233289584 1.001770 box
233289684 0.929810 box
233289784 0.796509 box
233289884 0.766907 box
233289984 0.797668 box
233290084 0.827148 box
233290184 0.828064 box
233290284 0.791687 box
233290384 0.810974 box
233290484 0.819702 box
233290584 0.823792 box
233290684 0.827209 box
233290784 0.829651 box
233290884 0.826477 box
233290984 0.822144 box
233291084 0.815613 box
233291184 0.783203 box
233291284 0.827087 box
233291384 1.065430 box
233291484 1.006042 box
233291584 0.901001 box
233291684 1.019104 box
233291784 0.834045 box
233291884 0.821594 box
233291984 0.822083 box
233292084 0.822449 box
233292184 0.820129 box
233292284 0.824219 box
233292384 0.796448 box
233292484 0.816406 box
233292584 0.824829 box
233292684 0.824524 box
233292784 0.827637 box
233292884 0.826355 box
233292984 0.824036 box
233293084 0.822144 box
233293184 0.805908 box
233293284 0.774414 box
233293384 0.962646 box
233293484 1.052002 box
233293584 0.894592 box
233293684 0.996155 box
233293784 0.955078 box
233293884 0.774719 box
233293984 0.819336 box
233294084 0.822327 box
233294184 0.821594 box
233294284 0.830200 box
233294384 0.794006 box
233294484 0.808044 box
233294584 0.819519 box
233294684 0.823120 box
233294784 0.827454 box
233294884 0.829651 box
233294984 0.824585 box
233295084 0.824036 box
233295184 0.817627 box
233295284 0.786926 box
233295384 0.802063 box
233295484 1.067566 box
233295584 1.015930 box
233295684 0.893250 box
233295784 1.023743 box
233295884 0.854004 box
233295984 0.790100 box
233296084 0.774048 box
233296184 0.795654 box
233296284 0.828308 box
233296384 0.821594 box
233296484 0.790344 box
233296584 0.815979 box
233296684 0.819946 box
233296784 0.824097 box
233296884 0.826233 box
233296984 0.827087 box
233297084 0.825439 box
233297184 0.823242 box
233297284 0.815369 box
233297384 0.774902 box
233297484 0.918335 box
233297584 1.060120 box
233297684 0.932495 box
233297784 0.956909 box
233297884 0.987366 box
233297984 0.803040 box
233298084 0.753906 box
233298184 0.826355 box
233298284 0.825928 box
233298384 0.823669 box
233298484 0.807251 box
233298584 0.805725 box
233298684 0.817078 box
233298784 0.821228 box
233298884 0.825378 box
233298984 0.828308 box
233299084 0.828491 box
233299184 0.822571 box
233299284 0.820557 box
233299384 0.798828 box
233299484 0.767456 box
233299584 1.049561 box
233299684 1.036133 box
233299784 0.884155 box
233299884 1.011658 box
233299984 0.899231 box
233300084 0.791626 box
233300184 0.766296 box
233300284 0.803833 box
233300384 0.830444 box
233300484 0.826721 box
233300584 0.796387 box
233300684 0.817932 box
233300784 0.820801 box
233300884 0.824585 box
233300984 0.827332 box
233301084 0.831543 box
233301184 0.827332 box
233301284 0.825378 box
233301384 0.819397 box
233301484 0.776917 box
233301584 0.865967 box
233301684 1.064697 box
233301784 0.975647 box
233301884 0.923035 box
233301984 1.011658 box
233302084 0.801208 box
233302184 0.810059 box
233302284 0.825195 box
233302384 0.825439 box
233302484 0.826965 box
233302584 0.820496 box
233302684 0.793579 box
233302784 0.817566 box
233302884 0.821533 box
233302984 0.824951 box
233303084 0.830261 box
233303184 0.829468 box
233303284 0.824463 box
233303384 0.821045 box
233303484 0.803772 box
233303584 0.773193 box
233303684 1.001587 box
233303784 1.047058 box
233303884 0.884766 box
233303984 1.001587 box
233304084 0.930664 box
233304184 0.778687 box
233304284 0.825989 box
233304384 0.825134 box
233304484 0.824707 box
233304584 0.828491 box
233304684 0.793091 box
233304784 0.815247 box
233304884 0.822571 box
233304984 0.824768 box
233305084 0.828918 box
233305184 0.829346 box
233305284 0.825256 box
233305384 0.823425 box
233305484 0.821899 box
233305584 0.783081 box
233305684 0.835022 box
233305784 1.065552 box
233305884 0.999207 box
233305984 0.903137 box
233306084 1.022339 box
233306184 0.836548 box
233306284 0.792542 box
233306384 0.781677 box
233306484 0.785522 box
233306584 0.832092 box
233306684 0.822266 box
233306784 0.793396 box
233306884 0.817017 box
233306984 0.821655 box
233307084 0.825378 box
233307184 0.827271 box
233307284 0.826172 box
233307384 0.827637 box
233307484 0.821350 box
233307584 0.808594 box
233307684 0.774475 box
233307784 0.949402 box
233307884 1.054504 box
233307984 0.902466 box
233308084 0.983398 box
233308184 0.967224 box
233308284 0.796326 box
233308384 0.752380 box
233308484 0.827209 box
233308584 0.826904 box
233308684 0.827332 box
233308784 0.796204 box
233308884 0.803223 box
233308984 0.816284 box
233309084 0.823303 box
233309184 0.828247 box
233309284 0.831665 box
233309384 0.829041 box
233309484 0.825562 box
233309584 0.818909 box
233309684 0.788147 box
233309784 0.781982 box
233309884 1.065125 box
233309984 1.025818 box
233310084 0.888611 box
233310184 1.018127 box
233310284 0.875488 box
233310384 0.818176 box
233310484 0.800598 box
233310584 0.790710 box
233310684 0.800110 box
233310784 0.826477 box
233310884 0.792725 box
233310984 0.813293 box
233311084 0.820984 box
233311184 0.823181 box
233311284 0.826965 box
233311384 0.827637 box
233311484 0.824097 box
233311584 0.822083 box
233311684 0.815979 box
233311784 0.776306 box
233311884 0.896545 box
233311984 1.059998 box
233312084 0.950989 box
233312184 0.942444 box
233312284 1.000488 box
233312384 0.813721 box
233312484 0.782471 box
233312584 0.782593 box
233312684 0.792419 box
233312784 0.829041 box
233312884 0.810608 box
233312984 0.801270 box
233313084 0.815002 box
233313184 0.823059 box
233313284 0.827026 box
233313384 0.828369 box
233313484 0.830566 box
233313584 0.823242 box
233313684 0.821167 box
233313784 0.796387 box
233313884 0.769897 box
233313984 1.013062 box
233314084 1.045532 box
233314184 0.881104 box
233314284 1.008972 box
233314384 0.924622 box
233314484 0.819153 box
233314584 0.800415 box
233314684 0.789307 box
233314784 0.796448 box
233314884 0.834534 box
233314984 0.793579 box
233315084 0.811096 box
233315184 0.818237 box
233315284 0.823059 box
233315384 0.826355 box
233315484 0.826965 box
233315584 0.826294 box
233315684 0.823364 box
233315784 0.816101 box
233315884 0.781494 box
233315984 0.831238 box
233316084 1.066528 box
233316184 1.002930 box
233316284 0.903564 box
233316384 1.020142 box
233316484 0.830200 box
233316584 0.773438 box
233316684 0.827576 box
233316784 0.825256 box
233316884 0.824158 box
233316984 0.821167 box
233317084 0.795654 box
233317184 0.818176 box
233317284 0.821411 box
233317384 0.825378 box
233317484 0.830505 box
233317584 0.828247 box
233317684 0.824402 box
233317784 0.821960 box
233317884 0.808228 box
233317984 0.774963 box
233318084 0.957886 box
233318184 1.054016 box
233318284 0.894836 box
233318384 0.991150 box
233318484 0.960938 box
233318584 0.803101 box
233318684 0.769592 box
233318784 0.794678 box
233318884 0.827637 box
233318984 0.829590 box
233319084 0.795593 box
233319184 0.806274 box
233319284 0.819824 box
233319384 0.822144 box
233319484 0.826965 box
233319584 0.827271 box
233319684 0.825500 box
233319784 0.822571 box
233319884 0.816772 box
233319984 0.786987 box
233320084 0.791687 box
233320184 1.065918 box
233320284 1.024048 box
233320384 0.890442 box
233320484 1.017273 box
233320584 0.868530 box
233320684 0.790161 box
233320784 0.776733 box
233320884 0.800476 box
233320984 0.826599 box
233321084 0.820312 box
233321184 0.790222 box
233321284 0.813354 box
233321384 0.819519 box
233321484 0.823792 box
233321584 0.829773 box
233321684 0.828491 box
233321784 0.826355 box
233321884 0.822021 box
233321984 0.810730 box
233322084 0.776062 box
233322184 0.903992 box
233322284 1.057068 box
233322384 0.945251 box
233322484 0.948669 box
233322584 0.999878 box
233322684 0.818237 box
233322784 0.783264 box
233322884 0.773926 box
233322984 0.815308 box
233323084 0.828613 box
233323184 0.813293 box
233323284 0.800293 box
233323384 0.819824 box
233323484 0.823364 box
233323584 0.828308 box
233323684 0.833740 box
233323784 0.829102 box
233323884 0.823486 box
233323984 0.820312 box
233324084 0.802917 box
233324184 0.770264 box
233324284 1.022705 box
233324384 1.042419 box
233324484 0.881592 box
233324584 1.007874 box
233324684 0.917236 box
233324784 0.790588 box
233324884 0.766418 box
233324984 0.825745 box
233325084 0.827271 box
233325184 0.825806 box
233325284 0.792969 box
233325384 0.812134 box
233325484 0.820618 box
233325584 0.823181 box
233325684 0.830383 box
233325784 0.831360 box
233325884 0.823792 box
233325984 0.822632 box
233326084 0.818237 box
233326184 0.779907 box
233326284 0.846558 box
233326384 1.064636 box
233326484 0.992493 box
233326584 0.911865 box
233326684 1.018066 box
233326784 0.834229 box
233326884 0.791382 box
233326984 0.782715 box
233327084 0.783508 box
233327184 0.830078 box
233327284 0.820923 box
233327384 0.798096 box
233327484 0.817139 box
233327584 0.821655 box
233327684 0.822876 box
233327784 0.827637 box
233327884 0.827942 box
233327984 0.823975 box
233328084 0.822632 box
233328184 0.803650 box
233328284 0.774170 box
233328384 0.957153 box
233328484 1.058105 box
233328584 0.897278 box
233328684 0.989014 box
233328784 0.964539 box
233328884 0.818542 box
233328984 0.796936 box
233329084 0.792542 box
233329184 0.782349 box
233329284 0.833374 box
233329384 0.798706 box
233329484 0.804321 box
233329584 0.817078 box
233329684 0.823608 box
233329784 0.827515 box
233329884 0.830078 box
233329984 0.827209 box
233330084 0.823975 box
233330184 0.820129 box
233330284 0.792419 box
233330384 0.776489 box
233330484 1.063538 box
233330584 1.028381 box
233330684 0.888550 box
233330784 1.014465 box
233330884 0.875488 box
233330984 0.821289 box
233331084 0.821228 box
233331184 0.821411 box
233331284 0.820251 box
233331384 0.828674 box
233331484 0.792725 box
233331584 0.814331 box
233331684 0.820374 box
233331784 0.825195 box
233331884 0.828613 box
233331984 0.830750 box
233332084 0.826111 box
233332184 0.823364 box
233332284 0.816284 box
233332384 0.776611 box
233332484 0.906799 box
233332584 1.061401 box
233332684 0.943970 box
233332784 0.947327 box
233332884 1.001404 box
233332984 0.821533 box
233333084 0.808228 box
233333184 0.806946 box
233333284 0.782593 box
233333384 0.820923 box
233333484 0.813171 box
233333584 0.801086 box
233333684 0.820435 box
233333784 0.821838 box
233333884 0.827209 box
233333984 0.831421 box
233334084 0.827454 box
233334184 0.823975 box
233334284 0.820190 box
233334384 0.797485 box
233334484 0.769897 box
233334584 1.020569 box
233334684 1.043091 box
233334784 0.882996 box
233334884 1.005798 box
233334984 0.922729 box
233335084 0.803894 box
233335184 0.782654 box
233335284 0.781555 box
233335384 0.816345 box
233335484 0.828552 box
233335584 0.791748 box
233335684 0.813110 box
233335784 0.819214 box
233335884 0.823608 box
233335984 0.829895 box
233336084 0.831299 box
233336184 0.830200 box
233336284 0.825134 box
233336384 0.818665 box
233336484 0.782349 box
233336584 0.838318 box
233336684 1.063599 box
233336784 1.000977 box
233336884 0.903748 box
233336984 1.026489 box
233337084 0.839294 box
233337184 0.804688 box
233337284 0.783020 box
233337384 0.784729 box
233337484 0.819824 box
233337584 0.821228 box
233337684 0.793030 box
233337784 0.816589 box
233337884 0.822449 box
233337984 0.827515 box
233338084 0.832520 box
233338184 0.831604 box
233338284 0.826721 box
233338384 0.825867 box
233338484 0.811157 box
233338584 0.775452 box
233338684 0.953979 box
233338784 1.054565 box
233338884 0.901917 box
233338984 0.986816 box
233339084 0.965027 box
233339184 0.779602 box
233339284 0.824036 box
233339384 0.826965 box
233339484 0.827454 box
233339584 0.834839 box
233339684 0.798462 box
233339784 0.810852 box
233339884 0.820251 box
233339984 0.825439 box
233340084 0.830872 box
233340184 0.835144 box
233340284 0.829834 box
233340384 0.826782 box
233340484 0.821289 box
233340584 0.790955 box
233340684 0.793396 box
233340784 1.064331 box
233340884 1.019653 box
233340984 0.892700 box
233341084 1.021790 box
233341184 0.855286 box
233341284 0.776978 box
233341384 0.825745 box
233341484 0.826965 box
233341584 0.828003 box
233341684 0.825439 box
233341784 0.800415 box
233341884 0.819702 box
233341984 0.822632 box
233342084 0.828491 box
233342184 0.834900 box
233342284 0.832703 box
233342384 0.827271 box
233342484 0.825195 box
233342584 0.813599 box
233342684 0.775146 box
233342784 0.921082 box
233342884 1.057373 box
233342984 0.927856 box
233343084 0.960693 box
233343184 0.988281 box
233343284 0.816956 box
233343384 0.782898 box
233343484 0.783081 box
233343584 0.805786 box
233343684 0.832458 box
233343784 0.807068 box
233343884 0.803772 box
233343984 0.818909 box
233344084 0.823242 box
233344184 0.827087 box
233344284 0.828430 box
233344384 0.826111 box
233344484 0.824463 box
233344584 0.818970 box
233344684 0.795532 box
233344784 0.768921 box
233344884 1.043884 box
233344984 1.039673 box
233345084 0.885620 box
233345184 1.009888 box
233345284 0.900391 box
233345384 0.775452 box
233345484 0.823364 box
233345584 0.822266 box
233345684 0.824341 box
233345784 0.825806 box
233345884 0.794189 box
233345984 0.814331 box
233346084 0.819885 box
233346184 0.823486 box
233346284 0.829590 box
233346384 0.829468 box
233346484 0.824158 box
233346584 0.822632 box
233346684 0.816223 box
233346784 0.778809 box
233346884 0.872925 box
233346984 1.062561 box
233347084 0.972534 box
233347184 0.923523 box
233347284 1.007996 box
233347384 0.813171 box
233347484 0.752319 box
233347584 0.825500 box
233347684 0.829529 box
233347784 0.829163 box
233347884 0.819885 box
233347984 0.802795 box
233348084 0.818604 box
233348184 0.825073 box
233348284 0.825928 box
233348384 0.830566 box
233348484 0.831543 box
233348584 0.827209 box
233348684 0.822815 box
233348784 0.802856 box
233348884 0.770996 box
233348984 1.002441 box
233349084 1.046692 box
233349184 0.885132 box
233349284 1.004333 box
233349384 0.929138 box
233349484 0.781860 box
233349584 0.824036 box
233349684 0.824829 box
233349784 0.823975 box
233349884 0.827942 box
233349984 0.799072 box
233350084 0.814514 box
233350184 0.821289 box
233350284 0.825378 box
233350384 0.828796 box
233350484 0.830933 box
233350584 0.826599 box
233350684 0.822815 box
233350784 0.818481 box
233350884 0.782410 box
233350984 0.837463 box
233351084 1.063232 box
233351184 0.998962 box
233351284 0.905579 box
233351384 1.019714 box
233351484 0.840820 box
233351584 0.824036 box
233351684 0.821899 box
233351784 0.822571 box
233351884 0.823853 box
233351984 0.823120 box
233352084 0.797058 box
233352184 0.815552 box
233352284 0.824707 box
233352384 0.827271 box
233352484 0.830994 box
233352584 0.830200 box
233352684 0.825195 box
233352784 0.821533 box
233352884 0.803040 box
233352984 0.774109 box
233353084 0.969116 box
233353184 1.052124 box
233353284 0.891541 box
233353384 0.992798 box
233353484 0.956421 box
233353584 0.786377 box
233353684 0.778259 box
233353784 0.829529 box
233353884 0.825073 box
233353984 0.830017 box
233354084 0.796631 box
233354184 0.810181 box
233354284 0.817627 box
233354384 0.821960 box
233354484 0.825012 box
233354584 0.827576 box
233354684 0.824585 box
233354784 0.824646 box
233354884 0.817505 box
233354984 0.786072 box
233355084 0.800293 box
233355184 1.069397 box
233355284 1.017456 box
233355384 0.893066 box
233355484 1.024109 box
233355584 0.847290 box
233355684 0.782776 box
233355784 0.824097 box
233355884 0.824890 box
233355984 0.824524 box
233356084 0.823730 box
233356184 0.796875 box
233356284 0.815247 box
233356384 0.821899 box
233356484 0.824280 box
233356584 0.828003 box
233356684 0.828857 box
233356784 0.823242 box
233356884 0.822510 box
233356984 0.807800 box
233357084 0.775024 box
233357184 0.930298 box
233357284 1.057556 box
233357384 0.924744 box
233357484 0.963806 box
233357584 0.983276 box
233357684 0.784180 box
233357784 0.806213 box
233357884 0.825012 box
233357984 0.821411 box
233358084 0.829468 box
233358184 0.805481 box
233358284 0.805420 box
233358384 0.817444 box
233358484 0.822876 box
233358584 0.824829 box
233358684 0.827637 box
233358784 0.826904 box
233358884 0.821777 box
233358984 0.818542 box
233359084 0.795349 box
233359184 0.772400 box
233359284 1.061523 box
233359384 1.032043 box
233359484 0.888245 box
233359584 1.014221 box
233359684 0.886169 box
233359784 0.818909 box
233359884 0.796753 box
233359984 0.796021 box
233360084 0.797607 box
233360184 0.826233 box
233360284 0.791809 box
233360384 0.813843 box
233360484 0.821533 box
233360584 0.825134 box
233360684 0.828064 box
233360784 0.832031 box
233360884 0.826477 box
233360984 0.823242 box
233361084 0.816833 box
233361184 0.777100 box
233361284 0.882202 box
233361384 1.063538 box
233361484 0.965820 box
233361584 0.932678 box
233361684 1.004089 box
233361784 0.795105 box
233361884 0.803650 box
233361984 0.822693 box
233362084 0.821899 box
233362184 0.824219 box
233362284 0.816101 box
233362384 0.799683 box
233362484 0.817139 box
233362584 0.821777 box
233362684 0.824829 box
233362784 0.830750 box
233362884 0.827393 box
233362984 0.824829 box
233363084 0.821289 box
233363184 0.798279 box
233363284 0.767883 box
233363384 1.016846 box
233363484 1.045227 box
233363584 0.883606 box
233363684 1.008545 box
233363784 0.922241 box
233363884 0.820312 box
233363984 0.820251 box
233364084 0.820374 box
233364184 0.820312 box
233364284 0.831055 box
233364384 0.798828 box
233364484 0.812073 box
233364584 0.818909 box
233364684 0.822144 box
233364784 0.826782 box
233364884 0.828430 box
233364984 0.824829 box
233365084 0.822571 box
233365184 0.815369 box
233365284 0.779236 box
233365384 0.855225 box
233365484 1.063416 box
233365584 0.988037 box
233365684 0.913208 box
233365784 1.016174 box
233365884 0.827820 box
233365984 0.783081 box
233366084 0.783325 box
233366184 0.791077 box
233366284 0.828796 box
233366384 0.814941 box
233366484 0.792542 box
233366584 0.815430 box
233366684 0.821045 box
233366784 0.826599 box
233366884 0.827942 box
233366984 0.827209 box
233367084 0.825073 box
233367184 0.818420 box
233367284 0.805664 box
233367384 0.774231 box
233367484 0.974121 box
233367584 1.051697 box
233367684 0.892212 box
233367784 0.995850 box
233367884 0.950439 box
233367984 0.784363 box
233368084 0.793274 box
233368184 0.822693 box
233368284 0.825378 box
233368384 0.828247 box
233368484 0.795105 box
233368584 0.808289 box
233368684 0.819336 box
233368784 0.823120 box
233368884 0.828369 box
233368984 0.829468 box
233369084 0.827515 box
233369184 0.823914 box
233369284 0.817200 box
233369384 0.791077 box
233369484 0.807007 box
233369584 1.066772 box
233369684 1.018311 box
233369784 0.895081 box
233369884 1.027771 box
233369984 0.848816 box
233370084 0.783997 box
233370184 0.766724 box
233370284 0.817566 box
233370384 0.826965 box
233370484 0.819397 box
233370584 0.792053 box
233370684 0.813354 box
233370784 0.820068 box
233370884 0.827637 box
233370984 0.828003 box
233371084 0.826233 box
233371184 0.822571 box
233371284 0.821716 box
233371384 0.807556 box
233371484 0.776306 box
233371584 0.928650 box
233371684 1.056824 box
233371784 0.922913 box
233371884 0.964844 box
233371984 0.981750 box
233372084 0.782104 box
233372184 0.817444 box
233372284 0.822571 box
233372384 0.822876 box
233372484 0.828979 box
233372584 0.802917 box
233372684 0.808533 box
233372784 0.817627 box
233372884 0.822693 box
233372984 0.828125 box
233373084 0.828247 box
233373184 0.825439 box
233373284 0.824463 box
233373384 0.818909 box
233373484 0.794678 box
233373584 0.775024 box
233373684 1.060242 box
233373784 1.033081 box
233373884 0.886230 box
233373984 1.016357 box
233374084 0.882568 box
233374184 0.792114 box
233374284 0.782715 box
233374384 0.782959 box
233374484 0.820251 box
233374584 0.822205 box
233374684 0.796997 box
233374784 0.816406 box
233374884 0.822388 box
233374984 0.822815 box
233375084 0.832031 box
233375184 0.829529 box
233375284 0.826538 box
233375384 0.822327 box
233375484 0.813660 box
233375584 0.777466 box
233375684 0.884705 box
233375784 1.060791 box
233375884 0.963013 box
233375984 0.932556 box
233376084 1.002319 box
233376184 0.798279 box
233376284 0.804016 box
233376384 0.825867 box
233376484 0.824402 box
233376584 0.824646 box
233376684 0.815613 box
233376784 0.800415 box
233376884 0.819580 box
233376984 0.822815 box
233377084 0.824341 box
233377184 0.829773 box
233377284 0.827026 box
233377384 0.822327 box
233377484 0.820557 box
233377584 0.798645 box
233377684 0.772827 box
233377784 1.018555 box
233377884 1.045288 box
233377984 0.882690 box
233378084 1.007324 box
233378184 0.923340 box
233378284 0.767273 box
233378384 0.818176 box
233378484 0.822571 box
233378584 0.824097 box
233378684 0.825867 box
233378784 0.793945 box
233378884 0.812622 box
233378984 0.819702 box
233379084 0.823303 box
233379184 0.825256 box
233379284 0.827759 box
233379384 0.824219 box
233379484 0.821350 box
233379584 0.816223 box
233379684 0.782349 box
233379784 0.851685 box
233379884 1.063477 box
233379984 0.988281 box
233380084 0.911499 box
233380184 1.014160 box
233380284 0.832275 box
233380384 0.819336 box
233380484 0.817749 box
233380584 0.796204 box
233380684 0.817871 box
233380784 0.820374 box
233380884 0.795654 box
233380984 0.816528 box
233381084 0.821228 box
233381184 0.824890 box
233381284 0.828186 box
233381384 0.825745 box
233381484 0.822693 box
233381584 0.820557 box
233381684 0.799866 box
233381784 0.774292 box
233381884 0.980530 box
233381984 1.052002 box
233382084 0.890076 box
233382184 0.996826 box
233382284 0.950500 box
233382384 0.822327 box
233382484 0.819275 box
233382584 0.813049 box
233382684 0.788696 box
233382784 0.830811 box
233382884 0.798279 box
233382984 0.809998 box
233383084 0.821960 box
233383184 0.823120 box
233383284 0.828918 box
233383384 0.830811 box
233383484 0.827454 box
233383584 0.825073 box
233383684 0.817688 box
233383784 0.786621 box
233383884 0.798950 box
233383984 1.067383 box
233384084 1.016052 box
233384184 0.894287 box
233384284 1.024719 box
233384384 0.845886 box
233384484 0.763550 box
233384584 0.805664 box
233384684 0.823730 box
233384784 0.824524 box
233384884 0.820557 box
233384984 0.790161 box
233385084 0.814514 box
233385184 0.819702 box
233385284 0.823242 box
233385384 0.827209 box
233385484 0.826965 box
233385584 0.823181 box
233385684 0.820801 box
233385784 0.809387 box
233385884 0.773987 box
233385984 0.927185 box
233386084 1.058655 box
233386184 0.924377 box
233386284 0.963928 box
233386384 0.985229 box
233386484 0.817444 box
233386584 0.783142 box
233386684 0.778259 box
233386784 0.800049 box
233386884 0.827515 box
233386984 0.804321 box
233387084 0.797729 box
233387184 0.815369 box
233387284 0.823181 box
233387384 0.825134 box
233387484 0.828064 box
233387584 0.825806 box
233387684 0.822998 box
233387784 0.817200 box
233387884 0.794678 box
233387984 0.771057 box
233388084 1.048584 box
233388184 1.036255 box
233388284 0.885193 box
233388384 1.010803 box
233388484 0.893005 box
233388584 0.815796 box
233388684 0.822327 box
233388784 0.822266 box
233388884 0.821350 box
233388984 0.826294 box
233389084 0.795166 box
233389184 0.815491 box
233389284 0.820801 box
233389384 0.822021 box
233389484 0.826843 box
233389584 0.829224 box
233389684 0.828003 box
233389784 0.824219 box
233389884 0.814758 box
233389984 0.776001 box
233390084 0.888611 box
233390184 1.061035 box
233390284 0.959778 box
233390384 0.933472 box
233390484 1.000977 box
233390584 0.818542 box
233390684 0.820557 box
233390784 0.820312 box
233390884 0.821106 box
233390984 0.824890 box
233391084 0.812744 box
233391184 0.798523 box
233391284 0.816223 box
233391384 0.821350 box
233391484 0.824524 box
233391584 0.828674 box
233391684 0.826721 box
233391784 0.823120 box
233391884 0.818176 box
233391984 0.795776 box
233392084 0.768250 box
233392184 1.033081 box
233392284 1.041687 box
233392384 0.883972 box
233392484 1.007629 box
233392584 0.911926 box
233392684 0.804932 box
233392784 0.783569 box
233392884 0.783752 box
233392984 0.805481 box
233393084 0.825867 box
233393184 0.790649 box
233393284 0.811523 box
233393384 0.819763 box
233393484 0.823181 box
233393584 0.826904 box
233393684 0.827881 box
233393784 0.824768 box
233393884 0.823486 box
233393984 0.815735 box
233394084 0.779907 box
233394184 0.843567 box
233394284 1.063660 box
233394384 0.994629 box
233394484 0.907715 box
233394584 1.018311 box
233394684 0.833191 box
233394784 0.783447 box
233394884 0.772766 box
233394984 0.806580 box
233395084 0.828003 box
233395184 0.816162 box
233395284 0.794373 box
233395384 0.816040 box
233395484 0.821777 box
233395584 0.824890 box
233395684 0.826904 box
233395784 0.826843 box
233395884 0.823914 box
233395984 0.819641 box
233396084 0.808411 box
233396184 0.774109 box
233396284 0.963257 box
233396384 1.052002 box
233396484 0.895996 box
233396584 0.989990 box
233396684 0.960205 box
233396784 0.819336 box
233396884 0.816284 box
233396984 0.799438 box
233397084 0.789001 box
233397184 0.829773 box
233397284 0.799072 box
233397384 0.806763 box
233397484 0.817200 box
233397584 0.822388 box
233397684 0.827698 box
233397784 0.827271 box
233397884 0.826843 box
233397984 0.822876 box
233398084 0.816895 box
233398184 0.787476 box
233398284 0.785706 box
233398384 1.066895 box
233398484 1.024658 box
233398584 0.890137 box
233398684 1.019836 box
233398784 0.857544 box
233398884 0.819031 box
233398984 0.820435 box
233399084 0.820740 box
233399184 0.820374 box
233399284 0.824768 box
233399384 0.797913 box
233399484 0.813599 box
233399584 0.819702 box
233399684 0.822815 box
233399784 0.826172 box
233399884 0.828979 box
233399984 0.823669 box
233400084 0.821472 box
233400184 0.811035 box
233400284 0.775330 box
233400384 0.918213 box
233400484 1.059265 box
233400584 0.931641 box
233400684 0.955994 box
233400784 0.992310 box
233400884 0.810181 box
233400984 0.783325 box
233401084 0.773621 box
233401184 0.816528 box
233401284 0.827881 box
233401384 0.807556 box
233401484 0.797119 box
233401584 0.815613 box
233401684 0.821960 box
233401784 0.826904 box
233401884 0.828003 box
233401984 0.825867 box
233402084 0.821960 box
233402184 0.817749 box
233402284 0.798462 box
233402384 0.768494 box
233402484 1.043579 box
233402584 1.039978 box
233402684 0.884216 box
233402784 1.007446 box
233402884 0.908691 box
233402984 0.800598 box
233403084 0.783691 box
233403184 0.782532 box
233403284 0.809204 box
233403384 0.823914 box
233403484 0.792236 box
233403584 0.811157 box
233403684 0.819824 box
233403784 0.823059 box
233403884 0.826721 box
233403984 0.827515 box
233404084 0.824463 box
233404184 0.821167 box
233404284 0.815491 box
233404384 0.781616 box
233404484 0.854492 box
233404584 1.065796 box
233404684 0.986633 box
233404784 0.913025 box
233404884 1.017639 box
233404984 0.816467 box
233405084 0.765137 box
233405184 0.822388 box
233405284 0.821533 box
233405384 0.823853 box
233405484 0.817749 box
233405584 0.793396 box
233405684 0.816772 box
233405784 0.820984 box
233405884 0.824402 box
233405984 0.828613 box
233406084 0.828186 box
233406184 0.823975 box
233406284 0.818970 box
233406384 0.801880 box
233406484 0.774292 box
