/dev/cpu/msr_batch: No such file or directory
graph_generation:               6.446470 s
construction_time:              1.052754 s
Running BFS 0
Time for BFS 0 is 0.259131
TEPS for BFS 0 is 6.47387e+07
Validating BFS 0
Validate time for BFS 0 is 1.606764
Running BFS 1
Time for BFS 1 is 0.259054
TEPS for BFS 1 is 6.47579e+07
Validating BFS 1
Validate time for BFS 1 is 1.604860
Running BFS 2
Time for BFS 2 is 0.259027
TEPS for BFS 2 is 6.47646e+07
Validating BFS 2
Validate time for BFS 2 is 1.606129
Running BFS 3
Time for BFS 3 is 0.258955
TEPS for BFS 3 is 6.47826e+07
Validating BFS 3
Validate time for BFS 3 is 1.599921
Running BFS 4
Time for BFS 4 is 0.259012
TEPS for BFS 4 is 6.47685e+07
Validating BFS 4
Validate time for BFS 4 is 1.597888
Running BFS 5
Time for BFS 5 is 0.259117
TEPS for BFS 5 is 6.47422e+07
Validating BFS 5
Validate time for BFS 5 is 1.604525
Running BFS 6
Time for BFS 6 is 0.259065
TEPS for BFS 6 is 6.47553e+07
Validating BFS 6
Validate time for BFS 6 is 1.598744
Running BFS 7
Time for BFS 7 is 0.258959
TEPS for BFS 7 is 6.47817e+07
Validating BFS 7
Validate time for BFS 7 is 1.603291
Running BFS 8
Time for BFS 8 is 0.259171
TEPS for BFS 8 is 6.47287e+07
Validating BFS 8
Validate time for BFS 8 is 1.597979
Running BFS 9
Time for BFS 9 is 0.259195
TEPS for BFS 9 is 6.47227e+07
Validating BFS 9
Validate time for BFS 9 is 1.598908
Running BFS 10
Time for BFS 10 is 0.259048
TEPS for BFS 10 is 6.47596e+07
Validating BFS 10
Validate time for BFS 10 is 1.605246
Running BFS 11
Time for BFS 11 is 0.259188
TEPS for BFS 11 is 6.47245e+07
Validating BFS 11
Validate time for BFS 11 is 1.598916
Running BFS 12
Time for BFS 12 is 0.258953
TEPS for BFS 12 is 6.47832e+07
Validating BFS 12
Validate time for BFS 12 is 1.603736
Running BFS 13
Time for BFS 13 is 0.259068
TEPS for BFS 13 is 6.47545e+07
Validating BFS 13
Validate time for BFS 13 is 1.600658
Running BFS 14
Time for BFS 14 is 0.259090
TEPS for BFS 14 is 6.4749e+07
Validating BFS 14
Validate time for BFS 14 is 1.599812
Running BFS 15
Time for BFS 15 is 0.259068
TEPS for BFS 15 is 6.47546e+07
Validating BFS 15
Validate time for BFS 15 is 1.607277
Running BFS 16
Time for BFS 16 is 0.259051
TEPS for BFS 16 is 6.47586e+07
Validating BFS 16
Validate time for BFS 16 is 1.599817
Running BFS 17
Time for BFS 17 is 0.259131
TEPS for BFS 17 is 6.47389e+07
Validating BFS 17
Validate time for BFS 17 is 1.606524
Running BFS 18
Time for BFS 18 is 0.258999
TEPS for BFS 18 is 6.47717e+07
Validating BFS 18
Validate time for BFS 18 is 1.605059
Running BFS 19
Time for BFS 19 is 0.259073
TEPS for BFS 19 is 6.47533e+07
Validating BFS 19
Validate time for BFS 19 is 1.607555
Running BFS 20
Time for BFS 20 is 0.259104
TEPS for BFS 20 is 6.47454e+07
Validating BFS 20
Validate time for BFS 20 is 1.596958
Running BFS 21
Time for BFS 21 is 0.258964
TEPS for BFS 21 is 6.47804e+07
Validating BFS 21
Validate time for BFS 21 is 1.602867
Running BFS 22
Time for BFS 22 is 0.258960
TEPS for BFS 22 is 6.47814e+07
Validating BFS 22
Validate time for BFS 22 is 1.604489
Running BFS 23
Time for BFS 23 is 0.259044
TEPS for BFS 23 is 6.47605e+07
Validating BFS 23
Validate time for BFS 23 is 1.605853
Running BFS 24
Time for BFS 24 is 0.259028
TEPS for BFS 24 is 6.47646e+07
Validating BFS 24
Validate time for BFS 24 is 1.600540
Running BFS 25
Time for BFS 25 is 0.259031
TEPS for BFS 25 is 6.47636e+07
Validating BFS 25
Validate time for BFS 25 is 1.606624
Running BFS 26
Time for BFS 26 is 0.259047
TEPS for BFS 26 is 6.47596e+07
Validating BFS 26
Validate time for BFS 26 is 1.606626
Running BFS 27
Time for BFS 27 is 0.259122
TEPS for BFS 27 is 6.4741e+07
Validating BFS 27
Validate time for BFS 27 is 1.599101
Running BFS 28
Time for BFS 28 is 0.258997
TEPS for BFS 28 is 6.47723e+07
Validating BFS 28
Validate time for BFS 28 is 1.607182
Running BFS 29
Time for BFS 29 is 0.258914
TEPS for BFS 29 is 6.47931e+07
Validating BFS 29
Validate time for BFS 29 is 1.606440
Running BFS 30
Time for BFS 30 is 0.258921
TEPS for BFS 30 is 6.47913e+07
Validating BFS 30
Validate time for BFS 30 is 1.606964
Running BFS 31
Time for BFS 31 is 0.258965
TEPS for BFS 31 is 6.47802e+07
Validating BFS 31
Validate time for BFS 31 is 1.599282
Running BFS 32
Time for BFS 32 is 0.259029
TEPS for BFS 32 is 6.47643e+07
Validating BFS 32
Validate time for BFS 32 is 1.598413
Running BFS 33
Time for BFS 33 is 0.259026
TEPS for BFS 33 is 6.47651e+07
Validating BFS 33
Validate time for BFS 33 is 1.605342
Running BFS 34
Time for BFS 34 is 0.258972
TEPS for BFS 34 is 6.47785e+07
Validating BFS 34
Validate time for BFS 34 is 1.599549
Running BFS 35
Time for BFS 35 is 0.259038
TEPS for BFS 35 is 6.4762e+07
Validating BFS 35
Validate time for BFS 35 is 1.599342
Running BFS 36
Time for BFS 36 is 0.259033
TEPS for BFS 36 is 6.47631e+07
Validating BFS 36
Validate time for BFS 36 is 1.599985
Running BFS 37
Time for BFS 37 is 0.259040
TEPS for BFS 37 is 6.47615e+07
Validating BFS 37
Validate time for BFS 37 is 1.604379
Running BFS 38
Time for BFS 38 is 0.259175
TEPS for BFS 38 is 6.47277e+07
Validating BFS 38
Validate time for BFS 38 is 1.597647
Running BFS 39
Time for BFS 39 is 0.259043
TEPS for BFS 39 is 6.47607e+07
Validating BFS 39
Validate time for BFS 39 is 1.596980
Running BFS 40
Time for BFS 40 is 0.258998
TEPS for BFS 40 is 6.4772e+07
Validating BFS 40
Validate time for BFS 40 is 1.597749
Running BFS 41
Time for BFS 41 is 0.258977
TEPS for BFS 41 is 6.47773e+07
Validating BFS 41
Validate time for BFS 41 is 1.605507
Running BFS 42
Time for BFS 42 is 0.259069
TEPS for BFS 42 is 6.47544e+07
Validating BFS 42
Validate time for BFS 42 is 1.598548
Running BFS 43
Time for BFS 43 is 0.258996
TEPS for BFS 43 is 6.47725e+07
Validating BFS 43
Validate time for BFS 43 is 1.600521
Running BFS 44
Time for BFS 44 is 0.258985
TEPS for BFS 44 is 6.47752e+07
Validating BFS 44
Validate time for BFS 44 is 1.604622
Running BFS 45
Time for BFS 45 is 0.259081
TEPS for BFS 45 is 6.47514e+07
Validating BFS 45
Validate time for BFS 45 is 1.597155
Running BFS 46
Time for BFS 46 is 0.259100
TEPS for BFS 46 is 6.47465e+07
Validating BFS 46
Validate time for BFS 46 is 1.603677
Running BFS 47
Time for BFS 47 is 0.259077
TEPS for BFS 47 is 6.47523e+07
Validating BFS 47
Validate time for BFS 47 is 1.599879
Running BFS 48
Time for BFS 48 is 0.259186
TEPS for BFS 48 is 6.47251e+07
Validating BFS 48
Validate time for BFS 48 is 1.605435
Running BFS 49
Time for BFS 49 is 0.258990
TEPS for BFS 49 is 6.4774e+07
Validating BFS 49
Validate time for BFS 49 is 1.598555
Running BFS 50
Time for BFS 50 is 0.259066
TEPS for BFS 50 is 6.47549e+07
Validating BFS 50
Validate time for BFS 50 is 1.596393
Running BFS 51
Time for BFS 51 is 0.259054
TEPS for BFS 51 is 6.47581e+07
Validating BFS 51
Validate time for BFS 51 is 1.605566
Running BFS 52
Time for BFS 52 is 0.259104
TEPS for BFS 52 is 6.47455e+07
Validating BFS 52
Validate time for BFS 52 is 1.605443
Running BFS 53
Time for BFS 53 is 0.259136
TEPS for BFS 53 is 6.47374e+07
Validating BFS 53
Validate time for BFS 53 is 1.598435
Running BFS 54
Time for BFS 54 is 0.258949
TEPS for BFS 54 is 6.47843e+07
Validating BFS 54
Validate time for BFS 54 is 1.605906
Running BFS 55
Time for BFS 55 is 0.259142
TEPS for BFS 55 is 6.47361e+07
Validating BFS 55
Validate time for BFS 55 is 1.599518
Running BFS 56
Time for BFS 56 is 0.258948
TEPS for BFS 56 is 6.47846e+07
Validating BFS 56
Validate time for BFS 56 is 1.598669
Running BFS 57
Time for BFS 57 is 0.259134
TEPS for BFS 57 is 6.47381e+07
Validating BFS 57
Validate time for BFS 57 is 1.605887
Running BFS 58
Time for BFS 58 is 0.259061
TEPS for BFS 58 is 6.47563e+07
Validating BFS 58
Validate time for BFS 58 is 1.603651
Running BFS 59
Time for BFS 59 is 0.259120
TEPS for BFS 59 is 6.47416e+07
Validating BFS 59
Validate time for BFS 59 is 1.605839
Running BFS 60
Time for BFS 60 is 0.259072
TEPS for BFS 60 is 6.47534e+07
Validating BFS 60
Validate time for BFS 60 is 1.599290
Running BFS 61
Time for BFS 61 is 0.258801
TEPS for BFS 61 is 6.48212e+07
Validating BFS 61
Validate time for BFS 61 is 1.604544
Running BFS 62
Time for BFS 62 is 0.259013
TEPS for BFS 62 is 6.47683e+07
Validating BFS 62
Validate time for BFS 62 is 1.605529
Running BFS 63
Time for BFS 63 is 0.258898
TEPS for BFS 63 is 6.47969e+07
Validating BFS 63
Validate time for BFS 63 is 1.597559
real	2m 18.13s
user	2m 18.02s
sys	0m 0.09s
