/dev/cpu/msr_batch: No such file or directory
graph_generation:               6.446317 s
construction_time:              1.051578 s
Running BFS 0
Time for BFS 0 is 0.259631
TEPS for BFS 0 is 6.46141e+07
Validating BFS 0
Validate time for BFS 0 is 1.632699
Running BFS 1
Time for BFS 1 is 0.259576
TEPS for BFS 1 is 6.46277e+07
Validating BFS 1
Validate time for BFS 1 is 1.631471
Running BFS 2
Time for BFS 2 is 0.259617
TEPS for BFS 2 is 6.46177e+07
Validating BFS 2
Validate time for BFS 2 is 1.632613
Running BFS 3
Time for BFS 3 is 0.259562
TEPS for BFS 3 is 6.46311e+07
Validating BFS 3
Validate time for BFS 3 is 1.629891
Running BFS 4
Time for BFS 4 is 0.259449
TEPS for BFS 4 is 6.46595e+07
Validating BFS 4
Validate time for BFS 4 is 1.629770
Running BFS 5
Time for BFS 5 is 0.259441
TEPS for BFS 5 is 6.46615e+07
Validating BFS 5
Validate time for BFS 5 is 1.631810
Running BFS 6
Time for BFS 6 is 0.259515
TEPS for BFS 6 is 6.4643e+07
Validating BFS 6
Validate time for BFS 6 is 1.629587
Running BFS 7
Time for BFS 7 is 0.259523
TEPS for BFS 7 is 6.4641e+07
Validating BFS 7
Validate time for BFS 7 is 1.631008
Running BFS 8
Time for BFS 8 is 0.259466
TEPS for BFS 8 is 6.46551e+07
Validating BFS 8
Validate time for BFS 8 is 1.628342
Running BFS 9
Time for BFS 9 is 0.259440
TEPS for BFS 9 is 6.46617e+07
Validating BFS 9
Validate time for BFS 9 is 1.629278
Running BFS 10
Time for BFS 10 is 0.259496
TEPS for BFS 10 is 6.46478e+07
Validating BFS 10
Validate time for BFS 10 is 1.632086
Running BFS 11
Time for BFS 11 is 0.259508
TEPS for BFS 11 is 6.46447e+07
Validating BFS 11
Validate time for BFS 11 is 1.629053
Running BFS 12
Time for BFS 12 is 0.259409
TEPS for BFS 12 is 6.46694e+07
Validating BFS 12
Validate time for BFS 12 is 1.630633
Running BFS 13
Time for BFS 13 is 0.259472
TEPS for BFS 13 is 6.46537e+07
Validating BFS 13
Validate time for BFS 13 is 1.629113
Running BFS 14
Time for BFS 14 is 0.259428
TEPS for BFS 14 is 6.46646e+07
Validating BFS 14
Validate time for BFS 14 is 1.629320
Running BFS 15
Time for BFS 15 is 0.259564
TEPS for BFS 15 is 6.46307e+07
Validating BFS 15
Validate time for BFS 15 is 1.633239
Running BFS 16
Time for BFS 16 is 0.259491
TEPS for BFS 16 is 6.4649e+07
Validating BFS 16
Validate time for BFS 16 is 1.630222
Running BFS 17
Time for BFS 17 is 0.259542
TEPS for BFS 17 is 6.46362e+07
Validating BFS 17
Validate time for BFS 17 is 1.632335
Running BFS 18
Time for BFS 18 is 0.259542
TEPS for BFS 18 is 6.46361e+07
Validating BFS 18
Validate time for BFS 18 is 1.632186
Running BFS 19
Time for BFS 19 is 0.259503
TEPS for BFS 19 is 6.4646e+07
Validating BFS 19
Validate time for BFS 19 is 1.633915
Running BFS 20
Time for BFS 20 is 0.259581
TEPS for BFS 20 is 6.46266e+07
Validating BFS 20
Validate time for BFS 20 is 1.630040
Running BFS 21
Time for BFS 21 is 0.259511
TEPS for BFS 21 is 6.4644e+07
Validating BFS 21
Validate time for BFS 21 is 1.630541
Running BFS 22
Time for BFS 22 is 0.259479
TEPS for BFS 22 is 6.4652e+07
Validating BFS 22
Validate time for BFS 22 is 1.630598
Running BFS 23
Time for BFS 23 is 0.259491
TEPS for BFS 23 is 6.4649e+07
Validating BFS 23
Validate time for BFS 23 is 1.632837
Running BFS 24
Time for BFS 24 is 0.259591
TEPS for BFS 24 is 6.46241e+07
Validating BFS 24
Validate time for BFS 24 is 1.629880
Running BFS 25
Time for BFS 25 is 0.259464
TEPS for BFS 25 is 6.46557e+07
Validating BFS 25
Validate time for BFS 25 is 1.632728
Running BFS 26
Time for BFS 26 is 0.259543
TEPS for BFS 26 is 6.4636e+07
Validating BFS 26
Validate time for BFS 26 is 1.632635
Running BFS 27
Time for BFS 27 is 0.259644
TEPS for BFS 27 is 6.46109e+07
Validating BFS 27
Validate time for BFS 27 is 1.629092
Running BFS 28
Time for BFS 28 is 0.259606
TEPS for BFS 28 is 6.46202e+07
Validating BFS 28
Validate time for BFS 28 is 1.633375
Running BFS 29
Time for BFS 29 is 0.259547
TEPS for BFS 29 is 6.46351e+07
Validating BFS 29
Validate time for BFS 29 is 1.632383
Running BFS 30
Time for BFS 30 is 0.259531
TEPS for BFS 30 is 6.4639e+07
Validating BFS 30
Validate time for BFS 30 is 1.633085
Running BFS 31
Time for BFS 31 is 0.259456
TEPS for BFS 31 is 6.46577e+07
Validating BFS 31
Validate time for BFS 31 is 1.628620
Running BFS 32
Time for BFS 32 is 0.259584
TEPS for BFS 32 is 6.46258e+07
Validating BFS 32
Validate time for BFS 32 is 1.629342
Running BFS 33
Time for BFS 33 is 0.259519
TEPS for BFS 33 is 6.4642e+07
Validating BFS 33
Validate time for BFS 33 is 1.631934
Running BFS 34
Time for BFS 34 is 0.259518
TEPS for BFS 34 is 6.46422e+07
Validating BFS 34
Validate time for BFS 34 is 1.629065
Running BFS 35
Time for BFS 35 is 0.259503
TEPS for BFS 35 is 6.4646e+07
Validating BFS 35
Validate time for BFS 35 is 1.629356
Running BFS 36
Time for BFS 36 is 0.259533
TEPS for BFS 36 is 6.46384e+07
Validating BFS 36
Validate time for BFS 36 is 1.629182
Running BFS 37
Time for BFS 37 is 0.259560
TEPS for BFS 37 is 6.46318e+07
Validating BFS 37
Validate time for BFS 37 is 1.630990
Running BFS 38
Time for BFS 38 is 0.259629
TEPS for BFS 38 is 6.46145e+07
Validating BFS 38
Validate time for BFS 38 is 1.629621
Running BFS 39
Time for BFS 39 is 0.259642
TEPS for BFS 39 is 6.46113e+07
Validating BFS 39
Validate time for BFS 39 is 1.629430
Running BFS 40
Time for BFS 40 is 0.259537
TEPS for BFS 40 is 6.46376e+07
Validating BFS 40
Validate time for BFS 40 is 1.630023
Running BFS 41
Time for BFS 41 is 0.259445
TEPS for BFS 41 is 6.46604e+07
Validating BFS 41
Validate time for BFS 41 is 1.632105
Running BFS 42
Time for BFS 42 is 0.259529
TEPS for BFS 42 is 6.46396e+07
Validating BFS 42
Validate time for BFS 42 is 1.629609
Running BFS 43
Time for BFS 43 is 0.259555
TEPS for BFS 43 is 6.4633e+07
Validating BFS 43
Validate time for BFS 43 is 1.629964
Running BFS 44
Time for BFS 44 is 0.259531
TEPS for BFS 44 is 6.46389e+07
Validating BFS 44
Validate time for BFS 44 is 1.631720
Running BFS 45
Time for BFS 45 is 0.259601
TEPS for BFS 45 is 6.46215e+07
Validating BFS 45
Validate time for BFS 45 is 1.629881
Running BFS 46
Time for BFS 46 is 0.259466
TEPS for BFS 46 is 6.46552e+07
Validating BFS 46
Validate time for BFS 46 is 1.630439
Running BFS 47
Time for BFS 47 is 0.259506
TEPS for BFS 47 is 6.46452e+07
Validating BFS 47
Validate time for BFS 47 is 1.629176
Running BFS 48
Time for BFS 48 is 0.259532
TEPS for BFS 48 is 6.46387e+07
Validating BFS 48
Validate time for BFS 48 is 1.632105
Running BFS 49
Time for BFS 49 is 0.259477
TEPS for BFS 49 is 6.46525e+07
Validating BFS 49
Validate time for BFS 49 is 1.629263
Running BFS 50
Time for BFS 50 is 0.259510
TEPS for BFS 50 is 6.46442e+07
Validating BFS 50
Validate time for BFS 50 is 1.629607
Running BFS 51
Time for BFS 51 is 0.259628
TEPS for BFS 51 is 6.46147e+07
Validating BFS 51
Validate time for BFS 51 is 1.631801
Running BFS 52
Time for BFS 52 is 0.259542
TEPS for BFS 52 is 6.46363e+07
Validating BFS 52
Validate time for BFS 52 is 1.632692
Running BFS 53
Time for BFS 53 is 0.259573
TEPS for BFS 53 is 6.46285e+07
Validating BFS 53
Validate time for BFS 53 is 1.629350
Running BFS 54
Time for BFS 54 is 0.259522
TEPS for BFS 54 is 6.46413e+07
Validating BFS 54
Validate time for BFS 54 is 1.631984
Running BFS 55
Time for BFS 55 is 0.259618
TEPS for BFS 55 is 6.46172e+07
Validating BFS 55
Validate time for BFS 55 is 1.629421
Running BFS 56
Time for BFS 56 is 0.259431
TEPS for BFS 56 is 6.46638e+07
Validating BFS 56
Validate time for BFS 56 is 1.629220
Running BFS 57
Time for BFS 57 is 0.259496
TEPS for BFS 57 is 6.46478e+07
Validating BFS 57
Validate time for BFS 57 is 1.633188
Running BFS 58
Time for BFS 58 is 0.259589
TEPS for BFS 58 is 6.46245e+07
Validating BFS 58
Validate time for BFS 58 is 1.630820
Running BFS 59
Time for BFS 59 is 0.259517
TEPS for BFS 59 is 6.46424e+07
Validating BFS 59
Validate time for BFS 59 is 1.632470
Running BFS 60
Time for BFS 60 is 0.259924
TEPS for BFS 60 is 6.45411e+07
Validating BFS 60
Validate time for BFS 60 is 1.629531
Running BFS 61
Time for BFS 61 is 0.259393
TEPS for BFS 61 is 6.46734e+07
Validating BFS 61
Validate time for BFS 61 is 1.631652
Running BFS 62
Time for BFS 62 is 0.259512
TEPS for BFS 62 is 6.46436e+07
Validating BFS 62
Validate time for BFS 62 is 1.632591
Running BFS 63
Time for BFS 63 is 0.259319
TEPS for BFS 63 is 6.46917e+07
Validating BFS 63
Validate time for BFS 63 is 1.629593
real	2m 20.02s
user	2m 19.92s
sys	0m 0.09s
