time(ms) function_name moment
210042939 MPI_Allreduce 0
210042939 MPI_Allreduce 1
210042939 MPI_Bcast 0
210042939 MPI_Bcast 1
210042939 MPI_Bcast 0
210042939 MPI_Bcast 1
210042939 MPI_Allreduce 0
210042939 MPI_Allreduce 1
210042939 MPI_Allreduce 0
210042939 MPI_Allreduce 1
210042939 MPI_Allgather 0
210042939 MPI_Allgather 1
210043009 MPI_Allgather 0
210043009 MPI_Allgather 1
210043009 MPI_Allgather 0
210043009 MPI_Allgather 1
210050499 MPI_Allreduce 0
210050521 MPI_Allreduce 1
210100456 MPI_Allreduce 0
210100461 MPI_Allreduce 1
210100461 MPI_Allreduce 0
210100461 MPI_Allreduce 1
210100461 MPI_Allreduce 0
210100461 MPI_Allreduce 1
