/dev/cpu/msr_batch: No such file or directory
terminate called after throwing an instance of 'std::bad_alloc'
  what():  std::bad_alloc
[box:04218] *** Process received signal ***
[box:04218] Signal: Aborted (6)
[box:04218] Signal code:  (-6)
[box:04218] [ 0] /lib/libpthread.so.0(+0x10030)[0x7f9fb5982030]
[box:04218] [ 1] /lib/libc.so.6(gsignal+0xbb)[0x7f9fb562885e]
[box:04218] [ 2] /lib/libc.so.6(abort+0x139)[0x7f9fb562999d]
[box:04218] [ 3] /usr/lib/libstdc++.so.6(_ZN9__gnu_cxx27__verbose_terminate_handlerEv+0xbc)[0x7f9fb61639ad]
[box:04218] [ 4] /usr/lib/libstdc++.so.6(+0x94081)[0x7f9fb6162081]
[box:04218] [ 5] /usr/lib/libstdc++.so.6(+0x940ba)[0x7f9fb61620ba]
[box:04218] [ 6] /usr/lib/libstdc++.so.6(__cxa_rethrow+0x0)[0x7f9fb616229c]
[box:04218] [ 7] /usr/lib/libstdc++.so.6(_Znwm+0x53)[0x7f9fb616263a]
[box:04218] [ 8] /mnt/sda1/miniFE/src/miniFE.x[0x412849]
[box:04218] [ 9] /mnt/sda1/miniFE/src/miniFE.x[0x419c53]
[box:04218] [10] /mnt/sda1/miniFE/src/miniFE.x[0x404d2a]
[box:04218] [11] /lib/libc.so.6(__libc_start_main+0x15a)[0x7f9fb561909d]
[box:04218] [12] /mnt/sda1/miniFE/src/miniFE.x[0x406b6a]
[box:04218] *** End of error message ***
--------------------------------------------------------------------------
mpirun noticed that process rank 0 with PID 0 on node box exited on signal 6 (Aborted).
--------------------------------------------------------------------------
Command exited with non-zero status 134
real	1m 0.60s
user	1m 41.70s
sys	0m 6.26s
