time(ms) energy(J) hostname
42221133 0.000000 box
42221233 1.396667 box
42221333 1.334839 box
42221433 1.418152 box
42221533 1.413208 box
42221633 1.332092 box
42221733 1.311951 box
42221833 1.306030 box
42221933 1.307861 box
42222033 1.308533 box
42222133 1.307556 box
42222233 1.307983 box
42222333 1.311646 box
42222433 1.307068 box
42222533 1.309265 box
42222633 1.306641 box
42222733 1.307800 box
42222833 1.349854 box
42222933 1.449219 box
42223033 1.447083 box
42223133 1.446350 box
42223233 1.446411 box
42223333 1.446350 box
42223433 1.441345 box
42223533 1.413879 box
42223633 1.445190 box
42223733 1.447571 box
42223833 1.446594 box
42223933 1.446411 box
42224033 1.449890 box
42224133 1.445679 box
42224233 1.446167 box
42224333 1.446899 box
42224433 1.445312 box
42224533 1.446655 box
42224633 1.445862 box
42224733 1.446472 box
42224833 1.445862 box
42224933 1.446167 box
42225033 1.445984 box
42225133 1.446228 box
42225233 1.446411 box
42225333 1.446472 box
42225433 1.445862 box
42225533 1.446228 box
42225633 1.445862 box
42225733 1.446106 box
42225833 1.446289 box
42225933 1.444824 box
42226033 1.445984 box
42226133 1.446045 box
42226233 1.445862 box
42226333 1.444824 box
42226433 1.449402 box
42226533 1.447449 box
42226633 1.445496 box
42226733 1.445984 box
42226833 1.443909 box
42226933 1.446899 box
42227033 1.445251 box
42227133 1.446228 box
42227233 1.446716 box
42227333 1.445862 box
42227433 1.446228 box
42227533 1.446838 box
42227633 1.444580 box
42227733 1.447449 box
42227833 1.445007 box
42227933 1.447021 box
42228033 1.444885 box
42228133 1.446960 box
42228233 1.445374 box
42228333 1.446167 box
42228433 1.446960 box
42228533 1.445068 box
42228633 1.447144 box
42228733 1.445618 box
42228833 1.446106 box
42228933 1.446045 box
42229033 1.445374 box
42229133 1.446716 box
42229233 1.444458 box
42229333 1.446899 box
42229433 1.445068 box
42229533 1.446289 box
42229633 1.445984 box
42229733 1.446167 box
42229833 1.445984 box
42229933 1.447144 box
42230033 1.445190 box
42230133 1.446411 box
42230233 1.447021 box
42230333 1.444885 box
42230433 1.446106 box
42230533 1.445496 box
42230633 1.446838 box
42230733 1.446167 box
42230833 1.444885 box
42230933 1.447632 box
42231033 1.444031 box
42231133 1.446716 box
42231233 1.446960 box
42231333 1.445496 box
42231433 1.446045 box
42231533 1.446960 box
42231633 1.446594 box
42231733 1.446106 box
42231833 1.445679 box
42231933 1.445557 box
42232033 1.446350 box
42232133 1.444763 box
42232233 1.447144 box
42232333 1.445801 box
42232433 1.446899 box
42232533 1.446045 box
42232633 1.446045 box
42232733 1.445496 box
42232833 1.445557 box
42232933 1.447327 box
42233033 1.445374 box
42233133 1.446899 box
42233233 1.445374 box
42233333 1.446228 box
42233433 1.445557 box
42233533 1.446777 box
42233633 1.444946 box
42233733 1.446472 box
42233833 1.449341 box
42233933 1.445374 box
42234033 1.445862 box
42234133 1.445312 box
42234233 1.446716 box
42234333 1.446289 box
42234433 1.447144 box
42234533 1.445007 box
42234633 1.446350 box
42234733 1.446228 box
42234833 1.445923 box
42234933 1.445618 box
42235033 1.445618 box
42235133 1.446411 box
42235233 1.446350 box
42235333 1.444885 box
42235433 1.446289 box
42235533 1.446655 box
42235633 1.445923 box
42235733 1.445374 box
42235833 1.447266 box
42235933 1.445557 box
42236033 1.446045 box
42236133 1.445801 box
42236233 1.444885 box
42236333 1.446228 box
42236433 1.445923 box
42236533 1.447144 box
42236633 1.446045 box
42236733 1.446106 box
42236833 1.445862 box
42236933 1.446106 box
42237033 1.445312 box
42237133 1.446838 box
42237233 1.445984 box
42237333 1.446655 box
42237433 1.446045 box
42237533 1.445190 box
42237633 1.447815 box
42237733 1.444458 box
42237833 1.446594 box
42237933 1.446960 box
42238033 1.445129 box
42238133 1.445190 box
42238233 1.445984 box
42238333 1.447083 box
42238433 1.446228 box
42238533 1.446167 box
42238633 1.446106 box
42238733 1.445129 box
42238833 1.445740 box
42238933 1.446045 box
42239033 1.447021 box
42239133 1.446411 box
42239233 1.445435 box
42239333 1.445801 box
42239433 1.445557 box
42239533 1.447754 box
42239633 1.444702 box
42239733 1.447693 box
42239833 1.444336 box
42239933 1.445801 box
42240033 1.446838 box
42240133 1.445679 box
42240233 1.446838 box
42240333 1.446045 box
42240433 1.446472 box
42240533 1.446716 box
42240633 1.446289 box
42240733 1.445618 box
42240833 1.445190 box
42240933 1.447571 box
42241033 1.445007 box
42241133 1.444885 box
42241233 1.446899 box
42241333 1.444824 box
42241433 1.446167 box
42241533 1.446533 box
42241633 1.445251 box
42241733 1.445679 box
42241833 1.447876 box
42241933 1.445557 box
42242033 1.443176 box
42242133 1.444763 box
42242233 1.418274 box
42242333 1.396667 box
42242433 1.392944 box
42242533 1.390991 box
42242633 1.394714 box
42242733 1.396851 box
42242833 1.391907 box
42242933 1.396423 box
42243033 1.394470 box
42243133 1.398193 box
42243233 1.397644 box
42243333 1.393066 box
42243433 1.394287 box
42243533 1.392578 box
42243633 1.386108 box
42243733 1.384766 box
42243833 1.384277 box
42243933 1.364319 box
42244033 1.361755 box
42244133 1.353333 box
42244233 1.345825 box
42244333 1.339722 box
42244433 1.342346 box
42244533 1.339661 box
42244633 1.332031 box
42244733 1.330933 box
42244833 1.331909 box
42244933 1.343384 box
42245033 1.346741 box
42245133 1.344727 box
42245233 1.346741 box
42245333 1.344543 box
42245433 1.346252 box
42245533 1.343933 box
42245633 1.346191 box
42245733 1.345764 box
42245833 1.346436 box
42245933 1.344543 box
42246033 1.345154 box
42246133 1.341309 box
42246233 1.332764 box
42246333 1.328918 box
42246433 1.332153 box
42246533 1.328369 box
42246633 1.329956 box
42246733 1.328857 box
42246833 1.326416 box
42246933 1.332703 box
42247033 1.315491 box
42247133 1.314941 box
42247233 1.315918 box
42247333 1.300171 box
42247433 1.349548 box
42247533 1.434204 box
42247633 1.430664 box
42247733 1.422180 box
42247833 1.420532 box
42247933 1.434448 box
42248033 1.445007 box
42248133 1.448303 box
42248233 1.445068 box
42248333 1.445129 box
42248433 1.446899 box
42248533 1.446411 box
42248633 1.444763 box
42248733 1.448730 box
42248833 1.445618 box
42248933 1.445557 box
42249033 1.445923 box
42249133 1.448181 box
42249233 1.445618 box
42249333 1.444824 box
42249433 1.446594 box
42249533 1.437866 box
42249633 1.447266 box
42249733 1.446777 box
42249833 1.447021 box
42249933 1.443909 box
42250033 1.449280 box
42250133 1.446594 box
42250233 1.446411 box
42250333 1.442993 box
42250433 1.444824 box
42250533 1.445557 box
42250633 1.442993 box
42250733 1.385376 box
42250833 1.404602 box
42250933 1.403870 box
42251033 1.403442 box
42251133 1.405334 box
42251233 1.394592 box
42251333 1.317749 box
42251433 1.399963 box
42251533 1.399902 box
42251633 1.404541 box
42251733 1.400757 box
42251833 1.402527 box
42251933 1.265686 box
42252033 1.375854 box
42252133 1.403442 box
42252233 1.401672 box
42252333 1.405396 box
42252433 1.403870 box
42252533 1.313782 box
42252633 1.330811 box
42252733 1.399780 box
42252833 1.401489 box
42252933 1.403320 box
42253033 1.402405 box
42253133 1.382629 box
42253233 1.262512 box
42253333 1.399902 box
42253433 1.400696 box
42253533 1.402771 box
42253633 1.427551 box
42253733 1.446594 box
42253833 1.428284 box
42253933 1.442749 box
42254033 1.445007 box
42254133 1.445679 box
42254233 1.438049 box
42254333 1.409546 box
42254433 1.354309 box
42254533 1.321045 box
42254633 1.409302 box
42254733 1.409912 box
42254833 1.412720 box
42254933 1.413147 box
42255033 1.404480 box
42255133 1.273193 box
42255233 1.404480 box
42255333 1.407349 box
42255433 1.402405 box
42255533 1.402100 box
42255633 1.401855 box
42255733 1.302063 box
42255833 1.348816 box
42255933 1.400818 box
42256033 1.401733 box
42256133 1.401184 box
42256233 1.403076 box
42256333 1.365845 box
42256433 1.283630 box
42256533 1.401245 box
42256633 1.400330 box
42256733 1.401794 box
42256833 1.402405 box
42256933 1.402893 box
42257033 1.276672 box
42257133 1.368896 box
42257233 1.408081 box
42257333 1.446533 box
42257433 1.445007 box
42257533 1.448120 box
42257633 1.426453 box
42257733 1.433960 box
42257833 1.443359 box
42257933 1.400635 box
42258033 1.402222 box
42258133 1.402832 box
42258233 1.369751 box
42258333 1.276428 box
42258433 1.398865 box
42258533 1.400818 box
42258633 1.402161 box
42258733 1.402039 box
42258833 1.399048 box
42258933 1.293091 box
42259033 1.360596 box
42259133 1.401123 box
42259233 1.403687 box
42259333 1.401611 box
42259433 1.401245 box
42259533 1.337646 box
42259633 1.311401 box
42259733 1.402161 box
42259833 1.400635 box
42259933 1.401001 box
42260033 1.398804 box
42260133 1.393921 box
42260233 1.254089 box
42260333 1.398987 box
42260433 1.402710 box
42260533 1.406738 box
42260633 1.414001 box
42260733 1.413330 box
42260833 1.319397 box
42260933 1.434204 box
42261033 1.446655 box
42261133 1.447693 box
42261233 1.445496 box
42261333 1.445190 box
42261433 1.437500 box
42261533 1.354370 box
42261633 1.401001 box
42261733 1.397949 box
42261833 1.402344 box
42261933 1.400879 box
42262033 1.401001 box
42262133 1.268982 box
42262233 1.376221 box
42262333 1.400208 box
42262433 1.400696 box
42262533 1.401184 box
42262633 1.407410 box
42262733 1.331055 box
42262833 1.344238 box
42262933 1.411621 box
42263033 1.409912 box
42263133 1.410828 box
42263233 1.408936 box
42263333 1.396851 box
42263433 1.286255 box
42263533 1.405334 box
42263633 1.404419 box
42263733 1.400696 box
42263833 1.401978 box
42263933 1.400818 box
42264033 1.302124 box
42264133 1.352600 box
42264233 1.400391 box
42264333 1.400757 box
42264433 1.401978 box
42264533 1.423889 box
42264633 1.430359 box
42264733 1.425354 box
42264833 1.446289 box
42264933 1.445740 box
42265033 1.445801 box
42265133 1.432007 box
42265233 1.391174 box
42265333 1.263062 box
42265433 1.396179 box
42265533 1.398865 box
42265633 1.399048 box
42265733 1.400146 box
42265833 1.400879 box
42265933 1.299805 box
42266033 1.356750 box
42266133 1.400085 box
42266233 1.400940 box
42266333 1.401855 box
42266433 1.400940 box
42266533 1.364502 box
42266633 1.292969 box
42266733 1.401123 box
42266833 1.408936 box
42266933 1.410156 box
42267033 1.410950 box
42267133 1.410767 box
42267233 1.296631 box
42267333 1.380188 box
42267433 1.408325 box
42267533 1.410339 box
42267633 1.409241 box
42267733 1.412292 box
42267833 1.340454 box
42267933 1.334900 box
42268033 1.409363 box
42268133 1.422974 box
42268233 1.445740 box
42268333 1.445984 box
42268433 1.447815 box
42268533 1.441101 box
42268633 1.446838 box
42268733 1.445923 box
42268833 1.446777 box
42268933 1.408081 box
42269033 1.408997 box
42269133 1.308838 box
42269233 1.361450 box
42269333 1.411255 box
42269433 1.411804 box
42269533 1.408936 box
42269633 1.409302 box
42269733 1.360535 box
42269833 1.311584 box
42269933 1.410217 box
42270033 1.409668 box
42270133 1.412415 box
42270233 1.412109 box
42270333 1.409424 box
42270433 1.285156 box
42270533 1.396790 box
42270633 1.410461 box
42270733 1.409546 box
42270833 1.408936 box
42270933 1.409302 box
42271033 1.311829 box
42271133 1.343811 box
42271233 1.401733 box
42271333 1.401184 box
42271433 1.399902 box
42271533 1.402466 box
42271633 1.376099 box
42271733 1.278564 box
42271833 1.401489 box
42271933 1.447571 box
42272033 1.446533 box
42272133 1.448059 box
42272233 1.443848 box
42272333 1.424500 box
42272433 1.439758 box
42272533 1.410522 box
42272633 1.411682 box
42272733 1.410339 box
42272833 1.411011 box
42272933 1.341492 box
42273033 1.328064 box
42273133 1.400208 box
42273233 1.399719 box
42273333 1.401733 box
42273433 1.401978 box
42273533 1.393127 box
42273633 1.263611 box
42273733 1.399597 box
42273833 1.399658 box
42273933 1.402344 box
42274033 1.402649 box
42274133 1.401611 box
42274233 1.302490 box
42274333 1.352539 box
42274433 1.399048 box
42274533 1.399780 box
42274633 1.401672 box
42274733 1.400940 box
42274833 1.356384 box
42274933 1.297180 box
42275033 1.402771 box
42275133 1.402344 box
42275233 1.401855 box
42275333 1.402161 box
42275433 1.401184 box
42275533 1.394470 box
42275633 1.442322 box
42275733 1.447205 box
42275833 1.446411 box
42275933 1.445801 box
42276033 1.446350 box
42276133 1.335693 box
42276233 1.345276 box
42276333 1.408264 box
42276433 1.408142 box
42276533 1.412842 box
42276633 1.410950 box
42276733 1.387939 box
42276833 1.287903 box
42276933 1.407104 box
42277033 1.408569 box
42277133 1.410278 box
42277233 1.408020 box
42277333 1.409058 box
42277433 1.311035 box
42277533 1.366638 box
42277633 1.409424 box
42277733 1.409241 box
42277833 1.411987 box
42277933 1.410278 box
42278033 1.353577 box
42278133 1.326599 box
42278233 1.404114 box
42278333 1.401001 box
42278433 1.402039 box
42278533 1.401489 box
42278633 1.393860 box
42278733 1.270325 box
42278833 1.393433 box
42278933 1.402405 box
42279033 1.400330 box
42279133 1.436829 box
42279233 1.445679 box
42279333 1.437805 box
42279433 1.448059 box
42279533 1.445435 box
42279633 1.446350 box
42279733 1.438477 box
42279833 1.399658 box
42279933 1.364014 box
42280033 1.292847 box
42280133 1.398071 box
42280233 1.399475 box
42280333 1.412415 box
42280433 1.410767 box
42280533 1.408081 box
42280633 1.297119 box
42280733 1.384033 box
42280833 1.408447 box
42280933 1.409119 box
42281033 1.409668 box
42281133 1.409485 box
42281233 1.341919 box
42281333 1.336121 box
42281433 1.408508 box
42281533 1.409302 box
42281633 1.410400 box
42281733 1.409241 box
42281833 1.400696 box
42281933 1.276001 box
42282033 1.408691 box
42282133 1.411438 box
42282233 1.410400 box
42282333 1.411011 box
42282433 1.401184 box
42282533 1.300598 box
42282633 1.352539 box
42282733 1.406189 box
42282833 1.445923 box
42282933 1.446716 box
42283033 1.447937 box
42283133 1.436218 box
42283233 1.433044 box
42283333 1.445923 box
42283433 1.402466 box
42283533 1.410889 box
42283633 1.410156 box
42283733 1.402893 box
42283833 1.277466 box
42283933 1.406433 box
42284033 1.410706 box
42284133 1.409973 box
42284233 1.411560 box
42284333 1.409851 box
42284433 1.318726 box
42284533 1.363464 box
42284633 1.410278 box
42284733 1.411621 box
42284833 1.413086 box
42284933 1.410400 box
42285033 1.377930 box
42285133 1.306030 box
42285233 1.408752 box
42285333 1.411377 box
42285433 1.409302 box
42285533 1.411804 box
42285633 1.412292 box
42285733 1.293945 box
42285833 1.382446 box
42285933 1.409790 box
42286033 1.410400 box
42286133 1.412231 box
42286233 1.408997 box
42286333 1.339233 box
42286433 1.426514 box
42286533 1.446838 box
42286633 1.447327 box
42286733 1.445435 box
42286833 1.446167 box
42286933 1.443176 box
42287033 1.307007 box
42287133 1.407288 box
42287233 1.407410 box
42287333 1.410889 box
42287433 1.412292 box
42287533 1.409912 box
42287633 1.315002 box
42287733 1.366760 box
42287833 1.410217 box
42287933 1.411011 box
42288033 1.411194 box
42288133 1.413635 box
42288233 1.359131 box
42288333 1.320740 box
42288433 1.410034 box
42288533 1.411926 box
42288633 1.407471 box
42288733 1.404724 box
42288833 1.397400 box
42288933 1.273010 box
42289033 1.389832 box
42289133 1.400635 box
42289233 1.400940 box
42289333 1.401917 box
42289433 1.401428 box
42289533 1.311646 box
42289633 1.347290 box
42289733 1.408508 box
42289833 1.409973 box
42289933 1.411133 box
42290033 1.445923 box
42290133 1.440247 box
42290233 1.432190 box
42290333 1.446594 box
42290433 1.445251 box
42290533 1.446594 box
42290633 1.423096 box
42290733 1.400879 box
42290833 1.291443 box
42290933 1.369263 box
42291033 1.399109 box
42291133 1.401123 box
42291233 1.400513 box
42291333 1.402161 box
42291433 1.332153 box
42291533 1.323547 box
42291633 1.401794 box
42291733 1.406372 box
42291833 1.410217 box
42291933 1.412048 box
42292033 1.405884 box
42292133 1.278503 box
42292233 1.407349 box
42292333 1.408081 box
42292433 1.408875 box
42292533 1.411987 box
42292633 1.409363 box
42292733 1.315247 box
42292833 1.364197 box
42292933 1.408264 box
42293033 1.408936 box
42293133 1.409424 box
42293233 1.410583 box
42293333 1.370483 box
42293433 1.314148 box
42293533 1.408386 box
42293633 1.433167 box
42293733 1.447388 box
42293833 1.447266 box
42293933 1.445251 box
42294033 1.442200 box
42294133 1.447632 box
42294233 1.446167 box
42294333 1.446655 box
42294433 1.409790 box
42294533 1.408142 box
42294633 1.327026 box
42294733 1.351135 box
42294833 1.409302 box
42294933 1.409668 box
42295033 1.412109 box
42295133 1.408997 box
42295233 1.387451 box
42295333 1.296326 box
42295433 1.408447 box
42295533 1.409058 box
42295633 1.411926 box
42295733 1.410339 box
42295833 1.411133 box
42295933 1.318787 box
42296033 1.371277 box
42296133 1.409058 box
42296233 1.411316 box
42296333 1.411438 box
42296433 1.410828 box
42296533 1.354370 box
42296633 1.331482 box
42296733 1.409485 box
42296833 1.408691 box
42296933 1.411804 box
42297033 1.411987 box
42297133 1.405884 box
42297233 1.287415 box
42297333 1.403198 box
42297433 1.444519 box
42297533 1.446167 box
42297633 1.447876 box
42297733 1.444885 box
42297833 1.429199 box
42297933 1.437744 box
42298033 1.412170 box
42298133 1.409546 box
42298233 1.411560 box
42298333 1.410889 box
42298433 1.371399 box
42298533 1.310852 box
42298633 1.410767 box
42298733 1.410156 box
42298833 1.409485 box
42298933 1.413513 box
42299033 1.409790 box
42299133 1.296814 box
42299233 1.387207 box
42299333 1.410278 box
42299433 1.409180 box
42299533 1.409729 box
42299633 1.409546 box
42299733 1.340698 box
42299833 1.342346 box
42299933 1.409851 box
42300033 1.410400 box
42300133 1.412231 box
42300233 1.414062 box
42300333 1.397095 box
42300433 1.285156 box
42300533 1.408630 box
42300633 1.411621 box
42300733 1.411255 box
42300833 1.409851 box
42300933 1.409973 box
42301033 1.414978 box
42301133 1.434875 box
42301233 1.447693 box
42301333 1.446533 box
42301433 1.444580 box
42301533 1.446045 box
42301633 1.371521 box
42301733 1.324951 box
42301833 1.410400 box
42301933 1.408386 box
42302033 1.411560 box
42302133 1.409424 box
42302233 1.396667 box
42302333 1.268555 box
42302433 1.390869 box
42302533 1.402039 box
42302633 1.401184 box
42302733 1.401611 box
42302833 1.402527 box
42302933 1.310242 box
42303033 1.351257 box
42303133 1.401123 box
42303233 1.408752 box
42303333 1.411621 box
42303433 1.411560 box
42303533 1.382874 box
42303633 1.307617 box
42303733 1.407593 box
42303833 1.410461 box
42303933 1.412354 box
42304033 1.409668 box
42304133 1.408936 box
42304233 1.309143 box
42304333 1.377136 box
42304433 1.411377 box
42304533 1.410095 box
42304633 1.434448 box
42304733 1.446228 box
42304833 1.440430 box
42304933 1.446472 box
42305033 1.445312 box
42305133 1.447937 box
42305233 1.445251 box
42305333 1.406494 box
42305433 1.401306 box
42305533 1.289673 box
42305633 1.408142 box
42305733 1.409851 box
42305833 1.410828 box
42305933 1.410706 box
42306033 1.411865 box
42306133 1.327393 box
42306233 1.361389 box
42306333 1.409546 box
42306433 1.409729 box
42306533 1.411377 box
42306633 1.410889 box
42306733 1.366272 box
42306833 1.316345 box
42306933 1.408752 box
42307033 1.410522 box
42307133 1.411316 box
42307233 1.410217 box
42307333 1.408691 box
42307433 1.291016 box
42307533 1.395081 box
42307633 1.407959 box
42307733 1.410339 box
42307833 1.413391 box
42307933 1.411743 box
42308033 1.332825 box
42308133 1.350281 box
42308233 1.409363 box
42308333 1.448547 box
42308433 1.446411 box
42308533 1.447571 box
42308633 1.441040 box
42308733 1.427490 box
42308833 1.446411 box
42308933 1.412537 box
42309033 1.408875 box
42309133 1.411865 box
42309233 1.410156 box
42309333 1.300903 box
42309433 1.383728 box
42309533 1.409180 box
42309633 1.409241 box
42309733 1.410583 box
42309833 1.413818 box
42309933 1.347656 box
42310033 1.343994 box
42310133 1.409546 box
42310233 1.411621 box
42310333 1.409790 box
42310433 1.411316 box
42310533 1.401489 box
42310633 1.283264 box
42310733 1.411804 box
42310833 1.411682 box
42310933 1.411804 box
42311033 1.411560 box
42311133 1.412109 box
42311233 1.319641 box
42311333 1.365662 box
42311433 1.410706 box
42311533 1.412537 box
42311633 1.412903 box
42311733 1.410156 box
42311833 1.366882 box
42311933 1.404785 box
42312033 1.445740 box
42312133 1.448242 box
42312233 1.444397 box
42312333 1.446838 box
42312433 1.445251 box
42312533 1.309143 box
42312633 1.394104 box
42312733 1.400330 box
42312833 1.402039 box
42312933 1.399963 box
42313033 1.403076 box
42313133 1.310181 box
42313233 1.347656 box
42313333 1.399780 box
42313433 1.402527 box
42313533 1.403442 box
42313633 1.409546 box
42313733 1.382568 box
42313833 1.305664 box
42313933 1.411011 box
42314033 1.411011 box
42314133 1.411987 box
42314233 1.412476 box
42314333 1.410217 box
42314433 1.314148 box
42314533 1.379456 box
42314633 1.411133 box
42314733 1.410767 box
42314833 1.412842 box
42314933 1.410645 box
42315033 1.348206 box
42315133 1.340210 box
42315233 1.411377 box
42315333 1.411438 box
42315433 1.410583 box
42315533 1.442444 box
42315633 1.444763 box
42315733 1.428589 box
42315833 1.448059 box
42315933 1.444702 box
42316033 1.446777 box
42316133 1.428650 box
42316233 1.409668 box
42316333 1.325012 box
42316433 1.366577 box
42316533 1.411011 box
42316633 1.411621 box
42316733 1.410706 box
42316833 1.413574 box
42316933 1.369019 box
42317033 1.315002 box
42317133 1.410706 box
42317233 1.410889 box
42317333 1.411072 box
42317433 1.411865 box
42317533 1.411011 box
42317633 1.293701 box
42317733 1.392334 box
42317833 1.410828 box
42317933 1.409790 box
42318033 1.411743 box
42318133 1.409363 box
42318233 1.335754 box
42318333 1.349609 box
42318433 1.408447 box
42318533 1.410767 box
42318633 1.409485 box
42318733 1.410645 box
42318833 1.393982 box
42318933 1.296021 box
42319033 1.410400 box
42319133 1.429626 box
42319233 1.446167 box
42319333 1.447998 box
42319433 1.447632 box
42319533 1.446228 box
42319633 1.444275 box
42319733 1.445923 box
42319833 1.446777 box
42319933 1.414795 box
42320033 1.409607 box
42320133 1.353882 box
42320233 1.333313 box
42320333 1.410645 box
42320433 1.406555 box
42320533 1.412842 box
42320633 1.414124 box
42320733 1.404419 box
42320833 1.284119 box
42320933 1.400757 box
42321033 1.400940 box
42321133 1.400818 box
42321233 1.400940 box
42321333 1.401184 box
42321433 1.306641 box
42321533 1.359985 box
42321633 1.401245 box
42321733 1.401306 box
42321833 1.402344 box
42321933 1.407898 box
42322033 1.376160 box
42322133 1.313232 box
42322233 1.408203 box
42322333 1.411926 box
42322433 1.410339 box
42322533 1.413269 box
42322633 1.409363 box
42322733 1.306030 box
42322833 1.383423 box
42322933 1.441589 box
42323033 1.445496 box
42323133 1.448486 box
42323233 1.445129 box
42323333 1.431641 box
42323433 1.437134 box
42323533 1.417358 box
42323633 1.410461 box
42323733 1.410522 box
42323833 1.412598 box
42323933 1.397644 box
42324033 1.293396 box
42324133 1.411316 box
42324233 1.410522 box
42324333 1.410156 box
42324433 1.411438 box
42324533 1.412170 box
42324633 1.325684 box
42324733 1.366272 box
42324833 1.409668 box
42324933 1.412231 box
42325033 1.412720 box
42325133 1.411194 box
42325233 1.364075 box
42325333 1.322327 box
42325433 1.410828 box
42325533 1.409485 box
42325633 1.410889 box
42325733 1.413940 box
42325833 1.409607 box
42325933 1.288391 box
42326033 1.401794 box
42326133 1.412109 box
42326233 1.411255 box
42326333 1.413330 box
42326433 1.410950 box
42326533 1.410339 box
42326633 1.435669 box
42326733 1.447754 box
42326833 1.445374 box
42326933 1.445374 box
42327033 1.446716 box
42327133 1.400208 box
42327233 1.306396 box
42327333 1.411072 box
42327433 1.410217 box
42327533 1.411621 box
42327633 1.412476 box
42327733 1.410400 box
42327833 1.305908 box
42327933 1.385071 box
42328033 1.411804 box
42328133 1.410156 box
42328233 1.410217 box
42328333 1.414673 box
42328433 1.347351 box
42328533 1.343750 box
42328633 1.411072 box
42328733 1.408813 box
42328833 1.411682 box
42328933 1.412476 box
42329033 1.404663 box
42329133 1.290649 box
42329233 1.409180 box
42329333 1.412598 box
42329433 1.411926 box
42329533 1.410828 box
42329633 1.412537 box
42329733 1.322327 box
42329833 1.366150 box
42329933 1.408508 box
42330033 1.411072 box
42330133 1.429321 box
42330233 1.446777 box
42330333 1.443298 box
42330433 1.446594 box
42330533 1.445618 box
42330633 1.445190 box
42330733 1.446594 box
42330833 1.417664 box
42330933 1.410461 box
42331033 1.297485 box
42331133 1.393982 box
42331233 1.410400 box
42331333 1.411072 box
42331433 1.413086 box
42331533 1.412964 box
42331633 1.334778 box
42331733 1.351196 box
42331833 1.408142 box
42331933 1.410400 box
42332033 1.414917 box
42332133 1.409241 box
42332233 1.393433 box
42332333 1.294373 box
42332433 1.410034 box
42332533 1.412354 box
42332633 1.411499 box
42332733 1.412170 box
42332833 1.410706 box
42332933 1.318848 box
42333033 1.371582 box
42333133 1.410339 box
42333233 1.414246 box
42333333 1.412048 box
42333433 1.411926 box
42333533 1.359009 box
42333633 1.331604 box
42333733 1.408630 box
42333833 1.443054 box
42333933 1.446167 box
42334033 1.447388 box
42334133 1.444214 box
42334233 1.431091 box
42334333 1.446228 box
42334433 1.420532 box
42334533 1.410706 box
42334633 1.411011 box
42334733 1.408203 box
42334833 1.324036 box
42334933 1.364197 box
42335033 1.409424 box
42335133 1.409363 box
42335233 1.410522 box
42335333 1.409485 box
42335433 1.367432 box
42335533 1.320312 box
42335633 1.410889 box
42335733 1.410828 box
42335833 1.410950 box
42335933 1.411560 box
42336033 1.410400 box
42336133 1.293396 box
42336233 1.395996 box
42336333 1.410156 box
42336433 1.412170 box
42336533 1.413574 box
42336633 1.409485 box
42336733 1.335999 box
42336833 1.353577 box
42336933 1.408081 box
42337033 1.411377 box
42337133 1.413391 box
42337233 1.411621 box
42337333 1.393494 box
42337433 1.379639 box
42337533 1.445801 box
42337633 1.448181 box
42337733 1.446411 box
42337833 1.444641 box
42337933 1.446777 box
42338033 1.345642 box
42338133 1.377502 box
42338233 1.410278 box
42338333 1.412903 box
42338433 1.412292 box
42338533 1.412537 box
42338633 1.351501 box
42338733 1.337952 box
42338833 1.413879 box
42338933 1.409180 box
42339033 1.412537 box
42339133 1.410889 box
42339233 1.407349 box
42339333 1.288574 box
42339433 1.409363 box
42339533 1.411743 box
42339633 1.414246 box
42339733 1.411011 box
42339833 1.411438 box
42339933 1.325928 box
42340033 1.370117 box
42340133 1.411621 box
42340233 1.412231 box
42340333 1.412476 box
42340433 1.412292 box
42340533 1.379395 box
42340633 1.312622 box
42340733 1.410889 box
42340833 1.410034 box
42340933 1.411743 box
42341033 1.433533 box
42341133 1.446655 box
42341233 1.429565 box
42341333 1.449036 box
42341433 1.445129 box
42341533 1.446289 box
42341633 1.435364 box
42341733 1.412476 box
42341833 1.344116 box
42341933 1.348450 box
42342033 1.412659 box
42342133 1.410706 box
42342233 1.410400 box
42342333 1.410645 box
42342433 1.397522 box
42342533 1.293152 box
42342633 1.412048 box
42342733 1.411621 box
42342833 1.411865 box
42342933 1.414001 box
42343033 1.410889 box
42343133 1.324036 box
42343233 1.369019 box
42343333 1.409485 box
42343433 1.411926 box
42343533 1.411438 box
42343633 1.412476 box
42343733 1.362549 box
42343833 1.329285 box
42343933 1.411255 box
42344033 1.411438 box
42344133 1.412415 box
42344233 1.413086 box
42344333 1.407288 box
42344433 1.298035 box
42344533 1.402710 box
42344633 1.423523 box
42344733 1.446350 box
42344833 1.446106 box
42344933 1.447449 box
42345033 1.432495 box
42345133 1.440674 box
42345233 1.445557 box
42345333 1.408142 box
42345433 1.410522 box
42345533 1.410156 box
42345633 1.368652 box
42345733 1.321655 box
42345833 1.410278 box
42345933 1.407776 box
42346033 1.411926 box
42346133 1.412720 box
42346233 1.409607 box
42346333 1.296570 box
42346433 1.396606 box
42346533 1.409668 box
42346633 1.411377 box
42346733 1.412537 box
42346833 1.410889 box
42346933 1.337341 box
42347033 1.353760 box
42347133 1.410583 box
42347233 1.412903 box
42347333 1.410522 box
42347433 1.408203 box
42347533 1.390442 box
42347633 1.300171 box
42347733 1.409729 box
42347833 1.410950 box
42347933 1.413574 box
42348033 1.410400 box
42348133 1.410278 box
42348233 1.317322 box
42348333 1.441040 box
42348433 1.446594 box
42348533 1.447510 box
42348633 1.445801 box
42348733 1.447021 box
42348833 1.435303 box
42348933 1.360535 box
42349033 1.409485 box
42349133 1.408264 box
42349233 1.412170 box
42349333 1.410706 box
42349433 1.405457 box
42349533 1.283325 box
42349633 1.410156 box
42349733 1.410645 box
42349833 1.410034 box
42349933 1.411865 box
42350033 1.410522 box
42350133 1.320129 box
42350233 1.370789 box
42350333 1.409058 box
42350433 1.410645 box
42350533 1.411621 box
42350633 1.410217 box
42350733 1.377380 box
42350833 1.320618 box
42350933 1.411194 box
42351033 1.412659 box
42351133 1.411560 box
42351233 1.411194 box
42351333 1.409302 box
42351433 1.306824 box
42351533 1.385681 box
42351633 1.409973 box
42351733 1.412109 box
42351833 1.413879 box
42351933 1.435547 box
42352033 1.432068 box
42352133 1.440430 box
42352233 1.446472 box
42352333 1.445312 box
42352433 1.446045 box
42352533 1.429504 box
42352633 1.398560 box
42352733 1.298889 box
42352833 1.409729 box
42352933 1.411621 box
42353033 1.412842 box
42353133 1.410889 box
42353233 1.412231 box
42353333 1.321655 box
42353433 1.367859 box
42353533 1.413757 box
42353633 1.410706 box
42353733 1.413025 box
42353833 1.410400 box
42353933 1.363159 box
42354033 1.329285 box
42354133 1.410583 box
42354233 1.412109 box
42354333 1.414062 box
42354433 1.410156 box
42354533 1.409485 box
42354633 1.289551 box
42354733 1.402893 box
42354833 1.410645 box
42354933 1.411804 box
42355033 1.412048 box
42355133 1.412842 box
42355233 1.329773 box
42355333 1.360901 box
42355433 1.410767 box
42355533 1.429138 box
42355633 1.445984 box
42355733 1.448486 box
42355833 1.444397 box
42355933 1.445496 box
42356033 1.445068 box
42356133 1.446594 box
42356233 1.441345 box
42356333 1.410217 box
42356433 1.411438 box
42356533 1.303528 box
42356633 1.383240 box
42356733 1.412903 box
42356833 1.412659 box
42356933 1.410400 box
42357033 1.410828 box
42357133 1.347656 box
42357233 1.344604 box
42357333 1.409973 box
42357433 1.410278 box
42357533 1.412109 box
42357633 1.413391 box
42357733 1.403076 box
42357833 1.293518 box
42357933 1.408691 box
42358033 1.410950 box
42358133 1.411743 box
42358233 1.413269 box
42358333 1.414429 box
42358433 1.325867 box
42358533 1.370544 box
42358633 1.409363 box
42358733 1.412842 box
42358833 1.411255 box
42358933 1.412476 box
42359033 1.370667 box
42359133 1.324402 box
42359233 1.417236 box
42359333 1.446411 box
42359433 1.446289 box
42359533 1.447205 box
42359633 1.444763 box
42359733 1.427551 box
42359833 1.441833 box
42359933 1.408997 box
42360033 1.412354 box
42360133 1.412720 box
42360233 1.411499 box
42360333 1.325439 box
42360433 1.365967 box
42360533 1.411255 box
42360633 1.412048 box
42360733 1.413269 box
42360833 1.414612 box
42360933 1.384338 box
42361033 1.311279 box
42361133 1.410278 box
42361233 1.411438 box
42361333 1.411499 box
42361433 1.411560 box
42361533 1.409424 box
42361633 1.314575 box
42361733 1.380249 box
42361833 1.410889 box
42361933 1.409241 box
42362033 1.413452 box
42362133 1.409485 box
42362233 1.353516 box
42362333 1.341553 box
42362433 1.410950 box
42362533 1.409424 box
42362633 1.410706 box
42362733 1.412048 box
42362833 1.405518 box
42362933 1.421509 box
42363033 1.446899 box
42363133 1.446594 box
42363233 1.445496 box
42363333 1.445984 box
42363433 1.447205 box
42363533 1.331604 box
42363633 1.363159 box
42363733 1.409912 box
42363833 1.410461 box
42363933 1.411621 box
42364033 1.411926 box
42364133 1.368286 box
42364233 1.324402 box
42364333 1.409424 box
42364433 1.411011 box
42364533 1.411438 box
42364633 1.411255 box
42364733 1.410645 box
42364833 1.297119 box
42364933 1.395020 box
42365033 1.409790 box
42365133 1.409485 box
42365233 1.412659 box
42365333 1.410889 box
42365433 1.340271 box
42365533 1.354126 box
42365633 1.408936 box
42365733 1.411987 box
42365833 1.410950 box
42365933 1.411743 box
42366033 1.395813 box
42366133 1.300171 box
42366233 1.410217 box
42366333 1.412842 box
42366433 1.410828 box
42366533 1.444824 box
42366633 1.446411 box
42366733 1.441345 box
42366833 1.443970 box
42366933 1.444214 box
42367033 1.447083 box
42367133 1.434387 box
42367233 1.409851 box
42367333 1.356567 box
42367433 1.338257 box
42367533 1.412659 box
42367633 1.412598 box
42367733 1.412415 box
42367833 1.410889 box
42367933 1.406067 box
42368033 1.292847 box
42368133 1.408569 box
42368233 1.412659 box
42368333 1.410339 box
42368433 1.411865 box
42368533 1.410156 box
42368633 1.324951 box
42368733 1.368469 box
42368833 1.410645 box
42368933 1.411743 box
42369033 1.411743 box
42369133 1.412598 box
42369233 1.382141 box
42369333 1.315491 box
42369433 1.410339 box
42369533 1.412537 box
42369633 1.413269 box
42369733 1.411743 box
42369833 1.413025 box
42369933 1.305786 box
42370033 1.384949 box
42370133 1.422424 box
42370233 1.446106 box
42370333 1.446167 box
42370433 1.448120 box
42370533 1.435608 box
42370633 1.440002 box
42370733 1.439453 box
42370833 1.411316 box
42370933 1.413452 box
42371033 1.415039 box
42371133 1.388855 box
42371233 1.309509 box
42371333 1.411743 box
42371433 1.410217 box
42371533 1.410278 box
42371633 1.413696 box
42371733 1.410339 box
42371833 1.319092 box
42371933 1.375549 box
42372033 1.412598 box
42372133 1.414124 box
42372233 1.412720 box
42372333 1.410156 box
42372433 1.356140 box
42372533 1.340027 box
42372633 1.410645 box
42372733 1.410522 box
42372833 1.412659 box
42372933 1.412048 box
42373033 1.406311 box
42373133 1.288452 box
42373233 1.407776 box
42373333 1.410156 box
42373433 1.412842 box
42373533 1.410583 box
42373633 1.412354 box
42373733 1.353271 box
42373833 1.439026 box
42373933 1.446960 box
42374033 1.446777 box
42374133 1.445618 box
42374233 1.446594 box
42374333 1.426575 box
42374433 1.321350 box
42374533 1.410217 box
42374633 1.410950 box
42374733 1.410583 box
42374833 1.411560 box
42374933 1.409607 box
42375033 1.297607 box
42375133 1.394226 box
42375233 1.409607 box
42375333 1.413086 box
42375433 1.411499 box
42375533 1.410461 box
42375633 1.339111 box
42375733 1.351746 box
42375833 1.411926 box
42375933 1.411438 box
42376033 1.412170 box
42376133 1.411316 box
42376233 1.392822 box
42376333 1.298767 box
42376433 1.410645 box
42376533 1.407776 box
42376633 1.411438 box
42376733 1.412659 box
42376833 1.409546 box
42376933 1.326172 box
42377033 1.372131 box
42377133 1.411987 box
42377233 1.411499 box
42377333 1.418030 box
42377433 1.445190 box
42377533 1.435669 box
42377633 1.442017 box
42377733 1.445374 box
42377833 1.446228 box
42377933 1.446533 box
42378033 1.419312 box
42378133 1.404541 box
42378233 1.290100 box
42378333 1.408875 box
42378433 1.411011 box
42378533 1.410645 box
42378633 1.412659 box
42378733 1.412170 box
42378833 1.323181 box
