time(ms) energy(J) hostname
419352879 0.000000 box
419352979 0.998535 box
419353079 0.997803 box
419353179 0.996765 box
419353279 0.994812 box
419353379 0.996399 box
419353479 0.997009 box
419353579 0.995667 box
419353679 0.994080 box
419353779 0.997498 box
419353879 0.995178 box
419353979 0.998535 box
419354079 0.995911 box
419354179 0.995728 box
419354279 0.995667 box
419354379 0.996216 box
419354479 0.994080 box
419354579 0.995239 box
419354679 0.998901 box
419354779 0.996643 box
419354879 0.993347 box
419354979 0.997253 box
419355079 0.995728 box
419355179 0.994873 box
419355279 0.997742 box
419355379 0.997131 box
419355479 0.995972 box
419355579 0.995789 box
419355679 0.995300 box
419355779 0.996704 box
419355879 0.995544 box
419355979 0.997803 box
419356079 0.996643 box
419356179 0.995728 box
419356279 0.996826 box
419356379 0.996460 box
419356479 0.993774 box
419356579 0.996277 box
419356679 0.997070 box
419356779 0.994690 box
419356879 0.998779 box
419356979 0.995300 box
419357079 0.994934 box
419357179 0.995483 box
419357279 0.997131 box
419357379 0.993958 box
419357479 0.997437 box
419357579 0.997314 box
419357679 0.997131 box
419357779 0.992798 box
419357879 0.997864 box
419357979 0.996216 box
419358079 0.994934 box
419358179 0.996521 box
419358279 0.997375 box
419358379 0.996338 box
419358479 0.996765 box
419358579 0.995178 box
419358679 0.995300 box
419358779 0.995850 box
419358879 0.996643 box
419358979 0.995972 box
419359079 0.997131 box
419359179 0.996338 box
419359279 0.996399 box
419359379 0.995178 box
419359479 0.995972 box
419359579 0.995850 box
419359679 0.994751 box
419359779 0.998718 box
419359879 0.996643 box
419359979 0.994141 box
419360079 0.997375 box
419360179 0.995850 box
419360279 0.995178 box
419360379 0.997253 box
419360479 0.997375 box
419360579 0.995728 box
419360679 0.993774 box
419360779 0.994995 box
419360879 0.998108 box
419360979 0.994568 box
419361079 0.997192 box
419361179 0.996887 box
419361279 0.997131 box
419361379 0.996582 box
419361479 0.996033 box
419361579 0.994446 box
419361679 0.996338 box
419361779 0.995483 box
419361879 0.995483 box
419361979 0.998230 box
419362079 0.996643 box
419362179 0.996582 box
419362279 0.994629 box
419362379 0.996521 box
419362479 0.995483 box
419362579 0.995728 box
419362679 0.998535 box
419362779 0.996582 box
419362879 0.993774 box
419362979 0.996948 box
419363079 0.995972 box
419363179 0.995422 box
419363279 0.996582 box
419363379 0.997375 box
419363479 0.994629 box
419363579 0.995605 box
419363679 0.994690 box
419363779 0.998230 box
419363879 0.994751 box
419363979 0.997620 box
419364079 0.996338 box
419364179 0.996826 box
419364279 0.995117 box
419364379 0.996948 box
419364479 0.995178 box
419364579 0.996826 box
419364679 0.996399 box
419364779 0.994568 box
419364879 0.998169 box
419364979 0.996826 box
419365079 0.994873 box
419365179 0.995422 box
419365279 0.996399 box
419365379 0.995178 box
419365479 0.994019 box
419365579 0.999023 box
419365679 0.997925 box
419365779 0.994202 box
419365879 0.997498 box
419365979 0.995667 box
419366079 0.995239 box
419366179 0.996460 box
419366279 0.996643 box
419366379 0.996765 box
419366479 0.995300 box
419366579 0.994568 box
419366679 0.998047 box
419366779 0.994385 box
419366879 0.998230 box
419366979 0.996765 box
419367079 0.995605 box
419367179 0.996887 box
419367279 0.995911 box
419367379 0.995361 box
419367479 0.994812 box
419367579 0.997192 box
419367679 0.994751 box
419367779 0.998779 box
419367879 0.995178 box
419367979 0.996216 box
419368079 0.995850 box
419368179 0.996826 box
419368279 0.994141 box
419368379 0.995850 box
419368479 0.998413 box
419368579 0.997070 box
419368679 0.993530 box
419368779 0.995728 box
419368879 0.996887 box
419368979 0.995361 box
419369079 0.996521 box
419369179 0.996765 box
419369279 0.996521 box
419369379 0.995789 box
419369479 0.996338 box
419369579 0.994019 box
419369679 0.995422 box
419369779 0.997437 box
419369879 0.995789 box
419369979 0.997559 box
419370079 0.995483 box
419370179 0.996521 box
419370279 0.995667 box
419370379 0.995117 box
419370479 0.994995 box
419370579 0.995605 box
419370679 0.999634 box
419370779 0.996704 box
419370879 0.992432 box
419370979 0.998352 box
419371079 0.996460 box
419371179 0.994568 box
419371279 0.997131 box
419371379 0.996887 box
419371479 0.996094 box
419371579 0.996277 box
419371679 0.995544 box
419371779 0.994629 box
419371879 0.997070 box
419371979 0.996338 box
419372079 0.994690 box
419372179 0.997192 box
419372279 0.996887 box
419372379 0.995300 box
419372479 0.996155 box
419372579 0.995605 box
419372679 0.995300 box
419372779 0.995911 box
419372879 0.998474 box
419372979 0.996094 box
419373079 0.994019 box
419373179 0.997925 box
419373279 0.996521 box
419373379 0.994202 box
419373479 0.996765 box
419373579 0.997131 box
419373679 0.996521 box
419373779 0.996460 box
419373879 0.996338 box
419373979 0.995544 box
419374079 0.995483 box
419374179 0.996338 box
419374279 0.995300 box
419374379 0.997437 box
419374479 0.996826 box
419374579 0.996399 box
419374679 0.994568 box
419374779 0.995667 box
419374879 0.995972 box
419374979 0.994934 box
419375079 0.999207 box
419375179 0.996460 box
419375279 0.993286 box
419375379 0.997742 box
419375479 0.996216 box
419375579 0.995300 box
419375679 0.997925 box
419375779 0.997009 box
419375879 0.996094 box
419375979 0.995178 box
419376079 0.996460 box
419376179 0.995300 box
419376279 0.995239 box
419376379 0.995605 box
419376479 0.994873 box
419376579 0.999268 box
419376679 0.996460 box
419376779 0.995789 box
419376879 0.995361 box
419376979 0.996948 box
419377079 0.995544 box
419377179 0.994141 box
419377279 0.998657 box
419377379 0.996826 box
419377479 0.993713 box
419377579 0.997498 box
419377679 0.995056 box
419377779 0.995422 box
419377879 0.997559 box
419377979 0.996704 box
419378079 0.995972 box
419378179 0.995483 box
419378279 0.996704 box
419378379 0.995422 box
419378479 0.995728 box
419378579 0.995422 box
419378679 0.994751 box
419378779 0.998535 box
419378879 0.997681 box
419378979 0.994995 box
419379079 0.997986 box
419379179 0.994873 box
419379279 0.995300 box
419379379 0.997803 box
419379479 0.996033 box
419379579 0.996826 box
419379679 0.995911 box
419379779 0.996704 box
419379879 0.995422 box
419379979 0.997375 box
419380079 0.995117 box
419380179 0.995544 box
419380279 0.998108 box
419380379 0.996521 box
419380479 0.994690 box
419380579 0.997131 box
419380679 0.996399 box
419380779 0.994263 box
419380879 0.997803 box
419380979 0.995422 box
419381079 0.998474 box
419381179 0.996704 box
419381279 0.993774 box
419381379 0.995728 box
419381479 0.996704 box
419381579 0.995422 box
419381679 0.996338 box
419381779 0.997192 box
419381879 0.996399 box
419381979 0.996704 box
419382079 0.996155 box
419382179 0.995850 box
419382279 0.994934 box
419382379 0.995972 box
419382479 0.994934 box
419382579 0.999329 box
419382679 0.997253 box
419382779 0.992676 box
419382879 0.996826 box
419382979 0.996765 box
419383079 0.995056 box
419383179 0.996765 box
419383279 0.996704 box
419383379 0.996033 box
419383479 0.996094 box
419383579 0.995911 box
419383679 0.995850 box
419383779 0.997009 box
419383879 0.993225 box
419383979 0.997253 box
419384079 0.997986 box
419384179 0.996033 box
419384279 0.995972 box
419384379 0.995544 box
419384479 0.994873 box
419384579 0.995850 box
419384679 0.997742 box
419384779 0.994751 box
419384879 0.998718 box
419384979 0.996216 box
419385079 0.994629 box
419385179 0.996155 box
419385279 0.996826 box
419385379 0.994812 box
419385479 0.996033 box
419385579 0.997131 box
419385679 0.996521 box
419385779 0.996643 box
419385879 0.996155 box
419385979 0.994934 box
419386079 0.995178 box
419386179 0.996033 box
419386279 0.996521 box
419386379 0.997986 box
419386479 0.995972 box
419386579 0.993469 box
419386679 0.996216 box
419386779 0.997925 box
419386879 0.995728 box
419386979 0.996704 box
419387079 0.996460 box
419387179 0.996155 box
419387279 0.996948 box
419387379 0.995911 box
419387479 0.995911 box
419387579 0.995728 box
419387679 0.995789 box
419387779 0.996826 box
419387879 0.997864 box
419387979 0.996277 box
419388079 0.994873 box
419388179 0.996216 box
419388279 0.995972 box
419388379 0.995605 box
419388479 0.996887 box
419388579 0.994751 box
419388679 0.998291 box
419388779 0.997314 box
419388879 0.993164 box
419388979 0.996094 box
419389079 0.995911 box
419389179 0.995422 box
419389279 0.996826 box
419389379 0.997375 box
419389479 0.996765 box
419389579 0.997070 box
419389679 0.994446 box
419389779 0.994995 box
419389879 0.996704 box
419389979 0.995117 box
419390079 0.995361 box
419390179 0.997986 box
419390279 0.995972 box
419390379 0.993774 box
419390479 0.996277 box
419390579 0.997742 box
419390679 0.994507 box
419390779 0.997131 box
419390879 0.997192 box
419390979 0.997314 box
419391079 0.995789 box
419391179 0.995483 box
419391279 0.995667 box
419391379 0.995789 box
419391479 0.995667 box
419391579 0.997192 box
419391679 0.997437 box
419391779 0.995483 box
419391879 0.996582 box
419391979 0.996948 box
419392079 0.995544 box
419392179 0.996033 box
419392279 0.996704 box
419392379 0.994385 box
419392479 0.998291 box
419392579 0.997986 box
419392679 0.993774 box
419392779 0.996338 box
419392879 0.998901 box
419392979 0.994568 box
419393079 0.997437 box
419393179 0.997742 box
419393279 0.995728 box
419393379 0.996033 box
419393479 0.996155 box
419393579 0.995544 box
419393679 0.996460 box
419393779 0.994934 box
419393879 0.994019 box
419393979 0.999084 box
419394079 0.996643 box
419394179 0.994934 box
419394279 0.997070 box
419394379 0.995605 box
419394479 0.995117 box
419394579 0.996826 box
419394679 0.994873 box
419394779 0.998535 box
419394879 0.996704 box
419394979 0.994934 box
419395079 0.995605 box
419395179 0.996033 box
419395279 0.995972 box
419395379 0.996643 box
419395479 0.997070 box
419395579 0.995361 box
419395679 0.997192 box
419395779 0.996460 box
419395879 0.996033 box
419395979 0.995605 box
419396079 0.996033 box
419396179 0.993469 box
419396279 0.999573 box
419396379 0.997314 box
419396479 0.992981 box
419396580 0.997192 box
419396679 0.996094 box
419396779 0.995178 box
419396879 0.996460 box
419396979 0.997314 box
419397079 0.994873 box
419397179 0.996277 box
419397279 0.996094 box
419397379 0.995544 box
419397479 0.995972 box
419397579 0.993530 box
419397679 0.997314 box
419397779 0.996521 box
419397879 0.995850 box
419397979 0.995667 box
419398079 0.995361 box
419398179 0.995911 box
419398279 0.995911 box
419398379 0.997498 box
419398479 0.995544 box
419398579 0.997192 box
419398679 0.996399 box
419398779 0.995789 box
419398879 0.995300 box
419398979 0.997009 box
419399079 0.994446 box
419399179 0.996826 box
419399279 0.997253 box
419399379 0.995667 box
419399479 0.997070 box
419399579 0.996704 box
419399679 0.994629 box
419399779 0.996033 box
419399879 0.996216 box
419399979 0.993896 box
419400079 0.999634 box
419400179 0.997986 box
419400279 0.992920 box
419400380 0.996155 box
419400479 0.996948 box
419400579 0.994385 box
419400679 0.996399 box
419400779 0.997681 box
419400879 0.996643 box
419400979 0.995911 box
419401079 0.996948 box
419401179 0.994873 box
419401279 0.994690 box
419401379 0.995483 box
419401479 0.996887 box
419401579 0.997559 box
419401679 0.996155 box
419401779 0.995117 box
419401879 0.995850 box
419401979 0.995972 box
419402079 0.995850 box
419402179 0.996704 box
419402279 0.994507 box
419402379 0.998840 box
419402479 0.997131 box
419402579 0.995300 box
419402679 0.996033 box
419402779 0.994751 box
419402879 0.995667 box
419402979 0.996948 box
419403079 0.996826 box
419403179 0.996948 box
419403279 0.996704 box
419403379 0.995789 box
419403479 0.994995 box
419403579 0.996704 box
419403679 0.995911 box
419403779 0.994568 box
419403879 0.999023 box
419403979 0.997253 box
419404079 0.993225 box
419404179 0.997681 box
419404279 0.996277 box
419404379 0.994202 box
419404479 0.997803 box
419404579 0.997437 box
419404679 0.995483 box
419404779 0.997009 box
419404879 0.995605 box
419404979 0.996033 box
419405079 0.996338 box
419405179 0.995850 box
419405279 0.995667 box
419405379 0.997192 box
419405479 0.996033 box
419405579 0.995605 box
419405679 0.995728 box
419405779 0.996948 box
419405879 0.994080 box
419405979 0.997192 box
419406079 0.995178 box
419406179 0.998291 box
419406279 0.997131 box
419406379 0.995422 box
419406479 0.994629 box
419406579 0.996216 box
419406679 0.995361 box
419406779 0.997559 box
419406879 0.999023 box
419406979 0.995605 box
419407079 0.996155 box
419407179 0.998047 box
419407279 0.994751 box
419407379 0.995239 box
419407479 0.997070 box
419407579 0.993713 box
419407679 0.999268 box
419407779 0.997681 box
419407879 0.994629 box
419407979 0.996948 box
419408079 0.996521 box
419408179 0.994995 box
419408279 0.998108 box
419408379 0.996521 box
419408479 0.996887 box
419408579 0.995483 box
419408679 0.997375 box
419408779 0.995300 box
419408879 0.996216 box
419408979 0.994751 box
419409079 0.994873 box
419409179 0.999207 box
419409279 0.995850 box
419409379 0.994019 box
419409479 0.995605 box
419409579 0.997864 box
419409679 0.994507 box
419409779 0.997620 box
419409879 0.996765 box
419409979 0.997620 box
419410079 0.994751 box
419410179 0.996643 box
419410279 0.995300 box
419410379 0.997009 box
419410479 0.994019 box
419410579 0.996704 box
419410679 0.997253 box
419410779 0.996155 box
419410879 0.995728 box
419410979 0.995483 box
419411079 0.995911 box
419411179 0.995300 box
419411279 0.997498 box
419411379 0.995850 box
419411479 0.998596 box
419411579 0.996521 box
419411679 0.995544 box
419411779 0.995728 box
419411879 0.996338 box
419411979 0.995728 box
419412079 0.996338 box
419412179 0.996582 box
419412279 0.996399 box
419412379 0.996582 box
419412479 0.996582 box
419412579 0.993896 box
419412679 0.996460 box
419412779 0.997314 box
419412879 0.993530 box
419412979 0.999573 box
419413079 0.997314 box
419413179 0.993225 box
419413279 0.996765 box
419413379 0.997192 box
419413479 0.994751 box
419413579 0.996887 box
419413679 0.997314 box
419413779 0.996643 box
419413879 0.996460 box
419413979 0.996399 box
419414079 0.994751 box
419414179 0.996460 box
419414279 0.995239 box
419414379 0.994934 box
419414479 0.999512 box
419414579 0.995605 box
419414679 0.994141 box
419414779 0.994751 box
419414879 0.998596 box
419414979 0.995239 box
419415079 0.995911 box
419415179 0.997131 box
419415279 0.996277 box
419415379 0.996521 box
419415479 0.996643 box
419415579 0.995300 box
419415679 0.995239 box
419415779 0.995789 box
419415879 0.996887 box
419415979 0.997375 box
419416079 0.995728 box
419416179 0.995239 box
419416279 0.995728 box
419416379 0.996094 box
419416479 0.995728 box
419416579 0.995544 box
419416679 0.994995 box
419416779 0.997559 box
419416879 0.997437 box
419416979 0.995483 box
419417079 0.995605 box
419417179 0.996704 box
419417279 0.995056 box
419417379 0.996765 box
419417479 0.997681 box
419417579 0.996277 box
419417679 0.996521 box
419417779 0.996155 box
419417879 0.995667 box
419417979 0.995911 box
419418079 0.995789 box
419418179 0.994019 box
419418279 0.999756 box
419418379 0.996887 box
419418479 0.993225 box
419418579 0.997803 box
419418679 0.995239 box
419418779 0.995483 box
419418879 0.997375 box
419418979 0.996582 box
419419079 0.996765 box
419419179 0.996338 box
419419279 0.995667 box
419419379 0.995422 box
419419479 0.996277 box
419419579 0.995361 box
419419679 0.993896 box
419419779 0.998779 box
419419879 0.995483 box
419419979 0.995789 box
419420079 0.996033 box
419420179 0.998108 box
419420279 0.995789 box
419420379 0.997986 box
419420479 0.995911 box
419420579 0.996948 box
419420679 0.996521 box
419420779 0.995789 box
419420879 0.995972 box
419420979 0.996643 box
419421079 0.995728 box
419421179 0.995361 box
419421279 0.998291 box
419421379 0.996948 box
419421479 0.994934 box
419421579 0.996033 box
419421679 0.996887 box
419421779 0.995605 box
419421879 0.997559 box
419421979 0.995239 box
419422079 0.997803 box
419422179 0.996765 box
419422279 0.994568 box
419422379 0.995361 box
419422479 0.996643 box
419422579 0.995178 box
419422679 0.995972 box
419422779 0.996948 box
419422879 0.996094 box
419422979 0.996765 box
419423079 0.996460 box
419423179 0.994873 box
419423279 0.995361 box
419423379 0.996765 box
419423479 0.994934 box
419423579 0.998596 box
419423679 0.996765 box
419423779 0.993103 box
419423879 0.996155 box
419423979 0.996948 box
419424079 0.995117 box
419424179 0.996338 box
419424279 0.997620 box
419424379 0.995667 box
419424479 0.996826 box
419424579 0.996521 box
419424679 0.994629 box
419424779 0.996521 box
419424879 0.996094 box
419424979 0.994568 box
419425079 0.999329 box
419425179 0.997314 box
419425279 0.991699 box
419425379 0.996948 box
419425479 0.997253 box
419425579 0.994080 box
419425679 0.996765 box
419425779 0.997192 box
419425879 0.995789 box
419425979 0.996948 box
419426079 0.996094 box
419426179 0.994873 box
419426279 0.996948 box
419426379 0.994995 box
419426479 0.995239 box
419426579 1.000000 box
419426679 0.996033 box
419426779 0.993103 box
419426879 0.995911 box
419426979 0.998413 box
419427079 0.995605 box
419427179 0.995667 box
419427279 0.997681 box
419427379 0.996704 box
419427479 0.996277 box
419427579 0.995972 box
419427679 0.995361 box
419427779 0.996399 box
419427879 0.995117 box
419427979 0.997681 box
419428079 0.996948 box
419428179 0.995911 box
419428279 0.995911 box
419428379 0.994995 box
419428479 0.996399 box
419428579 0.995789 box
419428679 0.997131 box
419428779 0.994568 box
419428879 0.998474 box
419428979 0.996704 box
419429079 0.994263 box
419429179 0.997009 box
419429279 0.996216 box
419429379 0.994812 box
419429479 0.997253 box
419429579 0.997192 box
419429679 0.996582 box
419429779 0.996521 box
419429879 0.994568 box
419429979 0.995972 box
419430079 0.996765 box
419430179 0.995117 box
419430279 0.994873 box
419430379 0.998657 box
419430479 0.996582 box
419430579 0.993469 box
419430679 0.997925 box
419430779 0.995544 box
419430879 0.994080 box
419430979 0.997437 box
419431079 0.996887 box
419431179 0.996704 box
419431279 0.995972 box
419431379 0.995178 box
419431479 0.995300 box
419431579 0.996582 box
419431679 0.995789 box
419431779 0.994873 box
419431879 0.999146 box
419431979 0.995728 box
419432079 0.995422 box
419432179 0.995972 box
419432279 0.997681 box
419432379 0.994995 box
419432479 0.997742 box
419432579 0.996399 box
419432679 0.996643 box
419432779 0.997070 box
419432879 0.994934 box
419432979 0.994934 box
419433079 0.996277 box
419433179 0.995911 box
419433279 0.996399 box
419433379 0.999390 box
419433479 0.996704 box
419433579 0.995117 box
419433679 0.994934 box
419433779 0.998230 box
419433879 0.994324 box
419433979 0.997864 box
419434079 0.995117 box
419434179 0.998047 box
419434279 0.997070 box
419434379 0.994446 box
419434479 0.996643 box
419434579 0.996277 box
419434679 0.994629 box
419434779 0.997375 box
419434879 0.997375 box
419434979 0.995483 box
419435079 0.995728 box
419435179 0.996521 box
419435279 0.995605 box
419435379 0.994446 box
419435479 0.997620 box
419435579 0.994690 box
419435679 0.998962 box
419435779 0.997070 box
419435879 0.993774 box
419435979 0.995789 box
419436079 0.996521 box
419436179 0.995300 box
419436279 0.996765 box
419436379 0.997375 box
419436479 0.996033 box
419436579 0.995483 box
419436679 0.996826 box
419436779 0.995056 box
419436879 0.995239 box
419436979 0.996094 box
419437079 0.994751 box
419437179 0.999329 box
419437279 0.997314 box
419437379 0.991699 box
419437479 0.997253 box
419437579 0.996216 box
419437679 0.994507 box
419437779 0.996704 box
419437879 0.999817 box
419437979 0.993652 box
419438079 0.994995 box
419438179 0.994934 box
419438279 0.996521 box
419438379 0.995544 box
419438479 0.997742 box
419438579 0.996216 box
419438679 0.997131 box
419438779 0.996216 box
419438879 0.996277 box
419438979 0.995667 box
419439079 0.994751 box
419439179 0.995239 box
419439279 0.995911 box
419439379 0.998779 box
419439479 0.997192 box
419439579 0.992371 box
419439679 0.997192 box
419439779 0.996155 box
419439879 0.994934 box
419439979 0.997681 box
419440079 0.996826 box
419440179 0.996033 box
419440279 0.996521 box
419440379 0.995667 box
419440479 0.994263 box
419440579 0.997253 box
419440679 0.995239 box
419440779 0.994690 box
419440879 0.999023 box
419440979 0.996826 box
419441079 0.994446 box
419441179 0.995667 box
419441279 0.996460 box
419441379 0.994690 box
419441479 0.996826 box
419441579 0.996704 box
419441679 0.995911 box
419441779 0.995361 box
419441879 0.996521 box
419441979 0.995728 box
419442079 0.995239 box
419442179 0.996765 box
419442279 0.995300 box
419442379 0.997498 box
419442479 0.996460 box
419442579 0.995972 box
419442679 0.994812 box
419442779 0.995728 box
419442879 0.995178 box
419442979 0.998291 box
419443079 0.996704 box
419443179 0.995178 box
419443279 0.994507 box
419443379 0.996643 box
419443479 0.997986 box
419443579 0.993835 box
419443679 0.996643 box
419443779 0.997681 box
419443879 0.996521 box
419443979 0.996033 box
419444079 0.996033 box
419444179 0.995483 box
419444279 0.996521 box
419444379 0.996338 box
419444479 0.994202 box
419444579 0.998962 box
419444679 0.997314 box
419444779 0.993469 box
419444879 0.997009 box
419444979 0.995056 box
419445079 0.994873 box
419445179 0.997681 box
419445279 0.997864 box
419445379 0.995667 box
419445479 0.997070 box
419445579 0.997009 box
419445679 0.994812 box
419445779 0.994690 box
419445879 0.996704 box
419445979 0.994385 box
419446079 0.998169 box
419446179 0.996460 box
419446279 0.994385 box
419446379 0.996094 box
419446479 0.995483 box
419446579 0.997498 box
419446679 0.998108 box
419446779 0.997009 box
419446879 0.994751 box
419446979 0.996582 box
419447079 0.995300 box
419447179 0.995789 box
419447279 0.994873 box
419447379 0.997192 box
419447479 0.995972 box
419447579 0.997498 box
419447679 0.996399 box
419447779 0.995300 box
419447879 0.996094 box
419447979 0.995361 box
419448079 0.995667 box
419448179 0.995300 box
419448279 0.998230 box
419448379 0.997437 box
419448479 0.994324 box
419448579 0.995605 box
419448679 0.996338 box
419448779 0.994812 box
419448879 0.996033 box
419448979 0.996948 box
419449079 0.996521 box
419449179 0.995239 box
419449279 0.993469 box
419449379 0.998474 box
419449479 0.994873 box
419449579 0.997925 box
419449679 0.996277 box
419449779 0.995850 box
419449879 0.996582 box
419449979 0.996887 box
419450079 0.994751 box
419450179 0.994263 box
419450279 0.996460 box
419450379 0.994812 box
419450479 0.999268 box
419450579 0.997192 box
419450679 0.994263 box
419450779 0.996338 box
419450879 0.995483 box
419450979 0.995239 box
419451079 0.997070 box
419451179 0.997375 box
419451279 0.995789 box
419451379 0.996338 box
419451479 0.995056 box
419451579 0.996094 box
419451679 0.996521 box
419451779 0.997070 box
419451879 0.996765 box
419451979 0.994690 box
419452079 0.996704 box
419452179 0.997131 box
419452279 0.995422 box
419452379 0.995789 box
419452479 0.994995 box
419452579 0.994934 box
419452679 0.999268 box
419452779 0.996521 box
419452879 0.993408 box
419452979 0.997681 box
419453079 0.996033 box
419453179 0.994202 box
419453279 0.997437 box
419453379 0.997498 box
419453479 0.996704 box
419453579 0.996643 box
419453679 0.994873 box
419453779 0.995605 box
419453879 0.996094 box
419453979 0.996643 box
419454079 0.995300 box
419454179 0.997559 box
419454279 0.996155 box
419454379 0.995667 box
419454479 0.995422 box
419454579 0.995117 box
419454679 0.995667 box
419454779 0.995422 box
419454879 0.999146 box
419454979 0.995605 box
419455079 0.993591 box
419455180 0.997864 box
419455279 0.995850 box
419455379 0.994507 box
419455479 0.997803 box
419455579 0.996643 box
419455679 0.996521 box
419455779 0.996277 box
419455879 0.994934 box
419455979 0.995789 box
419456079 0.995239 box
419456179 0.996277 box
419456279 0.995056 box
419456379 0.998352 box
419456479 0.996948 box
419456579 0.996704 box
419456679 0.994141 box
419456779 0.996460 box
419456879 0.995300 box
419456979 0.994507 box
419457079 0.998779 box
419457179 0.996277 box
419457279 0.993347 box
419457379 0.997742 box
419457479 0.994751 box
419457579 0.994812 box
419457679 0.997681 box
419457779 0.997437 box
419457879 0.995972 box
419457979 0.994629 box
419458079 0.996094 box
419458179 0.995544 box
419458279 0.995728 box
419458379 0.995789 box
419458479 0.995422 box
419458579 0.998108 box
419458679 0.996155 box
419458779 0.995422 box
419458879 0.995300 box
419458979 0.997009 box
419459079 0.995178 box
419459179 0.994751 box
419459279 0.998474 box
419459379 0.997498 box
419459479 0.993774 box
419459579 0.997192 box
419459679 0.996338 box
419459779 0.995789 box
419459879 0.997620 box
419459979 0.996765 box
419460079 0.994751 box
419460179 0.996887 box
419460279 0.995239 box
419460379 0.997192 box
419460479 0.993408 box
419460579 0.998047 box
419460679 0.996643 box
419460779 0.996704 box
419460879 0.998962 box
419460979 0.995667 box
419461079 0.995972 box
419461179 0.996704 box
419461279 0.994324 box
419461379 0.994324 box
419461479 0.998962 box
419461579 0.997253 box
419461679 0.993591 box
419461779 0.996948 box
419461879 0.995239 box
419461979 0.995361 box
419462079 0.997864 box
419462179 0.996704 box
419462279 0.995605 box
419462379 0.995483 box
419462479 0.995667 box
419462579 0.996155 box
419462679 0.995544 box
419462779 0.997864 box
419462879 0.996277 box
419462979 0.997192 box
419463079 0.994690 box
419463179 0.997070 box
419463279 0.995361 box
419463379 0.995239 box
419463479 0.995911 box
419463579 0.994812 box
419463679 0.999146 box
419463779 0.997375 box
419463879 0.994324 box
419463979 0.995789 box
419464079 0.997070 box
419464179 0.994446 box
419464279 0.996155 box
419464379 0.997253 box
419464479 0.996338 box
419464579 0.994507 box
419464679 0.994629 box
419464779 0.997864 box
419464879 0.994751 box
419464979 0.997681 box
419465079 0.997375 box
419465179 0.995728 box
419465279 0.996704 box
419465379 0.995178 box
419465479 0.994324 box
419465579 0.995911 box
419465679 0.996704 box
419465779 0.995605 box
419465879 0.998474 box
419465979 0.995117 box
419466079 0.995789 box
419466179 0.995422 box
419466279 0.995972 box
419466379 0.994873 box
419466479 0.995300 box
419466579 0.999695 box
419466679 0.996948 box
419466779 0.992065 box
419466880 0.997253 box
419466979 0.996094 box
419467079 0.994812 box
419467179 0.996887 box
419467279 0.996948 box
419467379 0.996521 box
419467479 0.996887 box
419467579 0.994690 box
419467679 0.996155 box
419467779 0.995544 box
419467879 0.997253 box
419467979 0.995972 box
419468079 0.996460 box
419468179 0.997375 box
419468279 0.995972 box
419468379 0.994690 box
419468479 0.995361 box
419468579 0.996338 box
419468679 0.994263 box
419468779 1.000122 box
419468879 0.996033 box
419468979 0.993652 box
419469079 0.996948 box
419469179 0.995300 box
419469279 0.994690 box
419469379 0.996948 box
419469479 0.996948 box
419469579 0.995911 box
419469679 0.994873 box
419469779 0.994263 box
419469879 0.998718 box
419469979 0.993652 box
419470079 0.997070 box
419470179 0.997437 box
419470279 0.996643 box
419470379 0.996948 box
419470479 0.995911 box
419470579 0.994995 box
419470679 0.996155 box
419470779 0.996765 box
419470879 0.994629 box
419470979 0.997925 box
419471079 0.997681 box
419471179 0.994507 box
419471279 0.994995 box
419471379 0.995605 box
419471479 0.995361 box
419471579 0.997742 box
419471679 0.997253 box
419471779 0.994934 box
419471879 0.994751 box
419471980 0.996643 box
419472079 0.996826 box
419472179 0.994812 box
419472279 0.997498 box
419472379 0.996948 box
419472479 0.995911 box
419472579 0.995300 box
419472679 0.997620 box
419472779 0.995972 box
419472879 0.994507 box
419472979 0.996033 box
419473079 0.994873 box
419473179 0.998535 box
419473279 0.997437 box
419473379 0.994568 box
419473479 0.995361 box
419473579 0.996765 box
419473679 0.995239 box
419473779 0.994690 box
419473879 0.997864 box
419473979 0.998047 box
419474079 0.992920 box
419474179 0.996582 box
419474279 0.996216 box
419474379 0.996094 box
419474479 0.996948 box
419474579 0.997009 box
419474679 0.993347 box
419474779 0.997131 box
419474879 0.995422 box
419474979 0.997314 box
419475079 0.993225 box
419475179 1.000854 box
419475279 0.996460 box
419475379 0.996460 box
419475479 0.995972 box
419475579 0.997375 box
419475679 0.994751 box
419475779 0.996460 box
419475879 0.996460 box
419475979 0.994080 box
419476079 0.997803 box
419476179 0.997925 box
419476279 0.994202 box
419476379 0.997009 box
419476479 0.996338 box
419476579 0.995300 box
419476679 0.995056 box
419476779 0.998413 box
419476879 0.996826 box
419476979 0.993652 box
419477079 0.997192 box
419477179 0.996155 box
419477279 0.995117 box
419477379 0.997559 box
419477479 0.996948 box
419477579 0.995300 box
419477679 0.996704 box
419477779 0.995300 box
419477879 0.995422 box
419477979 0.994995 box
419478079 0.997986 box
419478179 0.996521 box
419478279 0.995544 box
419478379 0.994995 box
419478479 0.996887 box
419478579 0.995056 box
419478679 0.995728 box
419478779 0.995972 box
419478879 0.995483 box
419478979 0.998901 box
419479079 0.996643 box
419479179 0.994873 box
419479279 0.995422 box
419479379 0.996277 box
419479479 0.995239 box
419479579 0.996460 box
419479679 0.998291 box
419479779 0.997192 box
419479879 0.992981 box
419479979 0.997192 box
419480079 0.996948 box
419480179 0.994324 box
419480279 0.996643 box
419480379 0.997375 box
419480479 0.996216 box
419480579 0.995667 box
419480679 0.993652 box
419480779 0.997375 box
419480879 0.994507 box
419480979 0.997070 box
419481079 0.998535 box
419481179 0.994690 box
419481279 0.997131 box
419481379 0.995911 box
419481479 0.993835 box
419481579 0.995667 box
419481679 0.996887 box
419481779 0.995300 box
419481879 0.997009 box
419481979 0.996399 box
419482079 0.994751 box
419482179 0.995972 box
419482279 0.995300 box
419482379 0.995667 box
419482479 0.994690 box
419482579 0.999939 box
419482679 0.996216 box
419482779 0.993713 box
419482879 0.997437 box
419482979 0.995544 box
419483079 0.994568 box
419483179 0.997314 box
419483279 0.998047 box
419483379 0.995789 box
419483479 0.995789 box
419483579 0.994568 box
419483679 0.998901 box
419483779 0.993591 box
419483879 0.997131 box
419483979 0.997192 box
419484079 0.996704 box
419484179 0.995972 box
419484279 0.995239 box
419484379 0.995239 box
419484479 0.995850 box
419484579 0.996399 box
419484679 0.995911 box
419484779 0.997192 box
419484879 0.996826 box
419484979 0.995972 box
419485079 0.995605 box
419485179 0.996521 box
419485279 0.995728 box
419485379 0.994446 box
419485479 0.999329 box
419485579 0.997864 box
419485679 0.993774 box
419485779 0.997131 box
419485879 0.994873 box
419485979 0.995422 box
419486079 0.998108 box
419486179 0.997375 box
419486279 0.995667 box
419486379 0.994568 box
419486480 0.997009 box
419486579 0.996643 box
419486679 0.993835 box
419486779 0.997986 box
419486879 0.996094 box
419486979 0.997131 box
419487079 0.996399 box
419487179 0.996338 box
419487279 0.995667 box
419487379 0.994263 box
419487479 0.996948 box
419487579 0.996094 box
419487679 0.997437 box
419487779 0.996399 box
419487879 0.994873 box
419487979 0.996277 box
419488079 0.996338 box
419488179 0.996338 box
419488279 0.994141 box
419488379 0.999512 box
419488479 0.996643 box
419488579 0.994812 box
419488679 0.995911 box
419488779 0.996338 box
419488879 0.994812 box
419488979 0.996643 box
419489079 0.997803 box
419489179 0.996887 box
419489279 0.994568 box
419489379 0.997986 box
419489479 0.997925 box
419489579 0.995178 box
419489679 0.998230 box
419489779 0.996765 box
419489879 0.995544 box
419489979 0.996765 box
419490079 0.994873 box
419490179 0.997192 box
419490279 0.993713 box
419490379 0.998108 box
419490479 0.997192 box
419490579 0.996582 box
419490679 0.995789 box
419490779 0.996521 box
419490879 0.995056 box
419490979 0.995178 box
419491079 0.997070 box
419491179 0.994141 box
419491279 0.998291 box
419491379 0.996460 box
419491479 0.996582 box
419491579 0.995056 box
419491679 0.996460 box
419491779 0.994507 box
419491879 0.994751 box
419491979 0.999146 box
419492079 0.997620 box
419492179 0.993103 box
419492279 0.996643 box
419492379 0.996704 box
419492479 0.994080 box
419492579 0.996277 box
419492679 0.997253 box
419492779 0.996521 box
419492879 0.994446 box
419492980 0.995789 box
419493079 0.997009 box
419493179 0.994385 box
419493279 0.997314 box
419493379 0.997681 box
419493479 0.996338 box
419493579 0.996338 box
419493679 0.996033 box
419493779 0.995056 box
419493879 0.995789 box
419493979 0.996948 box
419494079 0.997437 box
419494179 0.996277 box
419494279 0.996094 box
419494379 0.996704 box
419494479 0.994080 box
419494579 0.996033 box
419494679 0.996765 box
419494779 0.995361 box
419494879 0.998779 box
419494979 0.995605 box
419495079 0.995056 box
419495179 0.996521 box
419495279 0.994446 box
419495379 0.995056 box
419495479 0.995789 box
419495579 0.998901 box
419495679 0.997070 box
419495779 0.993408 box
419495879 0.996399 box
419495979 0.995911 box
419496079 0.994141 box
419496179 0.997925 box
419496279 0.997131 box
419496379 0.996033 box
419496479 0.994873 box
419496579 0.995422 box
419496679 0.997437 box
419496779 0.994934 box
419496879 0.996155 box
419496979 0.996826 box
419497079 0.996338 box
419497179 0.996826 box
419497279 0.995239 box
419497379 0.995117 box
419497479 0.995911 box
419497579 0.995911 box
419497679 0.995789 box
419497779 0.996399 box
419497879 0.996521 box
419497979 0.996643 box
419498079 0.994324 box
419498179 0.996094 box
419498279 0.995911 box
419498379 0.995117 box
419498479 0.998474 box
419498579 0.996826 box
419498679 0.996094 box
419498779 0.995483 box
419498879 0.995178 box
419498979 0.995117 box
419499079 0.996460 box
419499179 0.998230 box
419499279 0.995178 box
419499379 0.994568 box
419499479 0.997803 box
419499579 0.995544 box
419499679 0.994629 box
419499779 0.997070 box
419499879 0.997864 box
419499979 0.995850 box
419500079 0.995361 box
419500179 0.994568 box
419500279 0.997314 box
419500379 0.993958 box
419500479 0.997498 box
419500579 0.996948 box
419500679 0.997009 box
419500779 0.994629 box
419500879 0.996887 box
419500979 0.995483 box
419501079 0.993896 box
419501179 0.998291 box
419501279 0.994324 box
419501379 0.998535 box
419501479 0.996216 box
419501579 0.996948 box
419501679 0.996765 box
419501779 0.996460 box
419501879 0.994812 box
419501979 0.994568 box
419502079 0.999084 box
419502179 0.997009 box
419502279 0.995178 box
419502379 0.995850 box
419502479 0.996582 box
419502579 0.995361 box
419502679 0.996338 box
419502779 0.998657 box
419502879 0.996765 box
419502979 0.993896 box
419503079 0.996582 box
419503179 0.995911 box
419503279 0.995056 box
419503379 0.998352 box
419503479 0.997253 box
419503579 0.996460 box
419503679 0.994934 box
419503779 0.994934 box
419503879 0.997314 box
419503979 0.995850 box
419504079 0.997681 box
419504179 0.996582 box
419504279 0.996277 box
419504379 0.996582 box
419504479 0.996582 box
419504579 0.995117 box
419504679 0.995667 box
419504779 0.997009 box
419504879 0.997192 box
419504979 0.996460 box
419505079 0.995544 box
419505179 0.995972 box
419505279 0.995605 box
419505379 0.995728 box
419505479 0.996338 box
419505579 0.994995 box
419505679 0.998840 box
419505779 0.995422 box
419505879 0.996155 box
419505979 0.995850 box
419506079 0.995544 box
419506179 0.996155 box
419506279 0.994507 box
419506379 0.999756 box
419506479 0.996948 box
419506579 0.992676 box
419506679 0.997498 box
419506779 0.996399 box
419506879 0.993164 box
419506979 0.997498 box
419507079 0.997925 box
419507179 0.996460 box
419507279 0.994568 box
419507380 0.997009 box
419507479 0.996704 box
419507579 0.993958 box
419507679 0.998047 box
419507779 0.997681 box
419507879 0.995544 box
419507979 0.996460 box
419508079 0.993774 box
419508179 0.997070 box
419508279 0.995300 box
419508379 0.996887 box
419508479 0.997314 box
419508579 0.996338 box
419508679 0.996582 box
419508779 0.994995 box
419508879 0.996094 box
419508979 0.994629 box
419509079 0.996765 box
419509179 0.996399 box
419509279 0.997559 box
419509379 0.996765 box
419509479 0.995422 box
419509579 0.993652 box
419509679 0.996216 box
419509779 0.996765 box
419509879 0.995605 box
419509979 0.997253 box
419510079 0.997192 box
419510179 0.995361 box
419510279 0.994568 box
419510379 0.996460 box
419510479 0.995605 box
419510579 0.995178 box
419510679 0.999084 box
419510779 0.996704 box
419510879 0.993652 box
419510979 0.997314 box
419511079 0.994751 box
419511179 0.995850 box
419511279 0.996521 box
419511379 0.997742 box
419511479 0.995667 box
419511579 0.993835 box
419511680 0.997253 box
419511779 0.995789 box
419511879 0.994995 box
419511979 0.998413 box
419512079 0.996887 box
419512179 0.997498 box
419512279 0.994324 box
419512379 0.995117 box
419512479 0.996948 box
419512579 0.994507 box
419512679 0.997375 box
419512779 0.996216 box
419512879 0.996948 box
419512979 0.995605 box
419513079 0.996521 box
419513179 0.995300 box
419513279 0.994629 box
419513379 0.997192 box
419513479 0.997009 box
419513579 0.996582 box
419513679 0.999084 box
419513779 0.996399 box
419513879 0.995850 box
419513979 0.995850 box
419514079 0.995178 box
419514179 0.994629 box
419514279 0.998230 box
419514379 0.997009 box
419514479 0.995361 box
419514579 0.995911 box
419514679 0.996887 box
419514779 0.994629 box
419514879 0.994690 box
419514979 0.999268 box
419515079 0.996643 box
419515179 0.994629 box
419515279 0.995728 box
419515379 0.996643 box
419515479 0.994202 box
419515579 0.994385 box
419515679 1.000000 box
419515779 0.996643 box
419515879 0.993652 box
419515979 0.996216 box
419516079 0.996765 box
419516179 0.994629 box
419516279 0.996033 box
419516379 0.997070 box
419516479 0.996521 box
419516579 0.995056 box
419516680 0.997559 box
419516779 0.996277 box
419516879 0.995605 box
419516979 0.996704 box
419517079 0.997070 box
419517179 0.995972 box
419517279 0.996216 box
419517379 0.994141 box
419517479 0.997681 box
419517579 0.995422 box
419517679 0.997559 box
419517779 0.998047 box
419517879 0.995422 box
419517979 0.996155 box
419518079 0.995483 box
419518179 0.995056 box
419518279 0.995667 box
419518379 0.996826 box
419518479 0.997437 box
419518579 0.995667 box
419518679 0.997620 box
419518779 0.995361 box
419518879 0.994873 box
419518979 0.994995 box
419519079 0.997986 box
419519179 0.995789 box
419519279 0.996948 box
419519379 0.996643 box
419519479 0.996887 box
419519579 0.994385 box
419519679 0.995911 box
419519779 0.995911 box
419519879 0.995483 box
419519979 0.997620 box
419520079 0.997131 box
419520179 0.996033 box
419520279 0.994995 box
419520379 0.994690 box
419520480 0.996643 box
419520579 0.994690 box
419520679 0.999084 box
419520779 0.995728 box
419520879 0.995178 box
419520979 0.994202 box
419521079 0.996216 box
419521179 0.995239 box
419521279 0.995422 box
419521379 0.999268 box
419521479 0.995972 box
419521579 0.995056 box
419521679 0.996155 box
419521779 0.995117 box
419521879 0.995239 box
419521979 0.997009 box
419522079 0.998047 box
419522179 0.996704 box
419522279 0.993164 box
419522379 0.997681 box
419522479 0.994751 box
419522579 0.995789 box
419522679 0.996948 box
419522779 0.997070 box
419522879 0.995911 box
419522979 0.994507 box
419523079 0.997681 box
419523179 0.995300 box
419523279 0.994263 box
419523379 0.997742 box
419523479 0.997437 box
419523579 0.995239 box
419523679 0.994873 box
419523780 0.997437 box
419523879 0.997131 box
419523979 0.993530 box
419524079 0.997742 box
419524179 0.996826 box
419524279 0.996399 box
419524379 0.995422 box
419524479 0.994202 box
419524579 0.998230 box
419524679 0.995117 box
419524779 0.996704 box
419524879 0.997986 box
419524979 0.995850 box
419525079 0.994873 box
419525179 0.996826 box
419525279 0.995544 box
419525379 0.993896 box
419525479 0.997986 box
419525579 0.997070 box
419525679 0.996399 box
419525779 0.995483 box
419525879 0.997314 box
419525979 0.995239 box
419526079 0.993591 box
419526179 0.997864 box
419526279 0.996826 box
419526379 0.996521 box
419526479 0.997742 box
419526579 0.998047 box
419526679 0.994690 box
419526779 0.995667 box
419526879 0.997375 box
419526979 0.994202 box
419527079 0.999329 box
419527179 0.996155 box
419527279 0.995789 box
419527379 0.996643 box
419527479 0.996033 box
419527579 0.995422 box
419527679 0.995300 box
419527779 0.998169 box
419527879 0.996887 box
419527979 0.995911 box
419528079 0.996094 box
419528179 0.996277 box
419528279 0.995850 box
419528379 0.994385 box
419528479 0.999207 box
419528579 0.997559 box
419528679 0.994995 box
419528779 0.995667 box
419528879 0.996643 box
419528979 0.994446 box
419529079 0.993774 box
419529179 0.999329 box
419529279 0.997864 box
419529379 0.994934 box
419529479 0.996704 box
419529579 0.996521 box
419529679 0.994690 box
419529779 0.996216 box
419529879 0.998596 box
419529979 0.997131 box
419530079 0.993164 box
419530179 0.997437 box
419530279 0.995667 box
419530379 0.994446 box
419530479 0.997375 box
419530579 0.997559 box
419530679 0.996338 box
419530779 0.993713 box
419530879 0.997986 box
419530979 0.996399 box
419531079 0.994690 box
419531179 0.997498 box
419531279 0.997498 box
419531379 0.996582 box
419531479 0.993896 box
419531579 0.997437 box
419531679 0.995483 box
419531779 0.994873 box
419531879 0.997803 box
419531979 0.997681 box
419532079 0.996033 box
419532179 0.994141 box
419532280 0.995789 box
419532379 0.996887 box
419532479 0.995300 box
419532579 0.997192 box
419532679 0.997192 box
419532779 0.996399 box
419532879 0.994995 box
419532979 0.993408 box
419533079 0.998901 box
419533179 0.994507 box
419533279 0.996826 box
419533379 0.997864 box
419533479 0.995972 box
419533579 0.996643 box
419533679 0.994995 box
419533779 0.995483 box
419533879 0.995300 box
419533979 0.996521 box
419534079 0.997131 box
419534179 0.995972 box
419534279 0.997070 box
419534379 0.995117 box
419534479 0.994385 box
419534579 0.995605 box
419534679 0.996826 box
419534779 0.995483 box
419534879 0.997620 box
419534979 0.996460 box
419535079 0.997070 box
419535179 0.994629 box
419535279 0.996033 box
419535379 0.996521 box
419535479 0.995056 box
419535579 0.998718 box
419535679 0.996277 box
419535779 0.995911 box
419535879 0.994812 box
419535979 0.996399 box
419536079 0.996399 box
419536179 0.995544 box
419536279 0.997864 box
419536379 0.997437 box
419536479 0.994934 box
419536579 0.994812 box
419536679 0.995911 box
419536779 0.996216 box
419536879 0.994507 box
419536979 0.998413 box
419537079 0.997925 box
419537179 0.994324 box
419537279 0.996887 box
419537379 0.996094 box
419537479 0.995544 box
419537579 0.997070 box
419537679 0.997620 box
419537779 0.995178 box
419537879 0.993652 box
419537979 0.998230 box
419538079 0.996704 box
419538179 0.993896 box
419538279 0.998169 box
419538379 0.997437 box
419538479 0.994934 box
419538579 0.995239 box
419538679 0.995239 box
419538779 0.996521 box
419538879 0.995911 box
419538979 0.997864 box
419539079 0.996948 box
419539179 0.994995 box
419539279 0.996521 box
419539379 0.994080 box
419539479 0.999329 box
419539579 0.994751 box
419539679 0.997925 box
419539779 0.996643 box
419539879 0.995667 box
419539979 0.996704 box
419540079 0.995667 box
419540179 0.995239 box
419540279 0.994629 box
419540379 0.997742 box
419540479 0.997925 box
419540579 0.996338 box
419540679 0.996582 box
419540779 0.996094 box
419540879 0.995483 box
419540979 0.994995 box
419541079 0.998657 box
419541179 0.996460 box
419541279 0.996216 box
419541379 0.995178 box
419541479 0.996277 box
419541579 0.996094 box
419541679 0.994873 box
419541779 0.996704 box
419541879 0.996277 box
419541979 0.997681 box
419542079 0.996155 box
419542179 0.996460 box
419542279 0.995361 box
419542379 0.994202 box
419542479 0.996399 box
419542579 0.995117 box
419542679 0.999084 box
419542779 0.994995 box
419542879 0.996521 box
419542979 0.994446 box
419543079 0.995728 box
419543179 0.996887 box
419543279 0.995361 box
419543379 0.998169 box
419543479 0.996216 box
419543579 0.995850 box
419543679 0.995483 box
419543779 0.995667 box
419543879 0.995911 box
419543979 0.994080 box
419544079 1.000000 box
419544179 0.997131 box
419544279 0.994873 box
419544379 0.995361 box
419544479 0.995789 box
419544579 0.994690 box
419544679 0.995544 box
419544779 0.999390 box
419544879 0.996094 box
419544979 0.996155 box
419545079 0.994507 box
419545179 0.996277 box
419545279 0.994934 box
419545379 0.995117 box
419545479 0.998962 box
419545579 0.997498 box
419545679 0.994263 box
419545779 0.997375 box
419545879 0.996460 box
419545979 0.993652 box
419546079 0.997925 box
419546179 0.997437 box
419546279 0.996338 box
419546379 0.993225 box
419546479 0.997681 box
419546579 0.996521 box
419546679 0.994019 box
419546779 0.997131 box
419546879 0.997620 box
419546979 0.996521 box
419547079 0.994263 box
419547179 0.997375 box
419547279 0.996216 box
419547379 0.994019 box
419547479 0.997742 box
419547579 0.997131 box
419547679 0.996887 box
419547779 0.993347 box
419547880 0.996399 box
419547979 0.997070 box
419548079 0.994507 box
419548179 0.997253 box
419548279 0.997070 box
419548379 0.996704 box
419548479 0.993713 box
419548580 0.996155 box
419548679 0.997559 box
419548779 0.994507 box
419548879 0.997925 box
419548979 0.998047 box
419549079 0.995544 box
419549179 0.995544 box
419549279 0.993774 box
419549379 0.998108 box
419549479 0.994873 box
419549579 0.997375 box
419549679 0.997070 box
419549779 0.997192 box
419549879 0.994934 box
419549979 0.995728 box
419550079 0.996765 box
419550179 0.993958 box
419550279 0.997925 box
419550379 0.997253 box
419550479 0.996765 box
419550579 0.995850 box
419550679 0.995239 box
419550779 0.996521 box
419550879 0.994446 box
419550979 0.997375 box
419551079 0.997131 box
419551179 0.997131 box
419551279 0.995300 box
419551379 0.996033 box
419551479 0.995239 box
419551579 0.994995 box
419551679 0.997375 box
419551779 0.997253 box
419551879 0.996399 box
419551979 0.997192 box
419552079 0.995544 box
419552179 0.995422 box
419552279 0.995117 box
419552379 0.997070 box
419552479 0.995544 box
419552579 0.998230 box
419552679 0.996399 box
419552779 0.996582 box
419552879 0.998108 box
419552979 0.995789 box
419553079 0.995544 box
419553179 0.994629 box
419553279 0.998230 box
419553379 0.996704 box
419553479 0.995239 box
419553579 0.996277 box
419553679 0.996460 box
419553779 0.996155 box
419553879 0.994690 box
419351823 0.999084 box
419351923 0.994385 box
419352023 0.997803 box
419352123 0.997742 box
419352223 0.996033 box
419352323 0.993835 box
419352423 0.996277 box
419352523 0.997742 box
419352623 0.994019 box
419352723 0.997742 box
