/dev/cpu/msr_batch: No such file or directory
graph_generation:               6.446793 s
construction_time:              1.037691 s
Running BFS 0
Time for BFS 0 is 0.261067
TEPS for BFS 0 is 6.42586e+07
Validating BFS 0
Validate time for BFS 0 is 1.624807
Running BFS 1
Time for BFS 1 is 0.261241
TEPS for BFS 1 is 6.42159e+07
Validating BFS 1
Validate time for BFS 1 is 1.623902
Running BFS 2
Time for BFS 2 is 0.261125
TEPS for BFS 2 is 6.42445e+07
Validating BFS 2
Validate time for BFS 2 is 1.624990
Running BFS 3
Time for BFS 3 is 0.261134
TEPS for BFS 3 is 6.42422e+07
Validating BFS 3
Validate time for BFS 3 is 1.622598
Running BFS 4
Time for BFS 4 is 0.261271
TEPS for BFS 4 is 6.42084e+07
Validating BFS 4
Validate time for BFS 4 is 1.622019
Running BFS 5
Time for BFS 5 is 0.261165
TEPS for BFS 5 is 6.42346e+07
Validating BFS 5
Validate time for BFS 5 is 1.623597
Running BFS 6
Time for BFS 6 is 0.261228
TEPS for BFS 6 is 6.42191e+07
Validating BFS 6
Validate time for BFS 6 is 1.622189
Running BFS 7
Time for BFS 7 is 0.261115
TEPS for BFS 7 is 6.42469e+07
Validating BFS 7
Validate time for BFS 7 is 1.623059
Running BFS 8
Time for BFS 8 is 0.261249
TEPS for BFS 8 is 6.42139e+07
Validating BFS 8
Validate time for BFS 8 is 1.620051
Running BFS 9
Time for BFS 9 is 0.261214
TEPS for BFS 9 is 6.42226e+07
Validating BFS 9
Validate time for BFS 9 is 1.620869
Running BFS 10
Time for BFS 10 is 0.261095
TEPS for BFS 10 is 6.42517e+07
Validating BFS 10
Validate time for BFS 10 is 1.624019
Running BFS 11
Time for BFS 11 is 0.261232
TEPS for BFS 11 is 6.42181e+07
Validating BFS 11
Validate time for BFS 11 is 1.621407
Running BFS 12
Time for BFS 12 is 0.261197
TEPS for BFS 12 is 6.42267e+07
Validating BFS 12
Validate time for BFS 12 is 1.622501
Running BFS 13
Time for BFS 13 is 0.261170
TEPS for BFS 13 is 6.42334e+07
Validating BFS 13
Validate time for BFS 13 is 1.620942
Running BFS 14
Time for BFS 14 is 0.261282
TEPS for BFS 14 is 6.42058e+07
Validating BFS 14
Validate time for BFS 14 is 1.620374
Running BFS 15
Time for BFS 15 is 0.261169
TEPS for BFS 15 is 6.42335e+07
Validating BFS 15
Validate time for BFS 15 is 1.625120
Running BFS 16
Time for BFS 16 is 0.261141
TEPS for BFS 16 is 6.42405e+07
Validating BFS 16
Validate time for BFS 16 is 1.622010
Running BFS 17
Time for BFS 17 is 0.261201
TEPS for BFS 17 is 6.42257e+07
Validating BFS 17
Validate time for BFS 17 is 1.624664
Running BFS 18
Time for BFS 18 is 0.261134
TEPS for BFS 18 is 6.42421e+07
Validating BFS 18
Validate time for BFS 18 is 1.623875
Running BFS 19
Time for BFS 19 is 0.261137
TEPS for BFS 19 is 6.42415e+07
Validating BFS 19
Validate time for BFS 19 is 1.625350
Running BFS 20
Time for BFS 20 is 0.261233
TEPS for BFS 20 is 6.42178e+07
Validating BFS 20
Validate time for BFS 20 is 1.621620
Running BFS 21
Time for BFS 21 is 0.261051
TEPS for BFS 21 is 6.42627e+07
Validating BFS 21
Validate time for BFS 21 is 1.622434
Running BFS 22
Time for BFS 22 is 0.261052
TEPS for BFS 22 is 6.42624e+07
Validating BFS 22
Validate time for BFS 22 is 1.622001
Running BFS 23
Time for BFS 23 is 0.261148
TEPS for BFS 23 is 6.42388e+07
Validating BFS 23
Validate time for BFS 23 is 1.624633
Running BFS 24
Time for BFS 24 is 0.261099
TEPS for BFS 24 is 6.42509e+07
Validating BFS 24
Validate time for BFS 24 is 1.622017
Running BFS 25
Time for BFS 25 is 0.261188
TEPS for BFS 25 is 6.42289e+07
Validating BFS 25
Validate time for BFS 25 is 1.625019
Running BFS 26
Time for BFS 26 is 0.261138
TEPS for BFS 26 is 6.42412e+07
Validating BFS 26
Validate time for BFS 26 is 1.624369
Running BFS 27
Time for BFS 27 is 0.261257
TEPS for BFS 27 is 6.42119e+07
Validating BFS 27
Validate time for BFS 27 is 1.621162
Running BFS 28
Time for BFS 28 is 0.261170
TEPS for BFS 28 is 6.42333e+07
Validating BFS 28
Validate time for BFS 28 is 1.625763
Running BFS 29
Time for BFS 29 is 0.261202
TEPS for BFS 29 is 6.42255e+07
Validating BFS 29
Validate time for BFS 29 is 1.624918
Running BFS 30
Time for BFS 30 is 0.261171
TEPS for BFS 30 is 6.42331e+07
Validating BFS 30
Validate time for BFS 30 is 1.624971
Running BFS 31
Time for BFS 31 is 0.261099
TEPS for BFS 31 is 6.42507e+07
Validating BFS 31
Validate time for BFS 31 is 1.620620
Running BFS 32
Time for BFS 32 is 0.261231
TEPS for BFS 32 is 6.42183e+07
Validating BFS 32
Validate time for BFS 32 is 1.621015
Running BFS 33
Time for BFS 33 is 0.261090
TEPS for BFS 33 is 6.42529e+07
Validating BFS 33
Validate time for BFS 33 is 1.623842
Running BFS 34
Time for BFS 34 is 0.261111
TEPS for BFS 34 is 6.42479e+07
Validating BFS 34
Validate time for BFS 34 is 1.621000
Running BFS 35
Time for BFS 35 is 0.261114
TEPS for BFS 35 is 6.42471e+07
Validating BFS 35
Validate time for BFS 35 is 1.621542
Running BFS 36
Time for BFS 36 is 0.261207
TEPS for BFS 36 is 6.42242e+07
Validating BFS 36
Validate time for BFS 36 is 1.620698
Running BFS 37
Time for BFS 37 is 0.261174
TEPS for BFS 37 is 6.42323e+07
Validating BFS 37
Validate time for BFS 37 is 1.622358
Running BFS 38
Time for BFS 38 is 0.261306
TEPS for BFS 38 is 6.42e+07
Validating BFS 38
Validate time for BFS 38 is 1.621730
Running BFS 39
Time for BFS 39 is 0.261283
TEPS for BFS 39 is 6.42055e+07
Validating BFS 39
Validate time for BFS 39 is 1.621319
Running BFS 40
Time for BFS 40 is 0.261258
TEPS for BFS 40 is 6.42118e+07
Validating BFS 40
Validate time for BFS 40 is 1.621117
Running BFS 41
Time for BFS 41 is 0.261060
TEPS for BFS 41 is 6.42604e+07
Validating BFS 41
Validate time for BFS 41 is 1.624666
Running BFS 42
Time for BFS 42 is 0.261247
TEPS for BFS 42 is 6.42143e+07
Validating BFS 42
Validate time for BFS 42 is 1.620709
Running BFS 43
Time for BFS 43 is 0.261138
TEPS for BFS 43 is 6.42411e+07
Validating BFS 43
Validate time for BFS 43 is 1.621989
Running BFS 44
Time for BFS 44 is 0.261176
TEPS for BFS 44 is 6.42318e+07
Validating BFS 44
Validate time for BFS 44 is 1.623563
Running BFS 45
Time for BFS 45 is 0.261229
TEPS for BFS 45 is 6.42187e+07
Validating BFS 45
Validate time for BFS 45 is 1.621956
Running BFS 46
Time for BFS 46 is 0.261125
TEPS for BFS 46 is 6.42445e+07
Validating BFS 46
Validate time for BFS 46 is 1.622802
Running BFS 47
Time for BFS 47 is 0.261140
TEPS for BFS 47 is 6.42406e+07
Validating BFS 47
Validate time for BFS 47 is 1.621170
Running BFS 48
Time for BFS 48 is 0.261140
TEPS for BFS 48 is 6.42408e+07
Validating BFS 48
Validate time for BFS 48 is 1.624453
Running BFS 49
Time for BFS 49 is 0.261132
TEPS for BFS 49 is 6.42426e+07
Validating BFS 49
Validate time for BFS 49 is 1.620902
Running BFS 50
Time for BFS 50 is 0.261227
TEPS for BFS 50 is 6.42192e+07
Validating BFS 50
Validate time for BFS 50 is 1.620754
Running BFS 51
Time for BFS 51 is 0.261165
TEPS for BFS 51 is 6.42346e+07
Validating BFS 51
Validate time for BFS 51 is 1.623447
Running BFS 52
Time for BFS 52 is 0.261163
TEPS for BFS 52 is 6.42351e+07
Validating BFS 52
Validate time for BFS 52 is 1.624532
Running BFS 53
Time for BFS 53 is 0.261186
TEPS for BFS 53 is 6.42293e+07
Validating BFS 53
Validate time for BFS 53 is 1.621903
Running BFS 54
Time for BFS 54 is 0.261235
TEPS for BFS 54 is 6.42173e+07
Validating BFS 54
Validate time for BFS 54 is 1.623709
Running BFS 55
Time for BFS 55 is 0.261027
TEPS for BFS 55 is 6.42685e+07
Validating BFS 55
Validate time for BFS 55 is 1.620718
Running BFS 56
Time for BFS 56 is 0.261156
TEPS for BFS 56 is 6.42368e+07
Validating BFS 56
Validate time for BFS 56 is 1.620907
Running BFS 57
Time for BFS 57 is 0.261132
TEPS for BFS 57 is 6.42428e+07
Validating BFS 57
Validate time for BFS 57 is 1.625232
Running BFS 58
Time for BFS 58 is 0.261178
TEPS for BFS 58 is 6.42314e+07
Validating BFS 58
Validate time for BFS 58 is 1.622733
Running BFS 59
Time for BFS 59 is 0.261274
TEPS for BFS 59 is 6.42077e+07
Validating BFS 59
Validate time for BFS 59 is 1.624789
Running BFS 60
Time for BFS 60 is 0.261078
TEPS for BFS 60 is 6.42561e+07
Validating BFS 60
Validate time for BFS 60 is 1.621032
Running BFS 61
Time for BFS 61 is 0.261136
TEPS for BFS 61 is 6.42417e+07
Validating BFS 61
Validate time for BFS 61 is 1.623874
Running BFS 62
Time for BFS 62 is 0.260944
TEPS for BFS 62 is 6.42889e+07
Validating BFS 62
Validate time for BFS 62 is 1.624378
Running BFS 63
Time for BFS 63 is 0.261135
TEPS for BFS 63 is 6.4242e+07
Validating BFS 63
Validate time for BFS 63 is 1.621257
real	2m 19.59s
user	2m 19.48s
sys	0m 0.09s
