time(ms) energy(J) hostname
488760615 0.000000 box
488760715 0.977234 box
488760815 0.955811 box
488760915 1.010010 box
488761015 1.008728 box
488761115 1.010254 box
488761215 1.009949 box
488761315 1.013794 box
488761415 1.010925 box
488761515 1.011658 box
488761615 1.010742 box
488761715 1.031677 box
488761815 1.042725 box
488761915 1.042114 box
488762015 1.030212 box
488762115 1.031250 box
488762215 1.031921 box
488762315 1.034058 box
488762415 1.031189 box
488762515 1.025208 box
488762615 0.957886 box
488762715 0.962708 box
488762815 1.006897 box
488762915 1.022888 box
488763015 1.035767 box
488763115 1.046265 box
488763215 1.046448 box
488763315 1.046448 box
488763415 1.046509 box
488763515 1.046204 box
488763615 1.046021 box
488763715 1.046448 box
488763815 1.046448 box
488763915 1.045532 box
488764015 1.046936 box
488764115 1.046509 box
488764215 1.046204 box
488764315 1.046143 box
488764415 1.046570 box
488764515 1.045959 box
488764615 1.046631 box
488764715 1.045593 box
488764815 1.046936 box
488764915 1.046326 box
488765015 1.046204 box
488765115 1.046021 box
488765215 1.046143 box
488765315 1.046204 box
488765415 1.046509 box
488765515 1.046692 box
488765615 1.030151 box
488765715 1.044189 box
488765815 1.046448 box
488765915 1.046204 box
488766015 1.047241 box
488766115 1.045898 box
488766215 1.044983 box
488766315 1.046326 box
488766415 1.047974 box
488766515 1.045837 box
488766615 1.046570 box
488766715 1.046448 box
488766815 1.046326 box
488766915 1.046448 box
488767015 1.046509 box
488767115 1.045959 box
488767215 1.046570 box
488767315 1.046387 box
488767415 1.045898 box
488767515 1.046997 box
488767615 1.046509 box
488767715 1.045898 box
488767815 1.045959 box
488767915 1.047058 box
488768015 1.046021 box
488768115 1.047424 box
488768215 1.045166 box
488768315 1.045593 box
488768415 1.046265 box
488768515 1.046326 box
488768615 1.045898 box
488768715 1.046082 box
488768815 1.047424 box
488768915 1.045837 box
488769015 1.046753 box
488769115 1.047058 box
488769215 1.046753 box
488769315 1.044983 box
488769415 1.046570 box
488769515 1.045837 box
488769615 1.046753 box
488769715 1.045898 box
488769815 1.046387 box
488769915 1.046875 box
488770015 1.046387 box
488770115 1.046509 box
488770215 1.045227 box
488770315 1.047424 box
488770415 1.046143 box
488770515 1.046143 box
488770615 1.048828 box
488770715 1.045410 box
488770815 1.046082 box
488770915 1.047302 box
488771015 1.045044 box
488771115 1.046631 box
488771215 1.047119 box
488771315 1.045593 box
488771415 1.045898 box
488771515 1.047302 box
488771615 1.045593 box
488771715 1.046326 box
488771815 1.047852 box
488771915 1.044861 box
488772015 1.046509 box
488772115 1.045593 box
488772215 1.045959 box
488772315 1.046936 box
488772415 1.046570 box
488772515 1.045471 box
488772615 1.046936 box
488772715 1.046265 box
488772815 1.045959 box
488772915 1.046570 box
488773015 1.045227 box
488773115 1.047241 box
488773215 1.046265 box
488773315 1.046631 box
488773415 1.045776 box
488773515 1.046143 box
488773615 1.046692 box
488773715 1.046936 box
488773815 1.046509 box
488773915 1.046143 box
488774015 1.046143 box
488774115 1.045715 box
488774215 1.047424 box
488774315 1.045959 box
488774415 1.046143 box
488774515 1.046143 box
488774615 1.045288 box
488774715 1.045654 box
488774815 1.046753 box
488774915 1.047058 box
488775015 1.045776 box
488775115 1.046143 box
488775215 1.047363 box
488775315 1.045715 box
488775415 1.046265 box
488775515 1.046387 box
488775615 1.045776 box
488775715 1.046509 box
488775815 1.046021 box
488775915 1.046753 box
488776015 1.045837 box
488776115 1.045166 box
488776215 1.046692 box
488776315 1.045837 box
488776415 1.046082 box
488776515 1.047546 box
488776615 1.045227 box
488776715 1.046509 box
488776815 1.045105 box
488776915 1.046326 box
488777015 1.046875 box
488777115 1.046387 box
488777215 1.046204 box
488777315 1.046204 box
488777415 1.046509 box
488777515 1.046997 box
488777615 1.045715 box
488777715 1.046570 box
488777815 1.046143 box
488777915 1.046692 box
488778015 1.045837 box
488778115 1.046387 box
488778215 1.046021 box
488778315 1.046936 box
488778415 1.045654 box
488778515 1.045898 box
488778615 1.046692 box
488778715 1.047058 box
488778815 1.045959 box
488778915 1.045654 box
488779015 1.046143 box
488779115 1.045837 box
488779215 1.046509 box
488779315 1.046326 box
488779415 1.046082 box
488779515 1.046448 box
488779615 1.045959 box
488779715 1.047363 box
488779815 1.046448 box
488779915 1.046021 box
488780015 1.046082 box
488780115 1.046448 box
488780215 1.045959 box
488780315 1.046509 box
488780415 1.045837 box
488780515 1.046509 box
488780615 1.046570 box
488780715 1.046265 box
488780815 1.045593 box
488780915 1.046814 box
488781015 1.045715 box
488781115 1.046509 box
488781215 1.045715 box
488781315 1.046326 box
488781415 1.046204 box
488781515 1.046265 box
488781615 1.045654 box
488781715 1.046265 box
488781815 1.046753 box
488781915 1.046692 box
488782015 1.045166 box
488782115 1.046082 box
488782215 1.046814 box
488782315 1.045776 box
488782415 1.047058 box
488782515 1.046082 box
488782615 1.046692 box
488782715 1.045410 box
488782815 1.046021 box
488782915 1.046997 box
488783015 1.046387 box
488783115 1.045349 box
488783215 1.046387 box
488783315 1.046387 box
488783415 1.046509 box
488783515 1.046570 box
488783615 1.046997 box
488783715 1.046021 box
488783815 1.045837 box
488783915 1.046692 box
488784015 1.045349 box
488784115 1.045166 box
488784215 1.047668 box
488784315 1.046143 box
488784415 1.045837 box
488784515 1.047424 box
488784615 1.045471 box
488784715 1.046143 box
488784815 1.045837 box
488784915 1.047302 box
488785015 1.045837 box
488785115 1.045593 box
488785215 1.048584 box
488785315 1.047302 box
488785415 1.046204 box
488785515 1.046021 box
488785615 1.046204 box
488785715 1.045532 box
488785815 1.045166 box
488785915 1.046692 box
488786015 1.047791 box
488786115 1.044739 box
488786215 1.047668 box
488786315 1.045837 box
488786415 1.046814 box
488786515 1.045715 box
488786615 1.046021 box
488786715 1.046204 box
488786815 1.045959 box
488786915 1.046936 box
488787015 1.046204 box
488787115 1.046875 box
488787215 1.046082 box
488787315 1.045227 box
488787415 1.047180 box
488787515 1.045715 box
488787615 1.047241 box
488787715 0.904236 box
488787815 0.873657 box
488787915 0.850952 box
488788015 0.854797 box
488788115 0.857727 box
488788215 0.857239 box
488788315 0.858521 box
488788415 0.858887 box
488788515 0.856750 box
488788615 0.858704 box
488788715 0.860291 box
488788815 0.857544 box
488788915 0.857239 box
488789015 0.858521 box
488789115 0.857971 box
488789215 0.858276 box
488789315 0.858276 box
488789415 0.859375 box
488789515 0.858398 box
488789615 0.858704 box
488789715 0.857605 box
488789815 0.856995 box
488789915 0.857971 box
488790015 0.858398 box
488790115 0.853943 box
488790215 0.854492 box
488790315 0.852844 box
488790415 0.851257 box
488790515 0.851074 box
488790615 0.851624 box
488790715 0.852234 box
488790815 0.850403 box
488790915 0.849060 box
488791015 0.850525 box
488791115 0.851318 box
488791215 0.852417 box
488791315 0.850891 box
488791415 0.852112 box
488791515 0.851379 box
488791615 0.850342 box
488791715 0.849304 box
488791815 0.851013 box
488791915 0.851074 box
488792015 0.851196 box
488792115 0.849976 box
488792215 0.850342 box
488792315 0.852661 box
488792415 0.853333 box
488792515 0.850525 box
488792615 0.852234 box
488792715 0.854004 box
488792815 0.854065 box
488792915 0.850220 box
488793015 0.849915 box
488793115 0.850159 box
488793215 0.847778 box
488793315 0.840759 box
488793415 0.843262 box
488793515 0.843506 box
488793615 0.842651 box
488793715 0.842651 box
488793815 0.844116 box
488793915 0.846252 box
488794015 0.844543 box
488794115 0.840149 box
488794215 0.842834 box
488794315 0.845581 box
488794415 0.844360 box
488794515 0.840637 box
488794615 0.842529 box
488794715 0.845459 box
488794815 0.843689 box
488794915 0.840149 box
488795015 0.842712 box
488795115 0.843811 box
488795215 0.842285 box
488795315 0.843262 box
488795415 0.842102 box
488795515 0.842041 box
488795615 0.842834 box
488795715 0.848511 box
488795815 0.850464 box
488795915 0.846741 box
488796015 0.837830 box
488796115 0.833862 box
488796215 0.830811 box
488796315 0.832214 box
488796415 0.833740 box
488796515 0.831604 box
488796615 0.832642 box
488796715 0.832397 box
488796815 0.834290 box
488796915 0.817139 box
488797015 0.806580 box
488797115 0.806519 box
488797215 0.809387 box
488797315 0.806030 box
488797415 0.809387 box
488797515 0.806091 box
488797615 0.809387 box
488797715 0.805359 box
488797815 0.806213 box
488797915 0.809875 box
488798015 0.812195 box
488798115 0.810486 box
488798215 0.814758 box
488798315 0.815491 box
488798415 0.815186 box
488798515 0.851868 box
488798615 1.008789 box
488798715 1.007507 box
488798815 1.006470 box
488798915 1.005676 box
488799015 1.006226 box
488799115 1.006653 box
488799215 1.008423 box
488799315 1.006714 box
488799415 1.009949 box
488799515 1.009155 box
488799615 1.006409 box
488799715 1.005981 box
488799815 1.006775 box
488799915 1.006470 box
488800015 1.004272 box
488800115 1.008606 box
488800215 1.003845 box
488800315 1.005371 box
488800415 1.004822 box
488800515 1.008728 box
488800615 1.008118 box
488800715 1.006531 box
488800815 1.004089 box
488800915 1.008118 box
488801015 1.006470 box
488801115 1.006409 box
488801215 1.003235 box
488801315 1.001038 box
488801415 0.980530 box
488801515 0.974365 box
488801615 0.939941 box
488801715 1.014160 box
488801815 1.046448 box
488801915 1.048645 box
488802015 1.042236 box
488802115 1.048340 box
488802215 1.045593 box
488802315 1.041870 box
488802415 1.046265 box
488802515 0.984802 box
488802615 1.047302 box
488802715 1.046204 box
488802815 1.046814 box
488802915 1.032227 box
488803015 1.004211 box
488803115 1.046753 box
488803215 1.046265 box
488803315 1.046021 box
488803415 1.009277 box
488803515 1.026306 box
488803615 1.046631 box
488803715 1.046326 box
488803815 1.046936 box
488803915 0.993958 box
488804015 1.039490 box
488804115 1.047424 box
488804215 1.046204 box
488804315 1.046265 box
488804415 0.986694 box
488804515 1.046753 box
488804615 1.046021 box
488804715 1.046326 box
488804815 1.038513 box
488804915 1.004822 box
488805015 1.046021 box
488805115 1.046997 box
488805215 1.046143 box
488805315 1.046509 box
488805415 1.050659 box
488805515 1.048645 box
488805615 1.045288 box
488805715 1.045776 box
488805815 1.029480 box
488805915 1.029968 box
488806015 1.045837 box
488806115 1.046936 box
488806215 1.045654 box
488806315 0.988953 box
488806415 1.045776 box
488806515 1.045898 box
488806615 1.045715 box
488806715 1.044373 box
488806815 0.999023 box
488806915 1.046692 box
488807015 1.046509 box
488807115 1.046387 box
488807215 1.023804 box
488807315 1.003174 box
488807415 1.046143 box
488807515 1.045288 box
488807615 1.046082 box
488807715 1.012329 box
488807815 1.026855 box
488807915 1.045349 box
488808015 1.046021 box
488808115 1.046570 box
488808215 1.005432 box
488808315 1.033508 box
488808415 1.047302 box
488808515 1.045837 box
488808615 1.045288 box
488808715 0.997314 box
488808815 1.052307 box
488808915 1.045715 box
488809015 1.046753 box
488809115 1.045044 box
488809215 1.048096 box
488809315 1.046387 box
488809415 1.041199 box
488809515 1.045959 box
488809615 1.039062 box
488809715 0.989075 box
488809815 1.045105 box
488809915 1.046387 box
488810015 1.046326 box
488810115 1.027893 box
488810215 1.008911 box
488810315 1.045959 box
488810415 1.044434 box
488810515 1.046570 box
488810615 1.021667 box
488810715 1.004333 box
488810815 1.047668 box
488810915 1.045898 box
488811015 1.045959 box
488811115 1.018799 box
488811215 1.012512 box
488811315 1.045837 box
488811415 1.046997 box
488811515 1.046021 box
488811615 1.010864 box
488811715 1.015991 box
488811815 1.045776 box
488811915 1.045654 box
488812015 1.046997 box
488812115 1.008911 box
488812215 1.031555 box
488812315 1.046631 box
488812415 1.049622 box
488812515 1.046631 box
488812615 1.046570 box
488812715 1.046509 box
488812815 1.046936 box
488812915 1.046326 box
488813015 1.044067 box
488813115 1.000854 box
488813215 1.040161 box
488813315 1.046509 box
488813415 1.046265 box
488813515 1.045959 box
488813615 0.981995 box
488813715 1.045776 box
488813815 1.047058 box
488813915 1.046143 box
488814015 1.046265 box
488814115 0.987305 box
488814215 1.046143 box
488814315 1.046448 box
488814415 1.045349 box
488814515 1.043762 box
488814615 0.990601 box
488814715 1.046936 box
488814815 1.045044 box
488814915 1.047546 box
488815015 1.032654 box
488815115 1.001831 box
488815215 1.045837 box
488815315 1.045593 box
488815415 1.046692 box
488815515 1.031860 box
488815615 1.015076 box
488815715 1.045898 box
488815815 1.045776 box
488815915 1.046875 box
488816015 1.046936 box
488816115 1.049377 box
488816215 1.048767 box
488816315 1.044800 box
488816415 1.046936 box
488816515 1.010864 box
488816615 1.014954 box
488816715 1.045898 box
488816815 1.045837 box
488816915 1.046265 box
488817015 1.018921 box
488817115 1.015381 box
488817215 1.046082 box
488817315 1.046631 box
488817415 1.046204 box
488817515 1.015808 box
488817615 1.015320 box
488817715 1.046692 box
488817815 1.045593 box
488817915 1.046021 box
488818015 1.018982 box
488818115 1.011536 box
488818215 1.046387 box
488818315 1.046204 box
488818415 1.045715 box
488818515 1.019958 box
488818615 1.010925 box
488818715 1.046143 box
488818815 1.045349 box
488818915 1.046204 box
488819015 1.019409 box
488819115 1.010193 box
488819215 1.046875 box
488819315 1.045898 box
488819415 1.046204 box
488819515 1.047180 box
488819615 1.049866 box
488819715 1.048889 box
488819815 1.044922 box
488819915 1.046570 box
488820015 1.041321 box
488820115 1.015564 box
488820215 1.046631 box
488820315 1.045471 box
488820415 1.046082 box
488820515 1.018188 box
488820615 1.010864 box
488820715 1.046326 box
488820815 1.045837 box
488820915 1.046631 box
488821015 1.019165 box
488821115 1.010681 box
488821215 1.046082 box
488821315 1.045898 box
488821415 1.046082 box
488821515 1.019836 box
488821615 1.010986 box
488821715 1.045715 box
488821815 1.045654 box
488821915 1.046021 box
488822015 1.023132 box
488822115 1.009888 box
488822215 1.046387 box
488822315 1.046570 box
488822415 1.045715 box
488822515 1.023132 box
488822615 1.008240 box
488822715 1.046631 box
488822815 1.046204 box
488822915 1.045654 box
488823015 1.024292 box
488823115 1.045532 box
488823215 1.046082 box
488823315 1.049316 box
488823415 1.043701 box
488823515 1.041809 box
488823615 1.045715 box
488823715 1.045959 box
488823815 1.045105 box
488823915 1.045044 box
488824015 1.023682 box
488824115 1.019043 box
488824215 1.046265 box
488824315 1.045715 box
488824415 1.046692 box
488824515 1.018921 box
488824615 1.011841 box
488824715 1.046631 box
488824815 1.046326 box
488824915 1.045715 box
488825015 1.016174 box
488825115 1.012329 box
488825215 1.046387 box
488825315 1.046204 box
488825415 1.046997 box
488825515 1.014465 box
488825615 1.014771 box
488825715 1.046448 box
488825815 1.045593 box
488825915 1.046509 box
488826015 1.017639 box
488826115 1.021545 box
488826215 1.045593 box
488826315 1.046082 box
488826415 1.046448 box
488826515 1.013977 box
488826615 1.020813 box
488826715 1.046814 box
488826815 1.048889 box
488826915 1.044250 box
488827015 1.041748 box
488827115 1.050720 box
488827215 1.042114 box
488827315 1.046021 box
488827415 1.046814 box
488827515 1.014893 box
488827615 1.017029 box
488827715 1.045715 box
488827815 1.045593 box
488827915 1.045959 box
488828015 1.017029 box
488828115 1.016785 box
488828215 1.045837 box
488828315 1.045593 box
488828415 1.048828 box
488828515 1.017212 box
488828615 1.014709 box
488828715 1.046326 box
488828815 1.045837 box
488828915 1.046509 box
488829015 1.018372 box
488829115 1.014587 box
488829215 1.046326 box
488829315 1.045715 box
488829415 1.046692 box
488829515 1.023254 box
488829615 1.020935 box
488829715 1.046204 box
488829815 1.045959 box
488829915 1.046448 box
488830015 1.019348 box
488830115 1.013611 box
488830215 1.050354 box
488830315 1.046692 box
488830415 1.048584 box
488830515 1.040283 box
488830615 1.049805 box
488830715 1.041382 box
488830815 1.046021 box
488830915 1.046814 box
488831015 1.020508 box
488831115 1.012573 box
488831215 1.045044 box
488831315 1.046143 box
488831415 1.045593 box
488831515 1.021484 box
488831615 1.010803 box
488831715 1.045776 box
488831815 1.046692 box
488831915 1.046570 box
488832015 1.019592 box
488832115 1.013672 box
488832215 1.045288 box
488832315 1.045837 box
488832415 1.046509 box
488832515 1.021240 box
488832615 1.011658 box
488832715 1.045471 box
488832815 1.046509 box
488832915 1.045654 box
488833015 1.021790 box
488833115 1.009705 box
488833215 1.046387 box
488833315 1.046509 box
488833415 1.046021 box
488833515 1.023254 box
488833615 1.010010 box
488833715 1.051575 box
488833815 1.045654 box
488833915 1.048950 box
488834015 1.040710 box
488834115 1.050537 box
488834215 1.042053 box
488834315 1.045471 box
488834415 1.045532 box
488834515 1.022766 box
488834615 1.010559 box
488834715 1.045959 box
488834815 1.045654 box
488834915 1.046631 box
488835015 1.019653 box
488835115 1.013489 box
488835215 1.045532 box
488835315 1.045898 box
488835415 1.046448 box
488835515 1.020325 box
488835615 1.012878 box
488835715 1.045471 box
488835815 1.046387 box
488835915 1.046570 box
488836015 1.021240 box
488836115 1.011963 box
488836215 1.045532 box
488836315 1.045898 box
488836415 1.046814 box
488836515 1.022095 box
488836615 1.011780 box
488836715 1.046753 box
488836815 1.045654 box
488836915 1.046875 box
488837015 1.024170 box
488837115 1.009399 box
488837215 1.049500 box
488837315 1.047913 box
488837415 1.045715 box
488837515 1.045044 box
488837615 1.048584 box
488837715 1.046570 box
488837815 1.046570 box
488837915 1.041138 box
488838015 1.027588 box
488838115 1.005493 box
488838215 1.046082 box
488838315 1.046509 box
488838415 1.046021 box
488838515 1.030151 box
488838615 1.002930 box
488838715 1.046509 box
488838815 1.046631 box
488838915 1.045044 box
488839015 1.028870 box
488839115 1.003296 box
488839215 1.047119 box
488839315 1.046021 box
488839415 1.045837 box
488839515 1.030762 box
488839615 1.002625 box
488839715 1.047241 box
488839815 1.045166 box
488839915 1.046021 box
488840015 1.032837 box
488840115 1.001770 box
488840215 1.045715 box
488840315 1.045898 box
488840415 1.046265 box
488840515 1.032959 box
488840615 1.001526 box
488840715 1.046509 box
488840815 1.046204 box
488840915 1.050903 box
488841015 1.042358 box
488841115 1.051819 box
488841215 1.044861 box
488841315 1.046753 box
488841415 1.041931 box
488841515 1.032898 box
488841615 1.011963 box
488841715 1.045654 box
488841815 1.046082 box
488841915 1.046631 box
488842015 1.026855 box
488842115 1.006836 box
488842215 1.046204 box
488842315 1.045837 box
488842415 1.046997 box
488842515 1.024292 box
488842615 1.007935 box
488842715 1.046692 box
488842815 1.046082 box
488842915 1.047119 box
488843015 1.022461 box
488843115 1.010071 box
488843215 1.045715 box
488843315 1.046753 box
488843415 1.045593 box
488843515 1.026550 box
488843615 1.008911 box
488843715 1.045654 box
488843815 1.046448 box
488843915 1.046021 box
488844015 1.024414 box
488844115 1.009216 box
488844215 1.046143 box
488844315 1.046326 box
488844415 1.050049 box
488844515 1.042908 box
488844615 1.052063 box
488844715 1.046082 box
488844815 1.046326 box
488844915 1.045776 box
488845015 1.021606 box
488845115 1.008423 box
488845215 1.046692 box
488845315 1.045898 box
488845415 1.046570 box
488845515 1.028870 box
488845615 1.004517 box
488845715 1.046204 box
488845815 1.045776 box
488845915 1.046204 box
488846015 1.031372 box
488846115 1.003845 box
488846215 1.045471 box
488846315 1.046448 box
488846415 1.045837 box
488846515 1.030518 box
488846615 1.003357 box
488846715 1.046570 box
488846815 1.045654 box
488846915 1.046997 box
488847015 1.031738 box
488847115 1.003418 box
488847215 1.046143 box
488847315 1.045898 box
488847415 1.045349 box
488847515 1.033447 box
488847615 1.001831 box
488847715 1.046204 box
488847815 1.046021 box
488847915 1.046143 box
488848015 1.046509 box
488848115 1.050232 box
488848215 1.049133 box
488848315 1.043823 box
488848415 1.046692 box
488848515 1.031372 box
488848615 0.999634 box
488848715 1.045593 box
488848815 1.045227 box
488848915 1.046997 box
488849015 1.038147 box
488849115 0.998474 box
488849215 1.045593 box
488849315 1.047424 box
488849415 1.046387 box
488849515 1.041321 box
488849615 0.994629 box
488849715 1.046143 box
488849815 1.045593 box
488849915 1.047058 box
488850015 1.041138 box
488850115 0.994812 box
488850215 1.046082 box
488850315 1.046265 box
488850415 1.046326 box
488850515 1.042175 box
488850615 0.993042 box
488850715 1.046570 box
488850815 1.045898 box
488850915 1.046143 box
488851015 1.042908 box
488851115 0.992004 box
488851215 1.046814 box
488851315 1.045776 box
488851415 1.046448 box
488851515 1.049438 box
488851615 1.047974 box
488851715 1.049133 box
488851815 1.044128 box
488851915 1.045593 box
488852015 1.045776 box
488852115 0.992249 box
488852215 1.046509 box
488852315 1.046387 box
488852415 1.045837 box
488852515 1.044189 box
488852615 0.992249 box
488852715 1.046631 box
488852815 1.045959 box
488852915 1.045837 box
488853015 1.043579 box
488853115 0.991333 box
488853215 1.046448 box
488853315 1.046509 box
488853415 1.045654 box
488853515 1.042664 box
488853615 0.993164 box
488853715 1.045593 box
488853815 1.045959 box
488853915 1.046631 box
488854015 1.043396 box
488854115 0.992737 box
488854215 1.046265 box
488854315 1.046326 box
488854415 1.046814 box
488854515 1.044006 box
488854615 0.992065 box
488854715 1.045654 box
488854815 1.046753 box
488854915 1.045959 box
488855015 1.045044 box
488855115 1.050415 box
488855215 1.046875 box
488855315 1.048401 box
488855415 1.043945 box
488855515 1.045898 box
488855615 1.023865 box
488855715 1.046265 box
488855815 1.045288 box
488855915 1.047668 box
488856015 1.044617 box
488856115 0.989746 box
488856215 1.046326 box
488856315 1.046204 box
488856415 1.045837 box
488856515 1.044617 box
488856615 0.991272 box
488856715 1.045898 box
488856815 1.046570 box
488856915 1.045715 box
488857015 1.044678 box
488857115 0.993408 box
488857215 1.046143 box
488857315 1.045349 box
488857415 1.046875 box
488857515 1.045166 box
488857615 0.992004 box
488857715 1.046936 box
488857815 1.046204 box
488857915 1.046509 box
488858015 1.045044 box
488858115 0.991577 box
488858215 1.046265 box
488858315 1.048889 box
488858415 1.046265 box
488858515 1.045471 box
488858615 1.018433 box
488858715 1.046814 box
488858815 1.047852 box
488858915 1.044739 box
488859015 1.046631 box
488859115 1.042419 box
488859215 1.046692 box
488859315 1.045898 box
488859415 1.046326 box
488859515 1.045959 box
488859615 0.987671 box
488859715 1.046387 box
488859815 1.046204 box
488859915 1.046509 box
488860015 1.045593 box
488860115 0.989929 box
488860215 1.046143 box
488860315 1.046387 box
488860415 1.046631 box
488860515 1.046265 box
488860615 0.989258 box
488860715 1.046936 box
488860815 1.046021 box
488860915 1.046265 box
488861015 1.046021 box
488861115 0.990173 box
488861215 1.046997 box
488861315 1.046143 box
488861415 1.046265 box
488861515 1.045837 box
488861615 0.991516 box
488861715 1.046326 box
488861815 1.045471 box
488861915 1.046692 box
488862015 1.046814 box
488862115 0.994507 box
488862215 1.048096 box
488862315 1.046753 box
488862415 1.048401 box
488862515 1.044495 box
488862615 1.044861 box
488862715 1.042664 box
488862815 1.046204 box
488862915 1.046387 box
488863015 1.045959 box
488863115 0.987549 box
488863215 1.049072 box
488863315 1.045776 box
488863415 1.046082 box
488863515 1.045837 box
488863615 0.986816 box
488863715 1.048096 box
488863815 1.045776 box
488863915 1.046387 box
488864015 1.046204 box
488864115 0.992981 box
488864215 1.045227 box
488864315 1.046448 box
488864415 1.045410 box
488864515 1.046082 box
488864615 0.996216 box
488864715 1.043091 box
488864815 1.046631 box
488864915 1.045532 box
488865015 1.046936 box
488865115 0.994751 box
488865215 1.042480 box
488865315 1.046631 box
488865415 1.046448 box
488865515 1.046021 box
488865615 0.998474 box
488865715 1.045044 box
488865815 1.046753 box
488865915 1.048218 box
488866015 1.044067 box
488866115 1.042664 box
488866215 1.045593 box
488866315 1.045898 box
488866415 1.045837 box
488866515 1.046753 box
488866615 0.995911 box
488866715 1.040710 box
488866815 1.046387 box
488866915 1.046326 box
488867015 1.046448 box
488867115 0.995239 box
488867215 1.041016 box
488867315 1.045837 box
488867415 1.046570 box
488867515 1.045776 box
488867615 0.997559 box
488867715 1.038147 box
488867815 1.046936 box
488867915 1.046753 box
488868015 1.046326 box
488868115 1.000732 box
488868215 1.036499 box
488868315 1.046326 box
488868415 1.046326 box
488868515 1.045654 box
488868615 1.004150 box
488868715 1.035950 box
488868815 1.046265 box
488868915 1.046326 box
488869015 1.046570 box
488869115 1.003479 box
488869215 1.038330 box
488869315 1.046082 box
488869415 1.046692 box
488869515 1.048279 box
488869615 1.041382 box
488869715 1.049072 box
488869815 1.041931 box
488869915 1.046570 box
488870015 1.045593 box
488870115 1.003479 box
488870215 1.034790 box
488870315 1.046021 box
488870415 1.046875 box
488870515 1.046265 box
488870615 1.002502 box
488870715 1.033875 box
488870815 1.046631 box
488870915 1.045349 box
488871015 1.046509 box
488871115 1.002258 box
488871215 1.034058 box
488871315 1.045837 box
488871415 1.046448 box
488871515 1.046021 box
488871615 1.004883 box
488871715 1.032593 box
488871815 1.046021 box
488871915 1.045654 box
488872015 1.046326 box
488872115 1.008667 box
488872215 1.029480 box
488872315 1.045837 box
488872415 1.045898 box
488872515 1.046265 box
488872615 1.011719 box
488872715 1.028809 box
488872815 1.048828 box
488872915 1.046936 box
488873015 1.048828 box
488873115 1.043884 box
488873215 1.047241 box
488873315 1.041199 box
488873415 1.045898 box
488873515 1.046936 box
488873615 0.996643 box
488873715 1.037415 box
488873815 1.047363 box
488873915 1.045715 box
488874015 1.045898 box
488874115 0.998657 box
488874215 1.037048 box
488874315 1.045227 box
488874415 1.046631 box
488874515 1.047119 box
488874615 1.000000 box
488874715 1.034546 box
488874815 1.046692 box
488874915 1.045654 box
488875015 1.046936 box
488875115 1.005127 box
488875215 1.032410 box
488875315 1.046326 box
488875415 1.046143 box
488875515 1.046082 box
488875615 1.007690 box
488875715 1.030640 box
488875815 1.046692 box
488875915 1.045776 box
488876015 1.046143 box
488876115 1.009338 box
488876215 1.028076 box
488876315 1.051453 box
488876415 1.046021 box
488876515 1.046143 box
488876615 1.046875 box
488876715 1.045715 box
488876815 1.046204 box
488876915 1.041504 box
488877015 1.046326 box
488877115 1.007385 box
488877215 1.028137 box
488877315 1.047058 box
488877415 1.046326 box
488877515 1.045288 box
488877615 1.006531 box
488877715 1.029419 box
488877815 1.045776 box
488877915 1.046265 box
488878015 1.046082 box
488878115 1.005859 box
488878215 1.030396 box
488878315 1.046814 box
488878415 1.046021 box
488878515 1.045715 box
488878615 1.007324 box
488878715 1.029846 box
488878815 1.046204 box
488878915 1.046387 box
488879015 1.047058 box
488879115 1.008301 box
488879215 1.028198 box
488879315 1.046570 box
488879415 1.046448 box
488879515 1.045715 box
488879615 1.007874 box
488879715 1.028503 box
488879815 1.046265 box
488879915 1.051147 box
488880015 1.047607 box
488880115 1.042114 box
488880215 1.052551 box
488880315 1.044006 box
488880415 1.045654 box
488880515 1.041199 box
488880615 1.007935 box
488880715 1.027954 box
488880815 1.046204 box
488880915 1.045898 box
488881015 1.046265 box
488881115 1.009338 box
488881215 1.027466 box
488881315 1.046082 box
488881415 1.046326 box
488881515 1.045532 box
488881615 1.009705 box
488881715 1.025146 box
488881815 1.046692 box
488881915 1.045410 box
488882015 1.045593 box
488882115 1.010193 box
488882215 1.025330 box
488882315 1.046326 box
488882415 1.046082 box
488882515 1.045837 box
488882615 1.011414 box
488882715 1.026733 box
488882815 1.045715 box
488882915 1.045959 box
488883015 1.045227 box
488883115 1.013184 box
488883215 1.023865 box
488883315 1.046448 box
488883415 1.045715 box
488883515 1.051025 box
488883615 1.042542 box
488883715 1.052551 box
488883815 1.044434 box
488883915 1.045776 box
488884015 1.041504 box
488884115 1.015808 box
488884215 1.021851 box
488884315 1.045654 box
488884415 1.046875 box
488884515 1.046448 box
488884615 1.020752 box
488884715 1.025085 box
488884815 1.046143 box
488884915 1.046021 box
488885015 1.045593 box
488885115 1.015442 box
488885215 1.022522 box
488885315 1.046326 box
488885415 1.046265 box
488885515 1.045898 box
488885615 1.016541 box
488885715 1.021545 box
488885815 1.045959 box
488885915 1.046448 box
488886015 1.046631 box
488886115 1.015259 box
488886215 1.021912 box
488886315 1.046021 box
488886415 1.046692 box
488886515 1.046326 box
488886615 1.015991 box
488886715 1.022034 box
488886815 1.045471 box
488886915 1.045959 box
488887015 1.050476 box
488887115 1.042847 box
488887215 1.051941 box
488887315 1.047241 box
488887415 1.045593 box
488887515 1.046570 box
488887615 1.014343 box
488887715 1.018250 box
488887815 1.046509 box
488887915 1.046387 box
488888015 1.046448 box
488888115 1.019836 box
488888215 1.017883 box
488888315 1.046448 box
488888415 1.046265 box
488888515 1.047302 box
488888615 1.022644 box
488888715 1.016113 box
488888815 1.045898 box
488888915 1.046204 box
488889015 1.045898 box
488889115 1.022705 box
488889215 1.016052 box
488889315 1.045410 box
488889415 1.046631 box
488889515 1.046143 box
488889615 1.022705 box
488889715 1.014954 box
488889815 1.046814 box
488889915 1.046021 box
488890015 1.046448 box
488890115 1.024902 box
488890215 1.012146 box
488890315 1.045776 box
488890415 1.046204 box
488890515 1.046265 box
488890615 1.046997 box
488890715 1.050232 box
488890815 1.048584 box
488890915 1.044434 box
488891015 1.046875 box
488891115 1.022644 box
488891215 1.012695 box
488891315 1.046204 box
488891415 1.046387 box
488891515 1.045654 box
488891615 1.028198 box
488891715 1.009460 box
488891815 1.045959 box
488891915 1.046692 box
488892015 1.045959 box
488892115 1.030151 box
488892215 1.008850 box
488892315 1.046021 box
488892415 1.045837 box
488892515 1.046936 box
488892615 1.031738 box
488892715 1.006287 box
488892815 1.046753 box
488892915 1.045654 box
488893015 1.046204 box
488893115 1.031006 box
488893215 1.006104 box
488893315 1.044861 box
488893415 1.046509 box
488893515 1.046326 box
488893615 1.033325 box
488893715 1.004333 box
488893815 1.045715 box
488893915 1.046448 box
488894015 1.046631 box
488894115 1.047241 box
488894215 1.050720 box
488894315 1.046692 box
488894415 1.045898 box
488894515 1.046387 box
488894615 1.043274 box
488894715 1.016296 box
488894815 1.046448 box
488894915 1.045959 box
488895015 1.046082 box
488895115 1.036804 box
488895215 1.001770 box
488895315 1.046265 box
488895415 1.047302 box
488895515 1.045410 box
488895615 1.039612 box
488895715 0.998413 box
488895815 1.047241 box
488895915 1.046875 box
488896015 1.046570 box
488896115 1.040588 box
488896215 0.998901 box
488896315 1.045532 box
488896415 1.045959 box
488896515 1.046692 box
488896615 1.040527 box
488896715 0.994141 box
488896815 1.046326 box
488896915 1.046143 box
488897015 1.046692 box
488897115 1.042480 box
488897215 0.994324 box
488897315 1.046082 box
488897415 1.045898 box
488897515 1.046387 box
488897615 1.043823 box
488897715 1.036682 box
488897815 1.046753 box
488897915 1.048035 box
488898015 1.044617 box
488898115 1.044861 box
488898215 1.033142 box
488898315 1.047058 box
488898415 1.046082 box
488898515 1.046143 box
488898615 1.044983 box
488898715 0.991638 box
488898815 1.046265 box
488898915 1.046753 box
488899015 1.045593 box
488899115 1.044739 box
488899215 0.993103 box
488899315 1.046265 box
488899415 1.046265 box
488899515 1.046570 box
488899615 1.045593 box
488899715 0.990356 box
488899815 1.046631 box
488899915 1.046326 box
488900015 1.046143 box
488900115 1.045349 box
488900215 0.991699 box
488900315 1.045776 box
488900415 1.047058 box
488900515 1.045898 box
488900615 1.044678 box
488900715 0.992859 box
488900815 1.045898 box
488900915 1.046143 box
488901015 1.046570 box
488901115 1.045105 box
488901215 1.015869 box
488901315 1.045776 box
488901415 1.046631 box
488901515 1.046143 box
488901615 1.046204 box
488901715 0.988281 box
