time(ms) energy(J) hostname
393013341 0.000000 box
393013441 0.879150 box
393013541 0.995972 box
393013641 0.997192 box
393013741 0.985779 box
393013841 0.995544 box
393013941 0.996948 box
393014041 0.996643 box
393014141 0.995667 box
393014241 1.005676 box
393014341 0.995911 box
393014441 0.986450 box
393014541 0.997437 box
393014641 1.005859 box
393014741 0.986816 box
393014841 0.996155 box
393014941 0.996033 box
393015041 0.996033 box
393015141 1.005981 box
393015241 0.996277 box
393015341 0.996521 box
393015441 0.987549 box
393015541 0.995911 box
393015641 0.996887 box
393015741 0.995300 box
393015841 0.995972 box
393015941 1.005615 box
393016041 0.996582 box
393016141 0.986633 box
393016241 1.006348 box
393016341 0.986816 box
393016441 1.005249 box
393016541 0.987976 box
393016641 0.995911 box
393016741 1.005920 box
393016841 0.987000 box
393016941 0.995972 box
393017041 0.996643 box
393017141 1.008850 box
393017241 0.987183 box
393017341 0.996460 box
393017441 1.005798 box
393017541 0.994263 box
393017641 1.002136 box
393017741 0.996277 box
393017841 1.000061 box
393017941 0.996094 box
393018041 0.996155 box
393018141 0.996948 box
393018241 0.994629 box
393018341 0.996643 box
393018441 0.995911 box
393018541 0.990540 box
393018641 0.996521 box
393018741 0.996521 box
393018841 0.996582 box
393018941 0.997009 box
393019041 0.996277 box
393019141 0.996033 box
393019241 1.000427 box
393019341 0.997070 box
393019441 0.997192 box
393019541 0.996399 box
393019641 0.996460 box
393019741 0.996582 box
393019841 0.995789 box
393019941 0.997070 box
393020041 0.995667 box
393020141 0.995850 box
393020241 0.991638 box
393020341 0.997986 box
393020441 0.995117 box
393020541 0.996643 box
393020641 0.996216 box
393020741 0.996948 box
393020841 0.996887 box
393020941 0.996216 box
393021041 0.999878 box
393021141 0.997070 box
393021241 0.997192 box
393021341 0.996460 box
393021441 0.997253 box
393021541 0.995728 box
393021641 0.995972 box
393021741 0.996460 box
393021841 0.995789 box
393021941 0.996399 box
393022041 0.990906 box
393022141 0.998596 box
393022241 0.995422 box
393022341 0.996765 box
393022441 0.996704 box
393022541 0.996460 box
393022641 0.995911 box
393022741 0.996887 box
393022841 1.000366 box
393022941 0.996582 box
393023041 0.998108 box
393023141 0.996216 box
393023241 0.996399 box
393023341 0.996094 box
393023441 0.995605 box
393023541 0.997559 box
393023641 0.996338 box
393023741 0.992981 box
393023841 0.993347 box
393023941 0.999573 box
393024041 0.995239 box
393024141 0.995422 box
393024241 0.997437 box
393024341 0.996704 box
393024441 0.996521 box
393024541 0.999512 box
393024641 0.996948 box
393024741 0.996033 box
393024841 0.998474 box
393024941 0.996094 box
393025041 0.996155 box
393025141 0.996338 box
393025241 0.995667 box
393025341 0.999390 box
393025441 0.996277 box
393025541 0.993408 box
393025641 0.995789 box
393025741 0.995789 box
393025841 0.996094 box
393025941 0.997253 box
393026041 0.996155 box
393026141 0.996826 box
393026241 0.996277 box
393026341 1.000305 box
393026441 0.996094 box
393026541 0.997070 box
393026641 0.998352 box
393026741 0.996948 box
393026841 0.996094 box
393026941 0.996277 box
393027041 0.996155 box
393027141 0.997192 box
393027241 0.996338 box
393027341 0.991882 box
393027441 0.994873 box
393027541 0.996948 box
393027641 0.996460 box
393027741 0.996460 box
393027841 0.997253 box
393027941 0.996460 box
393028041 0.996948 box
393028141 1.000000 box
393028241 0.997131 box
393028341 0.997620 box
393028441 0.996826 box
393028541 0.996155 box
393028641 0.996094 box
393028741 0.996338 box
393028841 0.996948 box
393028941 0.996338 box
393029041 0.995422 box
393029141 0.991943 box
393029241 0.996582 box
393029341 0.995667 box
393029441 0.996948 box
393029541 0.996399 box
393029641 0.996704 box
393029741 0.997314 box
393029841 0.996033 box
393029941 1.000732 box
393030041 0.996521 box
393030141 0.997375 box
393030241 0.996582 box
393030341 0.996521 box
393030441 0.996094 box
393030541 0.996155 box
393030641 0.996521 box
393030741 0.995178 box
393030841 0.996887 box
393030941 0.990784 box
393031041 0.996887 box
393031141 0.995544 box
393031241 0.996643 box
393031341 0.996948 box
393031441 0.996338 box
393031541 0.995728 box
393031641 0.997681 box
393031741 1.000732 box
393031841 0.997009 box
393031941 0.997192 box
393032041 0.996277 box
393032141 0.996704 box
393032241 0.996033 box
393032341 0.995911 box
393032441 0.996521 box
393032541 0.996033 box
393032641 0.996582 box
393032741 0.990112 box
393032841 0.987915 box
393032941 1.005737 box
393033041 0.996338 box
393033141 0.996704 box
393033241 0.996643 box
393033341 0.997253 box
393033441 0.995605 box
393033541 1.001099 box
393033641 0.996460 box
393033741 0.997559 box
393033841 0.996643 box
393033941 0.995483 box
393034041 0.996521 box
393034141 0.994751 box
393034241 0.997559 box
393034341 0.996399 box
393034441 0.992126 box
393034541 0.993713 box
393034641 1.000610 box
393034741 0.993713 box
393034841 0.996887 box
393034941 0.996521 box
393035041 0.996521 box
393035141 0.996399 box
393035241 0.999878 box
393035341 0.997803 box
393035441 0.996582 box
393035541 0.996826 box
393035641 0.996948 box
393035741 0.996155 box
393035841 0.996216 box
393035941 0.994873 box
393036041 0.997375 box
393036141 0.996399 box
393036241 0.992188 box
393036341 0.995544 box
393036441 0.995544 box
393036541 0.996826 box
393036641 0.997437 box
393036741 0.996094 box
393036841 0.996399 box
393036941 0.996948 box
393037041 1.000549 box
393037141 0.996216 box
393037241 0.996948 box
393037341 0.997437 box
393037441 0.996216 box
393037541 0.996277 box
393037641 0.996216 box
393037741 0.996094 box
393037841 0.996582 box
393037941 0.996338 box
393038041 0.992432 box
393038141 0.995911 box
393038241 0.996704 box
393038341 0.995483 box
393038441 0.997131 box
393038541 0.996521 box
393038641 0.996643 box
393038741 0.996155 box
393038841 1.000366 box
393038941 0.996643 box
393039041 0.996460 box
393039141 0.997009 box
393039241 0.996338 box
393039341 0.997070 box
393039441 0.995361 box
393039541 0.997192 box
393039641 0.995789 box
393039741 0.996277 box
393039841 0.992432 box
393039941 0.997498 box
393040041 0.996521 box
393040141 0.996460 box
393040241 0.996460 box
393040341 0.997437 box
393040441 0.996765 box
393040541 0.995544 box
393040641 1.000122 box
393040741 0.996338 box
393040841 0.998352 box
393040941 0.996460 box
393041041 0.996826 box
393041141 0.997131 box
393041241 0.996338 box
393041341 0.996948 box
393041441 0.996338 box
393041541 0.996521 box
393041641 0.991211 box
393041741 0.996521 box
393041841 0.995728 box
393041941 0.996948 box
393042041 0.996460 box
393042141 0.997192 box
393042241 0.996521 box
393042341 0.996704 box
393042441 1.000366 box
393042541 0.996887 box
393042641 0.997986 box
393042741 0.995972 box
393042841 0.996338 box
393042941 0.996521 box
393043041 0.995667 box
393043141 0.996704 box
393043241 0.996216 box
393043341 0.994263 box
393043441 0.992493 box
393043541 0.997803 box
393043641 0.995728 box
393043741 0.997559 box
393043841 0.995911 box
393043941 0.997131 box
393044041 0.995789 box
393044141 0.997009 box
393044241 1.000305 box
393044341 0.996643 box
393044441 0.997742 box
393044541 0.996094 box
393044641 0.996460 box
393044741 0.996582 box
393044841 0.995728 box
393044941 0.996826 box
393045041 0.996704 box
393045141 0.991821 box
393045241 0.996094 box
393045341 0.996338 box
393045441 0.996155 box
393045541 0.996582 box
393045641 0.996521 box
393045741 0.996216 box
393045841 0.996704 box
393045941 0.998901 box
393046041 0.998352 box
393046141 0.996826 box
393046241 0.997253 box
393046341 0.996887 box
393046441 0.996338 box
393046541 0.996155 box
393046641 0.995117 box
393046741 0.997009 box
393046841 0.996521 box
393046941 0.992126 box
393047041 0.995850 box
393047141 0.996338 box
393047241 0.996033 box
393047341 0.996643 box
393047441 0.997314 box
393047541 0.996277 box
393047641 0.996887 box
393047741 1.000549 box
393047841 0.997314 box
393047941 0.996643 box
393048041 0.997253 box
393048141 0.996338 box
393048241 0.996704 box
393048341 0.996094 box
393048441 0.995850 box
393048541 0.996216 box
393048641 0.996399 box
393048741 0.992065 box
393048841 0.995483 box
393048941 0.996460 box
393049041 0.995911 box
393049141 0.996887 box
393049241 0.996521 box
393049341 0.996765 box
393049441 0.996338 box
393049541 1.000671 box
393049641 0.997009 box
393049741 0.996948 box
393049841 0.997375 box
393049941 0.996094 box
393050041 0.996704 box
393050141 0.996033 box
393050241 0.996704 box
393050341 0.995972 box
393050441 0.995972 box
393050541 0.991699 box
393050641 0.996216 box
393050741 0.996460 box
393050841 0.996277 box
393050941 0.996948 box
393051041 0.995728 box
393051141 0.997192 box
393051241 0.995850 box
393051341 1.000732 box
393051441 0.996521 box
393051541 0.997620 box
393051641 0.996460 box
393051741 0.996521 box
393051841 0.995667 box
393051941 0.995911 box
393052041 0.996765 box
393052141 0.996216 box
393052241 0.995728 box
393052341 0.991638 box
393052441 0.996887 box
393052541 0.995728 box
393052641 0.996521 box
393052741 0.996887 box
393052841 0.996582 box
393052941 0.996338 box
393053041 0.996216 box
393053141 1.000061 box
393053241 0.996460 box
393053341 0.997620 box
393053441 0.996948 box
393053541 0.996338 box
393053641 0.995483 box
393053741 0.995361 box
393053841 0.996887 box
393053941 0.996887 box
393054041 0.992737 box
393054141 0.994446 box
393054241 0.999023 box
393054341 0.994141 box
393054441 0.996948 box
393054541 0.995911 box
393054641 0.997009 box
393054741 0.997375 box
393054841 0.998413 box
393054941 0.999573 box
393055041 0.997009 box
393055141 0.997986 box
393055241 0.996094 box
393055341 0.996521 box
393055441 0.996460 box
393055541 0.994812 box
393055641 0.997498 box
393055741 0.996582 box
393055841 0.992004 box
393055941 0.996887 box
393056041 0.995422 box
393056141 0.996582 box
393056241 0.997375 box
393056341 0.995911 box
393056441 0.996521 box
393056541 0.997070 box
393056641 1.000549 box
393056741 0.996399 box
393056841 0.997070 box
393056941 0.997192 box
393057041 0.996643 box
393057141 0.996948 box
393057241 0.996216 box
393057341 0.995117 box
393057441 0.997864 box
393057541 0.996216 box
393057641 0.991882 box
393057741 0.985168 box
393057841 1.007141 box
393057941 0.995972 box
393058041 0.996216 box
393058141 0.996948 box
393058241 0.996704 box
393058341 0.996643 box
393058441 1.000671 box
393058541 0.996399 box
393058641 0.996704 box
393058741 0.997925 box
393058841 0.996033 box
393058941 0.996826 box
393059041 0.996216 box
393059141 0.996399 box
393059241 0.995789 box
393059341 0.996460 box
393059441 0.992126 box
393059541 0.995789 box
393059641 0.996399 box
393059741 0.996887 box
393059841 0.995605 box
393059941 0.997070 box
393060041 0.996643 box
393060141 0.996765 box
393060241 1.000244 box
393060341 0.996704 box
393060441 0.998474 box
393060541 0.996216 box
393060641 0.996460 box
393060741 0.995972 box
393060841 0.996826 box
393060941 0.996033 box
393061041 0.995911 box
393061141 0.995911 box
393061241 0.991028 box
393061341 0.996521 box
393061441 0.996216 box
393061541 0.996460 box
393061641 0.996948 box
393061741 0.996399 box
393061841 0.996094 box
393061941 0.996887 box
393062041 1.001160 box
393062141 0.996826 box
393062241 0.997314 box
393062341 0.996338 box
393062441 0.996460 box
393062541 0.996094 box
393062641 0.994995 box
393062741 0.996826 box
393062841 0.995972 box
393062941 0.995972 box
393063041 0.991028 box
393063141 0.997986 box
393063241 0.994751 box
393063341 0.996765 box
393063441 0.996643 box
393063541 0.997314 box
393063641 0.996277 box
393063741 0.996216 box
393063841 1.001160 box
393063941 0.997131 box
393064041 0.997803 box
393064141 0.996521 box
393064241 0.995911 box
393064341 0.996521 box
393064441 0.995972 box
393064541 0.996521 box
393064641 0.996216 box
393064741 0.992981 box
393064841 0.993164 box
393064941 0.998291 box
393065041 0.996094 box
393065141 0.995911 box
393065241 0.995789 box
393065341 0.997192 box
393065441 0.996094 box
393065541 1.001099 box
393065641 0.996277 box
393065741 0.997437 box
393065841 0.997437 box
393065941 0.996094 box
393066041 0.996704 box
393066141 0.996094 box
393066241 0.995117 box
393066341 0.997620 box
393066441 0.995605 box
393066541 0.992737 box
393066641 0.995605 box
393066741 0.996033 box
393066841 0.996460 box
393066941 0.996521 box
393067041 0.996521 box
393067141 0.997192 box
393067241 0.996033 box
393067341 1.000671 box
393067441 0.996948 box
393067541 0.996460 box
393067641 0.997620 box
393067741 0.996521 box
393067841 0.995911 box
393067941 0.996826 box
393068041 0.997314 box
393068141 0.995300 box
393068241 0.996338 box
393068341 0.992188 box
393068441 0.995300 box
393068541 0.995850 box
393068641 0.996704 box
393068741 0.996338 box
393068841 0.996399 box
393068941 0.996033 box
393069041 0.996216 box
393069141 1.000000 box
393069241 0.996887 box
393069341 0.998169 box
393069441 0.998962 box
393069541 0.996033 box
393069641 0.996643 box
393069741 0.996094 box
393069841 0.997681 box
393069941 0.995178 box
393070041 0.995789 box
393070141 0.992126 box
393070241 0.995850 box
393070341 0.995483 box
393070441 0.996887 box
393070541 0.997375 box
393070641 0.996277 box
393070741 0.997009 box
393070841 0.996277 box
393070941 1.000000 box
393071041 0.996765 box
393071141 0.996826 box
393071241 0.996887 box
393071341 0.996155 box
393071441 0.996460 box
393071541 0.995850 box
393071641 0.997375 box
393071741 0.995544 box
393071841 0.996094 box
393071941 0.991638 box
393072041 0.996643 box
393072141 0.996277 box
393072241 0.996094 box
393072341 0.996460 box
393072441 0.996155 box
393072541 0.996094 box
393072641 0.996826 box
393072741 1.001160 box
393072841 0.996521 box
393072941 0.997375 box
393073041 0.996399 box
393073141 0.996582 box
393073241 0.995911 box
393073341 0.995728 box
393073441 0.997192 box
393073541 0.996399 box
393073641 0.996460 box
393073741 0.989685 box
393073841 0.998291 box
393073941 0.996338 box
393074041 0.996277 box
393074141 0.996338 box
393074241 0.996277 box
393074341 0.996521 box
393074441 0.996460 box
393074541 1.001038 box
393074641 0.996399 box
393074741 0.997681 box
393074841 0.996094 box
393074941 0.995789 box
393075041 0.996582 box
393075141 0.995239 box
393075241 0.997070 box
393075341 0.995911 box
393075441 0.992249 box
393075541 0.993896 box
393075641 1.000061 box
393075741 0.993713 box
393075841 0.997131 box
393075941 0.996277 box
393076041 0.996277 box
393076141 0.996338 box
393076241 1.000061 box
393076341 0.997131 box
393076441 0.996704 box
393076541 0.997681 box
393076641 0.996887 box
393076741 0.996704 box
393076841 0.996155 box
393076941 0.995239 box
393077041 0.997009 box
393077141 0.996216 box
393077241 0.991699 box
393077341 0.996033 box
393077441 0.996277 box
393077541 0.995850 box
393077641 0.996704 box
393077741 0.996582 box
393077841 0.996399 box
393077941 0.996094 box
393078041 1.001099 box
393078141 0.987244 box
393078241 1.005493 box
393078341 0.997375 box
393078441 0.996643 box
393078541 0.996033 box
393078641 0.996399 box
393078741 0.994446 box
393078841 0.998047 box
393078941 0.996033 box
393079041 0.992615 box
393079141 0.994873 box
393079241 0.996643 box
393079341 0.996399 box
393079441 0.996155 box
393079541 0.996582 box
393079641 0.996399 box
393079741 0.996643 box
393079841 1.001038 box
393079941 0.996094 box
393080041 0.996460 box
393080141 0.997620 box
393080241 0.996643 box
393080341 0.996338 box
393080441 0.996033 box
393080541 0.996460 box
393080641 0.995911 box
393080741 0.996582 box
393080841 0.992493 box
393080941 0.995300 box
393081041 0.997192 box
393081141 0.996460 box
393081241 0.996216 box
393081341 0.996765 box
393081441 0.996643 box
393081541 0.996582 box
393081641 1.000366 box
393081741 0.996948 box
393081841 0.997559 box
393081941 0.996155 box
393082041 0.996094 box
393082141 0.996521 box
393082241 0.996338 box
393082341 0.996643 box
393082441 0.994873 box
393082541 0.996826 box
393082641 0.991638 box
393082741 0.997009 box
393082841 0.995911 box
393082941 0.996521 box
393083041 0.997131 box
393083141 0.997070 box
393083241 0.995117 box
393083341 0.996948 box
393083441 0.999817 box
393083541 0.997314 box
393083641 0.997437 box
393083741 0.996094 box
393083841 0.996765 box
393083941 0.998413 box
393084041 0.995422 box
393084141 0.997681 box
393084241 0.996216 box
393084341 0.993408 box
393084441 0.993408 box
393084541 0.999390 box
393084641 0.993896 box
393084741 0.996643 box
393084841 0.996948 box
393084941 0.995850 box
393085041 0.996460 box
393085141 0.995972 box
393085241 1.000732 box
393085341 0.996582 box
393085441 0.999084 box
393085541 0.996338 box
393085641 0.996277 box
393085741 0.996887 box
393085841 0.995544 box
393085941 0.997192 box
393086041 0.996643 box
393086141 0.992554 box
393086241 0.996338 box
393086341 0.994751 box
393086441 0.997375 box
393086541 0.996582 box
393086641 0.996887 box
393086741 0.995911 box
393086841 0.996277 box
393086941 0.998230 box
393087041 0.999084 box
393087141 0.996338 box
393087241 0.998108 box
393087341 0.995972 box
393087441 0.996399 box
393087541 0.996704 box
393087641 0.995483 box
393087741 0.997375 box
393087841 0.996643 box
393087941 0.992310 box
393088041 0.995544 box
393088141 0.995850 box
393088241 0.996765 box
393088341 0.997253 box
393088441 0.996155 box
393088541 0.996216 box
393088641 0.996582 box
393088741 0.999939 box
393088841 0.996399 box
393088941 0.997192 box
393089041 0.997253 box
393089141 0.996277 box
393089241 0.996582 box
393089341 0.996887 box
393089441 0.995911 box
393089541 0.996826 box
393089641 0.996155 box
393089741 0.991882 box
393089841 0.995422 box
393089941 0.997192 box
393090041 0.996826 box
393090141 0.996643 box
393090241 0.996277 box
393090341 0.996582 box
393090441 0.996765 box
393090541 1.000488 box
393090641 0.996338 box
393090741 0.997925 box
393090841 0.996338 box
393090941 0.996643 box
393091041 0.995300 box
393091141 0.996155 box
393091241 0.995911 box
393091341 0.996033 box
393091441 0.996521 box
393091541 0.990845 box
393091641 0.996338 box
393091741 0.996216 box
393091841 0.996521 box
393091941 0.996948 box
393092041 0.996338 box
393092141 0.996155 box
393092241 0.997559 box
393092341 1.000977 box
393092441 0.996094 box
393092541 0.997498 box
393092641 0.996826 box
393092741 0.995728 box
393092841 0.996277 box
393092941 0.995178 box
393093041 0.997131 box
393093141 0.996521 box
393093241 0.995850 box
393093341 0.991333 box
393093441 0.997314 box
393093541 0.995605 box
393093641 0.997009 box
393093741 0.996094 box
393093841 0.996826 box
393093941 0.995789 box
393094041 0.997314 box
393094141 1.000671 box
393094241 0.996643 box
393094341 0.997253 box
393094441 0.997131 box
393094541 0.996277 box
393094641 0.996582 box
393094741 0.994934 box
393094841 0.997192 box
393094941 0.995911 box
393095041 0.992981 box
393095141 0.994080 box
393095241 1.000366 box
393095341 0.993835 box
393095441 0.997498 box
393095541 0.995850 box
393095641 0.997498 box
393095741 0.996277 box
393095841 1.000305 box
393095941 0.996521 box
393096041 0.995850 box
393096141 0.998047 box
393096241 0.996094 box
393096341 0.996521 box
393096441 0.996399 box
393096541 0.995544 box
393096641 0.997559 box
393096741 0.995728 box
393096841 0.992981 box
393096941 0.995422 box
393097041 0.995850 box
393097141 0.996643 box
393097241 0.996033 box
393097341 0.996643 box
393097441 0.995972 box
393097541 0.996704 box
393097641 1.000183 box
393097741 0.996948 box
393097841 0.996460 box
393097941 0.997803 box
393098041 0.996033 box
393098141 0.997253 box
393098241 0.996094 box
393098341 0.995361 box
393098441 0.987244 box
393098541 1.006104 box
393098641 0.992554 box
393098741 0.995544 box
393098841 0.997864 box
393098941 0.996582 box
393099041 0.995605 box
393099141 0.996643 box
393099241 0.997925 box
393099341 0.995911 box
393099441 1.000061 box
393099541 0.996887 box
393099641 0.997620 box
393099741 0.996704 box
393099841 0.996094 box
393099941 0.997131 box
393100041 0.996277 box
393100141 0.997192 box
393100241 0.995667 box
393100341 0.996216 box
393100441 0.992432 box
393100541 0.984497 box
393100641 1.007019 box
393100741 0.996521 box
393100841 0.996582 box
393100941 0.996460 box
393101041 0.997131 box
393101141 0.996948 box
393101241 0.999939 box
393101341 0.996704 box
393101441 0.996582 box
393101541 0.997131 box
393101641 0.995789 box
393101741 0.996460 box
393101841 0.996582 box
393101941 0.996277 box
393102041 0.996460 box
393102141 0.996277 box
393102241 0.991028 box
393102341 0.996887 box
393102441 0.996033 box
393102541 0.996887 box
393102641 0.996460 box
393102741 0.996948 box
393102841 0.996338 box
393102941 0.996826 box
393103041 1.001221 box
393103141 0.996216 box
393103241 0.997742 box
393103341 0.996521 box
393103441 0.996521 box
393103541 0.996521 box
393103641 0.994690 box
393103741 0.997192 box
393103841 0.986572 box
393103941 1.005920 box
393104041 0.990601 box
393104141 0.997803 box
393104241 0.995422 box
393104341 0.997375 box
393104441 0.995972 box
393104541 0.996765 box
393104641 0.995911 box
393104741 0.997437 box
393104841 1.000854 box
393104941 0.996216 box
393105041 0.988220 box
393105141 1.006226 box
393105241 0.996094 box
393105341 0.995911 box
393105441 0.996033 box
393105541 0.996704 box
393105641 0.996643 box
393105741 0.992065 box
393105841 0.994080 box
393105941 0.998474 box
393106041 0.995728 box
393106141 0.996460 box
393106241 0.995911 box
393106341 0.996643 box
393106441 0.996887 box
393106541 1.001282 box
393106641 0.996460 box
393106741 0.996521 box
393106841 0.997253 box
393106941 0.996704 box
393107041 0.996582 box
393107141 0.996094 box
393107241 0.995422 box
393107341 0.996704 box
393107441 0.996582 box
393107541 0.991943 box
393107641 0.995728 box
393107741 0.995667 box
393107841 0.996948 box
393107941 0.997070 box
393108041 0.996582 box
393108141 0.995911 box
393108241 0.996704 box
393108341 1.000305 box
393108441 0.996521 box
393108541 0.996704 box
393108641 0.997620 box
393108741 0.996643 box
393108841 0.996582 box
393108941 0.996216 box
393109041 0.996460 box
393109141 0.995972 box
393109241 0.996094 box
393109341 0.992371 box
393109441 0.994751 box
393109541 0.996094 box
393109641 0.996887 box
393109741 0.996460 box
393109841 0.996521 box
393109941 0.996216 box
393110041 0.997192 box
393110141 1.000122 box
393110241 0.996094 box
393110341 0.997986 box
393110441 0.996460 box
393110541 0.996277 box
393110641 0.995667 box
393110741 0.996460 box
393110841 0.997253 box
393110941 0.995850 box
393111041 0.996399 box
393111141 0.991882 box
393111241 0.995850 box
393111341 0.996887 box
393111441 0.996033 box
393111541 0.996643 box
393111641 0.997070 box
393111741 0.996033 box
393111841 0.996582 box
393111941 0.999878 box
393112041 0.996277 box
393112141 0.998169 box
393112241 0.998474 box
393112341 0.996582 box
393112441 0.996094 box
393112541 0.995422 box
393112641 0.997009 box
393112741 0.996338 box
393112841 0.996399 box
393112941 0.991394 box
393113041 0.996826 box
393113141 0.995483 box
393113241 0.987122 box
393113341 1.007080 box
393113441 0.996643 box
393113541 0.996826 box
393113641 0.995850 box
393113741 1.000854 box
393113841 0.996094 box
393113941 0.997864 box
393114041 0.996094 box
393114141 0.996643 box
393114241 0.996460 box
393114341 0.995667 box
393114441 0.997437 box
393114541 0.996582 box
393114641 0.983582 box
393114741 1.003967 box
393114841 0.998352 box
393114941 0.995117 box
393115041 0.996643 box
393115141 0.996094 box
393115241 0.996460 box
393115341 0.996399 box
393115441 0.997253 box
393115541 1.000671 box
393115641 0.996704 box
393115741 0.997375 box
393115841 0.996887 box
393115941 0.996094 box
393116041 0.996521 box
393116141 0.994873 box
393116241 0.997253 box
393116341 0.996094 box
393116441 0.991943 box
393116541 0.996643 box
393116641 0.995361 box
393116741 0.996704 box
393116841 0.996460 box
393116941 0.996460 box
393117041 0.997070 box
393117141 0.996399 box
393117241 0.997253 box
393117341 1.000732 box
393117441 0.996155 box
393117541 0.997192 box
393117641 0.996704 box
393117741 0.987183 box
393117841 1.005859 box
393117941 0.995422 box
393118041 0.995789 box
393118141 0.996643 box
393118241 0.991577 box
393118341 0.995361 box
393118441 0.996460 box
393118541 0.996460 box
393118641 0.996704 box
393118741 0.996521 box
393118841 0.996094 box
393118941 0.997009 box
393119041 1.000366 box
393119141 0.997314 box
393119241 0.997192 box
393119341 0.997742 box
393119441 0.995483 box
393119541 0.996765 box
393119641 0.996460 box
393119741 0.996948 box
393119841 0.995911 box
393119941 0.996582 box
393120041 0.992188 box
393120141 0.994873 box
393120241 0.995667 box
393120341 0.997559 box
393120441 0.996704 box
393120541 0.996033 box
393120641 0.996521 box
393120741 0.996338 box
393120841 1.000977 box
393120941 0.996521 box
393121041 0.997620 box
393121141 0.997375 box
393121241 0.995850 box
393121341 0.996704 box
393121441 0.995911 box
393121541 0.996521 box
393121641 0.996704 box
393121741 0.996277 box
393121841 0.991638 box
393121941 0.995667 box
393122041 0.996887 box
393122141 0.996033 box
393122241 0.996277 box
393122341 0.996887 box
393122441 0.996216 box
393122541 0.996399 box
393122641 1.000000 box
393122741 0.996948 box
393122841 0.997803 box
393122941 0.996643 box
393123041 0.996643 box
393123141 0.996216 box
393123241 0.994934 box
393123341 0.997681 box
393123441 0.996460 box
393123541 0.995605 box
393123641 0.992249 box
393123741 0.997314 box
393123841 0.996155 box
393123941 0.995789 box
393124041 0.997070 box
393124141 0.996765 box
393124241 0.994995 box
393124341 0.997253 box
393124441 1.000427 box
393124541 0.996155 box
393124641 0.998108 box
393124741 0.996582 box
393124841 0.996521 box
393124941 0.998230 box
393125041 0.994812 box
393125141 0.997864 box
393125241 0.995911 box
393125341 0.992249 box
393125441 0.994568 box
393125541 0.999329 box
393125641 0.994385 box
393125741 0.996521 box
393125841 0.996460 box
393125941 0.997009 box
393126041 0.997192 box
393126141 0.996338 box
393126241 1.000671 box
393126341 0.996277 box
393126441 0.997742 box
393126541 0.996277 box
393126641 0.996216 box
393126741 0.985535 box
393126841 1.005859 box
393126941 0.998474 box
393127041 0.995850 box
393127141 0.982422 box
393127241 0.996460 box
393127341 1.005798 box
393127441 0.996948 box
393127541 0.996582 box
393127641 0.996704 box
393127741 0.995972 box
393127841 0.997009 box
393127941 1.000671 box
393128041 0.996948 box
393128141 0.997131 box
393128241 0.997009 box
393128341 0.996399 box
393128441 0.996216 box
393128541 0.996094 box
393128641 0.995605 box
393128741 0.997375 box
393128841 0.996094 box
393128941 0.992249 box
393129041 0.994934 box
393129141 0.996155 box
393129241 0.996887 box
393129341 0.996582 box
393129441 0.996521 box
393129541 0.996887 box
393129641 0.996277 box
393129741 1.000427 box
393129841 0.996887 box
393129941 0.997742 box
393130041 0.996765 box
393130141 0.996033 box
393130241 0.995789 box
393130341 0.996643 box
393130441 0.995728 box
393130541 0.996155 box
393130641 0.996704 box
393130741 0.991638 box
393130841 0.995728 box
393130941 0.997253 box
393131041 0.996460 box
393131141 0.996216 box
393131241 0.996887 box
393131341 0.996704 box
393131441 0.996155 box
393131541 1.001343 box
393131641 0.996460 box
393131741 0.997803 box
393131841 0.996521 box
393131941 0.995850 box
393132041 0.995911 box
393132141 0.995850 box
393132241 0.996460 box
393132341 0.995422 box
393132441 0.987000 box
393132541 1.000427 box
393132641 0.997375 box
393132741 0.995972 box
393132841 0.996399 box
393132941 0.986450 box
393133041 1.005737 box
393133141 0.996399 box
393133241 0.996765 box
393133341 1.001038 box
393133441 0.997070 box
393133541 0.997437 box
393133641 0.996399 box
393133741 0.996765 box
393133841 0.996399 box
393133941 0.995117 box
