time(ms) function_name moment
76681605 MPI_Barrier 0
76681605 MPI_Barrier 1
76681720 MPI_Allreduce 0
76681720 MPI_Allreduce 1
76681834 MPI_Allreduce 0
76681834 MPI_Allreduce 1
76681949 MPI_Allreduce 0
76681949 MPI_Allreduce 1
76682064 MPI_Allreduce 0
76682064 MPI_Allreduce 1
76682179 MPI_Allreduce 0
76682179 MPI_Allreduce 1
76682295 MPI_Allreduce 0
76682295 MPI_Allreduce 1
76682410 MPI_Allreduce 0
76682410 MPI_Allreduce 1
76682524 MPI_Allreduce 0
76682524 MPI_Allreduce 1
76682640 MPI_Allreduce 0
76682640 MPI_Allreduce 1
76682752 MPI_Allreduce 0
76682752 MPI_Allreduce 1
76682859 MPI_Allreduce 0
76682859 MPI_Allreduce 1
76682965 MPI_Allreduce 0
76682965 MPI_Allreduce 1
76683072 MPI_Allreduce 0
76683072 MPI_Allreduce 1
76683178 MPI_Allreduce 0
76683178 MPI_Allreduce 1
76683285 MPI_Allreduce 0
76683285 MPI_Allreduce 1
76683391 MPI_Allreduce 0
76683391 MPI_Allreduce 1
76683498 MPI_Allreduce 0
76683498 MPI_Allreduce 1
76683604 MPI_Allreduce 0
76683604 MPI_Allreduce 1
76683711 MPI_Allreduce 0
76683711 MPI_Allreduce 1
76683817 MPI_Allreduce 0
76683817 MPI_Allreduce 1
76683924 MPI_Allreduce 0
76683924 MPI_Allreduce 1
76684030 MPI_Allreduce 0
76684030 MPI_Allreduce 1
76684137 MPI_Allreduce 0
76684137 MPI_Allreduce 1
76684243 MPI_Allreduce 0
76684243 MPI_Allreduce 1
76684350 MPI_Allreduce 0
76684350 MPI_Allreduce 1
76684456 MPI_Allreduce 0
76684456 MPI_Allreduce 1
76684563 MPI_Allreduce 0
76684563 MPI_Allreduce 1
76684669 MPI_Allreduce 0
76684669 MPI_Allreduce 1
76684776 MPI_Allreduce 0
76684776 MPI_Allreduce 1
76684883 MPI_Allreduce 0
76684883 MPI_Allreduce 1
76684989 MPI_Allreduce 0
76684989 MPI_Allreduce 1
76685096 MPI_Allreduce 0
76685096 MPI_Allreduce 1
76685202 MPI_Allreduce 0
76685202 MPI_Allreduce 1
76685309 MPI_Allreduce 0
76685309 MPI_Allreduce 1
76685415 MPI_Allreduce 0
76685415 MPI_Allreduce 1
76685522 MPI_Allreduce 0
76685522 MPI_Allreduce 1
76685628 MPI_Allreduce 0
76685628 MPI_Allreduce 1
76685735 MPI_Allreduce 0
76685735 MPI_Allreduce 1
76685841 MPI_Allreduce 0
76685841 MPI_Allreduce 1
76685948 MPI_Allreduce 0
76685948 MPI_Allreduce 1
76686054 MPI_Allreduce 0
76686054 MPI_Allreduce 1
76686161 MPI_Allreduce 0
76686161 MPI_Allreduce 1
76686267 MPI_Allreduce 0
76686267 MPI_Allreduce 1
76686374 MPI_Allreduce 0
76686374 MPI_Allreduce 1
76686480 MPI_Allreduce 0
76686480 MPI_Allreduce 1
76686587 MPI_Allreduce 0
76686587 MPI_Allreduce 1
76686694 MPI_Allreduce 0
76686694 MPI_Allreduce 1
76686800 MPI_Allreduce 0
76686800 MPI_Allreduce 1
76686907 MPI_Allreduce 0
76686907 MPI_Allreduce 1
76687013 MPI_Allreduce 0
76687013 MPI_Allreduce 1
76687119 MPI_Allreduce 0
76687119 MPI_Allreduce 1
76687226 MPI_Allreduce 0
76687226 MPI_Allreduce 1
76687333 MPI_Allreduce 0
76687333 MPI_Allreduce 1
76687439 MPI_Allreduce 0
76687439 MPI_Allreduce 1
76687546 MPI_Allreduce 0
76687546 MPI_Allreduce 1
76687652 MPI_Allreduce 0
76687652 MPI_Allreduce 1
76687759 MPI_Allreduce 0
76687759 MPI_Allreduce 1
76687865 MPI_Allreduce 0
76687865 MPI_Allreduce 1
76687972 MPI_Allreduce 0
76687972 MPI_Allreduce 1
76688078 MPI_Allreduce 0
76688078 MPI_Allreduce 1
76688185 MPI_Allreduce 0
76688185 MPI_Allreduce 1
76688291 MPI_Allreduce 0
76688291 MPI_Allreduce 1
76688398 MPI_Allreduce 0
76688398 MPI_Allreduce 1
76688504 MPI_Allreduce 0
76688504 MPI_Allreduce 1
76688611 MPI_Allreduce 0
76688611 MPI_Allreduce 1
76688717 MPI_Allreduce 0
76688717 MPI_Allreduce 1
76688824 MPI_Allreduce 0
76688824 MPI_Allreduce 1
76688930 MPI_Allreduce 0
76688930 MPI_Allreduce 1
76689037 MPI_Allreduce 0
76689037 MPI_Allreduce 1
76689143 MPI_Allreduce 0
76689143 MPI_Allreduce 1
76689250 MPI_Allreduce 0
76689250 MPI_Allreduce 1
76689357 MPI_Allreduce 0
76689357 MPI_Allreduce 1
76689463 MPI_Allreduce 0
76689463 MPI_Allreduce 1
76689570 MPI_Allreduce 0
76689570 MPI_Allreduce 1
76689676 MPI_Allreduce 0
76689676 MPI_Allreduce 1
76689783 MPI_Allreduce 0
76689783 MPI_Allreduce 1
76689890 MPI_Allreduce 0
76689890 MPI_Allreduce 1
76689996 MPI_Allreduce 0
76689996 MPI_Allreduce 1
76690103 MPI_Allreduce 0
76690103 MPI_Allreduce 1
76690209 MPI_Allreduce 0
76690209 MPI_Allreduce 1
76690316 MPI_Allreduce 0
76690316 MPI_Allreduce 1
76690422 MPI_Allreduce 0
76690422 MPI_Allreduce 1
76690529 MPI_Allreduce 0
76690529 MPI_Allreduce 1
76690635 MPI_Allreduce 0
76690635 MPI_Allreduce 1
76690741 MPI_Allreduce 0
76690741 MPI_Allreduce 1
76690848 MPI_Allreduce 0
76690848 MPI_Allreduce 1
76690955 MPI_Allreduce 0
76690955 MPI_Allreduce 1
76691061 MPI_Allreduce 0
76691061 MPI_Allreduce 1
76691168 MPI_Allreduce 0
76691168 MPI_Allreduce 1
76691274 MPI_Allreduce 0
76691274 MPI_Allreduce 1
76691381 MPI_Allreduce 0
76691381 MPI_Allreduce 1
76691488 MPI_Allreduce 0
76691488 MPI_Allreduce 1
76691594 MPI_Allreduce 0
76691594 MPI_Allreduce 1
76691701 MPI_Allreduce 0
76691701 MPI_Allreduce 1
76691807 MPI_Allreduce 0
76691807 MPI_Allreduce 1
76691914 MPI_Allreduce 0
76691914 MPI_Allreduce 1
76692020 MPI_Allreduce 0
76692020 MPI_Allreduce 1
76692129 MPI_Allreduce 0
76692129 MPI_Allreduce 1
76692236 MPI_Allreduce 0
76692236 MPI_Allreduce 1
76692347 MPI_Allreduce 0
76692347 MPI_Allreduce 1
76692459 MPI_Allreduce 0
76692459 MPI_Allreduce 1
76692574 MPI_Allreduce 0
76692574 MPI_Allreduce 1
76692688 MPI_Allreduce 0
76692688 MPI_Allreduce 1
76692802 MPI_Allreduce 0
76692802 MPI_Allreduce 1
76692915 MPI_Allreduce 0
76692915 MPI_Allreduce 1
76693030 MPI_Allreduce 0
76693030 MPI_Allreduce 1
76693144 MPI_Allreduce 0
76693144 MPI_Allreduce 1
76693258 MPI_Allreduce 0
76693258 MPI_Allreduce 1
76693372 MPI_Allreduce 0
76693372 MPI_Allreduce 1
76693486 MPI_Allreduce 0
76693486 MPI_Allreduce 1
76693600 MPI_Allreduce 0
76693600 MPI_Allreduce 1
76693714 MPI_Allreduce 0
76693714 MPI_Allreduce 1
76693829 MPI_Allreduce 0
76693829 MPI_Allreduce 1
76693943 MPI_Allreduce 0
76693943 MPI_Allreduce 1
76694057 MPI_Allreduce 0
76694057 MPI_Allreduce 1
76694171 MPI_Allreduce 0
76694171 MPI_Allreduce 1
76694286 MPI_Allreduce 0
76694286 MPI_Allreduce 1
76694400 MPI_Allreduce 0
76694400 MPI_Allreduce 1
76694514 MPI_Allreduce 0
76694514 MPI_Allreduce 1
76694629 MPI_Allreduce 0
76694629 MPI_Allreduce 1
76694743 MPI_Allreduce 0
76694743 MPI_Allreduce 1
76694857 MPI_Allreduce 0
76694857 MPI_Allreduce 1
76694972 MPI_Allreduce 0
76694972 MPI_Allreduce 1
76695086 MPI_Allreduce 0
76695086 MPI_Allreduce 1
76695200 MPI_Allreduce 0
76695200 MPI_Allreduce 1
76695315 MPI_Allreduce 0
76695315 MPI_Allreduce 1
76695429 MPI_Allreduce 0
76695429 MPI_Allreduce 1
76695543 MPI_Allreduce 0
76695543 MPI_Allreduce 1
76695657 MPI_Allreduce 0
76695657 MPI_Allreduce 1
76695771 MPI_Allreduce 0
76695771 MPI_Allreduce 1
76695885 MPI_Allreduce 0
76695885 MPI_Allreduce 1
76695999 MPI_Allreduce 0
76695999 MPI_Allreduce 1
76696114 MPI_Allreduce 0
76696114 MPI_Allreduce 1
76696228 MPI_Allreduce 0
76696228 MPI_Allreduce 1
76696342 MPI_Allreduce 0
76696342 MPI_Allreduce 1
76696456 MPI_Allreduce 0
76696456 MPI_Allreduce 1
76696570 MPI_Allreduce 0
76696570 MPI_Allreduce 1
76696685 MPI_Allreduce 0
76696685 MPI_Allreduce 1
76696800 MPI_Allreduce 0
76696800 MPI_Allreduce 1
76696912 MPI_Allreduce 0
76696912 MPI_Allreduce 1
76697018 MPI_Allreduce 0
76697018 MPI_Allreduce 1
76697124 MPI_Allreduce 0
76697124 MPI_Allreduce 1
76697230 MPI_Allreduce 0
76697230 MPI_Allreduce 1
76697337 MPI_Allreduce 0
76697337 MPI_Allreduce 1
76697443 MPI_Allreduce 0
76697443 MPI_Allreduce 1
76697552 MPI_Allreduce 0
76697552 MPI_Allreduce 1
76697660 MPI_Allreduce 0
76697660 MPI_Allreduce 1
76697770 MPI_Allreduce 0
76697770 MPI_Allreduce 1
76697884 MPI_Allreduce 0
76697884 MPI_Allreduce 1
76697998 MPI_Allreduce 0
76697998 MPI_Allreduce 1
76698111 MPI_Allreduce 0
76698111 MPI_Allreduce 1
76698225 MPI_Allreduce 0
76698225 MPI_Allreduce 1
76698340 MPI_Allreduce 0
76698340 MPI_Allreduce 1
76698454 MPI_Allreduce 0
76698454 MPI_Allreduce 1
76698567 MPI_Allreduce 0
76698567 MPI_Allreduce 1
76698682 MPI_Allreduce 0
76698682 MPI_Allreduce 1
76698796 MPI_Allreduce 0
76698796 MPI_Allreduce 1
76698910 MPI_Allreduce 0
76698910 MPI_Allreduce 1
76699024 MPI_Allreduce 0
76699024 MPI_Allreduce 1
76699138 MPI_Allreduce 0
76699138 MPI_Allreduce 1
76699252 MPI_Allreduce 0
76699252 MPI_Allreduce 1
76699366 MPI_Allreduce 0
76699366 MPI_Allreduce 1
76699479 MPI_Allreduce 0
76699479 MPI_Allreduce 1
76699593 MPI_Allreduce 0
76699593 MPI_Allreduce 1
76699708 MPI_Allreduce 0
76699708 MPI_Allreduce 1
76699821 MPI_Allreduce 0
76699821 MPI_Allreduce 1
76699935 MPI_Allreduce 0
76699935 MPI_Allreduce 1
76700050 MPI_Allreduce 0
76700050 MPI_Allreduce 1
76700161 MPI_Allreduce 0
76700161 MPI_Allreduce 1
76700267 MPI_Allreduce 0
76700267 MPI_Allreduce 1
76700374 MPI_Allreduce 0
76700374 MPI_Allreduce 1
76700480 MPI_Allreduce 0
76700480 MPI_Allreduce 1
76700589 MPI_Allreduce 0
76700589 MPI_Allreduce 1
76700697 MPI_Allreduce 0
76700697 MPI_Allreduce 1
76700807 MPI_Allreduce 0
76700807 MPI_Allreduce 1
76700920 MPI_Allreduce 0
76700920 MPI_Allreduce 1
76701035 MPI_Allreduce 0
76701035 MPI_Allreduce 1
76701149 MPI_Allreduce 0
76701149 MPI_Allreduce 1
76701263 MPI_Allreduce 0
76701263 MPI_Allreduce 1
76701377 MPI_Allreduce 0
76701377 MPI_Allreduce 1
76701492 MPI_Allreduce 0
76701492 MPI_Allreduce 1
76701606 MPI_Allreduce 0
76701606 MPI_Allreduce 1
76701720 MPI_Allreduce 0
76701720 MPI_Allreduce 1
76701834 MPI_Allreduce 0
76701834 MPI_Allreduce 1
76701949 MPI_Allreduce 0
76701949 MPI_Allreduce 1
76702059 MPI_Allreduce 0
76702059 MPI_Allreduce 1
76702170 MPI_Allreduce 0
76702170 MPI_Allreduce 1
76702282 MPI_Allreduce 0
76702282 MPI_Allreduce 1
76702394 MPI_Allreduce 0
76702394 MPI_Allreduce 1
76702505 MPI_Allreduce 0
76702505 MPI_Allreduce 1
76702618 MPI_Allreduce 0
76702618 MPI_Allreduce 1
76702729 MPI_Allreduce 0
76702729 MPI_Allreduce 1
76702841 MPI_Allreduce 0
76702841 MPI_Allreduce 1
76702954 MPI_Allreduce 0
76702954 MPI_Allreduce 1
76703065 MPI_Allreduce 0
76703065 MPI_Allreduce 1
76703177 MPI_Allreduce 0
76703177 MPI_Allreduce 1
76703290 MPI_Allreduce 0
76703290 MPI_Allreduce 1
76703402 MPI_Allreduce 0
76703402 MPI_Allreduce 1
76703515 MPI_Allreduce 0
76703515 MPI_Allreduce 1
76703627 MPI_Allreduce 0
76703627 MPI_Allreduce 1
76703740 MPI_Allreduce 0
76703740 MPI_Allreduce 1
76703851 MPI_Allreduce 0
76703851 MPI_Allreduce 1
76703963 MPI_Allreduce 0
76703963 MPI_Allreduce 1
76704076 MPI_Allreduce 0
76704076 MPI_Allreduce 1
76704187 MPI_Allreduce 0
76704187 MPI_Allreduce 1
76704297 MPI_Allreduce 0
76704297 MPI_Allreduce 1
76704408 MPI_Allreduce 0
76704408 MPI_Allreduce 1
76704519 MPI_Allreduce 0
76704519 MPI_Allreduce 1
76704631 MPI_Allreduce 0
76704631 MPI_Allreduce 1
76704744 MPI_Allreduce 0
76704744 MPI_Allreduce 1
76704855 MPI_Allreduce 0
76704855 MPI_Allreduce 1
76704967 MPI_Allreduce 0
76704967 MPI_Allreduce 1
76705080 MPI_Allreduce 0
76705080 MPI_Allreduce 1
76705191 MPI_Allreduce 0
76705191 MPI_Allreduce 1
76705301 MPI_Allreduce 0
76705301 MPI_Allreduce 1
76705414 MPI_Allreduce 0
76705414 MPI_Allreduce 1
76705526 MPI_Allreduce 0
76705526 MPI_Allreduce 1
76705637 MPI_Allreduce 0
76705637 MPI_Allreduce 1
76705749 MPI_Allreduce 0
76705749 MPI_Allreduce 1
76705862 MPI_Allreduce 0
76705862 MPI_Allreduce 1
76705972 MPI_Allreduce 0
76705972 MPI_Allreduce 1
76706083 MPI_Allreduce 0
76706083 MPI_Allreduce 1
76706194 MPI_Allreduce 0
76706194 MPI_Allreduce 1
76706305 MPI_Allreduce 0
76706305 MPI_Allreduce 1
76706416 MPI_Allreduce 0
76706416 MPI_Allreduce 1
76706527 MPI_Allreduce 0
76706527 MPI_Allreduce 1
76706638 MPI_Allreduce 0
76706638 MPI_Allreduce 1
76706750 MPI_Allreduce 0
76706750 MPI_Allreduce 1
76706863 MPI_Allreduce 0
76706863 MPI_Allreduce 1
76706974 MPI_Allreduce 0
76706974 MPI_Allreduce 1
76707085 MPI_Allreduce 0
76707085 MPI_Allreduce 1
76707197 MPI_Allreduce 0
76707197 MPI_Allreduce 1
76707309 MPI_Allreduce 0
76707309 MPI_Allreduce 1
76707422 MPI_Allreduce 0
76707422 MPI_Allreduce 1
76707532 MPI_Allreduce 0
76707532 MPI_Allreduce 1
76707644 MPI_Allreduce 0
76707644 MPI_Allreduce 1
76707757 MPI_Allreduce 0
76707757 MPI_Allreduce 1
76707868 MPI_Allreduce 0
76707868 MPI_Allreduce 1
76707979 MPI_Allreduce 0
76707979 MPI_Allreduce 1
76708090 MPI_Allreduce 0
76708090 MPI_Allreduce 1
76708201 MPI_Allreduce 0
76708201 MPI_Allreduce 1
76708313 MPI_Allreduce 0
76708313 MPI_Allreduce 1
76708426 MPI_Allreduce 0
76708426 MPI_Allreduce 1
76708537 MPI_Allreduce 0
76708537 MPI_Allreduce 1
76708649 MPI_Allreduce 0
76708649 MPI_Allreduce 1
76708761 MPI_Allreduce 0
76708761 MPI_Allreduce 1
76708872 MPI_Allreduce 0
76708872 MPI_Allreduce 1
76708983 MPI_Allreduce 0
76708983 MPI_Allreduce 1
76709094 MPI_Allreduce 0
76709094 MPI_Allreduce 1
76709206 MPI_Allreduce 0
76709206 MPI_Allreduce 1
76709319 MPI_Allreduce 0
76709319 MPI_Allreduce 1
76709430 MPI_Allreduce 0
76709430 MPI_Allreduce 1
76709540 MPI_Allreduce 0
76709540 MPI_Allreduce 1
76709651 MPI_Allreduce 0
76709651 MPI_Allreduce 1
76709764 MPI_Allreduce 0
76709764 MPI_Allreduce 1
76709876 MPI_Allreduce 0
76709876 MPI_Allreduce 1
76709987 MPI_Allreduce 0
76709987 MPI_Allreduce 1
76710099 MPI_Allreduce 0
76710099 MPI_Allreduce 1
76710212 MPI_Allreduce 0
76710212 MPI_Allreduce 1
76710323 MPI_Allreduce 0
76710323 MPI_Allreduce 1
76710435 MPI_Allreduce 0
76710435 MPI_Allreduce 1
76710548 MPI_Allreduce 0
76710548 MPI_Allreduce 1
76710659 MPI_Allreduce 0
76710659 MPI_Allreduce 1
76710771 MPI_Allreduce 0
76710771 MPI_Allreduce 1
76710885 MPI_Allreduce 0
76710885 MPI_Allreduce 1
76710996 MPI_Allreduce 0
76710996 MPI_Allreduce 1
76711106 MPI_Allreduce 0
76711106 MPI_Allreduce 1
76711217 MPI_Allreduce 0
76711217 MPI_Allreduce 1
76711328 MPI_Allreduce 0
76711328 MPI_Allreduce 1
76711439 MPI_Allreduce 0
76711439 MPI_Allreduce 1
76711550 MPI_Allreduce 0
76711550 MPI_Allreduce 1
76711661 MPI_Allreduce 0
76711661 MPI_Allreduce 1
76711773 MPI_Allreduce 0
76711773 MPI_Allreduce 1
76711886 MPI_Allreduce 0
76711886 MPI_Allreduce 1
76712000 MPI_Allreduce 0
76712000 MPI_Allreduce 1
76712112 MPI_Allreduce 0
76712112 MPI_Allreduce 1
76712223 MPI_Allreduce 0
76712223 MPI_Allreduce 1
76712335 MPI_Allreduce 0
76712335 MPI_Allreduce 1
76712448 MPI_Allreduce 0
76712448 MPI_Allreduce 1
76712559 MPI_Allreduce 0
76712559 MPI_Allreduce 1
76712671 MPI_Allreduce 0
76712671 MPI_Allreduce 1
76712784 MPI_Allreduce 0
76712784 MPI_Allreduce 1
76712895 MPI_Allreduce 0
76712895 MPI_Allreduce 1
76713007 MPI_Allreduce 0
76713007 MPI_Allreduce 1
76713118 MPI_Allreduce 0
76713118 MPI_Allreduce 1
76713229 MPI_Allreduce 0
76713229 MPI_Allreduce 1
76713340 MPI_Allreduce 0
76713340 MPI_Allreduce 1
76713451 MPI_Allreduce 0
76713451 MPI_Allreduce 1
76713561 MPI_Allreduce 0
76713561 MPI_Allreduce 1
76713673 MPI_Allreduce 0
76713673 MPI_Allreduce 1
76713784 MPI_Allreduce 0
76713784 MPI_Allreduce 1
76713896 MPI_Allreduce 0
76713896 MPI_Allreduce 1
76714009 MPI_Allreduce 0
76714009 MPI_Allreduce 1
76714121 MPI_Allreduce 0
76714121 MPI_Allreduce 1
76714234 MPI_Allreduce 0
76714234 MPI_Allreduce 1
76714344 MPI_Allreduce 0
76714344 MPI_Allreduce 1
76714456 MPI_Allreduce 0
76714456 MPI_Allreduce 1
76714569 MPI_Allreduce 0
76714569 MPI_Allreduce 1
76714680 MPI_Allreduce 0
76714680 MPI_Allreduce 1
76714791 MPI_Allreduce 0
76714791 MPI_Allreduce 1
76714902 MPI_Allreduce 0
76714902 MPI_Allreduce 1
76715012 MPI_Allreduce 0
76715012 MPI_Allreduce 1
76715124 MPI_Allreduce 0
76715124 MPI_Allreduce 1
76715237 MPI_Allreduce 0
76715237 MPI_Allreduce 1
76715348 MPI_Allreduce 0
76715348 MPI_Allreduce 1
76715460 MPI_Allreduce 0
76715460 MPI_Allreduce 1
76715573 MPI_Allreduce 0
76715573 MPI_Allreduce 1
76715684 MPI_Allreduce 0
76715684 MPI_Allreduce 1
76715796 MPI_Allreduce 0
76715796 MPI_Allreduce 1
76715907 MPI_Allreduce 0
76715907 MPI_Allreduce 1
76716018 MPI_Allreduce 0
76716018 MPI_Allreduce 1
76716130 MPI_Allreduce 0
76716130 MPI_Allreduce 1
76716243 MPI_Allreduce 0
76716243 MPI_Allreduce 1
76716354 MPI_Allreduce 0
76716354 MPI_Allreduce 1
76716464 MPI_Allreduce 0
76716464 MPI_Allreduce 1
76716575 MPI_Allreduce 0
76716575 MPI_Allreduce 1
76716686 MPI_Allreduce 0
76716686 MPI_Allreduce 1
76716798 MPI_Allreduce 0
76716798 MPI_Allreduce 1
76716911 MPI_Allreduce 0
76716911 MPI_Allreduce 1
76717022 MPI_Allreduce 0
76717022 MPI_Allreduce 1
76717133 MPI_Allreduce 0
76717133 MPI_Allreduce 1
76717244 MPI_Allreduce 0
76717244 MPI_Allreduce 1
76717355 MPI_Allreduce 0
76717355 MPI_Allreduce 1
76717465 MPI_Allreduce 0
76717465 MPI_Allreduce 1
76717578 MPI_Allreduce 0
76717578 MPI_Allreduce 1
76717690 MPI_Allreduce 0
76717690 MPI_Allreduce 1
76717803 MPI_Allreduce 0
76717803 MPI_Allreduce 1
76717915 MPI_Allreduce 0
76717915 MPI_Allreduce 1
76718026 MPI_Allreduce 0
76718026 MPI_Allreduce 1
76718137 MPI_Allreduce 0
76718137 MPI_Allreduce 1
76718249 MPI_Allreduce 0
76718249 MPI_Allreduce 1
76718362 MPI_Allreduce 0
76718362 MPI_Allreduce 1
76718472 MPI_Allreduce 0
76718472 MPI_Allreduce 1
76718583 MPI_Allreduce 0
76718583 MPI_Allreduce 1
76718695 MPI_Allreduce 0
76718695 MPI_Allreduce 1
76718808 MPI_Allreduce 0
76718808 MPI_Allreduce 1
76718919 MPI_Allreduce 0
76718919 MPI_Allreduce 1
76719031 MPI_Allreduce 0
76719031 MPI_Allreduce 1
76719144 MPI_Allreduce 0
76719144 MPI_Allreduce 1
76719256 MPI_Allreduce 0
76719256 MPI_Allreduce 1
76719369 MPI_Allreduce 0
76719369 MPI_Allreduce 1
76719481 MPI_Allreduce 0
76719481 MPI_Allreduce 1
76719594 MPI_Allreduce 0
76719594 MPI_Allreduce 1
76719706 MPI_Allreduce 0
76719706 MPI_Allreduce 1
76719816 MPI_Allreduce 0
76719816 MPI_Allreduce 1
76719927 MPI_Allreduce 0
76719927 MPI_Allreduce 1
76720039 MPI_Allreduce 0
76720039 MPI_Allreduce 1
76720152 MPI_Allreduce 0
76720152 MPI_Allreduce 1
76720263 MPI_Allreduce 0
76720263 MPI_Allreduce 1
76720374 MPI_Allreduce 0
76720374 MPI_Allreduce 1
76720485 MPI_Allreduce 0
76720485 MPI_Allreduce 1
76720596 MPI_Allreduce 0
76720596 MPI_Allreduce 1
76720707 MPI_Allreduce 0
76720707 MPI_Allreduce 1
76720818 MPI_Allreduce 0
76720818 MPI_Allreduce 1
76720930 MPI_Allreduce 0
76720930 MPI_Allreduce 1
76721040 MPI_Allreduce 0
76721041 MPI_Allreduce 1
76721151 MPI_Allreduce 0
76721151 MPI_Allreduce 1
76721264 MPI_Allreduce 0
76721264 MPI_Allreduce 1
76721377 MPI_Allreduce 0
76721377 MPI_Allreduce 1
76721487 MPI_Allreduce 0
76721487 MPI_Allreduce 1
76721598 MPI_Allreduce 0
76721598 MPI_Allreduce 1
76721709 MPI_Allreduce 0
76721709 MPI_Allreduce 1
76721820 MPI_Allreduce 0
76721820 MPI_Allreduce 1
76721931 MPI_Allreduce 0
76721931 MPI_Allreduce 1
76722043 MPI_Allreduce 0
76722043 MPI_Allreduce 1
76722154 MPI_Allreduce 0
76722154 MPI_Allreduce 1
76722266 MPI_Allreduce 0
76722266 MPI_Allreduce 1
76722378 MPI_Allreduce 0
76722378 MPI_Allreduce 1
76722489 MPI_Allreduce 0
76722489 MPI_Allreduce 1
76722601 MPI_Allreduce 0
76722601 MPI_Allreduce 1
76722714 MPI_Allreduce 0
76722714 MPI_Allreduce 1
76722824 MPI_Allreduce 0
76722824 MPI_Allreduce 1
76722935 MPI_Allreduce 0
76722935 MPI_Allreduce 1
76723046 MPI_Allreduce 0
76723046 MPI_Allreduce 1
76723158 MPI_Allreduce 0
76723158 MPI_Allreduce 1
76723271 MPI_Allreduce 0
76723271 MPI_Allreduce 1
76723383 MPI_Allreduce 0
76723383 MPI_Allreduce 1
76723493 MPI_Allreduce 0
76723493 MPI_Allreduce 1
76723605 MPI_Allreduce 0
76723605 MPI_Allreduce 1
76723718 MPI_Allreduce 0
76723718 MPI_Allreduce 1
76723829 MPI_Allreduce 0
76723829 MPI_Allreduce 1
76723940 MPI_Allreduce 0
76723940 MPI_Allreduce 1
76724052 MPI_Allreduce 0
76724052 MPI_Allreduce 1
76724162 MPI_Allreduce 0
76724162 MPI_Allreduce 1
76724273 MPI_Allreduce 0
76724273 MPI_Allreduce 1
76724384 MPI_Allreduce 0
76724384 MPI_Allreduce 1
76724495 MPI_Allreduce 0
76724495 MPI_Allreduce 1
76724606 MPI_Allreduce 0
76724606 MPI_Allreduce 1
76724717 MPI_Allreduce 0
76724717 MPI_Allreduce 1
76724828 MPI_Allreduce 0
76724828 MPI_Allreduce 1
76724939 MPI_Allreduce 0
76724939 MPI_Allreduce 1
76725051 MPI_Allreduce 0
76725051 MPI_Allreduce 1
76725161 MPI_Allreduce 0
76725161 MPI_Allreduce 1
76725274 MPI_Allreduce 0
76725274 MPI_Allreduce 1
76725387 MPI_Allreduce 0
76725387 MPI_Allreduce 1
76725498 MPI_Allreduce 0
76725498 MPI_Allreduce 1
76725610 MPI_Allreduce 0
76725610 MPI_Allreduce 1
76725721 MPI_Allreduce 0
76725721 MPI_Allreduce 1
76725833 MPI_Allreduce 0
76725833 MPI_Allreduce 1
76725946 MPI_Allreduce 0
76725946 MPI_Allreduce 1
76726056 MPI_Allreduce 0
76726056 MPI_Allreduce 1
76726168 MPI_Allreduce 0
76726168 MPI_Allreduce 1
76726282 MPI_Allreduce 0
76726282 MPI_Allreduce 1
76726393 MPI_Allreduce 0
76726393 MPI_Allreduce 1
76726503 MPI_Allreduce 0
76726503 MPI_Allreduce 1
76726614 MPI_Allreduce 0
76726614 MPI_Allreduce 1
76726726 MPI_Allreduce 0
76726726 MPI_Allreduce 1
76726839 MPI_Allreduce 0
76726839 MPI_Allreduce 1
76726950 MPI_Allreduce 0
76726950 MPI_Allreduce 1
76727062 MPI_Allreduce 0
76727062 MPI_Allreduce 1
76727173 MPI_Allreduce 0
76727173 MPI_Allreduce 1
76727285 MPI_Allreduce 0
76727285 MPI_Allreduce 1
76727398 MPI_Allreduce 0
76727398 MPI_Allreduce 1
76727509 MPI_Allreduce 0
76727509 MPI_Allreduce 1
76727621 MPI_Allreduce 0
76727621 MPI_Allreduce 1
76727734 MPI_Allreduce 0
76727734 MPI_Allreduce 1
76727847 MPI_Allreduce 0
76727847 MPI_Allreduce 1
76727960 MPI_Allreduce 0
76727960 MPI_Allreduce 1
76728070 MPI_Allreduce 0
76728070 MPI_Allreduce 1
76728181 MPI_Allreduce 0
76728181 MPI_Allreduce 1
76728294 MPI_Allreduce 0
76728294 MPI_Allreduce 1
76728407 MPI_Allreduce 0
76728407 MPI_Allreduce 1
76728517 MPI_Allreduce 0
76728517 MPI_Allreduce 1
76728629 MPI_Allreduce 0
76728629 MPI_Allreduce 1
76728743 MPI_Allreduce 0
76728743 MPI_Allreduce 1
76728853 MPI_Allreduce 0
76728853 MPI_Allreduce 1
76728965 MPI_Allreduce 0
76728965 MPI_Allreduce 1
76729078 MPI_Allreduce 0
76729078 MPI_Allreduce 1
76729189 MPI_Allreduce 0
76729189 MPI_Allreduce 1
76729301 MPI_Allreduce 0
76729301 MPI_Allreduce 1
76729414 MPI_Allreduce 0
76729414 MPI_Allreduce 1
76729525 MPI_Allreduce 0
76729525 MPI_Allreduce 1
76729636 MPI_Allreduce 0
76729636 MPI_Allreduce 1
76729747 MPI_Allreduce 0
76729747 MPI_Allreduce 1
76729859 MPI_Allreduce 0
76729859 MPI_Allreduce 1
76729972 MPI_Allreduce 0
76729972 MPI_Allreduce 1
76730083 MPI_Allreduce 0
76730083 MPI_Allreduce 1
76730195 MPI_Allreduce 0
76730195 MPI_Allreduce 1
76730308 MPI_Allreduce 0
76730308 MPI_Allreduce 1
76730419 MPI_Allreduce 0
76730419 MPI_Allreduce 1
76730531 MPI_Allreduce 0
76730531 MPI_Allreduce 1
76730644 MPI_Allreduce 0
76730644 MPI_Allreduce 1
76730756 MPI_Allreduce 0
76730756 MPI_Allreduce 1
76730869 MPI_Allreduce 0
76730869 MPI_Allreduce 1
76730979 MPI_Allreduce 0
76730979 MPI_Allreduce 1
76731090 MPI_Allreduce 0
76731090 MPI_Allreduce 1
76731201 MPI_Allreduce 0
76731201 MPI_Allreduce 1
76731312 MPI_Allreduce 0
76731312 MPI_Allreduce 1
76731423 MPI_Allreduce 0
76731423 MPI_Allreduce 1
76731535 MPI_Allreduce 0
76731535 MPI_Allreduce 1
76731648 MPI_Allreduce 0
76731648 MPI_Allreduce 1
76731759 MPI_Allreduce 0
76731759 MPI_Allreduce 1
76731870 MPI_Allreduce 0
76731870 MPI_Allreduce 1
76731982 MPI_Allreduce 0
76731982 MPI_Allreduce 1
76732095 MPI_Allreduce 0
76732095 MPI_Allreduce 1
76732207 MPI_Allreduce 0
76732207 MPI_Allreduce 1
76732320 MPI_Allreduce 0
76732320 MPI_Allreduce 1
76732433 MPI_Allreduce 0
76732433 MPI_Allreduce 1
76732545 MPI_Allreduce 0
76732545 MPI_Allreduce 1
76732656 MPI_Allreduce 0
76732656 MPI_Allreduce 1
76732769 MPI_Allreduce 0
76732769 MPI_Allreduce 1
76732882 MPI_Allreduce 0
76732882 MPI_Allreduce 1
76732992 MPI_Allreduce 0
76732992 MPI_Allreduce 1
76733103 MPI_Allreduce 0
76733103 MPI_Allreduce 1
76733216 MPI_Allreduce 0
76733216 MPI_Allreduce 1
76733329 MPI_Allreduce 0
76733329 MPI_Allreduce 1
76733442 MPI_Allreduce 0
76733442 MPI_Allreduce 1
76733555 MPI_Allreduce 0
76733555 MPI_Allreduce 1
76733666 MPI_Allreduce 0
76733666 MPI_Allreduce 1
76733778 MPI_Allreduce 0
76733778 MPI_Allreduce 1
76733891 MPI_Allreduce 0
76733891 MPI_Allreduce 1
76734002 MPI_Allreduce 0
76734002 MPI_Allreduce 1
76734115 MPI_Allreduce 0
76734115 MPI_Allreduce 1
76734228 MPI_Allreduce 0
76734228 MPI_Allreduce 1
76734339 MPI_Allreduce 0
76734339 MPI_Allreduce 1
76734451 MPI_Allreduce 0
76734451 MPI_Allreduce 1
76734564 MPI_Allreduce 0
76734564 MPI_Allreduce 1
76734676 MPI_Allreduce 0
76734676 MPI_Allreduce 1
76734787 MPI_Allreduce 0
76734787 MPI_Allreduce 1
76734898 MPI_Allreduce 0
76734898 MPI_Allreduce 1
76735008 MPI_Allreduce 0
76735009 MPI_Allreduce 1
76735120 MPI_Allreduce 0
76735120 MPI_Allreduce 1
76735232 MPI_Allreduce 0
76735232 MPI_Allreduce 1
76735345 MPI_Allreduce 0
76735345 MPI_Allreduce 1
76735456 MPI_Allreduce 0
76735456 MPI_Allreduce 1
76735567 MPI_Allreduce 0
76735567 MPI_Allreduce 1
76735679 MPI_Allreduce 0
76735679 MPI_Allreduce 1
76735791 MPI_Allreduce 0
76735791 MPI_Allreduce 1
76735903 MPI_Allreduce 0
76735903 MPI_Allreduce 1
76736016 MPI_Allreduce 0
76736016 MPI_Allreduce 1
76736127 MPI_Allreduce 0
76736127 MPI_Allreduce 1
76736238 MPI_Allreduce 0
76736238 MPI_Allreduce 1
76736351 MPI_Allreduce 0
76736351 MPI_Allreduce 1
76736464 MPI_Allreduce 0
76736464 MPI_Allreduce 1
76736575 MPI_Allreduce 0
76736575 MPI_Allreduce 1
76736688 MPI_Allreduce 0
76736688 MPI_Allreduce 1
76736801 MPI_Allreduce 0
76736801 MPI_Allreduce 1
76736912 MPI_Allreduce 0
76736912 MPI_Allreduce 1
76737025 MPI_Allreduce 0
76737025 MPI_Allreduce 1
76737138 MPI_Allreduce 0
76737138 MPI_Allreduce 1
76737249 MPI_Allreduce 0
76737249 MPI_Allreduce 1
76737361 MPI_Allreduce 0
76737361 MPI_Allreduce 1
76737474 MPI_Allreduce 0
76737474 MPI_Allreduce 1
76737585 MPI_Allreduce 0
76737585 MPI_Allreduce 1
76737696 MPI_Allreduce 0
76737696 MPI_Allreduce 1
76737808 MPI_Allreduce 0
76737808 MPI_Allreduce 1
76737921 MPI_Allreduce 0
76737921 MPI_Allreduce 1
76738032 MPI_Allreduce 0
76738032 MPI_Allreduce 1
76738143 MPI_Allreduce 0
76738143 MPI_Allreduce 1
76738255 MPI_Allreduce 0
76738255 MPI_Allreduce 1
76738366 MPI_Allreduce 0
76738366 MPI_Allreduce 1
76738478 MPI_Allreduce 0
76738478 MPI_Allreduce 1
76738590 MPI_Allreduce 0
76738590 MPI_Allreduce 1
76738701 MPI_Allreduce 0
76738701 MPI_Allreduce 1
76738813 MPI_Allreduce 0
76738813 MPI_Allreduce 1
76738923 MPI_Allreduce 0
76738923 MPI_Allreduce 1
76739034 MPI_Allreduce 0
76739034 MPI_Allreduce 1
76739147 MPI_Allreduce 0
76739147 MPI_Allreduce 1
76739260 MPI_Allreduce 0
76739260 MPI_Allreduce 1
76739371 MPI_Allreduce 0
76739371 MPI_Allreduce 1
76739482 MPI_Allreduce 0
76739482 MPI_Allreduce 1
76739593 MPI_Allreduce 0
76739593 MPI_Allreduce 1
76739704 MPI_Allreduce 0
76739704 MPI_Allreduce 1
76739815 MPI_Allreduce 0
76739815 MPI_Allreduce 1
76739927 MPI_Allreduce 0
76739927 MPI_Allreduce 1
76740038 MPI_Allreduce 0
76740038 MPI_Allreduce 1
76740149 MPI_Allreduce 0
76740149 MPI_Allreduce 1
76740260 MPI_Allreduce 0
76740260 MPI_Allreduce 1
76740373 MPI_Allreduce 0
76740373 MPI_Allreduce 1
76740486 MPI_Allreduce 0
76740486 MPI_Allreduce 1
76740597 MPI_Allreduce 0
76740597 MPI_Allreduce 1
76740710 MPI_Allreduce 0
76740710 MPI_Allreduce 1
76740823 MPI_Allreduce 0
76740823 MPI_Allreduce 1
76740935 MPI_Allreduce 0
76740935 MPI_Allreduce 1
76741048 MPI_Allreduce 0
76741048 MPI_Allreduce 1
76741159 MPI_Allreduce 0
76741159 MPI_Allreduce 1
76741271 MPI_Allreduce 0
76741271 MPI_Allreduce 1
76741384 MPI_Allreduce 0
76741384 MPI_Allreduce 1
76741497 MPI_Allreduce 0
76741497 MPI_Allreduce 1
76741608 MPI_Allreduce 0
76741608 MPI_Allreduce 1
76741720 MPI_Allreduce 0
76741720 MPI_Allreduce 1
76741834 MPI_Allreduce 0
76741834 MPI_Allreduce 1
76741944 MPI_Allreduce 0
76741944 MPI_Allreduce 1
76742058 MPI_Allreduce 0
76742058 MPI_Allreduce 1
76742171 MPI_Allreduce 0
76742171 MPI_Allreduce 1
76742284 MPI_Allreduce 0
76742284 MPI_Allreduce 1
76742396 MPI_Allreduce 0
76742396 MPI_Allreduce 1
76742509 MPI_Allreduce 0
76742509 MPI_Allreduce 1
76742622 MPI_Allreduce 0
76742622 MPI_Allreduce 1
76742734 MPI_Allreduce 0
76742734 MPI_Allreduce 1
76742845 MPI_Allreduce 0
76742845 MPI_Allreduce 1
76742956 MPI_Allreduce 0
76742956 MPI_Allreduce 1
76743067 MPI_Allreduce 0
76743067 MPI_Allreduce 1
76743179 MPI_Allreduce 0
76743179 MPI_Allreduce 1
76743290 MPI_Allreduce 0
76743290 MPI_Allreduce 1
76743401 MPI_Allreduce 0
76743401 MPI_Allreduce 1
76743514 MPI_Allreduce 0
76743514 MPI_Allreduce 1
76743627 MPI_Allreduce 0
76743627 MPI_Allreduce 1
76743738 MPI_Allreduce 0
76743738 MPI_Allreduce 1
76743851 MPI_Allreduce 0
76743851 MPI_Allreduce 1
76743964 MPI_Allreduce 0
76743964 MPI_Allreduce 1
76744076 MPI_Allreduce 0
76744076 MPI_Allreduce 1
76744188 MPI_Allreduce 0
76744188 MPI_Allreduce 1
76744302 MPI_Allreduce 0
76744302 MPI_Allreduce 1
76744413 MPI_Allreduce 0
76744413 MPI_Allreduce 1
76744525 MPI_Allreduce 0
76744525 MPI_Allreduce 1
76744636 MPI_Allreduce 0
76744636 MPI_Allreduce 1
76744749 MPI_Allreduce 0
76744749 MPI_Allreduce 1
76744860 MPI_Allreduce 0
76744860 MPI_Allreduce 1
76744973 MPI_Allreduce 0
76744973 MPI_Allreduce 1
76745084 MPI_Allreduce 0
76745084 MPI_Allreduce 1
76745197 MPI_Allreduce 0
76745197 MPI_Allreduce 1
76745310 MPI_Allreduce 0
76745310 MPI_Allreduce 1
76745422 MPI_Allreduce 0
76745422 MPI_Allreduce 1
76745534 MPI_Allreduce 0
76745534 MPI_Allreduce 1
76745646 MPI_Allreduce 0
76745646 MPI_Allreduce 1
76745758 MPI_Allreduce 0
76745758 MPI_Allreduce 1
76745871 MPI_Allreduce 0
76745871 MPI_Allreduce 1
76745983 MPI_Allreduce 0
76745983 MPI_Allreduce 1
76746096 MPI_Allreduce 0
76746096 MPI_Allreduce 1
76746209 MPI_Allreduce 0
76746209 MPI_Allreduce 1
76746320 MPI_Allreduce 0
76746320 MPI_Allreduce 1
76746432 MPI_Allreduce 0
76746432 MPI_Allreduce 1
76746543 MPI_Allreduce 0
76746543 MPI_Allreduce 1
76746656 MPI_Allreduce 0
76746656 MPI_Allreduce 1
76746769 MPI_Allreduce 0
76746769 MPI_Allreduce 1
76746881 MPI_Allreduce 0
76746881 MPI_Allreduce 1
76746992 MPI_Allreduce 0
76746992 MPI_Allreduce 1
76747104 MPI_Allreduce 0
76747104 MPI_Allreduce 1
76747215 MPI_Allreduce 0
76747215 MPI_Allreduce 1
76747326 MPI_Allreduce 0
76747326 MPI_Allreduce 1
76747439 MPI_Allreduce 0
76747439 MPI_Allreduce 1
76747550 MPI_Allreduce 0
76747550 MPI_Allreduce 1
76747661 MPI_Allreduce 0
76747661 MPI_Allreduce 1
76747773 MPI_Allreduce 0
76747773 MPI_Allreduce 1
76747885 MPI_Allreduce 0
76747885 MPI_Allreduce 1
76747999 MPI_Allreduce 0
76747999 MPI_Allreduce 1
76748110 MPI_Allreduce 0
76748110 MPI_Allreduce 1
76748221 MPI_Allreduce 0
76748221 MPI_Allreduce 1
76748333 MPI_Allreduce 0
76748333 MPI_Allreduce 1
76748444 MPI_Allreduce 0
76748444 MPI_Allreduce 1
76748557 MPI_Allreduce 0
76748557 MPI_Allreduce 1
76748670 MPI_Allreduce 0
76748670 MPI_Allreduce 1
76748781 MPI_Allreduce 0
76748781 MPI_Allreduce 1
76748894 MPI_Allreduce 0
76748894 MPI_Allreduce 1
76749008 MPI_Allreduce 0
76749008 MPI_Allreduce 1
76749119 MPI_Allreduce 0
76749119 MPI_Allreduce 1
76749232 MPI_Allreduce 0
76749232 MPI_Allreduce 1
76749343 MPI_Allreduce 0
76749343 MPI_Allreduce 1
76749455 MPI_Allreduce 0
76749455 MPI_Allreduce 1
76749567 MPI_Allreduce 0
76749567 MPI_Allreduce 1
76749679 MPI_Allreduce 0
76749679 MPI_Allreduce 1
76749790 MPI_Allreduce 0
76749790 MPI_Allreduce 1
76749901 MPI_Allreduce 0
76749901 MPI_Allreduce 1
76750013 MPI_Allreduce 0
76750013 MPI_Allreduce 1
76750124 MPI_Allreduce 0
76750124 MPI_Allreduce 1
76750236 MPI_Allreduce 0
76750236 MPI_Allreduce 1
76750348 MPI_Allreduce 0
76750348 MPI_Allreduce 1
76750462 MPI_Allreduce 0
76750462 MPI_Allreduce 1
76750573 MPI_Allreduce 0
76750573 MPI_Allreduce 1
76750685 MPI_Allreduce 0
76750685 MPI_Allreduce 1
76750799 MPI_Allreduce 0
76750799 MPI_Allreduce 1
76750910 MPI_Allreduce 0
76750910 MPI_Allreduce 1
76751023 MPI_Allreduce 0
76751023 MPI_Allreduce 1
76751136 MPI_Allreduce 0
76751136 MPI_Allreduce 1
76751247 MPI_Allreduce 0
76751247 MPI_Allreduce 1
76751360 MPI_Allreduce 0
76751360 MPI_Allreduce 1
76751473 MPI_Allreduce 0
76751473 MPI_Allreduce 1
76751585 MPI_Allreduce 0
76751585 MPI_Allreduce 1
76751697 MPI_Allreduce 0
76751697 MPI_Allreduce 1
76751811 MPI_Allreduce 0
76751811 MPI_Allreduce 1
76751922 MPI_Allreduce 0
76751922 MPI_Allreduce 1
76752035 MPI_Allreduce 0
76752035 MPI_Allreduce 1
76752148 MPI_Allreduce 0
76752148 MPI_Allreduce 1
76752261 MPI_Allreduce 0
76752261 MPI_Allreduce 1
76752372 MPI_Allreduce 0
76752372 MPI_Allreduce 1
76752484 MPI_Allreduce 0
76752484 MPI_Allreduce 1
76752597 MPI_Allreduce 0
76752597 MPI_Allreduce 1
76752708 MPI_Allreduce 0
76752708 MPI_Allreduce 1
76752820 MPI_Allreduce 0
76752820 MPI_Allreduce 1
76752931 MPI_Allreduce 0
76752931 MPI_Allreduce 1
76753042 MPI_Allreduce 0
76753042 MPI_Allreduce 1
76753154 MPI_Allreduce 0
76753154 MPI_Allreduce 1
76753266 MPI_Allreduce 0
76753266 MPI_Allreduce 1
76753380 MPI_Allreduce 0
76753380 MPI_Allreduce 1
76753491 MPI_Allreduce 0
76753491 MPI_Allreduce 1
76753602 MPI_Allreduce 0
76753602 MPI_Allreduce 1
76753714 MPI_Allreduce 0
76753714 MPI_Allreduce 1
76753826 MPI_Allreduce 0
76753826 MPI_Allreduce 1
76753940 MPI_Allreduce 0
76753940 MPI_Allreduce 1
76754051 MPI_Allreduce 0
76754051 MPI_Allreduce 1
76754163 MPI_Allreduce 0
76754163 MPI_Allreduce 1
76754274 MPI_Allreduce 0
76754274 MPI_Allreduce 1
76754386 MPI_Allreduce 0
76754386 MPI_Allreduce 1
76754500 MPI_Allreduce 0
76754500 MPI_Allreduce 1
76754611 MPI_Allreduce 0
76754611 MPI_Allreduce 1
76754724 MPI_Allreduce 0
76754724 MPI_Allreduce 1
76754837 MPI_Allreduce 0
76754837 MPI_Allreduce 1
76754949 MPI_Allreduce 0
76754949 MPI_Allreduce 1
76755062 MPI_Allreduce 0
76755062 MPI_Allreduce 1
76755175 MPI_Allreduce 0
76755175 MPI_Allreduce 1
76755287 MPI_Allreduce 0
76755287 MPI_Allreduce 1
76755398 MPI_Allreduce 0
76755398 MPI_Allreduce 1
76755509 MPI_Allreduce 0
76755509 MPI_Allreduce 1
76755621 MPI_Allreduce 0
76755621 MPI_Allreduce 1
76755732 MPI_Allreduce 0
76755732 MPI_Allreduce 1
76755843 MPI_Allreduce 0
76755843 MPI_Allreduce 1
76755955 MPI_Allreduce 0
76755955 MPI_Allreduce 1
76756067 MPI_Allreduce 0
76756067 MPI_Allreduce 1
76756181 MPI_Allreduce 0
76756181 MPI_Allreduce 1
76756292 MPI_Allreduce 0
76756292 MPI_Allreduce 1
76756404 MPI_Allreduce 0
76756404 MPI_Allreduce 1
76756516 MPI_Allreduce 0
76756516 MPI_Allreduce 1
76756628 MPI_Allreduce 0
76756628 MPI_Allreduce 1
76756740 MPI_Allreduce 0
76756740 MPI_Allreduce 1
76756851 MPI_Allreduce 0
76756851 MPI_Allreduce 1
76756964 MPI_Allreduce 0
76756964 MPI_Allreduce 1
76757077 MPI_Allreduce 0
76757077 MPI_Allreduce 1
76757189 MPI_Allreduce 0
76757189 MPI_Allreduce 1
76757300 MPI_Allreduce 0
76757300 MPI_Allreduce 1
76757412 MPI_Allreduce 0
76757412 MPI_Allreduce 1
76757524 MPI_Allreduce 0
76757524 MPI_Allreduce 1
76757638 MPI_Allreduce 0
76757638 MPI_Allreduce 1
76757749 MPI_Allreduce 0
76757749 MPI_Allreduce 1
76757862 MPI_Allreduce 0
76757862 MPI_Allreduce 1
76757973 MPI_Allreduce 0
76757973 MPI_Allreduce 1
76758084 MPI_Allreduce 0
76758084 MPI_Allreduce 1
76758196 MPI_Allreduce 0
76758196 MPI_Allreduce 1
76758307 MPI_Allreduce 0
76758307 MPI_Allreduce 1
76758418 MPI_Allreduce 0
76758418 MPI_Allreduce 1
76758530 MPI_Allreduce 0
76758530 MPI_Allreduce 1
76758641 MPI_Allreduce 0
76758641 MPI_Allreduce 1
76758754 MPI_Allreduce 0
76758754 MPI_Allreduce 1
76758867 MPI_Allreduce 0
76758867 MPI_Allreduce 1
76758980 MPI_Allreduce 0
76758980 MPI_Allreduce 1
76759092 MPI_Allreduce 0
76759092 MPI_Allreduce 1
76759203 MPI_Allreduce 0
76759203 MPI_Allreduce 1
76759315 MPI_Allreduce 0
76759315 MPI_Allreduce 1
76759427 MPI_Allreduce 0
76759427 MPI_Allreduce 1
76759540 MPI_Allreduce 0
76759540 MPI_Allreduce 1
76759651 MPI_Allreduce 0
76759651 MPI_Allreduce 1
76759763 MPI_Allreduce 0
76759763 MPI_Allreduce 1
76759875 MPI_Allreduce 0
76759875 MPI_Allreduce 1
76759989 MPI_Allreduce 0
76759989 MPI_Allreduce 1
76760101 MPI_Allreduce 0
76760101 MPI_Allreduce 1
76760213 MPI_Allreduce 0
76760213 MPI_Allreduce 1
76760324 MPI_Allreduce 0
76760324 MPI_Allreduce 1
76760437 MPI_Allreduce 0
76760437 MPI_Allreduce 1
76760548 MPI_Allreduce 0
76760548 MPI_Allreduce 1
76760660 MPI_Allreduce 0
76760660 MPI_Allreduce 1
76760773 MPI_Allreduce 0
76760773 MPI_Allreduce 1
76760885 MPI_Allreduce 0
76760885 MPI_Allreduce 1
76760997 MPI_Allreduce 0
76760997 MPI_Allreduce 1
76761108 MPI_Allreduce 0
76761108 MPI_Allreduce 1
76761221 MPI_Allreduce 0
76761221 MPI_Allreduce 1
76761332 MPI_Allreduce 0
76761332 MPI_Allreduce 1
76761445 MPI_Allreduce 0
76761445 MPI_Allreduce 1
76761558 MPI_Allreduce 0
76761558 MPI_Allreduce 1
76761669 MPI_Allreduce 0
76761669 MPI_Allreduce 1
76761781 MPI_Allreduce 0
76761781 MPI_Allreduce 1
76761892 MPI_Allreduce 0
76761892 MPI_Allreduce 1
76762005 MPI_Allreduce 0
76762005 MPI_Allreduce 1
76762116 MPI_Allreduce 0
76762116 MPI_Allreduce 1
76762227 MPI_Allreduce 0
76762227 MPI_Allreduce 1
76762338 MPI_Allreduce 0
76762338 MPI_Allreduce 1
76762451 MPI_Allreduce 0
76762451 MPI_Allreduce 1
76762564 MPI_Allreduce 0
76762564 MPI_Allreduce 1
76762676 MPI_Allreduce 0
76762676 MPI_Allreduce 1
76762788 MPI_Allreduce 0
76762788 MPI_Allreduce 1
76762899 MPI_Allreduce 0
76762899 MPI_Allreduce 1
76763010 MPI_Allreduce 0
76763010 MPI_Allreduce 1
76763122 MPI_Allreduce 0
76763122 MPI_Allreduce 1
76763233 MPI_Allreduce 0
76763233 MPI_Allreduce 1
76763344 MPI_Allreduce 0
76763344 MPI_Allreduce 1
76763457 MPI_Allreduce 0
76763457 MPI_Allreduce 1
76763571 MPI_Allreduce 0
76763571 MPI_Allreduce 1
76763682 MPI_Allreduce 0
76763682 MPI_Allreduce 1
76763795 MPI_Allreduce 0
76763795 MPI_Allreduce 1
76763906 MPI_Allreduce 0
76763906 MPI_Allreduce 1
76764018 MPI_Allreduce 0
76764018 MPI_Allreduce 1
76764130 MPI_Allreduce 0
76764130 MPI_Allreduce 1
76764244 MPI_Allreduce 0
76764244 MPI_Allreduce 1
76764355 MPI_Allreduce 0
76764355 MPI_Allreduce 1
76764467 MPI_Allreduce 0
76764467 MPI_Allreduce 1
76764578 MPI_Allreduce 0
76764578 MPI_Allreduce 1
76764690 MPI_Allreduce 0
76764690 MPI_Allreduce 1
76764803 MPI_Allreduce 0
76764803 MPI_Allreduce 1
76764916 MPI_Allreduce 0
76764916 MPI_Allreduce 1
76765027 MPI_Allreduce 0
76765027 MPI_Allreduce 1
76765139 MPI_Allreduce 0
76765139 MPI_Allreduce 1
76765250 MPI_Allreduce 0
76765250 MPI_Allreduce 1
76765362 MPI_Allreduce 0
76765362 MPI_Allreduce 1
76765473 MPI_Allreduce 0
76765473 MPI_Allreduce 1
76765586 MPI_Allreduce 0
76765586 MPI_Allreduce 1
76765697 MPI_Allreduce 0
76765697 MPI_Allreduce 1
76765808 MPI_Allreduce 0
76765809 MPI_Allreduce 1
76765920 MPI_Allreduce 0
76765920 MPI_Allreduce 1
76766033 MPI_Allreduce 0
76766033 MPI_Allreduce 1
76766144 MPI_Allreduce 0
76766144 MPI_Allreduce 1
76766256 MPI_Allreduce 0
76766256 MPI_Allreduce 1
76766367 MPI_Allreduce 0
76766367 MPI_Allreduce 1
76766479 MPI_Allreduce 0
76766479 MPI_Allreduce 1
76766590 MPI_Allreduce 0
76766590 MPI_Allreduce 1
76766703 MPI_Allreduce 0
76766703 MPI_Allreduce 1
76766814 MPI_Allreduce 0
76766814 MPI_Allreduce 1
76766925 MPI_Allreduce 0
76766925 MPI_Allreduce 1
76767038 MPI_Allreduce 0
76767038 MPI_Allreduce 1
76767151 MPI_Allreduce 0
76767151 MPI_Allreduce 1
76767264 MPI_Allreduce 0
76767264 MPI_Allreduce 1
76767378 MPI_Allreduce 0
76767378 MPI_Allreduce 1
76767489 MPI_Allreduce 0
76767489 MPI_Allreduce 1
76767602 MPI_Allreduce 0
76767602 MPI_Allreduce 1
76767713 MPI_Allreduce 0
76767713 MPI_Allreduce 1
76767825 MPI_Allreduce 0
76767825 MPI_Allreduce 1
76767938 MPI_Allreduce 0
76767938 MPI_Allreduce 1
76768051 MPI_Allreduce 0
76768051 MPI_Allreduce 1
76768162 MPI_Allreduce 0
76768162 MPI_Allreduce 1
76768275 MPI_Allreduce 0
76768275 MPI_Allreduce 1
76768389 MPI_Allreduce 0
76768389 MPI_Allreduce 1
76768500 MPI_Allreduce 0
76768500 MPI_Allreduce 1
76768611 MPI_Allreduce 0
76768611 MPI_Allreduce 1
76768723 MPI_Allreduce 0
76768723 MPI_Allreduce 1
76768834 MPI_Allreduce 0
76768834 MPI_Allreduce 1
76768945 MPI_Allreduce 0
76768945 MPI_Allreduce 1
76769056 MPI_Allreduce 0
76769056 MPI_Allreduce 1
76769168 MPI_Allreduce 0
76769168 MPI_Allreduce 1
76769279 MPI_Allreduce 0
76769279 MPI_Allreduce 1
76769391 MPI_Allreduce 0
76769391 MPI_Allreduce 1
76769502 MPI_Allreduce 0
76769502 MPI_Allreduce 1
76769614 MPI_Allreduce 0
76769614 MPI_Allreduce 1
76769726 MPI_Allreduce 0
76769726 MPI_Allreduce 1
76769838 MPI_Allreduce 0
76769838 MPI_Allreduce 1
76769951 MPI_Allreduce 0
76769951 MPI_Allreduce 1
76770062 MPI_Allreduce 0
76770062 MPI_Allreduce 1
76770174 MPI_Allreduce 0
76770174 MPI_Allreduce 1
76770287 MPI_Allreduce 0
76770287 MPI_Allreduce 1
76770400 MPI_Allreduce 0
76770400 MPI_Allreduce 1
76770513 MPI_Allreduce 0
76770513 MPI_Allreduce 1
76770626 MPI_Allreduce 0
76770626 MPI_Allreduce 1
76770737 MPI_Allreduce 0
76770737 MPI_Allreduce 1
76770850 MPI_Allreduce 0
76770850 MPI_Allreduce 1
76770963 MPI_Allreduce 0
76770963 MPI_Allreduce 1
76771075 MPI_Allreduce 0
76771075 MPI_Allreduce 1
76771188 MPI_Allreduce 0
76771188 MPI_Allreduce 1
76771299 MPI_Allreduce 0
76771299 MPI_Allreduce 1
76771411 MPI_Allreduce 0
76771411 MPI_Allreduce 1
76771524 MPI_Allreduce 0
76771524 MPI_Allreduce 1
76771637 MPI_Allreduce 0
76771637 MPI_Allreduce 1
76771749 MPI_Allreduce 0
76771749 MPI_Allreduce 1
76771862 MPI_Allreduce 0
76771862 MPI_Allreduce 1
76771975 MPI_Allreduce 0
76771975 MPI_Allreduce 1
76772086 MPI_Allreduce 0
76772086 MPI_Allreduce 1
76772199 MPI_Allreduce 0
76772199 MPI_Allreduce 1
76772310 MPI_Allreduce 0
76772310 MPI_Allreduce 1
76772423 MPI_Allreduce 0
76772423 MPI_Allreduce 1
76772536 MPI_Allreduce 0
76772536 MPI_Allreduce 1
76772648 MPI_Allreduce 0
76772648 MPI_Allreduce 1
76772759 MPI_Allreduce 0
76772759 MPI_Allreduce 1
76772871 MPI_Allreduce 0
76772871 MPI_Allreduce 1
76772982 MPI_Allreduce 0
76772982 MPI_Allreduce 1
76773094 MPI_Allreduce 0
76773094 MPI_Allreduce 1
76773206 MPI_Allreduce 0
76773206 MPI_Allreduce 1
76773318 MPI_Allreduce 0
76773318 MPI_Allreduce 1
76773430 MPI_Allreduce 0
76773430 MPI_Allreduce 1
76773541 MPI_Allreduce 0
76773541 MPI_Allreduce 1
76773652 MPI_Allreduce 0
76773652 MPI_Allreduce 1
76773765 MPI_Allreduce 0
76773765 MPI_Allreduce 1
76773877 MPI_Allreduce 0
76773877 MPI_Allreduce 1
76773989 MPI_Allreduce 0
76773989 MPI_Allreduce 1
76774101 MPI_Allreduce 0
76774101 MPI_Allreduce 1
76774213 MPI_Allreduce 0
76774213 MPI_Allreduce 1
76774324 MPI_Allreduce 0
76774324 MPI_Allreduce 1
76774437 MPI_Allreduce 0
76774437 MPI_Allreduce 1
76774550 MPI_Allreduce 0
76774550 MPI_Allreduce 1
76774661 MPI_Allreduce 0
76774661 MPI_Allreduce 1
76774773 MPI_Allreduce 0
76774773 MPI_Allreduce 1
76774884 MPI_Allreduce 0
76774884 MPI_Allreduce 1
76774996 MPI_Allreduce 0
76774996 MPI_Allreduce 1
76775107 MPI_Allreduce 0
76775107 MPI_Allreduce 1
76775220 MPI_Allreduce 0
76775220 MPI_Allreduce 1
76775334 MPI_Allreduce 0
76775334 MPI_Allreduce 1
76775445 MPI_Allreduce 0
76775445 MPI_Allreduce 1
76775556 MPI_Allreduce 0
76775556 MPI_Allreduce 1
76775668 MPI_Allreduce 0
76775668 MPI_Allreduce 1
76775781 MPI_Allreduce 0
76775781 MPI_Allreduce 1
76775894 MPI_Allreduce 0
76775894 MPI_Allreduce 1
76776006 MPI_Allreduce 0
76776006 MPI_Allreduce 1
76776119 MPI_Allreduce 0
76776119 MPI_Allreduce 1
76776232 MPI_Allreduce 0
76776232 MPI_Allreduce 1
76776344 MPI_Allreduce 0
76776344 MPI_Allreduce 1
76776456 MPI_Allreduce 0
76776456 MPI_Allreduce 1
76776568 MPI_Allreduce 0
76776568 MPI_Allreduce 1
76776679 MPI_Allreduce 0
76776679 MPI_Allreduce 1
76776793 MPI_Allreduce 0
76776793 MPI_Allreduce 1
76776906 MPI_Allreduce 0
76776906 MPI_Allreduce 1
76777017 MPI_Allreduce 0
76777017 MPI_Allreduce 1
76777130 MPI_Allreduce 0
76777130 MPI_Allreduce 1
76777243 MPI_Allreduce 0
76777243 MPI_Allreduce 1
76777355 MPI_Allreduce 0
76777355 MPI_Allreduce 1
76777466 MPI_Allreduce 0
76777466 MPI_Allreduce 1
76777578 MPI_Allreduce 0
76777578 MPI_Allreduce 1
76777689 MPI_Allreduce 0
76777689 MPI_Allreduce 1
76777801 MPI_Allreduce 0
76777801 MPI_Allreduce 1
76777912 MPI_Allreduce 0
76777912 MPI_Allreduce 1
76778023 MPI_Allreduce 0
76778023 MPI_Allreduce 1
76778136 MPI_Allreduce 0
76778136 MPI_Allreduce 1
76778247 MPI_Allreduce 0
76778247 MPI_Allreduce 1
76778358 MPI_Allreduce 0
76778358 MPI_Allreduce 1
76778471 MPI_Allreduce 0
76778471 MPI_Allreduce 1
76778582 MPI_Allreduce 0
76778582 MPI_Allreduce 1
76778694 MPI_Allreduce 0
76778694 MPI_Allreduce 1
76778807 MPI_Allreduce 0
76778807 MPI_Allreduce 1
76778920 MPI_Allreduce 0
76778920 MPI_Allreduce 1
76779033 MPI_Allreduce 0
76779033 MPI_Allreduce 1
76779146 MPI_Allreduce 0
76779146 MPI_Allreduce 1
76779257 MPI_Allreduce 0
76779257 MPI_Allreduce 1
76779370 MPI_Allreduce 0
76779370 MPI_Allreduce 1
76779484 MPI_Allreduce 0
76779484 MPI_Allreduce 1
76779597 MPI_Allreduce 0
76779597 MPI_Allreduce 1
76779710 MPI_Allreduce 0
76779710 MPI_Allreduce 1
76779821 MPI_Allreduce 0
76779821 MPI_Allreduce 1
76779932 MPI_Allreduce 0
76779932 MPI_Allreduce 1
76780044 MPI_Allreduce 0
76780044 MPI_Allreduce 1
76780155 MPI_Allreduce 0
76780156 MPI_Allreduce 1
76780268 MPI_Allreduce 0
76780268 MPI_Allreduce 1
76780380 MPI_Allreduce 0
76780380 MPI_Allreduce 1
76780492 MPI_Allreduce 0
76780492 MPI_Allreduce 1
76780603 MPI_Allreduce 0
76780603 MPI_Allreduce 1
76780716 MPI_Allreduce 0
76780716 MPI_Allreduce 1
76780827 MPI_Allreduce 0
76780827 MPI_Allreduce 1
76780938 MPI_Allreduce 0
76780939 MPI_Allreduce 1
76781051 MPI_Allreduce 0
76781051 MPI_Allreduce 1
76781165 MPI_Allreduce 0
76781165 MPI_Allreduce 1
76781276 MPI_Allreduce 0
76781276 MPI_Allreduce 1
76781388 MPI_Allreduce 0
76781388 MPI_Allreduce 1
76781501 MPI_Allreduce 0
76781501 MPI_Allreduce 1
76781614 MPI_Allreduce 0
76781614 MPI_Allreduce 1
76781727 MPI_Allreduce 0
76781727 MPI_Allreduce 1
76781839 MPI_Allreduce 0
76781839 MPI_Allreduce 1
76781953 MPI_Allreduce 0
76781953 MPI_Allreduce 1
76782064 MPI_Allreduce 0
76782064 MPI_Allreduce 1
76782176 MPI_Allreduce 0
76782176 MPI_Allreduce 1
76782289 MPI_Allreduce 0
76782289 MPI_Allreduce 1
76782402 MPI_Allreduce 0
76782402 MPI_Allreduce 1
76782513 MPI_Allreduce 0
76782514 MPI_Allreduce 1
76782625 MPI_Allreduce 0
76782625 MPI_Allreduce 1
76782738 MPI_Allreduce 0
76782738 MPI_Allreduce 1
76782850 MPI_Allreduce 0
76782850 MPI_Allreduce 1
76782961 MPI_Allreduce 0
76782961 MPI_Allreduce 1
76783072 MPI_Allreduce 0
76783072 MPI_Allreduce 1
76783184 MPI_Allreduce 0
76783184 MPI_Allreduce 1
76783296 MPI_Allreduce 0
76783296 MPI_Allreduce 1
76783407 MPI_Allreduce 0
76783407 MPI_Allreduce 1
76783519 MPI_Allreduce 0
76783519 MPI_Allreduce 1
76783630 MPI_Allreduce 0
76783630 MPI_Allreduce 1
76783741 MPI_Allreduce 0
76783741 MPI_Allreduce 1
76783853 MPI_Allreduce 0
76783853 MPI_Allreduce 1
76783964 MPI_Allreduce 0
76783964 MPI_Allreduce 1
76784077 MPI_Allreduce 0
76784077 MPI_Allreduce 1
76784191 MPI_Allreduce 0
76784191 MPI_Allreduce 1
76784302 MPI_Allreduce 0
76784302 MPI_Allreduce 1
76784414 MPI_Allreduce 0
76784414 MPI_Allreduce 1
76784526 MPI_Allreduce 0
76784526 MPI_Allreduce 1
76784638 MPI_Allreduce 0
76784638 MPI_Allreduce 1
76784752 MPI_Allreduce 0
76784752 MPI_Allreduce 1
76784863 MPI_Allreduce 0
76784863 MPI_Allreduce 1
76784974 MPI_Allreduce 0
76784974 MPI_Allreduce 1
76785086 MPI_Allreduce 0
76785086 MPI_Allreduce 1
76785198 MPI_Allreduce 0
76785198 MPI_Allreduce 1
76785310 MPI_Allreduce 0
76785310 MPI_Allreduce 1
76785423 MPI_Allreduce 0
76785423 MPI_Allreduce 1
76785536 MPI_Allreduce 0
76785536 MPI_Allreduce 1
76785648 MPI_Allreduce 0
76785648 MPI_Allreduce 1
76785759 MPI_Allreduce 0
76785759 MPI_Allreduce 1
76785871 MPI_Allreduce 0
76785871 MPI_Allreduce 1
76785983 MPI_Allreduce 0
76785983 MPI_Allreduce 1
76786096 MPI_Allreduce 0
76786096 MPI_Allreduce 1
76786210 MPI_Allreduce 0
76786210 MPI_Allreduce 1
76786321 MPI_Allreduce 0
76786321 MPI_Allreduce 1
76786434 MPI_Allreduce 0
76786434 MPI_Allreduce 1
76786548 MPI_Allreduce 0
76786548 MPI_Allreduce 1
76786659 MPI_Allreduce 0
76786659 MPI_Allreduce 1
76786772 MPI_Allreduce 0
76786772 MPI_Allreduce 1
76786885 MPI_Allreduce 0
76786885 MPI_Allreduce 1
76786998 MPI_Allreduce 0
76786998 MPI_Allreduce 1
76787112 MPI_Allreduce 0
76787112 MPI_Allreduce 1
76787223 MPI_Allreduce 0
76787223 MPI_Allreduce 1
76787335 MPI_Allreduce 0
76787335 MPI_Allreduce 1
76787448 MPI_Allreduce 0
76787448 MPI_Allreduce 1
76787561 MPI_Allreduce 0
76787561 MPI_Allreduce 1
76787673 MPI_Allreduce 0
76787673 MPI_Allreduce 1
76787784 MPI_Allreduce 0
76787784 MPI_Allreduce 1
76787898 MPI_Allreduce 0
76787898 MPI_Allreduce 1
76788011 MPI_Allreduce 0
76788011 MPI_Allreduce 1
76788123 MPI_Allreduce 0
76788123 MPI_Allreduce 1
76788234 MPI_Allreduce 0
76788234 MPI_Allreduce 1
76788346 MPI_Allreduce 0
76788346 MPI_Allreduce 1
76788457 MPI_Allreduce 0
76788457 MPI_Allreduce 1
76788570 MPI_Allreduce 0
76788570 MPI_Allreduce 1
76788682 MPI_Allreduce 0
76788682 MPI_Allreduce 1
76788795 MPI_Allreduce 0
76788795 MPI_Allreduce 1
76788907 MPI_Allreduce 0
76788907 MPI_Allreduce 1
76789019 MPI_Allreduce 0
76789019 MPI_Allreduce 1
76789133 MPI_Allreduce 0
76789133 MPI_Allreduce 1
76789244 MPI_Allreduce 0
76789244 MPI_Allreduce 1
76789356 MPI_Allreduce 0
76789356 MPI_Allreduce 1
76789469 MPI_Allreduce 0
76789469 MPI_Allreduce 1
76789582 MPI_Allreduce 0
76789582 MPI_Allreduce 1
76789694 MPI_Allreduce 0
76789694 MPI_Allreduce 1
76789806 MPI_Allreduce 0
76789806 MPI_Allreduce 1
76789917 MPI_Allreduce 0
76789917 MPI_Allreduce 1
76790030 MPI_Allreduce 0
76790030 MPI_Allreduce 1
76790143 MPI_Allreduce 0
76790143 MPI_Allreduce 1
76790254 MPI_Allreduce 0
76790254 MPI_Allreduce 1
76790367 MPI_Allreduce 0
76790367 MPI_Allreduce 1
76790481 MPI_Allreduce 0
76790481 MPI_Allreduce 1
76790593 MPI_Allreduce 0
76790593 MPI_Allreduce 1
76790705 MPI_Allreduce 0
76790705 MPI_Allreduce 1
76790816 MPI_Allreduce 0
76790816 MPI_Allreduce 1
76790928 MPI_Allreduce 0
76790928 MPI_Allreduce 1
76791041 MPI_Allreduce 0
76791041 MPI_Allreduce 1
76791155 MPI_Allreduce 0
76791155 MPI_Allreduce 1
76791266 MPI_Allreduce 0
76791266 MPI_Allreduce 1
76791379 MPI_Allreduce 0
76791379 MPI_Allreduce 1
76791491 MPI_Allreduce 0
76791491 MPI_Allreduce 1
76791602 MPI_Allreduce 0
76791602 MPI_Allreduce 1
76791715 MPI_Allreduce 0
76791715 MPI_Allreduce 1
76791829 MPI_Allreduce 0
76791829 MPI_Allreduce 1
76791940 MPI_Allreduce 0
76791940 MPI_Allreduce 1
76792052 MPI_Allreduce 0
76792052 MPI_Allreduce 1
76792163 MPI_Allreduce 0
76792163 MPI_Allreduce 1
76792275 MPI_Allreduce 0
76792275 MPI_Allreduce 1
76792386 MPI_Allreduce 0
76792386 MPI_Allreduce 1
76792499 MPI_Allreduce 0
76792499 MPI_Allreduce 1
76792612 MPI_Allreduce 0
76792612 MPI_Allreduce 1
76792724 MPI_Allreduce 0
76792724 MPI_Allreduce 1
76792836 MPI_Allreduce 0
76792836 MPI_Allreduce 1
76792950 MPI_Allreduce 0
76792950 MPI_Allreduce 1
76793061 MPI_Allreduce 0
76793061 MPI_Allreduce 1
76793174 MPI_Allreduce 0
76793174 MPI_Allreduce 1
76793288 MPI_Allreduce 0
76793288 MPI_Allreduce 1
76793399 MPI_Allreduce 0
76793399 MPI_Allreduce 1
76793511 MPI_Allreduce 0
76793511 MPI_Allreduce 1
76793622 MPI_Allreduce 0
76793622 MPI_Allreduce 1
76793735 MPI_Allreduce 0
76793735 MPI_Allreduce 1
76793846 MPI_Allreduce 0
76793846 MPI_Allreduce 1
76793957 MPI_Allreduce 0
76793957 MPI_Allreduce 1
76794070 MPI_Allreduce 0
76794070 MPI_Allreduce 1
76794183 MPI_Allreduce 0
76794183 MPI_Allreduce 1
76794295 MPI_Allreduce 0
76794295 MPI_Allreduce 1
76794407 MPI_Allreduce 0
76794407 MPI_Allreduce 1
76794518 MPI_Allreduce 0
76794518 MPI_Allreduce 1
76794631 MPI_Allreduce 0
76794631 MPI_Allreduce 1
76794742 MPI_Allreduce 0
76794742 MPI_Allreduce 1
76794855 MPI_Allreduce 0
76794855 MPI_Allreduce 1
76794968 MPI_Allreduce 0
76794968 MPI_Allreduce 1
76795081 MPI_Allreduce 0
76795081 MPI_Allreduce 1
76795193 MPI_Allreduce 0
76795193 MPI_Allreduce 1
76795305 MPI_Allreduce 0
76795305 MPI_Allreduce 1
76795418 MPI_Allreduce 0
76795418 MPI_Allreduce 1
76795529 MPI_Allreduce 0
76795529 MPI_Allreduce 1
76795640 MPI_Allreduce 0
76795640 MPI_Allreduce 1
76795753 MPI_Allreduce 0
76795753 MPI_Allreduce 1
76795867 MPI_Allreduce 0
76795867 MPI_Allreduce 1
76795979 MPI_Allreduce 0
76795979 MPI_Allreduce 1
76796092 MPI_Allreduce 0
76796092 MPI_Allreduce 1
76796205 MPI_Allreduce 0
76796205 MPI_Allreduce 1
76796317 MPI_Allreduce 0
76796317 MPI_Allreduce 1
76796429 MPI_Allreduce 0
76796429 MPI_Allreduce 1
76796543 MPI_Allreduce 0
76796543 MPI_Allreduce 1
76796654 MPI_Allreduce 0
76796654 MPI_Allreduce 1
76796766 MPI_Allreduce 0
76796766 MPI_Allreduce 1
76796878 MPI_Allreduce 0
76796878 MPI_Allreduce 1
76796991 MPI_Allreduce 0
76796991 MPI_Allreduce 1
76797105 MPI_Allreduce 0
76797105 MPI_Allreduce 1
76797218 MPI_Allreduce 0
76797218 MPI_Allreduce 1
76797331 MPI_Allreduce 0
76797331 MPI_Allreduce 1
76797443 MPI_Allreduce 0
76797443 MPI_Allreduce 1
76797555 MPI_Allreduce 0
76797555 MPI_Allreduce 1
76797666 MPI_Allreduce 0
76797666 MPI_Allreduce 1
76797779 MPI_Allreduce 0
76797779 MPI_Allreduce 1
76797893 MPI_Allreduce 0
76797893 MPI_Allreduce 1
76798005 MPI_Allreduce 0
76798005 MPI_Allreduce 1
76798116 MPI_Allreduce 0
76798116 MPI_Allreduce 1
76798228 MPI_Allreduce 0
76798228 MPI_Allreduce 1
76798339 MPI_Allreduce 0
76798339 MPI_Allreduce 1
76798451 MPI_Allreduce 0
76798451 MPI_Allreduce 1
76798562 MPI_Allreduce 0
76798562 MPI_Allreduce 1
76798674 MPI_Allreduce 0
76798674 MPI_Allreduce 1
76798786 MPI_Allreduce 0
76798786 MPI_Allreduce 1
76798899 MPI_Allreduce 0
76798899 MPI_Allreduce 1
76799012 MPI_Allreduce 0
76799012 MPI_Allreduce 1
76799124 MPI_Allreduce 0
76799124 MPI_Allreduce 1
76799235 MPI_Allreduce 0
76799236 MPI_Allreduce 1
76799347 MPI_Allreduce 0
76799347 MPI_Allreduce 1
76799460 MPI_Allreduce 0
76799460 MPI_Allreduce 1
76799572 MPI_Allreduce 0
76799572 MPI_Allreduce 1
76799685 MPI_Allreduce 0
76799685 MPI_Allreduce 1
76799798 MPI_Allreduce 0
76799799 MPI_Allreduce 1
76799911 MPI_Allreduce 0
76799911 MPI_Allreduce 1
76800025 MPI_Allreduce 0
76800025 MPI_Allreduce 1
76800137 MPI_Allreduce 0
76800137 MPI_Allreduce 1
76800248 MPI_Allreduce 0
76800248 MPI_Allreduce 1
76800360 MPI_Allreduce 0
76800360 MPI_Allreduce 1
76800471 MPI_Allreduce 0
76800471 MPI_Allreduce 1
76800585 MPI_Allreduce 0
76800585 MPI_Allreduce 1
76800698 MPI_Allreduce 0
76800698 MPI_Allreduce 1
76800810 MPI_Allreduce 0
76800810 MPI_Allreduce 1
76800922 MPI_Allreduce 0
76800922 MPI_Allreduce 1
76801035 MPI_Allreduce 0
76801035 MPI_Allreduce 1
76801149 MPI_Allreduce 0
76801149 MPI_Allreduce 1
76801260 MPI_Allreduce 0
76801260 MPI_Allreduce 1
76801372 MPI_Allreduce 0
76801372 MPI_Allreduce 1
76801485 MPI_Allreduce 0
76801485 MPI_Allreduce 1
76801599 MPI_Allreduce 0
76801599 MPI_Allreduce 1
76801711 MPI_Allreduce 0
76801711 MPI_Allreduce 1
76801824 MPI_Allreduce 0
76801824 MPI_Allreduce 1
76801938 MPI_Allreduce 0
76801938 MPI_Allreduce 1
76802049 MPI_Allreduce 0
76802049 MPI_Allreduce 1
76802162 MPI_Allreduce 0
76802162 MPI_Allreduce 1
76802274 MPI_Allreduce 0
76802274 MPI_Allreduce 1
76802386 MPI_Allreduce 0
76802386 MPI_Allreduce 1
76802499 MPI_Allreduce 0
76802499 MPI_Allreduce 1
76802610 MPI_Allreduce 0
76802610 MPI_Allreduce 1
76802722 MPI_Allreduce 0
76802722 MPI_Allreduce 1
76802833 MPI_Allreduce 0
76802833 MPI_Allreduce 1
76802945 MPI_Allreduce 0
76802945 MPI_Allreduce 1
76803056 MPI_Allreduce 0
76803056 MPI_Allreduce 1
76803168 MPI_Allreduce 0
76803168 MPI_Allreduce 1
76803281 MPI_Allreduce 0
76803281 MPI_Allreduce 1
76803394 MPI_Allreduce 0
76803394 MPI_Allreduce 1
76803508 MPI_Allreduce 0
76803508 MPI_Allreduce 1
76803619 MPI_Allreduce 0
76803619 MPI_Allreduce 1
76803731 MPI_Allreduce 0
76803731 MPI_Allreduce 1
76803844 MPI_Allreduce 0
76803844 MPI_Allreduce 1
76803958 MPI_Allreduce 0
76803958 MPI_Allreduce 1
76804069 MPI_Allreduce 0
76804069 MPI_Allreduce 1
76804181 MPI_Allreduce 0
76804181 MPI_Allreduce 1
76804293 MPI_Allreduce 0
76804293 MPI_Allreduce 1
76804404 MPI_Allreduce 0
76804404 MPI_Allreduce 1
76804517 MPI_Allreduce 0
76804517 MPI_Allreduce 1
76804630 MPI_Allreduce 0
76804630 MPI_Allreduce 1
76804742 MPI_Allreduce 0
76804742 MPI_Allreduce 1
76804853 MPI_Allreduce 0
76804853 MPI_Allreduce 1
76804965 MPI_Allreduce 0
76804965 MPI_Allreduce 1
76805078 MPI_Allreduce 0
76805078 MPI_Allreduce 1
76805190 MPI_Allreduce 0
76805190 MPI_Allreduce 1
76805302 MPI_Allreduce 0
76805302 MPI_Allreduce 1
76805415 MPI_Allreduce 0
76805415 MPI_Allreduce 1
76805527 MPI_Allreduce 0
76805527 MPI_Allreduce 1
76805641 MPI_Allreduce 0
76805641 MPI_Allreduce 1
76805754 MPI_Allreduce 0
76805754 MPI_Allreduce 1
76805865 MPI_Allreduce 0
76805865 MPI_Allreduce 1
76805979 MPI_Allreduce 0
76805979 MPI_Allreduce 1
76806092 MPI_Allreduce 0
76806092 MPI_Allreduce 1
76806204 MPI_Allreduce 0
76806204 MPI_Allreduce 1
76806317 MPI_Allreduce 0
76806317 MPI_Allreduce 1
76806430 MPI_Allreduce 0
76806430 MPI_Allreduce 1
76806542 MPI_Allreduce 0
76806542 MPI_Allreduce 1
76806654 MPI_Allreduce 0
76806654 MPI_Allreduce 1
76806767 MPI_Allreduce 0
76806767 MPI_Allreduce 1
76806880 MPI_Allreduce 0
76806880 MPI_Allreduce 1
76806992 MPI_Allreduce 0
76806992 MPI_Allreduce 1
76807104 MPI_Allreduce 0
76807104 MPI_Allreduce 1
76807217 MPI_Allreduce 0
76807217 MPI_Allreduce 1
76807331 MPI_Allreduce 0
76807331 MPI_Allreduce 1
76807443 MPI_Allreduce 0
76807443 MPI_Allreduce 1
76807555 MPI_Allreduce 0
76807555 MPI_Allreduce 1
76807669 MPI_Allreduce 0
76807669 MPI_Allreduce 1
76807782 MPI_Allreduce 0
76807782 MPI_Allreduce 1
76807894 MPI_Allreduce 0
76807894 MPI_Allreduce 1
76808006 MPI_Allreduce 0
76808006 MPI_Allreduce 1
76808119 MPI_Allreduce 0
76808119 MPI_Allreduce 1
76808230 MPI_Allreduce 0
76808230 MPI_Allreduce 1
76808342 MPI_Allreduce 0
76808342 MPI_Allreduce 1
76808453 MPI_Allreduce 0
76808453 MPI_Allreduce 1
76808565 MPI_Allreduce 0
76808565 MPI_Allreduce 1
76808678 MPI_Allreduce 0
76808678 MPI_Allreduce 1
76808792 MPI_Allreduce 0
76808792 MPI_Allreduce 1
76808905 MPI_Allreduce 0
76808905 MPI_Allreduce 1
76809018 MPI_Allreduce 0
76809018 MPI_Allreduce 1
76809130 MPI_Allreduce 0
76809130 MPI_Allreduce 1
76809243 MPI_Allreduce 0
76809243 MPI_Allreduce 1
76809354 MPI_Allreduce 0
76809354 MPI_Allreduce 1
76809467 MPI_Allreduce 0
76809467 MPI_Allreduce 1
76809579 MPI_Allreduce 0
76809579 MPI_Allreduce 1
76809691 MPI_Allreduce 0
76809691 MPI_Allreduce 1
76809802 MPI_Allreduce 0
76809802 MPI_Allreduce 1
76809914 MPI_Allreduce 0
76809914 MPI_Allreduce 1
76810027 MPI_Allreduce 0
76810027 MPI_Allreduce 1
76810141 MPI_Allreduce 0
76810141 MPI_Allreduce 1
76810252 MPI_Allreduce 0
76810252 MPI_Allreduce 1
76810364 MPI_Allreduce 0
76810364 MPI_Allreduce 1
76810476 MPI_Allreduce 0
76810476 MPI_Allreduce 1
76810588 MPI_Allreduce 0
76810588 MPI_Allreduce 1
76810700 MPI_Allreduce 0
76810700 MPI_Allreduce 1
76810813 MPI_Allreduce 0
76810813 MPI_Allreduce 1
76810926 MPI_Allreduce 0
76810926 MPI_Allreduce 1
76811038 MPI_Allreduce 0
76811038 MPI_Allreduce 1
76811151 MPI_Allreduce 0
76811151 MPI_Allreduce 1
76811264 MPI_Allreduce 0
76811264 MPI_Allreduce 1
76811376 MPI_Allreduce 0
76811376 MPI_Allreduce 1
76811489 MPI_Allreduce 0
76811489 MPI_Allreduce 1
76811603 MPI_Allreduce 0
76811603 MPI_Allreduce 1
76811716 MPI_Allreduce 0
76811716 MPI_Allreduce 1
76811829 MPI_Allreduce 0
76811829 MPI_Allreduce 1
76811941 MPI_Allreduce 0
76811941 MPI_Allreduce 1
76812053 MPI_Allreduce 0
76812053 MPI_Allreduce 1
76812166 MPI_Allreduce 0
76812166 MPI_Allreduce 1
76812279 MPI_Allreduce 0
76812279 MPI_Allreduce 1
76812391 MPI_Allreduce 0
76812391 MPI_Allreduce 1
76812504 MPI_Allreduce 0
76812504 MPI_Allreduce 1
76812618 MPI_Allreduce 0
76812618 MPI_Allreduce 1
76812729 MPI_Allreduce 0
76812729 MPI_Allreduce 1
76812842 MPI_Allreduce 0
76812842 MPI_Allreduce 1
76812953 MPI_Allreduce 0
76812953 MPI_Allreduce 1
76813065 MPI_Allreduce 0
76813065 MPI_Allreduce 1
76813178 MPI_Allreduce 0
76813178 MPI_Allreduce 1
76813292 MPI_Allreduce 0
76813292 MPI_Allreduce 1
76813403 MPI_Allreduce 0
76813403 MPI_Allreduce 1
76813516 MPI_Allreduce 0
76813516 MPI_Allreduce 1
76813630 MPI_Allreduce 0
76813630 MPI_Allreduce 1
76813741 MPI_Allreduce 0
76813741 MPI_Allreduce 1
76813853 MPI_Allreduce 0
76813853 MPI_Allreduce 1
76813965 MPI_Allreduce 0
76813965 MPI_Allreduce 1
76814076 MPI_Allreduce 0
76814076 MPI_Allreduce 1
76814188 MPI_Allreduce 0
76814188 MPI_Allreduce 1
76814300 MPI_Allreduce 0
76814300 MPI_Allreduce 1
76814413 MPI_Allreduce 0
76814413 MPI_Allreduce 1
76814526 MPI_Allreduce 0
76814526 MPI_Allreduce 1
76814638 MPI_Allreduce 0
76814638 MPI_Allreduce 1
76814751 MPI_Allreduce 0
76814751 MPI_Allreduce 1
76814863 MPI_Allreduce 0
76814863 MPI_Allreduce 1
76814975 MPI_Allreduce 0
76814975 MPI_Allreduce 1
76815087 MPI_Allreduce 0
76815087 MPI_Allreduce 1
76815200 MPI_Allreduce 0
76815200 MPI_Allreduce 1
76815311 MPI_Allreduce 0
76815311 MPI_Allreduce 1
76815423 MPI_Allreduce 0
76815423 MPI_Allreduce 1
76815535 MPI_Allreduce 0
76815535 MPI_Allreduce 1
76815648 MPI_Allreduce 0
76815648 MPI_Allreduce 1
76815761 MPI_Allreduce 0
76815761 MPI_Allreduce 1
76815873 MPI_Allreduce 0
76815873 MPI_Allreduce 1
76815985 MPI_Allreduce 0
76815985 MPI_Allreduce 1
76816097 MPI_Allreduce 0
76816097 MPI_Allreduce 1
76816210 MPI_Allreduce 0
76816210 MPI_Allreduce 1
76816323 MPI_Allreduce 0
76816323 MPI_Allreduce 1
76816435 MPI_Allreduce 0
76816435 MPI_Allreduce 1
76816546 MPI_Allreduce 0
76816546 MPI_Allreduce 1
76816660 MPI_Allreduce 0
76816660 MPI_Allreduce 1
76816773 MPI_Allreduce 0
76816773 MPI_Allreduce 1
76816885 MPI_Allreduce 0
76816885 MPI_Allreduce 1
76816998 MPI_Allreduce 0
76816998 MPI_Allreduce 1
76817110 MPI_Allreduce 0
76817110 MPI_Allreduce 1
76817223 MPI_Allreduce 0
76817223 MPI_Allreduce 1
76817336 MPI_Allreduce 0
76817336 MPI_Allreduce 1
76817449 MPI_Allreduce 0
76817449 MPI_Allreduce 1
76817561 MPI_Allreduce 0
76817561 MPI_Allreduce 1
76817674 MPI_Allreduce 0
76817674 MPI_Allreduce 1
76817786 MPI_Allreduce 0
76817786 MPI_Allreduce 1
76817898 MPI_Allreduce 0
76817898 MPI_Allreduce 1
76818010 MPI_Allreduce 0
76818010 MPI_Allreduce 1
76818123 MPI_Allreduce 0
76818123 MPI_Allreduce 1
76818235 MPI_Allreduce 0
76818235 MPI_Allreduce 1
76818348 MPI_Allreduce 0
76818348 MPI_Allreduce 1
76818461 MPI_Allreduce 0
76818461 MPI_Allreduce 1
76818573 MPI_Allreduce 0
76818573 MPI_Allreduce 1
76818686 MPI_Allreduce 0
76818686 MPI_Allreduce 1
76818800 MPI_Allreduce 0
76818800 MPI_Allreduce 1
76818912 MPI_Allreduce 0
76818912 MPI_Allreduce 1
76819025 MPI_Allreduce 0
76819025 MPI_Allreduce 1
76819137 MPI_Allreduce 0
76819137 MPI_Allreduce 1
76819248 MPI_Allreduce 0
76819248 MPI_Allreduce 1
76819360 MPI_Allreduce 0
76819360 MPI_Allreduce 1
76819472 MPI_Allreduce 0
76819472 MPI_Allreduce 1
76819585 MPI_Allreduce 0
76819585 MPI_Allreduce 1
76819698 MPI_Allreduce 0
76819698 MPI_Allreduce 1
76819810 MPI_Allreduce 0
76819810 MPI_Allreduce 1
76819922 MPI_Allreduce 0
76819922 MPI_Allreduce 1
76820034 MPI_Allreduce 0
76820034 MPI_Allreduce 1
76820146 MPI_Allreduce 0
76820146 MPI_Allreduce 1
76820259 MPI_Allreduce 0
76820259 MPI_Allreduce 1
76820371 MPI_Allreduce 0
76820371 MPI_Allreduce 1
76820484 MPI_Allreduce 0
76820484 MPI_Allreduce 1
76820598 MPI_Allreduce 0
76820598 MPI_Allreduce 1
76820709 MPI_Allreduce 0
76820709 MPI_Allreduce 1
76820821 MPI_Allreduce 0
76820821 MPI_Allreduce 1
76820934 MPI_Allreduce 0
76820934 MPI_Allreduce 1
76821048 MPI_Allreduce 0
76821048 MPI_Allreduce 1
76821162 MPI_Allreduce 0
76821162 MPI_Allreduce 1
76821274 MPI_Allreduce 0
76821274 MPI_Allreduce 1
76821386 MPI_Allreduce 0
76821386 MPI_Allreduce 1
76821499 MPI_Allreduce 0
76821499 MPI_Allreduce 1
76821613 MPI_Allreduce 0
76821613 MPI_Allreduce 1
76821724 MPI_Allreduce 0
76821724 MPI_Allreduce 1
76821836 MPI_Allreduce 0
76821836 MPI_Allreduce 1
76821948 MPI_Allreduce 0
76821948 MPI_Allreduce 1
76822061 MPI_Allreduce 0
76822061 MPI_Allreduce 1
76822173 MPI_Allreduce 0
76822173 MPI_Allreduce 1
76822284 MPI_Allreduce 0
76822284 MPI_Allreduce 1
76822398 MPI_Allreduce 0
76822398 MPI_Allreduce 1
76822511 MPI_Allreduce 0
76822511 MPI_Allreduce 1
76822623 MPI_Allreduce 0
76822623 MPI_Allreduce 1
76822735 MPI_Allreduce 0
76822735 MPI_Allreduce 1
76822846 MPI_Allreduce 0
76822846 MPI_Allreduce 1
76822958 MPI_Allreduce 0
76822958 MPI_Allreduce 1
76823070 MPI_Allreduce 0
76823070 MPI_Allreduce 1
76823182 MPI_Allreduce 0
76823182 MPI_Allreduce 1
76823294 MPI_Allreduce 0
76823294 MPI_Allreduce 1
76823406 MPI_Allreduce 0
76823406 MPI_Allreduce 1
76823518 MPI_Allreduce 0
76823518 MPI_Allreduce 1
76823631 MPI_Allreduce 0
76823631 MPI_Allreduce 1
76823744 MPI_Allreduce 0
76823744 MPI_Allreduce 1
76823856 MPI_Allreduce 0
76823856 MPI_Allreduce 1
76823968 MPI_Allreduce 0
76823968 MPI_Allreduce 1
76824080 MPI_Allreduce 0
76824080 MPI_Allreduce 1
76824192 MPI_Allreduce 0
76824192 MPI_Allreduce 1
76824304 MPI_Allreduce 0
76824304 MPI_Allreduce 1
76824417 MPI_Allreduce 0
76824417 MPI_Allreduce 1
76824531 MPI_Allreduce 0
76824531 MPI_Allreduce 1
76824643 MPI_Allreduce 0
76824643 MPI_Allreduce 1
76824755 MPI_Allreduce 0
76824755 MPI_Allreduce 1
76824867 MPI_Allreduce 0
76824867 MPI_Allreduce 1
76824980 MPI_Allreduce 0
76824980 MPI_Allreduce 1
76825093 MPI_Allreduce 0
76825093 MPI_Allreduce 1
76825205 MPI_Allreduce 0
76825205 MPI_Allreduce 1
76825318 MPI_Allreduce 0
76825318 MPI_Allreduce 1
76825432 MPI_Allreduce 0
76825432 MPI_Allreduce 1
76825545 MPI_Allreduce 0
76825545 MPI_Allreduce 1
76825659 MPI_Allreduce 0
76825659 MPI_Allreduce 1
76825770 MPI_Allreduce 0
76825770 MPI_Allreduce 1
76825882 MPI_Allreduce 0
76825882 MPI_Allreduce 1
76825994 MPI_Allreduce 0
76825994 MPI_Allreduce 1
76826106 MPI_Allreduce 0
76826106 MPI_Allreduce 1
76826217 MPI_Allreduce 0
76826217 MPI_Allreduce 1
76826329 MPI_Allreduce 0
76826329 MPI_Allreduce 1
76826441 MPI_Allreduce 0
76826441 MPI_Allreduce 1
76826553 MPI_Allreduce 0
76826553 MPI_Allreduce 1
76826666 MPI_Allreduce 0
76826666 MPI_Allreduce 1
76826780 MPI_Allreduce 0
76826780 MPI_Allreduce 1
76826892 MPI_Allreduce 0
76826892 MPI_Allreduce 1
76827005 MPI_Allreduce 0
76827005 MPI_Allreduce 1
76827116 MPI_Allreduce 0
76827116 MPI_Allreduce 1
76827228 MPI_Allreduce 0
76827228 MPI_Allreduce 1
76827340 MPI_Allreduce 0
76827340 MPI_Allreduce 1
76827453 MPI_Allreduce 0
76827453 MPI_Allreduce 1
76827565 MPI_Allreduce 0
76827565 MPI_Allreduce 1
76827678 MPI_Allreduce 0
76827678 MPI_Allreduce 1
76827792 MPI_Allreduce 0
76827792 MPI_Allreduce 1
76827904 MPI_Allreduce 0
76827904 MPI_Allreduce 1
76828015 MPI_Allreduce 0
76828015 MPI_Allreduce 1
76828127 MPI_Allreduce 0
76828127 MPI_Allreduce 1
76828239 MPI_Allreduce 0
76828239 MPI_Allreduce 1
76828351 MPI_Allreduce 0
76828351 MPI_Allreduce 1
76828464 MPI_Allreduce 0
76828464 MPI_Allreduce 1
76828576 MPI_Allreduce 0
76828576 MPI_Allreduce 1
76828688 MPI_Allreduce 0
76828688 MPI_Allreduce 1
76828800 MPI_Allreduce 0
76828800 MPI_Allreduce 1
76828913 MPI_Allreduce 0
76828913 MPI_Allreduce 1
76829025 MPI_Allreduce 0
76829025 MPI_Allreduce 1
76829136 MPI_Allreduce 0
76829136 MPI_Allreduce 1
76829248 MPI_Allreduce 0
76829248 MPI_Allreduce 1
76829360 MPI_Allreduce 0
76829360 MPI_Allreduce 1
76829472 MPI_Allreduce 0
76829472 MPI_Allreduce 1
76829584 MPI_Allreduce 0
76829584 MPI_Allreduce 1
76829697 MPI_Allreduce 0
76829697 MPI_Allreduce 1
76829811 MPI_Allreduce 0
76829811 MPI_Allreduce 1
76829923 MPI_Allreduce 0
76829923 MPI_Allreduce 1
76830034 MPI_Allreduce 0
76830034 MPI_Allreduce 1
76830147 MPI_Allreduce 0
76830147 MPI_Allreduce 1
76830261 MPI_Allreduce 0
76830261 MPI_Allreduce 1
76830373 MPI_Allreduce 0
76830373 MPI_Allreduce 1
76830485 MPI_Allreduce 0
76830485 MPI_Allreduce 1
76830598 MPI_Allreduce 0
76830598 MPI_Allreduce 1
76830712 MPI_Allreduce 0
76830712 MPI_Allreduce 1
76830824 MPI_Allreduce 0
76830824 MPI_Allreduce 1
76830936 MPI_Allreduce 0
76830936 MPI_Allreduce 1
76831050 MPI_Allreduce 0
76831050 MPI_Allreduce 1
76831163 MPI_Allreduce 0
76831163 MPI_Allreduce 1
76831275 MPI_Allreduce 0
76831275 MPI_Allreduce 1
76831387 MPI_Allreduce 0
76831387 MPI_Allreduce 1
76831499 MPI_Allreduce 0
76831499 MPI_Allreduce 1
76831611 MPI_Allreduce 0
76831611 MPI_Allreduce 1
76831724 MPI_Allreduce 0
76831724 MPI_Allreduce 1
76831838 MPI_Allreduce 0
76831838 MPI_Allreduce 1
76831949 MPI_Allreduce 0
76831949 MPI_Allreduce 1
76832063 MPI_Allreduce 0
76832063 MPI_Allreduce 1
76832176 MPI_Allreduce 0
76832176 MPI_Allreduce 1
76832288 MPI_Allreduce 0
76832288 MPI_Allreduce 1
76832400 MPI_Allreduce 0
76832400 MPI_Allreduce 1
76832513 MPI_Allreduce 0
76832513 MPI_Allreduce 1
76832625 MPI_Allreduce 0
76832625 MPI_Allreduce 1
76832737 MPI_Allreduce 0
76832737 MPI_Allreduce 1
76832848 MPI_Allreduce 0
76832848 MPI_Allreduce 1
76832960 MPI_Allreduce 0
76832960 MPI_Allreduce 1
76833072 MPI_Allreduce 0
76833072 MPI_Allreduce 1
76833184 MPI_Allreduce 0
76833184 MPI_Allreduce 1
76833296 MPI_Allreduce 0
76833296 MPI_Allreduce 1
76833408 MPI_Allreduce 0
76833408 MPI_Allreduce 1
76833521 MPI_Allreduce 0
76833521 MPI_Allreduce 1
76833635 MPI_Allreduce 0
76833635 MPI_Allreduce 1
76833747 MPI_Allreduce 0
76833747 MPI_Allreduce 1
76833860 MPI_Allreduce 0
76833860 MPI_Allreduce 1
76833972 MPI_Allreduce 0
76833972 MPI_Allreduce 1
76834084 MPI_Allreduce 0
76834084 MPI_Allreduce 1
76834196 MPI_Allreduce 0
76834196 MPI_Allreduce 1
76834309 MPI_Allreduce 0
76834309 MPI_Allreduce 1
76834420 MPI_Allreduce 0
76834420 MPI_Allreduce 1
76834534 MPI_Allreduce 0
76834534 MPI_Allreduce 1
76834647 MPI_Allreduce 0
76834647 MPI_Allreduce 1
76834759 MPI_Allreduce 0
76834759 MPI_Allreduce 1
76834871 MPI_Allreduce 0
76834871 MPI_Allreduce 1
76834983 MPI_Allreduce 0
76834983 MPI_Allreduce 1
76835095 MPI_Allreduce 0
76835095 MPI_Allreduce 1
76835207 MPI_Allreduce 0
76835207 MPI_Allreduce 1
76835319 MPI_Allreduce 0
76835319 MPI_Allreduce 1
76835432 MPI_Allreduce 0
76835432 MPI_Allreduce 1
76835544 MPI_Allreduce 0
76835544 MPI_Allreduce 1
76835655 MPI_Allreduce 0
76835655 MPI_Allreduce 1
76835767 MPI_Allreduce 0
76835767 MPI_Allreduce 1
76835880 MPI_Allreduce 0
76835880 MPI_Allreduce 1
76835993 MPI_Allreduce 0
76835993 MPI_Allreduce 1
76836107 MPI_Allreduce 0
76836107 MPI_Allreduce 1
76836219 MPI_Allreduce 0
76836219 MPI_Allreduce 1
76836332 MPI_Allreduce 0
76836332 MPI_Allreduce 1
76836446 MPI_Allreduce 0
76836446 MPI_Allreduce 1
76836558 MPI_Allreduce 0
76836558 MPI_Allreduce 1
76836670 MPI_Allreduce 0
76836670 MPI_Allreduce 1
76836782 MPI_Allreduce 0
76836782 MPI_Allreduce 1
76836894 MPI_Allreduce 0
76836894 MPI_Allreduce 1
76837006 MPI_Allreduce 0
76837006 MPI_Allreduce 1
76837119 MPI_Allreduce 0
76837119 MPI_Allreduce 1
76837230 MPI_Allreduce 0
76837230 MPI_Allreduce 1
76837342 MPI_Allreduce 0
76837342 MPI_Allreduce 1
76837454 MPI_Allreduce 0
76837454 MPI_Allreduce 1
76837566 MPI_Allreduce 0
76837566 MPI_Allreduce 1
76837678 MPI_Allreduce 0
76837678 MPI_Allreduce 1
76837790 MPI_Allreduce 0
76837790 MPI_Allreduce 1
76837902 MPI_Allreduce 0
76837902 MPI_Allreduce 1
76838015 MPI_Allreduce 0
76838015 MPI_Allreduce 1
76838129 MPI_Allreduce 0
76838129 MPI_Allreduce 1
76838240 MPI_Allreduce 0
76838240 MPI_Allreduce 1
76838352 MPI_Allreduce 0
76838352 MPI_Allreduce 1
76838464 MPI_Allreduce 0
76838464 MPI_Allreduce 1
76838576 MPI_Allreduce 0
76838576 MPI_Allreduce 1
76838688 MPI_Allreduce 0
76838688 MPI_Allreduce 1
76838800 MPI_Allreduce 0
76838800 MPI_Allreduce 1
76838912 MPI_Allreduce 0
76838912 MPI_Allreduce 1
76839024 MPI_Allreduce 0
76839024 MPI_Allreduce 1
76839135 MPI_Allreduce 0
76839135 MPI_Allreduce 1
76839247 MPI_Allreduce 0
76839247 MPI_Allreduce 1
76839359 MPI_Allreduce 0
76839359 MPI_Allreduce 1
76839471 MPI_Allreduce 0
76839471 MPI_Allreduce 1
76839583 MPI_Allreduce 0
76839583 MPI_Allreduce 1
76839695 MPI_Allreduce 0
76839695 MPI_Allreduce 1
76839806 MPI_Allreduce 0
76839806 MPI_Allreduce 1
76839918 MPI_Allreduce 0
76839918 MPI_Allreduce 1
76840030 MPI_Allreduce 0
76840030 MPI_Allreduce 1
76840142 MPI_Allreduce 0
76840142 MPI_Allreduce 1
76840254 MPI_Allreduce 0
76840254 MPI_Allreduce 1
76840366 MPI_Allreduce 0
76840366 MPI_Allreduce 1
76840478 MPI_Allreduce 0
76840478 MPI_Allreduce 1
76840590 MPI_Allreduce 0
76840590 MPI_Allreduce 1
76840702 MPI_Allreduce 0
76840702 MPI_Allreduce 1
76840814 MPI_Allreduce 0
76840814 MPI_Allreduce 1
76840928 MPI_Allreduce 0
76840928 MPI_Allreduce 1
76841041 MPI_Allreduce 0
76841041 MPI_Allreduce 1
76841153 MPI_Allreduce 0
76841153 MPI_Allreduce 1
76841266 MPI_Allreduce 0
76841266 MPI_Allreduce 1
76841380 MPI_Allreduce 0
76841380 MPI_Allreduce 1
76841492 MPI_Allreduce 0
76841492 MPI_Allreduce 1
76841604 MPI_Allreduce 0
76841604 MPI_Allreduce 1
76841716 MPI_Allreduce 0
76841716 MPI_Allreduce 1
76841828 MPI_Allreduce 0
76841828 MPI_Allreduce 1
76841940 MPI_Allreduce 0
76841940 MPI_Allreduce 1
76842052 MPI_Allreduce 0
76842052 MPI_Allreduce 1
76842165 MPI_Allreduce 0
76842165 MPI_Allreduce 1
76842279 MPI_Allreduce 0
76842279 MPI_Allreduce 1
76842392 MPI_Allreduce 0
76842392 MPI_Allreduce 1
76842505 MPI_Allreduce 0
76842505 MPI_Allreduce 1
76842619 MPI_Allreduce 0
76842619 MPI_Allreduce 1
76842731 MPI_Allreduce 0
76842731 MPI_Allreduce 1
76842844 MPI_Allreduce 0
76842844 MPI_Allreduce 1
76842958 MPI_Allreduce 0
76842958 MPI_Allreduce 1
76843070 MPI_Allreduce 0
76843070 MPI_Allreduce 1
76843182 MPI_Allreduce 0
76843182 MPI_Allreduce 1
76843294 MPI_Allreduce 0
76843294 MPI_Allreduce 1
76843407 MPI_Allreduce 0
76843407 MPI_Allreduce 1
76843520 MPI_Allreduce 0
76843520 MPI_Allreduce 1
76843634 MPI_Allreduce 0
76843634 MPI_Allreduce 1
76843746 MPI_Allreduce 0
76843746 MPI_Allreduce 1
76843859 MPI_Allreduce 0
76843859 MPI_Allreduce 1
76843973 MPI_Allreduce 0
76843973 MPI_Allreduce 1
76844087 MPI_Allreduce 0
76844087 MPI_Allreduce 1
76844198 MPI_Allreduce 0
76844199 MPI_Allreduce 1
76844310 MPI_Allreduce 0
76844310 MPI_Allreduce 1
76844422 MPI_Allreduce 0
76844422 MPI_Allreduce 1
76844534 MPI_Allreduce 0
76844534 MPI_Allreduce 1
76844646 MPI_Allreduce 0
76844646 MPI_Allreduce 1
76844760 MPI_Allreduce 0
76844760 MPI_Allreduce 1
76844873 MPI_Allreduce 0
76844873 MPI_Allreduce 1
76844987 MPI_Allreduce 0
76844987 MPI_Allreduce 1
76845101 MPI_Allreduce 0
76845101 MPI_Allreduce 1
76845213 MPI_Allreduce 0
76845213 MPI_Allreduce 1
76845326 MPI_Allreduce 0
76845326 MPI_Allreduce 1
76845440 MPI_Allreduce 0
76845440 MPI_Allreduce 1
76845552 MPI_Allreduce 0
76845552 MPI_Allreduce 1
76845664 MPI_Allreduce 0
76845664 MPI_Allreduce 1
76845776 MPI_Allreduce 0
76845776 MPI_Allreduce 1
76845888 MPI_Allreduce 0
76845888 MPI_Allreduce 1
76846000 MPI_Allreduce 0
76846000 MPI_Allreduce 1
76846113 MPI_Allreduce 0
76846113 MPI_Allreduce 1
76846225 MPI_Allreduce 0
76846225 MPI_Allreduce 1
76846337 MPI_Allreduce 0
76846337 MPI_Allreduce 1
76846449 MPI_Allreduce 0
76846449 MPI_Allreduce 1
76846561 MPI_Allreduce 0
76846561 MPI_Allreduce 1
76846673 MPI_Allreduce 0
76846673 MPI_Allreduce 1
76846785 MPI_Allreduce 0
76846785 MPI_Allreduce 1
76846897 MPI_Allreduce 0
76846897 MPI_Allreduce 1
76847010 MPI_Allreduce 0
76847010 MPI_Allreduce 1
76847123 MPI_Allreduce 0
76847123 MPI_Allreduce 1
76847235 MPI_Allreduce 0
76847235 MPI_Allreduce 1
76847347 MPI_Allreduce 0
76847347 MPI_Allreduce 1
76847459 MPI_Allreduce 0
76847459 MPI_Allreduce 1
76847572 MPI_Allreduce 0
76847572 MPI_Allreduce 1
76847686 MPI_Allreduce 0
76847686 MPI_Allreduce 1
76847798 MPI_Allreduce 0
76847798 MPI_Allreduce 1
76847910 MPI_Allreduce 0
76847910 MPI_Allreduce 1
76848022 MPI_Allreduce 0
76848022 MPI_Allreduce 1
76848134 MPI_Allreduce 0
76848134 MPI_Allreduce 1
76848247 MPI_Allreduce 0
76848247 MPI_Allreduce 1
76848360 MPI_Allreduce 0
76848360 MPI_Allreduce 1
76848474 MPI_Allreduce 0
76848474 MPI_Allreduce 1
76848586 MPI_Allreduce 0
76848586 MPI_Allreduce 1
76848699 MPI_Allreduce 0
76848699 MPI_Allreduce 1
76848813 MPI_Allreduce 0
76848813 MPI_Allreduce 1
76848925 MPI_Allreduce 0
76848925 MPI_Allreduce 1
76849038 MPI_Allreduce 0
76849038 MPI_Allreduce 1
76849152 MPI_Allreduce 0
76849152 MPI_Allreduce 1
76849264 MPI_Allreduce 0
76849264 MPI_Allreduce 1
76849376 MPI_Allreduce 0
76849376 MPI_Allreduce 1
76849488 MPI_Allreduce 0
76849488 MPI_Allreduce 1
76849600 MPI_Allreduce 0
76849600 MPI_Allreduce 1
76849712 MPI_Allreduce 0
76849712 MPI_Allreduce 1
76849824 MPI_Allreduce 0
76849824 MPI_Allreduce 1
76849936 MPI_Allreduce 0
76849936 MPI_Allreduce 1
76850047 MPI_Allreduce 0
76850048 MPI_Allreduce 1
76850159 MPI_Allreduce 0
76850159 MPI_Allreduce 1
76850271 MPI_Allreduce 0
76850271 MPI_Allreduce 1
76850385 MPI_Allreduce 0
76850385 MPI_Allreduce 1
76850498 MPI_Allreduce 0
76850498 MPI_Allreduce 1
76850610 MPI_Allreduce 0
76850610 MPI_Allreduce 1
76850722 MPI_Allreduce 0
76850722 MPI_Allreduce 1
76850833 MPI_Allreduce 0
76850833 MPI_Allreduce 1
76850945 MPI_Allreduce 0
76850945 MPI_Allreduce 1
76851057 MPI_Allreduce 0
76851057 MPI_Allreduce 1
76851169 MPI_Allreduce 0
76851169 MPI_Allreduce 1
76851282 MPI_Allreduce 0
76851282 MPI_Allreduce 1
76851394 MPI_Allreduce 0
76851394 MPI_Allreduce 1
76851505 MPI_Allreduce 0
76851505 MPI_Allreduce 1
76851618 MPI_Allreduce 0
76851618 MPI_Allreduce 1
76851729 MPI_Allreduce 0
76851729 MPI_Allreduce 1
76851841 MPI_Allreduce 0
76851841 MPI_Allreduce 1
76851953 MPI_Allreduce 0
76851953 MPI_Allreduce 1
76852065 MPI_Allreduce 0
76852065 MPI_Allreduce 1
76852178 MPI_Allreduce 0
76852178 MPI_Allreduce 1
76852292 MPI_Allreduce 0
76852292 MPI_Allreduce 1
76852406 MPI_Allreduce 0
76852406 MPI_Allreduce 1
76852517 MPI_Allreduce 0
76852517 MPI_Allreduce 1
76852631 MPI_Allreduce 0
76852631 MPI_Allreduce 1
76852744 MPI_Allreduce 0
76852744 MPI_Allreduce 1
76852857 MPI_Allreduce 0
76852857 MPI_Allreduce 1
76852968 MPI_Allreduce 0
76852968 MPI_Allreduce 1
76853081 MPI_Allreduce 0
76853081 MPI_Allreduce 1
76853194 MPI_Allreduce 0
76853194 MPI_Allreduce 1
76853308 MPI_Allreduce 0
76853308 MPI_Allreduce 1
76853420 MPI_Allreduce 0
76853420 MPI_Allreduce 1
76853532 MPI_Allreduce 0
76853532 MPI_Allreduce 1
76853644 MPI_Allreduce 0
76853644 MPI_Allreduce 1
76853757 MPI_Allreduce 0
76853757 MPI_Allreduce 1
76853871 MPI_Allreduce 0
76853871 MPI_Allreduce 1
76853983 MPI_Allreduce 0
76853983 MPI_Allreduce 1
76854097 MPI_Allreduce 0
76854097 MPI_Allreduce 1
76854211 MPI_Allreduce 0
76854211 MPI_Allreduce 1
76854324 MPI_Allreduce 0
76854324 MPI_Allreduce 1
76854438 MPI_Allreduce 0
76854438 MPI_Allreduce 1
76854550 MPI_Allreduce 0
76854550 MPI_Allreduce 1
76854663 MPI_Allreduce 0
76854663 MPI_Allreduce 1
76854777 MPI_Allreduce 0
76854777 MPI_Allreduce 1
76854890 MPI_Allreduce 0
76854890 MPI_Allreduce 1
76855003 MPI_Allreduce 0
76855003 MPI_Allreduce 1
76855115 MPI_Allreduce 0
76855115 MPI_Allreduce 1
76855227 MPI_Allreduce 0
76855227 MPI_Allreduce 1
76855339 MPI_Allreduce 0
76855339 MPI_Allreduce 1
76855451 MPI_Allreduce 0
76855451 MPI_Allreduce 1
76855564 MPI_Allreduce 0
76855564 MPI_Allreduce 1
76855676 MPI_Allreduce 0
76855676 MPI_Allreduce 1
76855788 MPI_Allreduce 0
76855788 MPI_Allreduce 1
76855901 MPI_Allreduce 0
76855901 MPI_Allreduce 1
76856013 MPI_Allreduce 0
76856013 MPI_Allreduce 1
76856124 MPI_Allreduce 0
76856124 MPI_Allreduce 1
76856236 MPI_Allreduce 0
76856236 MPI_Allreduce 1
76856348 MPI_Allreduce 0
76856348 MPI_Allreduce 1
76856460 MPI_Allreduce 0
76856460 MPI_Allreduce 1
76856572 MPI_Allreduce 0
76856572 MPI_Allreduce 1
76856684 MPI_Allreduce 0
76856684 MPI_Allreduce 1
76856796 MPI_Allreduce 0
76856796 MPI_Allreduce 1
76856908 MPI_Allreduce 0
76856908 MPI_Allreduce 1
76857020 MPI_Allreduce 0
76857020 MPI_Allreduce 1
76857132 MPI_Allreduce 0
76857132 MPI_Allreduce 1
76857245 MPI_Allreduce 0
76857245 MPI_Allreduce 1
76857358 MPI_Allreduce 0
76857358 MPI_Allreduce 1
76857472 MPI_Allreduce 0
76857472 MPI_Allreduce 1
76857584 MPI_Allreduce 0
76857584 MPI_Allreduce 1
76857698 MPI_Allreduce 0
76857698 MPI_Allreduce 1
76857812 MPI_Allreduce 0
76857812 MPI_Allreduce 1
76857924 MPI_Allreduce 0
76857924 MPI_Allreduce 1
76858037 MPI_Allreduce 0
76858037 MPI_Allreduce 1
76858151 MPI_Allreduce 0
76858151 MPI_Allreduce 1
76858263 MPI_Allreduce 0
76858263 MPI_Allreduce 1
76858375 MPI_Allreduce 0
76858375 MPI_Allreduce 1
76858489 MPI_Allreduce 0
76858489 MPI_Allreduce 1
76858603 MPI_Allreduce 0
76858603 MPI_Allreduce 1
76858715 MPI_Allreduce 0
76858715 MPI_Allreduce 1
76858828 MPI_Allreduce 0
76858828 MPI_Allreduce 1
76858942 MPI_Allreduce 0
76858942 MPI_Allreduce 1
76859054 MPI_Allreduce 0
76859054 MPI_Allreduce 1
76859166 MPI_Allreduce 0
76859166 MPI_Allreduce 1
76859279 MPI_Allreduce 0
76859279 MPI_Allreduce 1
76859392 MPI_Allreduce 0
76859392 MPI_Allreduce 1
76859506 MPI_Allreduce 0
76859506 MPI_Allreduce 1
76859618 MPI_Allreduce 0
76859618 MPI_Allreduce 1
76859732 MPI_Allreduce 0
76859732 MPI_Allreduce 1
76859846 MPI_Allreduce 0
76859846 MPI_Allreduce 1
76859957 MPI_Allreduce 0
76859957 MPI_Allreduce 1
76860071 MPI_Allreduce 0
76860071 MPI_Allreduce 1
76860182 MPI_Allreduce 0
76860182 MPI_Allreduce 1
76860294 MPI_Allreduce 0
76860294 MPI_Allreduce 1
76860406 MPI_Allreduce 0
76860406 MPI_Allreduce 1
76860518 MPI_Allreduce 0
76860518 MPI_Allreduce 1
76860632 MPI_Allreduce 0
76860632 MPI_Allreduce 1
76860745 MPI_Allreduce 0
76860745 MPI_Allreduce 1
76860857 MPI_Allreduce 0
76860857 MPI_Allreduce 1
76860970 MPI_Allreduce 0
76860970 MPI_Allreduce 1
76861084 MPI_Allreduce 0
76861084 MPI_Allreduce 1
76861196 MPI_Allreduce 0
76861196 MPI_Allreduce 1
76861310 MPI_Allreduce 0
76861310 MPI_Allreduce 1
76861423 MPI_Allreduce 0
76861423 MPI_Allreduce 1
76861535 MPI_Allreduce 0
76861535 MPI_Allreduce 1
76861648 MPI_Allreduce 0
76861648 MPI_Allreduce 1
76861762 MPI_Allreduce 0
76861762 MPI_Allreduce 1
76861874 MPI_Allreduce 0
76861874 MPI_Allreduce 1
76861986 MPI_Allreduce 0
76861986 MPI_Allreduce 1
76862098 MPI_Allreduce 0
76862098 MPI_Allreduce 1
76862211 MPI_Allreduce 0
76862211 MPI_Allreduce 1
76862324 MPI_Allreduce 0
76862324 MPI_Allreduce 1
76862439 MPI_Allreduce 0
76862439 MPI_Allreduce 1
76862551 MPI_Allreduce 0
76862551 MPI_Allreduce 1
76862662 MPI_Allreduce 0
76862662 MPI_Allreduce 1
76862774 MPI_Allreduce 0
76862774 MPI_Allreduce 1
76862886 MPI_Allreduce 0
76862886 MPI_Allreduce 1
76862998 MPI_Allreduce 0
76862998 MPI_Allreduce 1
76863110 MPI_Allreduce 0
76863110 MPI_Allreduce 1
76863222 MPI_Allreduce 0
76863222 MPI_Allreduce 1
76863334 MPI_Allreduce 0
76863334 MPI_Allreduce 1
76863446 MPI_Allreduce 0
76863446 MPI_Allreduce 1
76863559 MPI_Allreduce 0
76863559 MPI_Allreduce 1
76863672 MPI_Allreduce 0
76863672 MPI_Allreduce 1
76863786 MPI_Allreduce 0
76863786 MPI_Allreduce 1
76863898 MPI_Allreduce 0
76863898 MPI_Allreduce 1
76864011 MPI_Allreduce 0
76864011 MPI_Allreduce 1
76864126 MPI_Allreduce 0
76864126 MPI_Allreduce 1
76864237 MPI_Allreduce 0
76864237 MPI_Allreduce 1
76864349 MPI_Allreduce 0
76864349 MPI_Allreduce 1
76864461 MPI_Allreduce 0
76864461 MPI_Allreduce 1
76864573 MPI_Allreduce 0
76864573 MPI_Allreduce 1
76864685 MPI_Allreduce 0
76864685 MPI_Allreduce 1
76864797 MPI_Allreduce 0
76864797 MPI_Allreduce 1
76864909 MPI_Allreduce 0
76864909 MPI_Allreduce 1
76865021 MPI_Allreduce 0
76865021 MPI_Allreduce 1
76865132 MPI_Allreduce 0
76865132 MPI_Allreduce 1
76865244 MPI_Allreduce 0
76865244 MPI_Allreduce 1
76865356 MPI_Allreduce 0
76865356 MPI_Allreduce 1
76865468 MPI_Allreduce 0
76865468 MPI_Allreduce 1
76865580 MPI_Allreduce 0
76865580 MPI_Allreduce 1
76865692 MPI_Allreduce 0
76865692 MPI_Allreduce 1
76865804 MPI_Allreduce 0
76865805 MPI_Allreduce 1
76865917 MPI_Allreduce 0
76865917 MPI_Allreduce 1
76866029 MPI_Allreduce 0
76866029 MPI_Allreduce 1
76866141 MPI_Allreduce 0
76866141 MPI_Allreduce 1
76866254 MPI_Allreduce 0
76866254 MPI_Allreduce 1
76866368 MPI_Allreduce 0
76866368 MPI_Allreduce 1
76866480 MPI_Allreduce 0
76866480 MPI_Allreduce 1
76866592 MPI_Allreduce 0
76866592 MPI_Allreduce 1
76866704 MPI_Allreduce 0
76866704 MPI_Allreduce 1
76866816 MPI_Allreduce 0
76866816 MPI_Allreduce 1
76866928 MPI_Allreduce 0
76866928 MPI_Allreduce 1
76867040 MPI_Allreduce 0
76867040 MPI_Allreduce 1
76867152 MPI_Allreduce 0
76867152 MPI_Allreduce 1
76867265 MPI_Allreduce 0
76867265 MPI_Allreduce 1
76867378 MPI_Allreduce 0
76867378 MPI_Allreduce 1
76867490 MPI_Allreduce 0
76867490 MPI_Allreduce 1
76867602 MPI_Allreduce 0
76867602 MPI_Allreduce 1
76867714 MPI_Allreduce 0
76867714 MPI_Allreduce 1
76867826 MPI_Allreduce 0
76867826 MPI_Allreduce 1
76867938 MPI_Allreduce 0
76867938 MPI_Allreduce 1
76868050 MPI_Allreduce 0
76868050 MPI_Allreduce 1
76868164 MPI_Allreduce 0
76868164 MPI_Allreduce 1
76868278 MPI_Allreduce 0
76868278 MPI_Allreduce 1
76868390 MPI_Allreduce 0
76868390 MPI_Allreduce 1
76868502 MPI_Allreduce 0
76868502 MPI_Allreduce 1
76868614 MPI_Allreduce 0
76868614 MPI_Allreduce 1
76868726 MPI_Allreduce 0
76868726 MPI_Allreduce 1
76868838 MPI_Allreduce 0
76868838 MPI_Allreduce 1
76868950 MPI_Allreduce 0
76868950 MPI_Allreduce 1
76869064 MPI_Allreduce 0
76869064 MPI_Allreduce 1
76869178 MPI_Allreduce 0
76869178 MPI_Allreduce 1
76869290 MPI_Allreduce 0
76869290 MPI_Allreduce 1
76869402 MPI_Allreduce 0
76869402 MPI_Allreduce 1
76869514 MPI_Allreduce 0
76869514 MPI_Allreduce 1
76869626 MPI_Allreduce 0
76869626 MPI_Allreduce 1
76869738 MPI_Allreduce 0
76869738 MPI_Allreduce 1
76869850 MPI_Allreduce 0
76869850 MPI_Allreduce 1
76869962 MPI_Allreduce 0
76869962 MPI_Allreduce 1
76870074 MPI_Allreduce 0
76870074 MPI_Allreduce 1
76870186 MPI_Allreduce 0
76870186 MPI_Allreduce 1
76870298 MPI_Allreduce 0
76870298 MPI_Allreduce 1
76870411 MPI_Allreduce 0
76870411 MPI_Allreduce 1
76870523 MPI_Allreduce 0
76870523 MPI_Allreduce 1
76870635 MPI_Allreduce 0
76870635 MPI_Allreduce 1
76870747 MPI_Allreduce 0
76870747 MPI_Allreduce 1
76870859 MPI_Allreduce 0
76870859 MPI_Allreduce 1
76870973 MPI_Allreduce 0
76870973 MPI_Allreduce 1
76871087 MPI_Allreduce 0
76871087 MPI_Allreduce 1
76871199 MPI_Allreduce 0
76871199 MPI_Allreduce 1
76871312 MPI_Allreduce 0
76871312 MPI_Allreduce 1
76871426 MPI_Allreduce 0
76871426 MPI_Allreduce 1
76871539 MPI_Allreduce 0
76871539 MPI_Allreduce 1
76871653 MPI_Allreduce 0
76871653 MPI_Allreduce 1
76871765 MPI_Allreduce 0
76871765 MPI_Allreduce 1
76871878 MPI_Allreduce 0
76871878 MPI_Allreduce 1
76871992 MPI_Allreduce 0
76871992 MPI_Allreduce 1
76872104 MPI_Allreduce 0
76872104 MPI_Allreduce 1
76872218 MPI_Allreduce 0
76872218 MPI_Allreduce 1
76872332 MPI_Allreduce 0
76872332 MPI_Allreduce 1
76872444 MPI_Allreduce 0
76872444 MPI_Allreduce 1
76872557 MPI_Allreduce 0
76872557 MPI_Allreduce 1
76872669 MPI_Allreduce 0
76872669 MPI_Allreduce 1
76872781 MPI_Allreduce 0
76872781 MPI_Allreduce 1
76872893 MPI_Allreduce 0
76872893 MPI_Allreduce 1
76873005 MPI_Allreduce 0
76873005 MPI_Allreduce 1
76873118 MPI_Allreduce 0
76873118 MPI_Allreduce 1
76873232 MPI_Allreduce 0
76873232 MPI_Allreduce 1
76873344 MPI_Allreduce 0
76873344 MPI_Allreduce 1
76873457 MPI_Allreduce 0
76873457 MPI_Allreduce 1
76873571 MPI_Allreduce 0
76873571 MPI_Allreduce 1
76873684 MPI_Allreduce 0
76873684 MPI_Allreduce 1
76873797 MPI_Allreduce 0
76873797 MPI_Allreduce 1
76873909 MPI_Allreduce 0
76873909 MPI_Allreduce 1
76874021 MPI_Allreduce 0
76874021 MPI_Allreduce 1
76874133 MPI_Allreduce 0
76874133 MPI_Allreduce 1
76874245 MPI_Allreduce 0
76874245 MPI_Allreduce 1
76874357 MPI_Allreduce 0
76874357 MPI_Allreduce 1
76874470 MPI_Allreduce 0
76874470 MPI_Allreduce 1
76874582 MPI_Allreduce 0
76874582 MPI_Allreduce 1
76874695 MPI_Allreduce 0
76874695 MPI_Allreduce 1
76874809 MPI_Allreduce 0
76874809 MPI_Allreduce 1
76874921 MPI_Allreduce 0
76874921 MPI_Allreduce 1
76875033 MPI_Allreduce 0
76875033 MPI_Allreduce 1
76875145 MPI_Allreduce 0
76875145 MPI_Allreduce 1
76875257 MPI_Allreduce 0
76875257 MPI_Allreduce 1
76875370 MPI_Allreduce 0
76875370 MPI_Allreduce 1
76875482 MPI_Allreduce 0
76875482 MPI_Allreduce 1
76875595 MPI_Allreduce 0
76875595 MPI_Allreduce 1
76875709 MPI_Allreduce 0
76875709 MPI_Allreduce 1
76875821 MPI_Allreduce 0
76875821 MPI_Allreduce 1
76875935 MPI_Reduce 0
76875935 MPI_Reduce 1
