------------
Profiler Configuration
output path: /home/tc/pwr2018_data/output_graph500_proc1/cap_12-5/profiler-3
monitoring frequency: 100000000 nano seconds
------------
SCALE:                          20
edgefactor:                     16
NBFS:                           64
graph_generation:               6.44664
num_mpi_processes:              1
construction_time:              1.03867
bfs  min_time:                  0.257823
bfs  firstquartile_time:        0.260066
bfs  median_time:               0.260118
bfs  thirdquartile_time:        0.260156
bfs  max_time:                  0.260321
bfs  mean_time:                 0.26008
bfs  stddev_time:               0.000293631
min_nedge:                      16775818
firstquartile_nedge:            16775818
median_nedge:                   16775818
thirdquartile_nedge:            16775818
max_nedge:                      16775818
mean_nedge:                     16775818
stddev_nedge:                   0
bfs  min_TEPS:                  6.44429e+07
bfs  firstquartile_TEPS:        6.44836e+07
bfs  median_TEPS:               6.44931e+07
bfs  thirdquartile_TEPS:        6.4506e+07
bfs  max_TEPS:                  6.50672e+07
bfs  harmonic_mean_TEPS:     !  6.45026e+07
bfs  harmonic_stddev_TEPS:      9174.9
bfs  min_validate:              1.58907
bfs  firstquartile_validate:    1.59118
bfs  median_validate:           1.59488
bfs  thirdquartile_validate:    1.59788
bfs  max_validate:              1.60011
bfs  mean_validate:             1.59446
bfs  stddev_validate:           0.00354955
