------------
Profiler Configuration
output path: /home/tc/pwr2018_data/output_fixed/graph500_proc1/cap_15/nowrapper-1
monitoring frequency: 100000000 nano seconds
------------
SCALE:                          20
edgefactor:                     16
NBFS:                           64
graph_generation:               6.44228
num_mpi_processes:              1
construction_time:              1.03647
bfs  min_time:                  0.261832
bfs  firstquartile_time:        0.261935
bfs  median_time:               0.261985
bfs  thirdquartile_time:        0.262033
bfs  max_time:                  0.262158
bfs  mean_time:                 0.261986
bfs  stddev_time:               7.55657e-05
min_nedge:                      16775818
firstquartile_nedge:            16775818
median_nedge:                   16775818
thirdquartile_nedge:            16775818
max_nedge:                      16775818
mean_nedge:                     16775818
stddev_nedge:                   0
bfs  min_TEPS:                  6.39913e+07
bfs  firstquartile_TEPS:        6.40217e+07
bfs  median_TEPS:               6.40335e+07
bfs  thirdquartile_TEPS:        6.40458e+07
bfs  max_TEPS:                  6.4071e+07
bfs  harmonic_mean_TEPS:     !  6.40333e+07
bfs  harmonic_stddev_TEPS:      2326.92
bfs  min_validate:              1.59635
bfs  firstquartile_validate:    1.5989
bfs  median_validate:           1.60266
bfs  thirdquartile_validate:    1.60543
bfs  max_validate:              1.6072
bfs  mean_validate:             1.6021
bfs  stddev_validate:           0.00348745
