time(ms) energy(J) hostname
273780258 0.000000 box
273780358 0.998169 box
273780458 0.998230 box
273780558 0.997314 box
273780658 0.995544 box
273780758 0.996094 box
273780858 0.996277 box
273780958 0.996460 box
273781058 0.995728 box
273781157 0.996399 box
273781258 0.996948 box
273781358 0.995056 box
273781458 0.996277 box
273781558 0.996765 box
273781658 0.994690 box
273781758 0.996399 box
273781857 0.995422 box
273781958 0.995239 box
273782058 0.998474 box
273782158 0.997070 box
273782258 0.994873 box
273782358 0.995300 box
273782458 0.995239 box
273782558 0.995667 box
273782658 0.995911 box
273782758 0.998840 box
273782858 0.997131 box
273782958 0.992676 box
273783058 0.998169 box
273783158 0.995972 box
273783257 0.994873 box
273783358 0.997803 box
273783458 0.996582 box
273783558 0.996399 box
273783658 0.993103 box
273783758 0.995728 box
273783858 0.998657 box
273783958 0.994263 box
273784058 0.998169 box
273784158 0.997009 box
273784258 0.996704 box
273784358 0.996155 box
273784458 0.995605 box
273784558 0.995605 box
273784657 0.995605 box
273784757 0.996948 box
273784858 0.995850 box
273784958 0.996399 box
273785058 0.997498 box
273785158 0.995178 box
273785258 0.994934 box
273785358 0.996826 box
273785458 0.995850 box
273785558 0.995483 box
273785658 0.997986 box
273785758 0.998047 box
273785858 0.994995 box
273785958 0.994751 box
273786058 0.996338 box
273786158 0.995789 box
273786258 0.994873 box
273786358 0.999817 box
273786457 0.996582 box
273786558 0.993408 box
273786658 0.997742 box
273786758 0.995300 box
273786858 0.994690 box
273786958 0.997559 box
273787058 0.997009 box
273787158 0.995300 box
273787258 0.995056 box
273787358 0.994934 box
273787458 0.997803 box
273787558 0.994263 box
273787658 0.998474 box
273787758 0.997803 box
273787858 0.995972 box
273787958 0.995361 box
273788058 0.996582 box
273788158 0.995605 box
273788257 0.993835 box
273788357 0.997192 box
273788458 0.996338 box
273788558 0.996826 box
273788658 0.996399 box
273788758 0.996094 box
273788858 0.996582 box
273788958 0.996704 box
273789058 0.995483 box
273789158 0.994751 box
273789258 0.998413 box
273789358 0.999023 box
273789458 0.993958 box
273789558 0.996887 box
273789658 0.995789 box
273789758 0.994934 box
273789858 0.994934 box
273789957 0.999207 box
273790057 0.995667 box
273790158 0.993774 box
273790258 0.998108 box
273790358 0.995789 box
273790457 0.995605 box
273790557 0.997192 box
273790658 0.997375 box
273790758 0.996582 box
273790858 0.994141 box
273790958 0.995972 box
273791058 0.997559 box
273791158 0.995117 box
273791257 0.997498 box
273791358 0.996887 box
273791458 0.996094 box
273791558 0.995850 box
273791658 0.996582 box
273791758 0.995605 box
273791858 0.995667 box
273791958 0.997620 box
273792058 0.996643 box
273792158 0.996582 box
273792258 0.995667 box
273792358 0.996338 box
273792458 0.995789 box
273792558 0.995789 box
273792657 0.996033 box
273792758 0.995056 box
273792858 0.998108 box
273792958 0.997131 box
273793058 0.995300 box
273793158 0.995117 box
273793258 0.995911 box
273793358 0.994934 box
273793458 0.995239 box
273793558 0.999512 box
273793658 0.997314 box
273793758 0.992920 box
273793858 0.997131 box
273793958 0.995789 box
273794058 0.995667 box
273794158 0.996582 box
273794258 0.997192 box
273794358 0.996826 box
273794458 0.993896 box
273794558 0.997803 box
273794658 0.996399 box
273794757 0.995483 box
273794857 0.996033 box
273794958 0.997192 box
273795058 0.995850 box
273795158 0.995972 box
273795258 0.995361 box
273795358 0.996643 box
273795458 0.995117 box
273795557 0.996948 box
273795657 0.997192 box
273795758 0.995483 box
273795858 0.996033 box
273795958 0.997070 box
273796058 0.993530 box
273796158 0.996582 box
273796257 0.996643 box
273796358 0.995422 box
273796458 0.997864 box
273796558 0.996521 box
273796658 0.995850 box
273796758 0.995117 box
273796858 0.994873 box
273796958 0.996765 box
273797058 0.994080 box
273797158 1.000000 box
273797258 0.996277 box
273797357 0.995056 box
273797458 0.996033 box
273797558 0.995178 box
273797658 0.994995 box
273797758 0.997070 box
273797858 0.997620 box
273797958 0.995911 box
273798058 0.994202 box
273798158 0.997070 box
273798258 0.997009 box
273798357 0.993835 box
273798458 0.997681 box
273798558 0.997131 box
273798658 0.996704 box
273798758 0.993652 box
273798858 0.994934 box
273798958 0.998901 box
273799058 0.994690 box
273799157 0.997314 box
273799258 0.997192 box
273799358 0.996155 box
273799458 0.996460 box
273799558 0.997131 box
273799658 0.994446 box
273799758 0.996765 box
273799858 0.995300 box
273799958 0.995056 box
273800058 0.998413 box
273800158 0.997192 box
273800258 0.993591 box
273800358 0.997681 box
273800458 0.995422 box
273800557 0.994568 box
273800658 0.996948 box
273800758 0.997437 box
273800858 0.995850 box
273800958 0.995972 box
273801058 0.996033 box
273801158 0.995728 box
273801258 0.996887 box
273801357 0.995605 box
273801458 0.994995 box
273801558 0.998657 box
273801658 0.997498 box
273801758 0.995056 box
273801858 0.995972 box
273801958 0.995422 box
273802057 0.995911 box
273802158 0.997498 box
273802258 0.997314 box
273802358 0.995422 box
273802458 0.996338 box
273802558 0.996704 box
273802658 0.995361 box
273802758 0.994324 box
273802857 0.997131 box
273802958 0.995178 box
273803058 0.998291 box
273803158 0.996765 box
273803258 0.996704 box
273803358 0.994080 box
273803458 0.996521 box
273803558 0.995483 box
273803658 0.996155 box
273803758 0.997559 box
273803858 0.995972 box
273803958 0.995422 box
273804058 0.995483 box
273804158 0.997131 box
273804258 0.994507 box
273804357 0.997192 box
273804458 0.996948 box
273804558 0.996338 box
273804658 0.998901 box
273804758 0.995117 box
273804858 0.996277 box
273804958 0.996582 box
273805058 0.994873 box
273805158 0.994019 box
273805258 0.998901 box
273805358 0.996765 box
273805458 0.994080 box
273805558 0.997681 box
273805658 0.996033 box
273805758 0.993896 box
273805858 0.998962 box
273805958 0.996948 box
273806058 0.995911 box
273806158 0.996277 box
273806258 0.996826 box
273806358 0.995178 box
273806458 0.995728 box
273806558 0.995911 box
273806658 0.995239 box
273806758 0.998657 box
273806858 0.997986 box
273806958 0.993042 box
273807058 0.996582 box
273807158 0.996155 box
273807257 0.994751 box
273807358 0.997192 box
273807458 0.997498 box
273807558 0.995361 box
273807658 0.996521 box
273807758 0.996826 box
273807858 0.995605 box
273807958 0.994568 box
273808057 0.996460 box
273808158 0.995300 box
273808258 0.998413 box
273808358 0.997437 box
273808458 0.993652 box
273808558 0.996338 box
273808658 0.997314 box
273808757 0.993896 box
273808858 0.996460 box
273808958 0.997070 box
273809058 0.996582 box
273809158 0.994873 box
273809258 0.996826 box
273809358 0.993469 box
273809458 0.995056 box
273809557 0.997620 box
273809658 0.995911 box
273809758 0.997070 box
273809858 0.995911 box
273809958 0.995422 box
273810058 0.995972 box
273810158 0.996765 box
273810257 0.994690 box
273810358 0.996216 box
273810458 0.997559 box
273810558 0.997253 box
273810658 0.995605 box
273810758 0.996399 box
273810858 0.993347 box
273810958 0.996521 box
273811058 0.996643 box
273811158 0.993958 box
273811258 0.999878 box
273811358 0.996948 box
273811458 0.993103 box
273811558 0.997559 box
273811658 0.997070 box
273811758 0.994934 box
273811858 0.997498 box
273811958 0.995789 box
273812058 0.996521 box
273812158 0.997620 box
273812258 0.995789 box
273812358 0.995789 box
273812458 0.996399 box
273812557 0.994446 box
273812658 0.997192 box
273812758 0.997742 box
273812858 0.996277 box
273812958 0.996399 box
273813058 0.995728 box
273813158 0.995117 box
273813258 0.996338 box
273813358 0.995544 box
273813458 0.995117 box
273813558 0.998352 box
273813658 0.996277 box
273813758 0.994202 box
273813858 0.995667 box
273813958 0.998169 box
273814058 0.995483 box
273814157 0.997314 box
273814258 0.995667 box
273814358 0.996887 box
273814458 0.998047 box
273814558 0.994751 box
273814658 0.995544 box
273814758 0.996033 box
273814857 0.995178 box
273814958 0.997192 box
273815058 0.997437 box
273815158 0.996338 box
273815258 0.996277 box
273815358 0.994507 box
273815458 0.996277 box
273815558 0.995911 box
273815658 0.996399 box
273815758 0.994873 box
273815857 0.999817 box
273815958 0.994324 box
273816058 0.994385 box
273816158 0.996521 box
273816258 0.998108 box
273816358 0.994751 box
273816457 0.996887 box
273816558 0.997437 box
273816658 0.996765 box
273816758 0.996643 box
273816858 0.995667 box
273816958 0.994751 box
273817058 0.995972 box
273817158 0.995789 box
273817258 0.996704 box
273817358 0.996887 box
273817458 0.996704 box
273817558 0.995850 box
273817658 0.996399 box
273817758 0.995972 box
273817858 0.997375 box
273817957 0.995178 box
273818058 0.994751 box
273818158 0.998169 box
273818258 0.998047 box
273818358 0.992859 box
273818458 0.997742 box
273818558 0.995789 box
273818658 0.994995 box
273818758 0.997620 box
273818858 0.996521 box
273818958 0.996094 box
273819058 0.996521 box
273819158 0.995178 box
273819258 0.996094 box
273819358 0.996460 box
273819458 0.994995 box
273819558 0.995544 box
273819658 0.998596 box
273819758 0.996399 box
273819858 0.997498 box
273819958 0.995056 box
273820058 0.997864 box
273820158 0.994873 box
273820257 0.997375 box
273820358 0.995300 box
273820458 0.997681 box
273820558 0.996948 box
273820658 0.994507 box
273820758 0.996460 box
273820858 0.996155 box
273820958 0.996155 box
273821058 0.997253 box
273821158 0.996948 box
273821258 0.995117 box
273821358 0.996643 box
273821458 0.996704 box
273821558 0.995300 box
273821658 0.995544 box
273821757 0.997314 box
273821857 0.994263 box
273821958 0.998657 box
273822058 0.997620 box
273822158 0.993042 box
273822258 0.996460 box
273822358 0.996033 box
273822458 0.995544 box
273822558 0.998047 box
273822658 0.997559 box
273822758 0.995422 box
273822858 0.995728 box
273822958 0.996155 box
273823058 0.995850 box
273823158 0.995605 box
273823258 0.995422 box
273823358 0.994751 box
273823458 0.999451 box
273823558 0.995361 box
273823658 0.995239 box
273823758 0.994568 box
273823858 0.997925 box
273823958 0.995239 box
273824057 0.997375 box
273824158 0.997009 box
273824258 0.996826 box
273824358 0.995972 box
273824458 0.995789 box
273824558 0.995483 box
273824658 0.996826 box
273824758 0.993713 box
273824858 0.997375 box
273824958 0.997986 box
273825058 0.995972 box
273825158 0.995544 box
273825258 0.996460 box
273825358 0.995239 box
273825457 0.996338 box
273825557 0.996704 box
273825658 0.995300 box
273825758 0.999023 box
273825858 0.995605 box
273825958 0.993835 box
273826058 0.996460 box
273826158 0.996216 box
273826257 0.994751 box
273826358 0.995911 box
273826458 0.997925 box
273826558 0.996338 box
273826658 0.996399 box
273826758 0.995728 box
273826858 0.995483 box
273826958 0.995911 box
273827058 0.995300 box
273827158 0.995361 box
273827258 0.999573 box
273827358 0.996216 box
273827458 0.993713 box
273827558 0.996338 box
273827658 0.997986 box
273827758 0.995667 box
273827857 0.996887 box
273827958 0.995300 box
273828058 0.997864 box
273828158 0.997803 box
273828258 0.995056 box
273828358 0.995972 box
273828458 0.995056 box
273828558 0.994446 box
273828658 0.997498 box
273828758 0.997375 box
273828858 0.995789 box
273828958 0.995605 box
273829058 0.995605 box
273829158 0.995789 box
273829258 0.996216 box
273829358 0.996338 box
273829458 0.997498 box
273829558 0.995850 box
273829658 0.997131 box
273829758 0.995605 box
273829858 0.994324 box
273829958 0.996460 box
273830058 0.995422 box
273830158 0.997009 box
273830258 0.997131 box
273830358 0.996399 box
273830458 0.994385 box
273830558 0.996399 box
273830658 0.995850 box
273830758 0.995544 box
273830857 0.996277 box
273830958 0.995605 box
273831058 0.998779 box
273831158 0.996582 box
273831258 0.995850 box
273831358 0.994568 box
273831458 0.995728 box
273831558 0.995544 box
273831658 0.996765 box
273831757 0.996643 box
273831858 0.996765 box
273831958 0.993530 box
273832058 0.997009 box
273832158 0.995789 box
273832258 0.995850 box
273832357 0.995422 box
273832458 0.994873 box
273832558 0.999084 box
273832658 0.996887 box
273832758 0.994141 box
273832858 0.995728 box
273832958 0.996277 box
273833057 0.995422 box
273833158 0.997314 box
273833257 0.996887 box
273833358 0.996277 box
273833458 0.996033 box
273833558 0.997070 box
273833658 0.996094 box
273833758 0.996460 box
273833858 0.996033 box
273833958 0.993774 box
273834058 0.999817 box
273834158 0.996460 box
273834258 0.992554 box
273834358 0.997803 box
273834458 0.996277 box
273834558 0.997009 box
273834658 0.997620 box
273834757 0.996155 box
273834858 0.996582 box
273834958 0.996216 box
273835058 0.995789 box
273835158 0.995544 box
273835258 0.996460 box
273835358 0.995239 box
273835458 0.995422 box
273835558 0.998779 box
273835658 0.997681 box
273835758 0.994385 box
273835858 0.996155 box
273835958 0.996704 box
273836058 0.994690 box
273836158 0.997681 box
273836258 0.996887 box
273836358 0.996094 box
273836458 0.995911 box
273836558 0.995789 box
273836658 0.996155 box
273836758 0.996155 box
273836858 0.994080 box
273836958 0.996094 box
273837058 0.998047 box
273837158 0.996765 box
273837258 0.994446 box
273837358 0.995789 box
273837458 0.996155 box
273837558 0.995972 box
273837657 0.997375 box
273837758 0.996094 box
273837858 0.997498 box
273837958 0.995972 box
273838058 0.996094 box
273838158 0.995361 box
273838258 0.995911 box
273838358 0.994812 box
273838458 0.997253 box
273838558 0.996948 box
273838658 0.995972 box
273838758 0.996338 box
273838858 0.996704 box
273838958 0.995544 box
273839058 0.995544 box
273839157 0.997375 box
273839258 0.994995 box
273839358 0.998596 box
273839458 0.996277 box
273839558 0.994690 box
273839658 0.996094 box
273839758 0.996582 box
273839857 0.993530 box
273839958 0.997375 box
273840058 0.997009 box
273840158 0.996460 box
273840258 0.995728 box
273840358 0.996155 box
273840458 0.995300 box
273840558 0.995605 box
273840657 0.997925 box
273840758 0.994751 box
273840858 0.998169 box
273840958 0.995789 box
273841058 0.994690 box
273841158 0.997314 box
273841258 0.995972 box
273841357 0.994629 box
273841457 0.997131 box
273841558 0.996521 box
273841658 0.996399 box
273841758 0.996582 box
273841858 0.996887 box
273841958 0.993835 box
273842058 0.997192 box
273842158 0.995667 box
273842258 0.994812 box
273842358 0.999207 box
273842457 0.996399 box
273842558 0.993774 box
273842658 0.997314 box
273842758 0.995972 box
273842858 0.994629 box
273842958 0.996460 box
273843058 0.997131 box
273843158 0.996094 box
273843258 0.996582 box
273843358 0.995300 box
273843458 0.994690 box
273843558 0.997375 box
273843658 0.995056 box
273843758 0.994629 box
273843858 0.999023 box
273843958 0.995911 box
273844058 0.993958 box
273844158 0.997314 box
273844258 0.997803 box
273844358 0.993835 box
273844458 0.996643 box
273844558 0.996887 box
273844658 0.997253 box
273844758 0.997009 box
273844858 0.994324 box
273844958 0.994080 box
273845058 0.997559 box
273845158 0.995178 box
273845258 0.995789 box
273845358 0.998657 box
273845458 0.993958 box
273845558 0.995667 box
273845658 0.995361 box
273845758 0.998291 box
273845858 0.994263 box
273845957 0.998169 box
273846058 0.996399 box
273846158 0.995850 box
273846258 0.997192 box
273846358 0.995300 box
273846458 0.995728 box
273846558 0.996826 box
273846658 0.995422 box
273846758 0.994751 box
273846858 0.999146 box
273846958 0.995728 box
273847058 0.994812 box
273847158 0.995422 box
273847258 0.999146 box
273847358 0.993469 box
273847458 0.997314 box
273847558 0.997681 box
273847658 0.996033 box
273847758 0.997375 box
273847858 0.994141 box
273847958 0.995789 box
273848058 0.997131 box
273848158 0.995483 box
273848258 0.994995 box
273848357 0.998230 box
273848458 0.996216 box
273848558 0.997925 box
273848658 0.994995 box
273848758 0.997986 box
273848858 0.994446 box
273848958 0.997681 box
273849058 0.997070 box
273849158 0.995361 box
273849258 0.997498 box
273849358 0.994385 box
273849458 0.996826 box
273849558 0.995728 box
273849658 0.994751 box
273849758 0.997009 box
273849858 0.997925 box
273849958 0.996094 box
273850058 0.994995 box
273850158 0.996948 box
273850258 0.996216 box
273850358 0.994385 box
273850457 0.998108 box
273850558 0.994934 box
273850658 0.998169 box
273850758 0.997375 box
273850858 0.994568 box
273850958 0.996277 box
273851058 0.996521 box
273851158 0.993347 box
273851258 0.996643 box
273851358 0.998108 box
273851458 0.995483 box
273851558 0.996277 box
273851658 0.996704 box
273851758 0.994080 box
273851858 0.995667 box
273851957 0.997925 box
273852058 0.995117 box
273852158 0.997864 box
273852258 0.996277 box
273852358 0.994995 box
273852458 0.994995 box
273852558 0.996643 box
273852658 0.994812 box
273852758 0.995972 box
273852858 0.997925 box
273852958 0.996033 box
273853058 0.996277 box
273853158 0.995911 box
273853258 0.994873 box
273853358 0.995911 box
273853457 0.997314 box
273853558 0.995789 box
273853658 0.997864 box
273853758 0.995728 box
273853858 0.995911 box
273853958 0.995483 box
273854058 0.995667 box
273854157 0.994568 box
273854258 0.997192 box
273854358 0.998474 box
273854458 0.996216 box
273854558 0.995300 box
273854658 0.997192 box
273854758 0.995178 box
273854858 0.997253 box
273854957 0.996399 box
273855058 0.994995 box
273855158 0.998108 box
273855258 0.996643 box
273855358 0.995178 box
273855458 0.995728 box
273855558 0.995972 box
273855657 0.993774 box
273855758 0.997681 box
273855858 0.997559 box
273855958 0.996399 box
273856058 0.996582 box
273856158 0.995728 box
273856258 0.995361 box
273856357 0.996155 box
273856457 0.996399 box
273856557 0.994690 box
273856658 0.997925 box
273856758 0.996887 box
273856858 0.994202 box
273856958 0.996277 box
273857058 0.995361 box
273857157 0.994202 box
273857258 0.998169 box
273857358 0.996765 box
273857458 0.996460 box
273857558 0.995422 box
273857658 0.996338 box
273857758 0.995667 box
273857858 0.996582 box
273857957 0.995728 box
273858058 0.995544 box
273858157 0.998291 box
273858258 0.996948 box
273858358 0.994446 box
273858458 0.995972 box
273858558 0.996277 box
273858657 0.995300 box
273858758 0.997742 box
273858858 0.997070 box
273858958 0.995667 box
273859058 0.995789 box
273859158 0.995789 box
273859258 0.995972 box
273859358 0.996643 box
273859457 0.996399 box
273859558 0.994629 box
273859658 0.998657 box
273859758 0.997437 box
273859858 0.993469 box
273859958 0.997437 box
273860058 0.995667 box
273860157 0.995422 box
273860258 0.997192 box
273860358 0.997681 box
273860458 0.995972 box
273860558 0.995361 box
273860658 0.996704 box
273860758 0.994385 box
273860858 0.996704 box
273860957 0.995361 box
273861058 0.995972 box
273861158 0.998169 box
273861258 0.997498 box
273861358 0.992676 box
273861458 0.997986 box
273861558 0.996765 box
273861658 0.994568 box
273861758 0.997498 box
273861858 0.998047 box
273861958 0.995605 box
273862058 0.995911 box
273862158 0.996765 box
273862258 0.995911 box
273862358 0.996643 box
273862458 0.994751 box
273862558 0.995544 box
273862658 0.998047 box
273862758 0.997253 box
273862858 0.993286 box
273862958 0.997375 box
273863058 0.996826 box
273863158 0.996643 box
273863258 0.998169 box
273863358 0.996704 box
273863458 0.996094 box
273863558 0.994629 box
273863658 0.996826 box
273863758 0.995667 box
273863858 0.996521 box
273863958 0.996704 box
273864058 0.993713 box
273864158 0.998779 box
273864258 0.997131 box
273864358 0.994446 box
273864458 0.997375 box
273864558 0.995667 box
273864657 0.995117 box
273864758 0.998291 box
273864858 0.996338 box
273864958 0.996155 box
273865058 0.995850 box
273865158 0.996582 box
273865258 0.996033 box
273865358 0.996460 box
273865458 0.995544 box
273865558 0.994446 box
273865658 0.999451 box
273865758 0.996399 box
273865858 0.993774 box
273865958 0.996826 box
273866058 0.996338 box
273866158 0.994873 box
273866258 0.997498 box
273866357 0.996704 box
273866458 0.996704 box
273866558 0.996399 box
273866658 0.996460 box
273866758 0.995667 box
273866858 0.994934 box
273866958 0.995972 box
273867058 0.994690 box
273867158 0.998962 box
273867258 0.996948 box
273867358 0.993591 box
273867458 0.996521 box
273867558 0.997070 box
273867658 0.996033 box
273867758 0.996948 box
273867858 0.997620 box
273867958 0.994995 box
273868058 0.996338 box
273868158 0.997070 box
273868258 0.994812 box
273868358 0.995911 box
273868458 0.995728 box
273868558 0.994995 box
273868658 0.999634 box
273868758 0.997070 box
273868858 0.991943 box
273868958 0.997742 box
273869058 0.996826 box
273869158 0.994751 box
273869257 0.997742 box
273869358 0.997192 box
273869458 0.996521 box
273869558 0.996338 box
273869658 0.995300 box
273869758 0.995239 box
273869858 0.996216 box
273869958 0.995544 box
273870058 0.994995 box
273870158 0.999084 box
273870258 0.996643 box
273870358 0.993591 box
273870458 0.997070 box
273870558 0.996277 box
273870658 0.994812 box
273870758 0.997192 box
273870858 0.997070 box
273870958 0.996277 box
273871058 0.996704 box
273871158 0.995544 box
273871258 0.994568 box
273871358 0.996155 box
273871458 0.995972 box
273871558 0.994751 box
273871658 0.999634 box
273871758 0.996460 box
273871858 0.993774 box
273871958 0.997803 box
273872058 0.995728 box
273872157 0.995728 box
273872257 0.996094 box
273872358 0.997009 box
273872458 0.996460 box
273872558 0.996643 box
273872658 0.995667 box
273872758 0.995056 box
273872858 0.997131 box
273872958 0.994751 box
273873058 0.994873 box
273873158 0.999878 box
273873258 0.996277 box
273873358 0.993042 box
273873458 0.997742 box
273873558 0.996460 box
273873658 0.994446 box
273873758 0.997559 box
273873858 0.997375 box
273873958 0.995972 box
273874058 0.995667 box
273874158 0.996704 box
273874258 0.995544 box
273874358 0.996094 box
273874458 0.995850 box
273874558 0.993774 box
273874658 0.999207 box
273874757 0.996582 box
273874858 0.994141 box
273874958 0.997498 box
273875058 0.995728 box
273875158 0.994385 box
273875257 0.997681 box
273875357 0.996582 box
273875458 0.996704 box
273875558 0.996338 box
273875658 0.995605 box
273875758 0.995728 box
273875858 0.996399 box
273875958 0.996399 box
273876058 0.993896 box
273876158 0.999207 box
273876258 0.996948 box
273876358 0.994141 box
273876458 0.997559 box
273876558 0.996094 box
273876658 0.995056 box
273876758 0.998230 box
273876858 0.997437 box
273876958 0.997131 box
273877058 0.994873 box
273877158 0.995728 box
273877258 0.995789 box
273877358 0.997375 box
273877458 0.994385 box
273877558 0.994751 box
273877658 0.999451 box
273877758 0.996887 box
273877858 0.992920 box
273877958 0.997253 box
273878058 0.996277 box
273878157 0.995178 box
273878258 0.997925 box
273878358 0.996338 box
273878458 0.995605 box
273878558 0.995239 box
273878658 0.999695 box
273878758 0.995361 box
273878858 0.995056 box
273878957 0.997375 box
273879058 0.994873 box
273879158 0.997986 box
273879258 0.997253 box
273879358 0.994385 box
273879458 0.995850 box
273879558 0.996521 box
273879658 0.995239 box
273879757 0.997681 box
273879858 0.997009 box
273879958 0.995911 box
273880058 0.995972 box
273880158 0.995972 box
273880258 0.995422 box
273880357 0.994751 box
273880457 0.997925 box
273880558 0.994629 box
273880658 0.997559 box
273880758 0.997192 box
273880858 0.994568 box
273880958 0.995605 box
273881058 0.996399 box
273881158 0.995117 box
273881258 0.996948 box
273881358 0.997681 box
273881458 0.996094 box
273881558 0.995972 box
273881658 0.995483 box
273881758 0.996094 box
273881858 0.995605 box
273881957 0.998230 box
273882058 0.996094 box
273882158 0.997375 box
273882258 0.995911 box
273882358 0.996216 box
273882458 0.995605 box
273882558 0.996338 box
273882658 0.995178 box
273882758 0.995422 box
273882858 0.999390 box
273882958 0.995544 box
273883058 0.994934 box
273883158 0.994385 box
273883258 0.998413 box
273883358 0.995300 box
273883457 0.997620 box
273883558 0.997498 box
273883658 0.995728 box
273883758 0.996155 box
273883858 0.995911 box
273883958 0.995789 box
273884058 0.996338 box
273884158 0.994507 box
273884258 0.996155 box
273884358 0.998413 box
273884458 0.995361 box
273884558 0.994202 box
273884658 0.996338 box
273884758 0.998718 box
273884858 0.994507 box
273884958 0.997498 box
273885058 0.997192 box
273885158 0.995239 box
273885258 0.996399 box
273885358 0.996216 box
273885458 0.994141 box
273885558 0.995911 box
273885658 0.996338 box
273885758 0.994629 box
273885858 0.999634 box
273885957 0.996216 box
273886058 0.992554 box
273886158 0.997742 box
273886258 0.995667 box
273886358 0.994873 box
273886458 0.997375 box
273886558 0.996704 box
273886658 0.996033 box
273886758 0.996765 box
273886858 0.995911 box
273886958 0.995117 box
273887058 0.996216 box
273887157 0.996460 box
273887258 0.994324 box
273887358 0.998413 box
273887458 0.996948 box
273887558 0.994019 box
273887658 0.997131 box
273887758 0.994873 box
273887857 0.995544 box
273887958 0.997864 box
273888058 0.997437 box
273888158 0.995422 box
273888258 0.995850 box
273888358 0.995972 box
273888458 0.995972 box
273888558 0.995056 box
273888657 0.996826 box
273888758 0.995361 box
273888858 0.997803 box
273888958 0.997437 box
273889058 0.995422 box
273889158 0.994690 box
273889258 0.997070 box
273889358 0.995544 box
273889458 0.997131 box
273889558 0.996338 box
273889658 0.995483 box
273889758 0.994507 box
273889858 0.995605 box
273889958 0.998596 box
273890058 0.993896 box
273890158 0.997559 box
273890258 0.996948 box
273890357 0.996277 box
273890458 0.996399 box
273890558 0.995300 box
273890658 0.995972 box
273890758 0.997070 box
273890858 0.995483 box
273890958 0.993958 box
273891058 0.998840 box
273891158 0.997803 box
273891258 0.992676 box
273891358 0.998230 box
273891458 0.995850 box
273891557 0.994873 box
273891657 0.998413 box
273891758 0.996216 box
273891858 0.996948 box
273891958 0.993958 box
273892058 0.997314 box
273892158 0.996094 box
273892258 0.995789 box
273892357 0.995239 box
273892458 0.994812 box
273892558 0.998230 box
273892658 0.997314 box
273892758 0.995544 box
273892858 0.995728 box
273892958 0.996277 box
273893058 0.997864 box
273893158 0.995422 box
273893258 0.996643 box
273893358 0.996765 box
273893458 0.995361 box
273893558 0.994690 box
273893658 0.997864 box
273893758 0.994385 box
273893857 0.997559 box
273893958 0.996643 box
273894058 0.996033 box
273894158 0.997437 box
273894258 0.996704 box
273894358 0.996155 box
273894458 0.996277 box
273894558 0.995056 box
273894658 0.995361 box
273894758 0.998840 box
273894858 0.997070 box
273894958 0.993958 box
273895058 0.997070 box
273895158 0.996765 box
273895258 0.994690 box
273895358 0.998352 box
273895458 0.996277 box
273895558 0.996155 box
273895658 0.995911 box
273895758 0.996033 box
273895858 0.995789 box
273895958 0.994324 box
273896057 0.996948 box
273896158 0.994568 box
273896258 0.998657 box
273896358 0.996582 box
273896458 0.994507 box
273896558 0.996033 box
273896658 0.996094 box
273896758 0.995361 box
273896858 0.997192 box
273896958 0.997192 box
273897058 0.996277 box
273897158 0.995544 box
273897258 0.996338 box
273897358 0.995361 box
273897458 0.995911 box
273897557 0.996948 box
273897658 0.997131 box
273897758 0.996826 box
273897858 0.995972 box
273897958 0.995911 box
273898058 0.995361 box
273898158 0.996582 box
273898258 0.994995 box
273898358 0.995605 box
273898458 0.999512 box
273898558 0.996033 box
273898658 0.992798 box
273898758 0.997253 box
273898858 0.996704 box
273898958 0.994324 box
273899058 0.996704 box
273899158 0.997742 box
273899258 0.996765 box
273899358 0.995483 box
273899458 0.996216 box
273899558 0.995361 box
273899658 0.996460 box
273899757 0.996155 box
273899858 0.995605 box
273899958 0.998169 box
273900058 0.997070 box
273900158 0.995239 box
273900258 0.995667 box
273900358 0.995789 box
273900457 0.995117 box
273900557 0.998047 box
273900658 0.997070 box
273900758 0.996582 box
273900858 0.994934 box
273900958 0.996582 box
273901058 0.995667 box
273901158 0.995605 box
273901257 0.996338 box
273901358 0.997498 box
273901458 0.996460 box
273901558 0.996521 box
273901658 0.996765 box
273901758 0.994141 box
273901858 0.997437 box
273901958 0.994934 box
273902058 0.995361 box
273902158 0.999268 box
273902258 0.994385 box
273902358 0.994202 box
273902458 0.997559 box
273902558 0.996704 box
273902658 0.994324 box
273902757 0.997986 box
273902858 0.996582 box
273902958 0.996643 box
273903058 0.995972 box
273903158 0.996155 box
273903258 0.995239 box
273903358 0.997620 box
273903457 0.995117 box
273903558 0.995300 box
273903658 0.997803 box
273903758 0.997131 box
273903857 0.995361 box
273903958 0.995300 box
273904058 0.994263 box
273904158 0.996521 box
273904258 0.997437 box
273904358 0.996582 box
273904458 0.996643 box
273904558 0.995056 box
273904658 0.995300 box
273904758 0.997803 box
273904858 0.994995 box
273904958 0.997498 box
273905058 0.997253 box
273905158 0.995911 box
273905258 0.996460 box
273905358 0.995605 box
273905458 0.995667 box
273905558 0.996460 box
273905658 0.995911 box
273905758 0.994751 box
273905858 0.998230 box
273905958 0.998352 box
273906058 0.993469 box
273906158 0.997009 box
273906258 0.995972 box
273906357 0.995239 box
273906458 0.998169 box
273906558 0.997009 box
273906658 0.994934 box
273906758 0.996582 box
273906858 0.996643 box
273906958 0.996277 box
273907058 0.993652 box
273907157 0.998108 box
273907258 0.996887 box
273907358 0.997986 box
273907458 0.996277 box
273907558 0.994751 box
273907658 0.996704 box
273907758 0.995178 box
273907858 0.996155 box
273907958 0.993225 box
273908058 0.999390 box
273908158 0.996033 box
273908258 0.993896 box
273908358 0.997742 box
273908458 0.996338 box
273908558 0.995056 box
273908657 0.997498 box
273908758 0.997070 box
273908858 0.996033 box
273908958 0.995667 box
273909058 0.996948 box
273909158 0.995972 box
273909258 0.994263 box
273909357 0.997314 box
273909458 0.994263 box
273909558 0.998535 box
273909658 0.997559 box
273909758 0.995239 box
273909858 0.995361 box
273909958 0.996277 box
273910058 0.995239 box
273910158 0.997070 box
273910258 0.998352 box
273910358 0.995300 box
273910458 0.994324 box
273910558 0.997131 box
273910658 0.996948 box
273910758 0.995300 box
273910858 0.997559 box
273910958 0.997925 box
273911058 0.994629 box
273911158 0.997009 box
273911258 0.995911 box
273911358 0.995239 box
273911458 0.995544 box
273911557 0.996216 box
273911658 0.995605 box
273911758 0.998718 box
273911858 0.997681 box
273911958 0.993591 box
273912058 0.996155 box
273912158 0.996521 box
273912258 0.994324 box
273912358 0.998047 box
273912458 0.997498 box
273912558 0.995605 box
273912658 0.995972 box
273912758 0.995850 box
273912858 0.996094 box
273912958 0.995667 box
273913057 0.997131 box
273913158 0.997375 box
273913258 0.995361 box
273913358 0.996826 box
273913458 0.995056 box
273913558 0.997192 box
273913658 0.995483 box
273913758 0.995056 box
273913858 0.995483 box
273913958 0.999146 box
273914057 0.996826 box
273914158 0.992920 box
273914258 0.997314 box
273914358 0.996277 box
273914457 0.993958 box
273914558 0.997192 box
273914658 0.997314 box
273914758 0.996338 box
273914858 0.995544 box
273914958 0.996216 box
273915058 0.994934 box
273915158 0.996765 box
273915257 0.996399 box
273915358 0.995300 box
273915458 0.997437 box
273915558 0.997314 box
273915658 0.995544 box
273915758 0.995361 box
273915858 0.997131 box
273915958 0.994568 box
273916058 0.996338 box
273916158 0.997986 box
273916258 0.995911 box
273916358 0.994751 box
273916458 0.997437 box
273916558 0.996704 box
273916657 0.994934 box
273916758 0.997070 box
273916858 0.997009 box
273916958 0.996765 box
273917058 0.995789 box
273917158 0.995667 box
273917258 0.995422 box
273917358 0.996948 box
273917457 0.995605 box
273917558 0.996338 box
273917658 0.997681 box
273917758 0.997192 box
273917858 0.995422 box
273917958 0.995117 box
273918058 0.996704 box
273918158 0.995483 box
273918258 0.997498 box
273918358 0.997009 box
273918458 0.995422 box
273918558 0.995483 box
273918658 0.995544 box
273918758 0.998779 box
273918858 0.994507 box
273918958 0.996704 box
273919058 0.997620 box
273919158 0.996399 box
273919258 0.996094 box
273919358 0.996155 box
273919458 0.995239 box
273919558 0.997070 box
273919658 0.995361 box
273919758 0.995178 box
273919858 0.997864 box
273919958 0.998108 box
273920058 0.994629 box
273920158 0.995117 box
273920258 0.996094 box
273920358 0.995361 box
273920457 0.997131 box
273920558 0.998047 box
273920658 0.995850 box
273920758 0.995605 box
273920858 0.994080 box
273920958 0.999146 box
273921058 0.993591 box
273921158 0.997620 box
273921258 0.997375 box
273921358 0.996887 box
273921458 0.996216 box
273921558 0.996033 box
273921658 0.996216 box
273921757 0.996094 box
273921858 0.995544 box
273921958 0.995056 box
273922058 1.000000 box
273922158 0.997070 box
273922258 0.994568 box
273922358 0.997314 box
273922458 0.996582 box
273922557 0.994568 box
273922658 0.996765 box
273922757 0.997192 box
273922858 0.996582 box
273922958 0.994690 box
273923058 0.995605 box
273923158 0.997986 box
273923258 0.995239 box
273923358 0.997681 box
273923458 0.996826 box
273923558 0.996826 box
273923658 0.995300 box
273923758 0.996216 box
273923858 0.996765 box
273923958 0.996338 box
273924058 0.995483 box
273924158 0.994080 box
273924258 1.000000 box
273924358 0.997498 box
273924458 0.992920 box
273924558 0.997253 box
273924658 0.996033 box
273924757 0.995728 box
273924858 0.996521 box
273924958 0.997192 box
273925058 0.996155 box
273925158 0.995911 box
273925258 0.994629 box
273925358 0.997009 box
273925458 0.995361 box
273925558 0.997803 box
273925658 0.997620 box
273925758 0.994873 box
273925858 0.996521 box
273925958 0.996338 box
273926058 0.995483 box
273926158 0.995178 box
273926258 0.995911 box
273926358 0.994690 box
273926458 0.998840 box
273926558 0.997559 box
273926658 0.992371 box
273926758 0.996643 box
273926858 0.996765 box
273926957 0.994873 box
273927058 0.997620 box
273927158 0.997070 box
273927258 0.995789 box
273927358 0.996399 box
273927458 0.994080 box
273927558 0.997681 box
273927658 0.994995 box
273927758 0.997925 box
273927858 0.997437 box
273927958 0.995972 box
273928058 0.995850 box
273928158 0.995789 box
273928258 0.994202 box
273928358 0.996582 box
273928458 0.995483 box
273928558 0.994568 box
273928658 0.999512 box
273928758 0.996216 box
273928858 0.994812 box
273928958 0.996338 box
273929058 0.997437 box
273929157 0.994507 box
273929258 0.997803 box
273929358 0.997498 box
273929458 0.995728 box
273929558 0.995361 box
273929658 0.995789 box
273929758 0.996582 box
273929858 0.996094 box
273929958 0.996216 box
273930058 0.996948 box
273930158 0.996826 box
273930258 0.996765 box
273930358 0.995422 box
273930458 0.995300 box
273930558 0.997742 box
273930658 0.995483 box
273930758 0.994019 box
273930858 0.998779 box
273930958 0.998047 box
273931058 0.994019 box
273931158 0.996826 box
273931258 0.996277 box
273931357 0.994995 box
273931458 0.997253 box
273931558 0.996704 box
273931658 0.996582 box
273931758 0.994019 box
273931858 0.994934 box
273931958 0.997986 box
273932058 0.994934 box
273932158 0.997986 box
273932258 0.996765 box
273932358 0.996582 box
273932458 0.996704 box
273932558 0.994812 box
273932658 0.995605 box
273932758 0.997070 box
273932857 0.995605 box
273932958 0.995544 box
273933058 0.998657 box
273933158 0.997314 box
273933258 0.995667 box
273933358 0.994751 box
273933458 0.997498 box
273933558 0.994995 box
273933658 0.996765 box
273933758 0.997742 box
273933858 0.995178 box
273933958 0.994141 box
273934058 0.997192 box
273934158 0.996826 box
273934258 0.995056 box
273934358 0.997681 box
273934457 0.997864 box
273934558 0.995544 box
273934658 0.995789 box
273934758 0.996765 box
273934858 0.994934 box
273934957 0.994263 box
273935057 0.997681 box
273935158 0.995239 box
273935258 0.998047 box
273935358 0.996460 box
273935458 0.997070 box
273935558 0.996277 box
273935658 0.996338 box
273935758 0.995483 box
273935858 0.994202 box
273935958 0.999268 box
273936058 0.996643 box
273936158 0.994141 box
273936258 0.996704 box
273936358 0.996094 box
273936457 0.994934 box
273936558 0.997192 box
273936658 0.997498 box
273936758 0.995911 box
273936858 0.995117 box
273936958 0.994812 box
273937058 0.997803 box
273937158 0.994690 box
273937258 0.997620 box
273937358 0.996216 box
273937458 0.995605 box
273937558 0.996399 box
273937658 0.996948 box
273937758 0.995667 box
273937858 0.995239 box
273937957 0.997070 box
273938058 0.996094 box
273938158 0.997864 box
273938258 0.997681 box
273938358 0.995544 box
273938458 0.995300 box
273938558 0.997131 box
273938658 0.994324 box
273938758 0.995056 box
273938857 0.999695 box
273938958 0.998047 box
273939058 0.992981 box
273939158 0.997803 box
273939258 0.995789 box
273939357 0.995605 box
273939458 0.996826 box
273939558 0.997192 box
273939658 0.996338 box
273939758 0.995605 box
273939858 0.996704 box
273939958 0.994690 box
273940057 0.995972 box
273940157 0.996582 box
273940258 0.997742 box
273940358 0.995361 box
273940458 0.997253 box
273940558 0.995361 box
273940658 0.995972 box
273940758 0.995422 box
273940858 0.996399 box
273940958 0.994202 box
273941058 1.000061 box
273941158 0.996033 box
273941258 0.995728 box
273941358 0.995178 box
273941458 0.996521 box
273941558 0.994507 box
273941658 0.996643 box
273941758 0.998047 box
273941858 0.995728 box
273941958 0.994202 box
273942058 0.995667 box
273942158 0.998230 box
273942258 0.994751 box
273942358 0.997437 box
273942458 0.996948 box
273942558 0.996216 box
273942658 0.996643 box
273942758 0.995789 box
273942858 0.994629 box
273942958 0.996033 box
273943057 0.997253 box
273943158 0.996704 box
273943258 0.995972 box
273943358 0.997681 box
273943458 0.995544 box
273943558 0.995239 box
273943658 0.996155 box
273943758 0.996277 box
273943858 0.995361 box
273943958 0.999695 box
273944058 0.997070 box
273944158 0.993713 box
273944258 0.997131 box
273944358 0.995850 box
273944458 0.994019 box
273944558 0.997070 box
273944658 0.997559 box
273944758 0.996643 box
273944858 0.993713 box
273944958 0.995117 box
273945058 0.998047 box
273945158 0.995422 box
273945257 0.997803 box
273945358 0.996948 box
273945458 0.995972 box
273945558 0.996704 box
273945658 0.994995 box
273945758 0.995911 box
273945858 0.995667 box
273945957 0.996033 box
273946058 0.995789 box
273946158 0.998047 box
273946258 0.997009 box
273946358 0.995361 box
273946458 0.996216 box
273946558 0.997253 box
273946658 0.995972 box
273946758 0.994812 box
273946858 0.998474 box
273946958 0.997375 box
273947058 0.995178 box
273947158 0.995728 box
273947258 0.996155 box
273947358 0.995544 box
273947458 0.997253 box
273947558 0.997437 box
273947658 0.994629 box
273947758 0.995056 box
273947858 0.997437 box
273947958 0.996460 box
273948058 0.994446 box
273948158 0.998169 box
273948258 0.996948 box
273948358 0.997192 box
273948458 0.994019 box
273948558 0.996765 box
273948658 0.995911 box
273948758 0.994690 box
273948858 0.996765 box
273948958 0.997742 box
273949058 0.995789 box
273949158 0.996155 box
273949258 0.995483 box
273949358 0.995483 box
273949458 0.996033 box
273949557 0.996826 box
273949658 0.994019 box
273949758 0.998169 box
273949858 0.997131 box
273949958 0.994873 box
273950058 0.997620 box
273950158 0.996826 box
273950258 0.995605 box
273950358 0.994568 box
273950458 0.998962 box
273950558 0.997192 box
273950658 0.993652 box
273950758 0.996643 box
273950858 0.996460 box
273950958 0.995483 box
273951058 0.996765 box
273951158 0.998108 box
273951258 0.996399 box
273951358 0.993958 box
273951458 0.997131 box
273951558 0.996155 box
273951658 0.995667 box
273951758 0.997681 box
273951858 0.996826 box
273951958 0.996338 box
273952058 0.995789 box
273952158 0.996521 box
273952258 0.995728 box
273952358 0.995605 box
273952457 0.998108 box
273952557 0.997131 box
273952657 0.996277 box
273952758 -196608.003967 box
273952858 0.995789 box
273952958 0.995361 box
273953058 0.995850 box
273953157 0.996033 box
273953258 0.995850 box
273953358 0.997375 box
273953458 0.996948 box
273953558 0.995300 box
273953658 0.995544 box
273953758 0.997437 box
273953858 0.994629 box
273953958 0.995422 box
273954058 0.999451 box
273954158 0.997131 box
273954258 0.992981 box
273954358 0.997131 box
273954458 0.995728 box
273954557 0.996399 box
273954657 0.995789 box
273954758 0.997314 box
273954858 0.996216 box
273954958 0.995911 box
273955058 0.993713 box
273955158 0.998169 box
273955258 0.995544 box
273955358 0.997192 box
273955458 0.998047 box
273955558 0.996277 box
273955658 0.996155 box
273955758 0.996765 box
273955858 0.995117 box
273955958 0.995972 box
273956057 0.997009 box
273956158 0.995728 box
273956258 0.997375 box
273956358 0.997131 box
273956458 0.995850 box
273956558 0.995972 box
273956658 0.995361 box
273956758 0.996094 box
273956858 0.994446 box
273956958 0.999207 box
273957058 0.996338 box
273957158 0.995422 box
273957258 0.995117 box
273957358 0.995728 box
273957458 0.994202 box
273957558 0.997253 box
273957658 0.997375 box
273957758 0.996460 box
273957858 0.994141 box
273957958 0.996277 box
273958058 0.997375 box
273958158 0.994568 box
273958258 0.997192 box
273958358 0.997498 box
273958458 0.996338 box
273958558 0.995239 box
273958658 0.996399 box
273958758 0.995544 box
273958858 0.996155 box
273958958 0.995728 box
273959058 0.997009 box
273959158 0.996094 box
273959258 0.996948 box
273959358 0.996887 box
273959458 0.995117 box
273959558 0.995605 box
273959657 0.996948 box
273959758 0.995789 box
273959858 0.997192 box
273959958 0.996521 box
273960058 0.996033 box
273960158 0.995300 box
273960258 0.996887 box
273960358 0.995911 box
273960458 0.995056 box
273960558 0.998596 box
273960658 0.997314 box
273960758 0.993225 box
273960858 0.997986 box
273960958 0.995483 box
273961058 0.995239 box
273961158 0.997131 box
273961258 0.997070 box
273961358 0.995422 box
273961458 0.995667 box
273961558 0.997131 box
273961658 0.995850 box
273961757 0.994507 box
273961858 0.998047 box
273961958 0.996887 box
273962058 0.996338 box
273962158 0.995605 box
273962258 0.995239 box
273962358 0.997375 box
273962458 0.994629 box
273962558 0.997498 box
273962658 0.997375 box
273962758 0.995300 box
273962858 0.996521 box
273962958 0.997070 box
273963058 0.995483 box
273963158 0.995789 box
273963257 0.996521 box
273963358 0.995178 box
273963458 0.998352 box
273963558 0.996643 box
273963658 0.994568 box
273963758 0.995972 box
273963858 0.996582 box
273963958 0.996216 box
273964058 0.995178 box
273964157 0.998474 box
273964258 0.997192 box
273964358 0.995178 box
273964458 0.995178 box
273964558 0.996460 box
273964658 0.997314 box
273964758 0.996826 box
273964858 0.998291 box
273964958 0.995850 box
273965058 0.994202 box
273965158 0.998535 box
273965258 0.996460 box
273965357 0.994812 box
273965458 0.998230 box
273965558 0.997070 box
273965658 0.996765 box
273965758 0.995239 box
273965858 0.995422 box
273965958 0.997986 box
273966058 0.994812 box
273966157 0.997742 box
273966258 0.997131 box
273966358 0.995789 box
273966458 0.997192 box
273966558 0.996216 box
273966657 0.995117 box
273966758 0.994385 box
273966857 0.997742 box
273966958 0.995422 box
273967057 0.998413 box
273967158 0.995972 box
273967258 0.995911 box
273967358 0.996277 box
273967458 0.996094 box
273967558 0.996460 box
273967658 0.994385 box
273967758 0.998718 box
273967858 0.997559 box
273967958 0.994202 box
273968058 0.996155 box
273968158 0.996338 box
273968258 0.994751 box
273968358 0.995483 box
273968458 0.999146 box
273968558 0.996765 box
273968658 0.993591 box
273968758 0.997803 box
273968858 0.996216 box
273968957 0.995728 box
273969058 0.997803 box
273969158 0.996765 box
273969258 0.995850 box
273969358 0.994812 box
273969458 0.996094 box
273969558 0.998474 box
273969658 0.995178 box
273969758 0.996826 box
273969858 0.997131 box
273969958 0.996765 box
273970058 0.995667 box
273970158 0.995789 box
273970258 0.996277 box
273970358 0.995789 box
273970457 0.996948 box
273970557 0.997742 box
273970658 0.995117 box
273970758 0.996460 box
273970858 0.995544 box
273970958 0.995178 box
273971058 0.996582 box
273971157 0.996948 box
273971258 0.995483 box
273971358 0.997559 box
273971458 0.997314 box
273971558 0.995667 box
273971658 0.995056 box
273971758 0.995422 box
273971858 0.995422 box
273971958 0.995789 box
273972058 0.998962 box
273972158 0.997742 box
273972258 0.993896 box
273972358 0.997437 box
273972458 0.996216 box
273972557 0.994690 box
273972658 0.997864 box
273972758 0.997559 box
273972858 0.995667 box
273972958 0.994080 box
273973058 0.996460 box
273973158 0.997375 box
273973258 0.995056 box
273973357 0.997070 box
273973458 0.997375 box
273973558 0.997009 box
273973658 0.995422 box
273973758 0.997009 box
273973858 0.995605 box
273973958 0.995605 box
273974057 0.996765 box
273974158 0.997070 box
273974258 0.995972 box
273974358 0.996521 box
273974458 0.996460 box
273974558 0.995728 box
273974658 0.996277 box
273974757 0.995789 box
273974858 0.995605 box
273974958 0.996826 box
273975058 0.996826 box
273975158 0.996155 box
273975258 0.994995 box
273975358 0.995483 box
273975458 0.997009 box
273975558 0.994873 box
273975658 0.998718 box
273975758 0.997192 box
273975858 0.995300 box
273975958 0.996033 box
273976058 0.995422 box
273976157 0.996094 box
273976258 0.995483 box
273976358 0.998657 box
273976458 0.995056 box
273976558 0.995178 box
273976658 0.997803 box
273976758 0.994690 box
273976857 0.995544 box
273976958 0.997864 box
273977058 0.997009 box
273977158 0.995728 box
273977258 0.995178 box
273977358 0.994568 box
273977458 0.998291 box
273977558 0.995483 box
273977658 0.997803 box
273977758 0.997192 box
273977858 0.996521 box
273977958 0.995422 box
273978058 0.996338 box
273978158 0.996216 box
273978258 0.994751 box
273978357 0.997925 box
273978458 0.998230 box
273978558 0.996460 box
273978658 0.995728 box
273978758 0.997131 box
273978858 0.995972 box
273978958 0.996155 box
273979057 0.995605 box
273979158 0.994873 box
273979258 0.998718 box
273979358 0.996948 box
273979458 0.995056 box
273979558 0.996094 box
273979658 0.997131 box
273979758 0.995239 box
273979858 0.994385 box
273979958 0.998901 box
273980058 0.997559 box
273980158 0.994629 box
273980258 0.996399 box
273980358 0.995789 box
273980458 0.995239 box
273980558 0.995972 box
273980658 0.998047 box
273980758 0.995361 box
273980858 0.995239 box
273980958 0.996643 box
273981058 0.995850 box
273779806 0.994385 box
273779906 0.996094 box
273780006 0.997986 box
273780106 0.994507 box
