time(ms) energy(J) hostname
487052828 0.000000 box
487052928 0.958557 box
487053028 0.941650 box
487053128 0.986145 box
487053228 0.984924 box
487053328 0.984619 box
487053428 0.985718 box
487053528 0.987061 box
487053628 0.984619 box
487053728 0.984619 box
487053828 0.983887 box
487053928 0.993103 box
487054028 0.996338 box
487054128 0.996643 box
487054228 0.995239 box
487054328 0.994873 box
487054428 0.996704 box
487054528 0.996094 box
487054628 0.996338 box
487054728 0.992737 box
487054828 0.952637 box
487054928 0.952087 box
487055028 0.977661 box
487055128 0.991760 box
487055228 0.996643 box
487055328 0.995728 box
487055428 0.996338 box
487055528 0.996704 box
487055628 0.996155 box
487055728 0.997253 box
487055828 0.995911 box
487055928 0.996765 box
487056028 0.996704 box
487056128 0.996399 box
487056228 0.995789 box
487056328 0.995972 box
487056428 0.996643 box
487056528 0.996704 box
487056628 0.995911 box
487056728 0.996826 box
487056828 0.996521 box
487056928 0.996521 box
487057028 0.996155 box
487057128 0.996582 box
487057228 0.996765 box
487057328 0.996704 box
487057428 0.996826 box
487057528 0.995483 box
487057628 0.996765 box
487057728 0.994751 box
487057828 0.992126 box
487057928 0.997620 box
487058028 0.996155 box
487058128 0.996643 box
487058228 0.995544 box
487058328 0.996521 box
487058428 0.996033 box
487058528 0.996094 box
487058628 0.997131 box
487058728 0.996338 box
487058828 0.995667 box
487058928 0.997131 box
487059028 0.996033 box
487059128 0.996033 box
487059228 0.995605 box
487059328 0.996704 box
487059428 0.996582 box
487059528 0.996887 box
487059628 0.995850 box
487059728 0.996643 box
487059828 0.996765 box
487059928 0.995911 box
487060028 0.996643 box
487060128 0.995422 box
487060228 0.996826 box
487060328 0.995850 box
487060428 0.995850 box
487060528 0.998108 box
487060628 0.995422 box
487060728 0.995300 box
487060828 0.996643 box
487060928 0.997070 box
487061028 0.996277 box
487061128 0.995544 box
487061228 0.996155 box
487061328 0.996033 box
487061428 0.996887 box
487061528 0.995728 box
487061628 0.996765 box
487061728 0.996155 box
487061828 0.998230 box
487061928 0.995483 box
487062028 0.996155 box
487062128 0.997009 box
487062228 0.995972 box
487062328 0.996155 box
487062428 0.996033 box
487062528 0.996826 box
487062628 0.996277 box
487062728 0.994995 box
487062828 0.996765 box
487062928 0.997742 box
487063028 0.996155 box
487063128 0.996399 box
487063228 0.995178 box
487063328 0.996765 box
487063428 0.996216 box
487063528 0.996765 box
487063628 0.996582 box
487063728 0.996277 box
487063828 0.996887 box
487063928 0.995667 box
487064028 0.995972 box
487064128 0.996765 box
487064228 0.996643 box
487064328 0.995911 box
487064428 0.998047 box
487064528 0.995789 box
487064628 0.997314 box
487064728 0.997192 box
487064828 0.996338 box
487064928 0.995728 box
487065028 0.996704 box
487065128 0.994690 box
487065228 0.996338 box
487065328 0.996704 box
487065428 0.996521 box
487065528 0.997437 box
487065628 0.995850 box
487065728 0.996765 box
487065828 0.997009 box
487065928 0.996643 box
487066028 0.995422 box
487066128 0.996399 box
487066228 0.996704 box
487066328 0.995056 box
487066428 0.997864 box
487066528 0.995544 box
487066628 0.995483 box
487066728 0.996704 box
487066828 0.996033 box
487066928 0.997009 box
487067028 0.996460 box
487067128 0.996582 box
487067228 0.995483 box
487067328 0.996399 box
487067428 0.996155 box
487067528 0.996216 box
487067628 0.996399 box
487067728 0.997192 box
487067828 0.995178 box
487067928 0.997437 box
487068028 0.996033 box
487068128 0.994995 box
487068228 0.996948 box
487068328 0.996460 box
487068428 0.995789 box
487068528 0.997437 box
487068628 0.995667 box
487068728 0.994995 box
487068828 0.997253 box
487068928 0.996216 box
487069028 0.996948 box
487069128 0.995178 box
487069228 0.997009 box
487069328 0.995972 box
487069428 0.996948 box
487069528 0.996460 box
487069628 0.995300 box
487069728 0.997375 box
487069828 0.995789 box
487069928 0.996582 box
487070028 0.996521 box
487070128 0.995972 box
487070228 0.995911 box
487070328 0.996826 box
487070428 0.996887 box
487070528 0.996338 box
487070628 0.995911 box
487070728 0.997131 box
487070828 0.995728 box
487070928 0.996338 box
487071028 0.996399 box
487071128 0.995728 box
487071228 0.997070 box
487071328 0.996155 box
487071428 0.995361 box
487071528 0.997742 box
487071628 0.995300 box
487071728 0.997192 box
487071828 0.996338 box
487071928 0.994934 box
487072028 0.997009 box
487072128 0.996582 box
487072228 0.995178 box
487072328 0.996155 box
487072428 0.996521 box
487072528 0.995850 box
487072628 0.996582 box
487072728 0.995667 box
487072828 0.995728 box
487072928 0.996948 box
487073028 0.995789 box
487073128 0.996582 box
487073228 0.996521 box
487073328 0.996460 box
487073428 0.995483 box
487073528 0.997192 box
487073628 0.995972 box
487073728 0.997253 box
487073828 0.996277 box
487073928 0.996155 box
487074028 0.996155 box
487074128 0.995483 box
487074228 0.995972 box
487074328 0.997864 box
487074428 0.995056 box
487074528 0.996094 box
487074628 0.996155 box
487074728 0.996948 box
487074828 0.996277 box
487074928 0.996582 box
487075028 0.995850 box
487075128 0.995605 box
487075228 0.995789 box
487075328 0.995850 box
487075428 0.995911 box
487075528 0.997437 box
487075628 0.996216 box
487075728 0.996582 box
487075828 0.995911 box
487075928 0.996277 box
487076028 0.996094 box
487076128 0.996033 box
487076228 0.995972 box
487076328 0.996460 box
487076428 0.996033 box
487076528 0.995850 box
487076628 0.996460 box
487076728 0.997009 box
487076828 0.995972 box
487076928 0.995300 box
487077028 0.997192 box
487077128 0.995422 box
487077228 0.997681 box
487077328 0.996582 box
487077428 0.996216 box
487077528 0.995361 box
487077628 0.996338 box
487077728 0.996765 box
487077828 0.996155 box
487077928 0.996277 box
487078028 0.996033 box
487078128 0.996948 box
487078228 0.994751 box
487078328 0.997437 box
487078428 0.995422 box
487078528 0.996643 box
487078628 0.996582 box
487078728 0.995056 box
487078828 0.996582 box
487078928 0.996643 box
487079028 0.996216 box
487079128 0.996277 box
487079228 0.996704 box
487079328 0.996094 box
487079428 0.994446 box
487079528 0.997559 box
487079628 0.996582 box
487079728 0.995667 box
487079828 0.996155 box
487079928 0.995422 box
487080028 0.996887 box
487080128 0.999390 box
487080228 0.995972 box
487080328 0.950623 box
487080428 0.872559 box
487080528 0.850403 box
487080628 0.848877 box
487080728 0.847046 box
487080828 0.848877 box
487080928 0.847534 box
487081028 0.848816 box
487081128 0.847595 box
487081228 0.847839 box
487081328 0.845947 box
487081428 0.850647 box
487081528 0.850098 box
487081628 0.846802 box
487081728 0.847656 box
487081828 0.849243 box
487081928 0.850830 box
487082028 0.849976 box
487082128 0.847656 box
487082228 0.847717 box
487082328 0.850098 box
487082428 0.853271 box
487082528 0.848633 box
487082628 0.847229 box
487082728 0.849243 box
487082828 0.850220 box
487082928 0.848816 box
487083028 0.847229 box
487083128 0.847412 box
487083228 0.849060 box
487083328 0.848755 box
487083428 0.847595 box
487083528 0.846375 box
487083628 0.849060 box
487083728 0.846924 box
487083828 0.846680 box
487083928 0.848694 box
487084028 0.848877 box
487084128 0.849670 box
487084228 0.846680 box
487084328 0.848511 box
487084428 0.846130 box
487084528 0.849609 box
487084628 0.845520 box
487084728 0.847107 box
487084828 0.849182 box
487084928 0.847595 box
487085028 0.847229 box
487085128 0.848572 box
487085228 0.848572 box
487085328 0.850220 box
487085428 0.847839 box
487085528 0.846802 box
487085628 0.847290 box
487085728 0.847473 box
487085828 0.847595 box
487085928 0.848145 box
487086028 0.846497 box
487086128 0.846924 box
487086228 0.845459 box
487086328 0.844604 box
487086428 0.845520 box
487086528 0.843994 box
487086628 0.845764 box
487086728 0.844543 box
487086828 0.844299 box
487086928 0.849121 box
487087028 0.842468 box
487087128 0.843689 box
487087228 0.845398 box
487087328 0.846313 box
487087428 0.843994 box
487087528 0.843201 box
487087628 0.845764 box
487087728 0.842224 box
487087828 0.845215 box
487087928 0.842041 box
487088028 0.843567 box
487088128 0.846558 box
487088228 0.845642 box
487088328 0.843140 box
487088428 0.844177 box
487088528 0.844299 box
487088628 0.845581 box
487088728 0.849243 box
487088828 0.850769 box
487088928 0.848877 box
487089028 0.844604 box
487089128 0.836487 box
487089228 0.831238 box
487089328 0.830444 box
487089428 0.830872 box
487089528 0.832764 box
487089628 0.830505 box
487089728 0.829468 box
487089828 0.829346 box
487089928 0.830078 box
487090028 0.821777 box
487090128 0.812134 box
487090228 0.812561 box
487090328 0.811829 box
487090428 0.812317 box
487090528 0.811890 box
487090628 0.812195 box
487090728 0.811829 box
487090828 0.812500 box
487090928 0.815308 box
487091028 0.819336 box
487091128 0.817993 box
487091228 0.818237 box
487091328 0.819885 box
487091428 0.816467 box
487091528 0.842651 box
487091628 0.980347 box
487091728 0.982239 box
487091828 0.979797 box
487091928 0.980652 box
487092028 0.982117 box
487092128 0.983459 box
487092228 0.980896 box
487092328 0.982727 box
487092428 0.982971 box
487092528 0.981628 box
487092628 0.981689 box
487092728 0.981506 box
487092828 0.983459 box
487092928 0.981689 box
487093028 0.981567 box
487093128 0.979980 box
487093228 0.983337 box
487093328 0.980896 box
487093428 0.980652 box
487093528 0.980713 box
487093628 0.981384 box
487093728 0.979614 box
487093828 0.981079 box
487093928 0.979309 box
487094028 0.981628 box
487094128 0.982605 box
487094228 0.980835 box
487094328 0.980164 box
487094428 0.983765 box
487094528 0.956238 box
487094628 0.926208 box
487094728 0.966980 box
487094828 1.000610 box
487094928 0.996277 box
487095028 0.998840 box
487095128 0.994690 box
487095228 0.996277 box
487095328 0.991638 box
487095428 0.996765 box
487095528 0.975830 box
487095628 0.986511 box
487095728 0.996643 box
487095828 0.996948 box
487095928 0.995789 box
487096028 0.970947 box
487096128 0.993652 box
487096228 0.996643 box
487096328 0.995361 box
487096428 0.996582 box
487096528 0.967224 box
487096628 0.996338 box
487096728 0.996887 box
487096828 0.996643 box
487096928 0.987427 box
487097028 0.975647 box
487097128 0.997070 box
487097228 0.996582 box
487097328 0.995728 box
487097428 0.981018 box
487097528 0.986633 box
487097628 0.996216 box
487097728 0.996094 box
487097828 0.996338 box
487097928 0.976562 box
487098028 0.993713 box
487098128 0.996094 box
487098228 0.996582 box
487098328 1.001282 box
487098428 0.992676 box
487098528 1.002930 box
487098628 0.993164 box
487098728 0.996765 box
487098828 0.990723 box
487098928 0.964722 box
487099028 0.996399 box
487099128 0.995911 box
487099228 0.996094 box
487099328 0.995483 box
487099428 0.971375 box
487099528 0.996460 box
487099628 0.995605 box
487099728 0.996704 box
487099828 0.984070 box
487099928 0.980286 box
487100028 0.996460 box
487100128 0.996277 box
487100228 0.995850 box
487100328 0.976685 box
487100428 0.987244 box
487100528 0.996643 box
487100628 0.996887 box
487100728 0.995667 box
487100828 0.970520 box
487100928 0.994995 box
487101028 0.997253 box
487101128 0.996704 box
487101228 0.996704 box
487101328 0.965332 box
487101428 0.996948 box
487101528 0.997131 box
487101628 0.995667 box
487101728 0.995422 box
487101828 0.971436 box
487101928 0.996948 box
487102028 0.996887 box
487102128 0.996765 box
487102228 0.992432 box
487102328 0.999512 box
487102428 0.991699 box
487102528 0.995789 box
487102628 0.996277 box
487102728 0.983093 box
487102828 0.982605 box
487102928 0.995789 box
487103028 0.996399 box
487103128 0.996277 box
487103228 0.980530 box
487103328 0.980286 box
487103428 0.997437 box
487103528 0.995972 box
487103628 0.997681 box
487103728 0.973511 box
487103828 0.986694 box
487103928 0.996521 box
487104028 0.996399 box
487104128 0.996826 box
487104228 0.978943 box
487104328 0.990417 box
487104428 0.995789 box
487104528 0.996582 box
487104628 0.996338 box
487104728 0.974609 box
487104828 0.994263 box
487104928 0.995911 box
487105028 0.997131 box
487105128 0.996521 box
487105228 0.968201 box
487105328 0.998169 box
487105428 1.002441 box
487105528 0.996094 box
487105628 0.997131 box
487105728 0.994995 box
487105828 0.996033 box
487105928 0.996826 box
487106028 0.991028 box
487106128 0.995483 box
487106228 0.963562 box
487106328 0.997009 box
487106428 0.996216 box
487106528 0.997009 box
487106628 0.993530 box
487106728 0.969788 box
487106828 0.995789 box
487106928 0.995544 box
487107028 0.997192 box
487107128 0.992249 box
487107228 0.968323 box
487107328 0.997192 box
487107428 0.996338 box
487107528 0.995911 box
487107628 0.991333 box
487107728 0.976929 box
487107828 0.996521 box
487107928 0.996216 box
487108028 0.996582 box
487108128 0.985657 box
487108228 0.977722 box
487108328 0.996094 box
487108428 0.996277 box
487108528 0.996094 box
487108628 0.984253 box
487108728 0.978271 box
487108828 0.996521 box
487108928 0.997253 box
487109028 1.000305 box
487109128 0.992310 box
487109228 1.003601 box
487109328 0.993896 box
487109428 0.996643 box
487109528 0.990723 box
487109628 0.983276 box
487109728 0.978149 box
487109828 0.996094 box
487109928 0.996338 box
487110028 0.996399 box
487110128 0.983093 box
487110228 0.982544 box
487110328 0.996460 box
487110428 0.996399 box
487110528 0.995178 box
487110628 0.983154 box
487110728 0.979492 box
487110828 0.995728 box
487110928 0.996704 box
487111028 0.996033 box
487111128 0.983582 box
487111228 0.979187 box
487111328 0.995972 box
487111428 0.996338 box
487111528 0.998596 box
487111628 0.983459 box
487111728 0.983398 box
487111828 0.996399 box
487111928 0.996033 box
487112028 0.997314 box
487112128 0.980347 box
487112228 0.981079 box
487112328 0.997131 box
487112428 0.995361 box
487112528 1.001343 box
487112628 0.993042 box
487112728 1.000244 box
487112828 0.996704 box
487112928 0.997131 box
487113028 0.995911 box
487113128 0.975586 box
487113228 0.982544 box
487113328 0.996582 box
487113428 0.996277 box
487113528 0.995728 box
487113628 0.982361 box
487113728 0.982666 box
487113828 0.996521 box
487113928 0.996887 box
487114028 0.996094 box
487114128 0.981689 box
487114228 0.980286 box
487114328 0.997559 box
487114428 0.995972 box
487114528 0.996704 box
487114628 0.982117 box
487114728 0.980957 box
487114828 0.996582 box
487114928 0.997681 box
487115028 0.996338 box
487115128 0.981384 box
487115228 0.981262 box
487115328 0.996582 box
487115428 0.995972 box
487115528 0.995911 box
487115628 0.982361 box
487115728 0.980103 box
487115828 0.996643 box
487115928 0.996277 box
487116028 0.996643 box
487116128 0.996826 box
487116228 1.000122 box
487116328 0.998901 box
487116428 0.994751 box
487116528 0.996704 box
487116628 0.976624 box
487116728 0.978699 box
487116828 0.996521 box
487116928 0.996948 box
487117028 0.996155 box
487117128 0.983643 box
487117228 0.980530 box
487117328 0.995789 box
487117428 0.996399 box
487117528 0.996338 box
487117628 0.985352 box
487117728 0.978333 box
487117828 0.996887 box
487117928 0.996399 box
487118028 0.996338 box
487118128 0.987549 box
487118228 0.976562 box
487118328 0.996582 box
487118428 0.996521 box
487118528 0.996521 box
487118628 0.987610 box
487118728 0.976257 box
487118828 0.996155 box
487118928 0.996277 box
487119028 0.997070 box
487119128 0.987732 box
487119228 0.976624 box
487119328 0.996521 box
487119428 0.995728 box
487119528 0.996399 box
487119628 0.998779 box
487119728 0.999329 box
487119828 0.998901 box
487119928 0.993835 box
487120028 0.996948 box
487120128 0.988342 box
487120228 0.970276 box
487120328 0.995789 box
487120428 0.996277 box
487120528 0.996643 box
487120628 0.993530 box
487120728 0.968262 box
487120828 0.996826 box
487120928 0.996033 box
487121028 0.996399 box
487121128 0.994690 box
487121228 0.968994 box
487121328 0.996399 box
487121428 0.996277 box
487121528 0.996460 box
487121628 0.994995 box
487121728 0.969177 box
487121828 0.996338 box
487121928 0.996582 box
487122028 0.996399 box
487122128 0.995361 box
487122228 0.968445 box
487122328 0.995911 box
487122428 0.996826 box
487122528 0.996887 box
487122628 0.995300 box
487122728 0.966370 box
487122828 0.996521 box
487122928 0.996399 box
487123028 0.996582 box
487123128 1.000366 box
487123228 0.997681 box
487123328 0.996399 box
487123428 0.999268 box
487123528 0.993286 box
487123628 0.996155 box
487123728 0.974976 box
487123828 0.996765 box
487123928 0.995972 box
487124028 0.997131 box
487124128 0.995667 box
487124228 0.968140 box
487124328 0.996948 box
487124428 0.996094 box
487124528 0.996338 box
487124628 0.996704 box
487124728 0.966858 box
487124828 0.996277 box
487124928 0.997192 box
487125028 0.996521 box
487125128 0.996460 box
487125228 0.965698 box
487125328 0.996399 box
487125428 0.996704 box
487125528 0.997009 box
487125628 0.995850 box
487125728 0.965332 box
487125828 0.997986 box
487125928 0.995972 box
487126028 0.996704 box
487126128 0.996338 box
487126228 0.967041 box
487126328 0.996277 box
487126428 0.996460 box
487126528 0.995605 box
487126628 0.996826 box
487126728 0.991028 box
487126828 0.998657 box
487126928 0.999512 box
487127028 0.994507 box
487127128 0.996155 box
487127228 0.977966 box
487127328 0.997925 box
487127428 0.996216 box
487127528 0.996887 box
487127628 0.995667 box
487127728 0.966858 box
487127828 0.998901 box
487127928 0.996643 box
487128028 0.996094 box
487128128 0.996582 box
487128228 0.965088 box
487128328 0.998474 box
487128428 0.996399 box
487128528 0.996704 box
487128628 0.995972 box
487128728 0.967651 box
487128828 1.000122 box
487128928 0.995972 box
487129028 0.996277 box
487129128 0.996887 box
487129228 0.963135 box
487129328 0.999023 box
487129428 0.996643 box
487129528 0.995911 box
487129628 0.996643 box
487129728 0.964539 box
487129828 0.997742 box
487129928 0.996399 box
487130028 0.996033 box
487130128 0.997192 box
487130228 0.978638 box
487130328 0.999939 box
487130428 0.996216 box
487130528 0.997192 box
487130628 0.996399 box
487130728 0.993286 box
487130828 0.994568 box
487130928 0.996582 box
487131028 0.996826 box
487131128 0.996216 box
487131228 0.965942 box
487131328 0.998596 box
487131428 0.996765 box
487131528 0.995972 box
487131628 0.996338 box
487131728 0.969788 box
487131828 0.994995 box
487131928 0.996826 box
487132028 0.995911 box
487132128 0.996277 box
487132228 0.969421 box
487132328 0.995361 box
487132428 0.996216 box
487132528 0.996826 box
487132628 0.996643 box
487132728 0.968201 box
487132828 0.994507 box
487132928 0.996582 box
487133028 0.996948 box
487133128 0.995178 box
487133228 0.969727 box
487133328 0.995239 box
487133428 0.995422 box
487133528 0.996826 box
487133628 0.997131 box
487133728 0.972351 box
487133828 0.996948 box
487133928 0.996094 box
487134028 0.998657 box
487134128 0.994873 box
487134228 0.993103 box
487134328 0.993774 box
487134428 0.996765 box
487134528 0.996704 box
487134628 0.996155 box
487134728 0.976196 box
487134828 0.989258 box
487134928 0.996033 box
487135028 0.996155 box
487135128 0.995728 box
487135228 0.975830 box
487135328 0.988037 box
487135428 0.996094 box
487135528 0.996826 box
487135628 0.995972 box
487135728 0.974854 box
487135828 0.989197 box
487135928 0.995789 box
487136028 0.996704 box
487136128 0.996338 box
487136228 0.974487 box
487136328 0.989258 box
487136428 0.996826 box
487136528 0.995972 box
487136628 0.995667 box
487136728 0.976318 box
487136828 0.988831 box
487136928 0.996887 box
487137028 0.996155 box
487137128 0.995911 box
487137228 0.974915 box
487137328 0.994751 box
487137428 0.995544 box
487137528 0.999512 box
487137628 0.994568 box
487137728 0.994690 box
487137828 0.998657 box
487137928 0.990540 box
487138028 0.995728 box
487138128 0.996216 box
487138228 0.977356 box
487138328 0.986938 box
487138428 0.996887 box
487138528 0.996460 box
487138628 0.996094 box
487138728 0.979675 box
487138828 0.986572 box
487138928 0.996704 box
487139028 0.996216 box
487139128 0.996094 box
487139228 0.978882 box
487139328 0.985962 box
487139428 0.996643 box
487139528 0.996582 box
487139628 0.996887 box
487139728 0.978088 box
487139828 0.987244 box
487139928 0.995972 box
487140028 0.996216 box
487140128 0.996765 box
487140228 0.975586 box
487140328 0.988892 box
487140428 0.996460 box
487140528 0.996277 box
487140628 0.996765 box
487140728 0.974609 box
487140828 0.990295 box
487140928 1.001099 box
487141028 0.996094 box
487141128 0.998901 box
487141228 0.990112 box
487141328 1.000244 box
487141428 0.991943 box
487141528 0.996216 box
487141628 0.996582 box
487141728 0.978638 box
487141828 0.987671 box
487141928 0.996094 box
487142028 0.996704 box
487142128 0.996643 box
487142228 0.978577 box
487142328 0.985657 box
487142428 0.996948 box
487142528 0.995911 box
487142628 0.996094 box
487142728 0.981506 box
487142828 0.986694 box
487142928 0.995728 box
487143028 0.996338 box
487143128 0.995850 box
487143228 0.980164 box
487143328 0.985413 box
487143428 0.996460 box
487143528 0.996338 box
487143628 0.995544 box
487143728 0.981262 box
487143828 0.983276 box
487143928 0.997375 box
487144028 0.996460 box
487144128 0.996948 box
487144228 0.983093 box
487144328 0.982117 box
487144428 1.000977 box
487144528 0.995728 box
487144628 0.998901 box
487144728 0.990967 box
487144828 0.999634 box
487144928 0.991455 box
487145028 0.996338 box
487145128 0.997009 box
487145228 0.984009 box
487145328 0.979736 box
487145428 0.996704 box
487145528 0.996521 box
487145628 0.996338 box
487145728 0.984436 box
487145828 0.980530 box
487145928 0.995789 box
487146028 0.996155 box
487146128 0.997681 box
487146228 0.983276 box
487146328 0.981628 box
487146428 0.996826 box
487146528 0.996338 box
487146628 0.996765 box
487146728 0.986755 box
487146828 0.977539 box
487146928 0.996277 box
487147028 0.996948 box
487147128 0.996155 box
487147228 0.987854 box
487147328 0.978027 box
487147428 0.996460 box
487147528 0.996155 box
487147628 0.995789 box
487147728 0.989075 box
487147828 0.975830 box
487147928 1.001038 box
487148028 0.996155 box
487148128 0.996521 box
487148228 0.993469 box
487148328 0.999329 box
487148428 0.996399 box
487148528 0.990784 box
487148628 0.997192 box
487148728 0.989136 box
487148828 0.976929 box
487148928 0.996094 box
487149028 0.997192 box
487149128 0.995972 box
487149228 0.990112 box
487149328 0.976013 box
487149428 0.996521 box
487149528 0.996338 box
487149628 0.996521 box
487149728 0.991394 box
487149828 0.973450 box
487149928 0.996277 box
487150028 0.995972 box
487150128 0.997131 box
487150228 0.992859 box
487150328 0.971619 box
487150428 0.996948 box
487150528 0.996033 box
487150628 0.996948 box
487150728 0.993408 box
487150828 0.970093 box
487150928 0.995972 box
487151028 0.995544 box
487151128 0.997498 box
487151228 0.993713 box
487151328 0.971313 box
487151428 0.996033 box
487151528 1.001465 box
487151628 0.996399 box
487151728 0.997803 box
487151828 0.995422 box
487151928 0.996460 box
487152028 0.995667 box
487152128 0.990845 box
487152228 0.994934 box
487152328 0.969788 box
487152428 0.996765 box
487152528 0.995911 box
487152628 0.997131 box
487152728 0.995300 box
487152828 0.970215 box
487152928 0.996582 box
487153028 0.996582 box
487153128 0.995850 box
487153228 0.995911 box
487153328 0.969299 box
487153428 0.995911 box
487153528 0.996338 box
487153628 0.996704 box
487153728 0.995972 box
487153828 0.969666 box
487153928 0.996033 box
487154028 0.996277 box
487154128 0.996338 box
487154228 0.995300 box
487154328 0.969604 box
487154428 0.997192 box
487154528 0.995972 box
487154628 0.996033 box
487154728 0.996704 box
487154828 0.968445 box
487154928 0.996155 box
487155028 0.995911 box
487155128 1.001343 box
487155228 0.996155 box
487155328 0.996460 box
487155428 0.997131 box
487155528 0.996826 box
487155628 0.992065 box
487155728 0.995728 box
487155828 0.967468 box
487155928 0.997070 box
487156028 0.996277 box
487156128 0.996216 box
487156228 0.996338 box
487156328 0.969116 box
487156428 0.996643 box
487156528 0.996582 box
487156628 0.996094 box
487156728 0.996460 box
487156828 0.968140 box
487156928 0.997498 box
487157028 0.996460 box
487157128 0.996399 box
487157228 0.996460 box
487157328 0.968140 box
487157428 0.997314 box
487157528 0.998718 box
487157628 0.996399 box
487157728 0.996338 box
487157828 0.966064 box
487157928 0.999023 box
487158028 0.995544 box
487158128 0.996338 box
487158228 0.996582 box
487158328 0.965942 box
487158428 0.998535 box
487158528 0.996887 box
487158628 1.000732 box
487158728 0.996216 box
487158828 0.993530 box
487158928 1.000549 box
487159028 0.996460 box
487159128 0.996826 box
487159228 0.990479 box
487159328 0.970337 box
487159428 0.995972 box
487159528 0.996338 box
487159628 0.996155 box
487159728 0.996460 box
487159828 0.970398 box
487159928 0.993835 box
487160028 0.996582 box
487160128 0.996826 box
487160228 0.996094 box
487160328 0.972229 box
487160428 0.994202 box
487160528 0.996155 box
487160628 0.996216 box
487160728 0.996765 box
487160828 0.970337 box
487160928 0.994873 box
487161028 0.996399 box
487161128 0.996826 box
487161228 0.995667 box
487161328 0.972351 box
487161428 0.992981 box
487161528 0.995789 box
487161628 0.996521 box
487161728 0.995850 box
487161828 0.975403 box
487161928 0.991089 box
487162028 0.996643 box
487162128 0.995972 box
487162228 1.001709 box
487162328 0.995056 box
487162428 1.000549 box
487162528 0.993835 box
487162628 0.996460 box
487162728 0.990967 box
487162828 0.976379 box
487162928 0.988770 box
487163028 0.996399 box
487163128 0.996826 box
487163228 0.996643 box
487163328 0.974976 box
487163428 0.989746 box
487163528 0.996582 box
487163628 0.996399 box
487163728 0.996765 box
487163828 0.976135 box
487163928 0.989624 box
487164028 0.996216 box
487164128 0.996399 box
487164228 0.996399 box
487164328 0.976685 box
487164428 0.989441 box
487164528 0.996765 box
487164628 0.996643 box
487164728 0.996460 box
487164828 0.978271 box
487164928 0.987854 box
487165028 0.996521 box
487165128 0.995972 box
487165228 0.997192 box
487165328 0.977966 box
487165428 0.988159 box
487165528 0.996033 box
487165628 0.997009 box
487165728 1.001038 box
487165828 0.992493 box
487165928 1.002136 box
487166028 0.994934 box
487166128 0.996216 box
487166228 0.996765 box
487166328 0.975952 box
487166428 0.984131 box
487166528 0.996582 box
487166628 0.996521 box
487166728 0.996277 box
487166828 0.983704 box
487166928 0.983521 box
487167028 0.997192 box
487167128 0.995972 box
487167228 0.996704 box
487167328 0.982727 box
487167428 0.983521 box
487167528 0.996338 box
487167628 0.996704 box
487167728 0.996155 box
487167828 0.982910 box
487167928 0.982849 box
487168028 0.996277 box
487168128 0.996521 box
487168228 0.996521 box
487168328 0.985229 box
487168428 0.981750 box
487168528 0.996399 box
487168628 0.996216 box
487168728 0.996399 box
487168828 0.986389 box
487168928 0.980774 box
487169028 0.995850 box
487169128 0.996948 box
487169228 0.995911 box
487169328 0.997375 box
487169428 1.000549 box
487169528 0.998047 box
487169628 0.994812 box
487169728 0.995911 box
487169828 0.981873 box
487169928 0.982117 box
487170028 0.996033 box
487170128 0.996765 box
487170228 0.996216 box
487170328 0.985840 box
487170428 0.979065 box
487170528 0.996277 box
487170628 0.996338 box
487170728 0.996338 box
487170828 0.986877 box
487170928 0.978699 box
487171028 0.996460 box
487171128 0.996155 box
487171228 0.996277 box
487171328 0.988586 box
487171428 0.977966 box
487171528 0.996643 box
487171628 0.996582 box
487171728 0.996216 box
487171828 0.989258 box
487171928 0.976257 box
487172028 0.995850 box
487172128 0.997131 box
487172228 0.996521 box
487172328 0.991943 box
487172428 0.975952 box
487172528 0.996582 box
487172628 0.995972 box
487172728 0.996033 box
487172828 0.997314 box
487172928 0.999695 box
487173028 0.999451 box
487173128 0.994385 box
487173228 0.996399 box
487173328 0.990906 box
487173428 0.971497 box
487173528 0.997437 box
487173628 0.995972 box
487173728 0.996399 box
487173828 0.995239 box
487173928 0.970215 box
487174028 0.996033 box
487174128 0.996643 box
487174228 0.996399 box
487174328 0.995850 box
487174428 0.968994 box
487174528 0.995911 box
487174628 0.996887 box
487174728 0.995972 box
487174828 0.995911 box
487174928 0.973022 box
487175028 0.996521 box
487175128 0.996399 box
487175228 0.996704 box
487175328 0.995300 box
487175428 0.971008 box
487175528 0.996765 box
487175628 0.996338 box
487175728 0.996887 box
487175828 0.995422 box
487175928 0.970520 box
487176028 0.996460 box
487176128 0.996765 box
487176228 0.996033 box
487176328 1.001160 box
487176428 0.996460 box
487176528 0.996521 box
487176628 0.996948 box
487176728 0.995728 box
487176828 0.996216 box
487176928 0.969177 box
487177028 0.996704 box
487177128 0.996338 box
487177228 0.996521 box
487177328 0.996338 box
487177428 0.967224 box
487177528 0.997559 box
487177628 0.996216 box
487177728 0.996094 box
487177828 0.996826 box
487177928 0.967957 box
487178028 0.997559 box
487178128 0.996399 box
487178228 0.997375 box
487178328 0.995911 box
487178428 0.966125 box
487178528 0.999451 box
487178628 0.996582 box
487178728 0.996460 box
487178828 0.997009 box
487178928 0.968689 box
487179028 0.998047 box
487179128 0.996887 box
487179228 0.996155 box
487179328 0.996704 box
487179428 0.971436 box
487179528 0.994080 box
487179628 0.997070 box
487179728 0.996338 box
487179828 0.995361 box
487179928 0.997864 box
487180028 0.999634 box
487180128 0.999390 box
487180228 0.994385 box
487180328 0.995911 box
487180428 0.980347 box
487180528 0.994995 box
487180628 0.996704 box
487180728 0.995911 box
487180828 0.996460 box
487180928 0.974182 box
487181028 0.993530 box
487181128 0.995728 box
487181228 0.997070 box
487181328 0.996582 box
487181428 0.976379 box
487181528 0.990967 box
487181628 0.996399 box
487181728 0.996582 box
487181828 0.996033 box
487181928 0.976379 box
487182028 0.990417 box
487182128 0.996033 box
487182228 0.996460 box
487182328 0.997131 box
487182428 0.975098 box
487182528 0.991394 box
487182628 0.995300 box
487182728 0.996277 box
487182828 0.996460 box
487182928 0.975037 box
487183028 0.991394 box
487183128 0.996399 box
487183228 0.996399 box
487183328 0.996704 box
487183428 0.988403 box
487183528 0.998596 box
487183628 0.995972 box
487183728 0.996887 box
487183828 0.997131 box
487183928 0.994995 box
487184028 0.985352 box
487184128 0.996521 box
487184228 0.996704 box
487184328 0.996277 box
487184428 0.980530 box
487184528 0.986023 box
487184628 0.997131 box
487184728 0.996216 box
487184828 0.996399 box
487184928 0.978516 box
487185028 0.987610 box
487185128 0.996460 box
487185228 0.996643 box
487185328 0.996094 box
487185428 0.977295 box
487185528 0.988525 box
487185628 0.996216 box
487185728 0.996399 box
487185828 0.996277 box
487185928 0.975891 box
487186028 0.991333 box
487186128 0.996704 box
487186228 0.996460 box
487186328 0.995911 box
487186428 0.975098 box
487186528 0.990662 box
487186628 0.996033 box
487186728 0.996216 box
487186828 0.996460 box
487186928 0.980530 box
487187028 1.003296 box
487187128 0.996643 box
487187228 0.998474 box
487187328 0.994751 box
487187428 0.992859 box
487187528 0.995117 box
487187628 0.996094 box
487187728 0.996216 box
487187828 0.996643 box
487187928 0.978027 box
487188028 0.988281 box
487188128 0.997009 box
487188228 0.996521 box
487188328 0.995972 box
487188428 0.979126 box
487188528 0.986328 box
487188628 0.996216 box
487188728 0.996704 box
487188828 0.996643 box
487188928 0.980103 box
487189028 0.986389 box
487189128 0.996887 box
487189228 0.996277 box
487189328 0.997131 box
487189428 0.981812 box
487189528 0.984314 box
487189628 0.996155 box
487189728 0.996948 box
487189828 0.996033 box
487189928 0.983521 box
487190028 0.983521 box
487190128 0.996094 box
487190228 0.996277 box
487190328 0.996216 box
487190428 0.983398 box
487190528 0.988892 box
487190628 0.996765 box
487190728 0.998535 box
487190828 0.994080 box
487190928 0.992615 box
487191028 0.995117 box
487191128 0.996216 box
487191228 0.996887 box
487191328 0.995911 box
487191428 0.983398 box
487191528 0.982544 box
487191628 0.996582 box
487191728 0.996460 box
487191828 0.995850 box
487191928 0.985840 box
487192028 0.982178 box
487192128 0.996277 box
487192228 0.996399 box
487192328 0.996765 box
487192428 0.987366 box
487192528 0.979553 box
487192628 0.996399 box
487192728 0.996033 box
487192828 0.995972 box
487192928 0.988647 box
487193028 0.978699 box
487193128 0.996094 box
487193228 0.996948 box
487193328 0.995850 box
487193428 0.987671 box
487193528 0.977905 box
487193628 0.996155 box
487193728 0.997253 box
487193828 0.996155 box
487193928 0.988403 box
487194028 0.981995 box
487194128 0.996887 box
487194228 0.996277 box
487194328 0.998169 box
487194428 0.990906 box
487194528 1.000183 box
487194628 0.990845 box
487194728 0.996704 box
487194828 0.995972 box
487194928 0.993591 box
487195029 0.770447 box
