time(ms) energy(J) hostname
433887953 0.000000 box
433888053 1.244507 box
433888153 1.200073 box
433888253 1.199036 box
433888353 1.222412 box
433888453 1.213562 box
433888553 1.214050 box
433888653 1.213684 box
433888753 1.208374 box
433888853 1.244202 box
433888953 1.243286 box
433889053 1.246216 box
433889153 1.243896 box
433889253 1.245178 box
433889353 1.246399 box
433889453 1.243408 box
433889553 1.243896 box
433889653 1.245056 box
433889753 1.247681 box
433889853 1.245850 box
433889953 1.244263 box
433890053 1.246216 box
433890153 1.244812 box
433890253 1.245117 box
433890353 1.246155 box
433890453 1.245178 box
433890553 1.244629 box
433890653 1.246033 box
433890753 1.244751 box
433890853 1.244934 box
433890953 1.246582 box
433891053 1.244263 box
433891153 1.243164 box
433891253 1.245605 box
433891353 1.246033 box
433891453 1.244690 box
433891553 1.245361 box
433891653 1.244263 box
433891753 1.244568 box
433891853 1.246399 box
433891953 1.244568 box
433892053 1.242432 box
433892153 1.245972 box
433892253 1.244873 box
433892353 1.246826 box
433892453 1.244019 box
433892553 1.246582 box
433892653 1.245728 box
433892753 1.243774 box
433892853 1.246155 box
433892953 1.244324 box
433893053 1.245911 box
433893153 1.245728 box
433893253 1.245361 box
433893353 1.244141 box
433893453 1.247559 box
433893553 1.244751 box
433893653 1.243530 box
433893753 1.244812 box
433893853 1.245056 box
433893953 1.245911 box
433894053 1.244995 box
433894153 1.244812 box
433894253 1.244324 box
433894353 1.245544 box
433894453 1.244263 box
433894553 1.244690 box
433894653 1.245789 box
433894753 1.244812 box
433894853 1.246155 box
433894953 1.245850 box
433895053 1.245483 box
433895153 1.243652 box
433895253 1.244385 box
433895353 1.246460 box
433895453 1.244202 box
433895553 1.245239 box
433895653 1.245544 box
433895753 1.244812 box
433895853 1.245117 box
433895953 1.247009 box
433896053 1.244629 box
433896153 1.245239 box
433896253 1.245544 box
433896353 1.242920 box
433896453 1.245605 box
433896553 1.247192 box
433896653 1.242981 box
433896753 1.247253 box
433896853 1.244751 box
433896953 1.245239 box
433897053 1.244873 box
433897153 1.244629 box
433897253 1.244202 box
433897353 1.245850 box
433897453 1.246887 box
433897553 1.244873 box
433897653 1.243958 box
433897753 1.245117 box
433897853 1.245483 box
433897953 1.245117 box
433898053 1.245728 box
433898153 1.247559 box
433898253 1.243347 box
433898353 1.246582 box
433898453 1.245300 box
433898553 1.244934 box
433898653 1.244812 box
433898753 1.243958 box
433898853 1.244751 box
433898953 1.246582 box
433899053 1.243958 box
433899153 1.244263 box
433899253 1.247375 box
433899353 1.242859 box
433899453 1.245605 box
433899553 1.245850 box
433899653 1.243225 box
433899753 1.243164 box
433899853 1.247803 box
433899953 1.246887 box
433900053 1.244812 box
433900153 1.244202 box
433900253 1.246643 box
433900353 1.245117 box
433900453 1.245239 box
433900553 1.245544 box
433900653 1.243225 box
433900753 1.244873 box
433900853 1.246216 box
433900953 1.245789 box
433901053 1.244263 box
433901153 1.245361 box
433901253 1.244019 box
433901353 1.244812 box
433901453 1.246277 box
433901553 1.243347 box
433901653 1.245300 box
433901753 1.245361 box
433901853 1.244202 box
433901953 1.244751 box
433902053 1.245911 box
433902153 1.241272 box
433902253 1.245728 box
433902353 1.246948 box
433902453 1.246216 box
433902553 1.243713 box
433902653 1.245605 box
433902753 1.245117 box
433902853 1.245850 box
433902953 1.245728 box
433903053 1.245544 box
433903153 1.245239 box
433903253 1.245483 box
433903353 1.245544 box
433903453 1.245789 box
433903553 1.246399 box
433903653 1.243835 box
433903753 1.242615 box
433903853 1.246277 box
433903953 1.244629 box
433904053 1.243896 box
433904153 1.246216 box
433904253 1.244934 box
433904353 1.244446 box
433904453 1.245728 box
433904553 1.243408 box
433904653 1.244446 box
433904753 1.244934 box
433904853 1.247375 box
433904953 1.244202 box
433905053 1.246521 box
433905153 1.246521 box
433905253 1.242188 box
433905353 1.246399 box
433905453 1.246582 box
433905553 1.242737 box
433905653 1.246826 box
433905753 1.245972 box
433905853 1.244141 box
433905953 1.247498 box
433906053 1.244385 box
433906153 1.244324 box
433906253 1.246338 box
433906353 1.244934 box
433906453 1.245483 box
433906553 1.244202 box
433906653 1.245361 box
433906753 1.245117 box
433906853 1.244873 box
433906953 1.244751 box
433907053 1.244202 box
433907153 1.244080 box
433907253 1.244446 box
433907353 1.245483 box
433907453 1.246460 box
433907553 1.245056 box
433907653 1.246094 box
433907753 1.244019 box
433907853 1.243591 box
433907953 1.248108 box
433908053 1.244690 box
433908153 1.244629 box
433908253 1.246155 box
433908353 1.244263 box
433908453 1.244324 box
433908553 1.247131 box
433908653 1.244690 box
433908753 1.243652 box
433908853 1.244202 box
433908953 1.246338 box
433909053 1.244385 box
433909153 1.245972 box
433909253 1.244568 box
433909353 1.244324 box
433909453 1.246521 box
433909553 1.245789 box
433909653 1.243591 box
433909753 1.244446 box
433909853 1.245544 box
433909953 1.243286 box
433910053 1.245667 box
433910153 1.246338 box
433910253 1.245728 box
433910353 1.243591 box
433910453 1.244629 box
433910553 1.248047 box
433910653 1.244507 box
433910753 1.245056 box
433910853 1.246033 box
433910953 1.244385 box
433911053 1.244568 box
433911153 1.246582 box
433911253 1.243652 box
433911353 1.248291 box
433911453 1.244751 box
433911553 1.244080 box
433911653 1.244263 box
433911753 1.246948 box
433911853 1.243408 box
433911953 1.245361 box
433912053 1.246460 box
433912153 1.245850 box
433912253 1.244507 box
433912353 1.244873 box
433912453 1.244751 box
433912553 1.243408 box
433912653 1.245850 box
433912753 1.247681 box
433912853 1.246277 box
433912953 1.242859 box
433913053 1.245300 box
433913153 1.245056 box
433913253 1.244934 box
433913353 1.245300 box
433913453 1.245605 box
433913553 1.243835 box
433913653 1.246094 box
433913753 1.246399 box
433913853 1.245056 box
433913953 1.244995 box
433914053 1.245483 box
433914153 1.243713 box
433914253 1.244141 box
433914353 1.247620 box
433914453 1.243896 box
433914553 1.244080 box
433914653 1.246155 box
433914753 1.244141 box
433914853 1.243591 box
433914953 1.246948 box
433915053 1.245361 box
433915153 1.243042 box
433915253 1.245544 box
433915353 1.245850 box
433915453 1.247009 box
433915553 1.244019 box
433915653 1.245117 box
433915753 1.247681 box
433915853 1.244141 box
433915953 1.245483 box
433916053 1.246277 box
433916153 1.242798 box
433916253 1.244751 box
433916353 1.246460 box
433916453 1.243225 box
433916553 1.245728 box
433916653 1.246460 box
433916753 1.243835 box
433916853 1.244690 box
433916953 1.245483 box
433917053 1.246338 box
433917153 1.244690 box
433917253 1.243591 box
433917353 1.247070 box
433917453 1.243958 box
433917553 1.244690 box
433917653 1.245605 box
433917753 1.246582 box
433917853 1.244873 box
433917953 1.242859 box
433918053 1.246033 box
433918153 1.245544 box
433918253 1.246948 box
433918353 1.244934 box
433918453 1.243713 box
433918553 1.245911 box
433918653 1.246704 box
433918753 1.242126 box
433918853 1.245483 box
433918953 1.246704 box
433919053 1.244324 box
433919153 1.244141 box
433919253 1.245544 box
433919353 1.244995 box
433919453 1.244202 box
433919553 1.244507 box
433919653 1.247009 box
433919753 1.245422 box
433919853 1.243469 box
433919953 1.244629 box
433920053 1.246826 box
433920153 1.243774 box
433920253 1.245422 box
433920353 1.244507 box
433920453 1.245789 box
433920553 1.242554 box
433920653 1.245117 box
433920753 1.246399 box
433920853 1.245300 box
433920953 1.244141 box
433921053 1.244324 box
433921153 1.246643 box
433921253 1.244568 box
433921353 1.245422 box
433921453 1.246338 box
433921553 1.244202 box
433921653 1.246155 box
433921753 1.244751 box
433921853 1.243896 box
433921953 1.247375 box
433922053 1.245117 box
433922153 1.244751 box
433922253 1.244812 box
433922353 1.246460 box
433922453 1.244385 box
433922553 1.244812 box
433922653 1.246582 box
433922753 1.245728 box
433922853 1.244324 box
433922953 1.242981 box
433923053 1.245422 box
433923153 1.246216 box
433923253 1.244324 box
433923353 1.245544 box
433923453 1.246460 box
433923553 1.243896 box
433923653 1.245300 box
433923753 1.246155 box
433923853 1.244385 box
433923953 1.244934 box
433924053 1.245300 box
433924153 1.245178 box
433924253 1.245056 box
433924353 1.244446 box
433924453 1.246277 box
433924553 1.246094 box
433924653 1.246582 box
433924753 1.243958 box
433924853 1.244080 box
433924953 1.246460 box
433925053 1.247314 box
433925153 1.243591 box
433925253 1.245728 box
433925353 1.245178 box
433925453 1.248535 box
433925553 1.243835 box
433925653 1.245483 box
433925753 1.245178 box
433925853 1.245117 box
433925953 1.245483 box
433926053 1.245850 box
433926153 1.244934 box
433926253 1.245178 box
433926353 1.245728 box
433926453 1.246704 box
433926553 1.244202 box
433926653 1.244812 box
433926753 1.245667 box
433926853 1.246765 box
433926953 1.244202 box
433927053 1.244385 box
433927153 1.245850 box
433927253 1.243164 box
433927353 1.243347 box
433927453 1.244568 box
433927553 1.246826 box
433927653 1.246948 box
433927753 1.245483 box
433927853 1.243958 box
433927953 1.245850 box
433928053 1.245300 box
433928153 1.244873 box
433928253 1.244934 box
433928353 1.246948 box
433928453 1.244751 box
433928553 1.243896 box
433928653 1.245361 box
433928753 1.245850 box
433928853 1.245178 box
433928953 1.244507 box
433929053 1.246582 box
433929153 1.244934 box
433929253 1.242310 box
433929353 1.245789 box
433929453 1.246216 box
433929553 1.245361 box
433929653 1.241577 box
433929753 1.245422 box
433929853 1.245728 box
433929953 1.245361 box
433930053 1.243652 box
433930153 1.246582 box
433930253 1.246460 box
433930353 1.243591 box
433930453 1.243774 box
433930553 1.244995 box
433930653 1.247559 box
433930753 1.245239 box
433930853 1.244751 box
433930953 1.246765 box
433931053 1.246338 box
433931153 1.243103 box
433931253 1.245483 box
433931353 1.246399 box
433931453 1.244934 box
433931553 1.244507 box
433931653 1.245728 box
433931753 1.246338 box
433931853 1.244446 box
433931953 1.245911 box
433932053 1.246399 box
433932153 1.244202 box
433932253 1.244324 box
433932353 1.244446 box
433932453 1.246460 box
433932553 1.244324 box
433932653 1.243713 box
433932753 1.245117 box
433932853 1.246399 box
433932953 1.243652 box
433933053 1.245117 box
433933153 1.246277 box
433933253 1.245483 box
433933353 1.244202 box
433933453 1.245667 box
433933553 1.245300 box
433933653 1.246155 box
433933753 1.245728 box
433933853 1.244873 box
433933953 1.246094 box
433934053 1.245422 box
433934153 1.244934 box
433934253 1.245056 box
433934353 1.246704 box
433934453 1.244690 box
433934553 1.243408 box
433934653 1.245117 box
433934753 1.246399 box
433934853 1.244507 box
433934953 1.244385 box
433935053 1.247498 box
433935153 1.245239 box
433935253 1.243713 box
433935353 1.244995 box
433935453 1.247009 box
433935553 1.243286 box
433935653 1.246460 box
433935753 1.245239 box
433935853 1.245544 box
433935953 1.243591 box
433936053 1.244385 box
433936153 1.246277 box
433936253 1.244690 box
433936353 1.243958 box
433936453 1.245605 box
433936553 1.244202 box
433936653 1.245850 box
433936753 1.245667 box
433936853 1.247375 box
433936953 1.243713 box
433937053 1.245178 box
433937153 1.246887 box
433937253 1.243958 box
433937353 1.245972 box
433937453 1.245911 box
433937553 1.244324 box
433937653 1.243835 box
433937753 1.245239 box
433937853 1.247314 box
433937953 1.243652 box
433938053 1.244629 box
433938153 1.246582 box
433938253 1.243958 box
433938353 1.245239 box
433938453 1.246216 box
433938553 1.243042 box
433938653 1.245239 box
433938753 1.246887 box
433938853 1.243652 box
433938953 1.243958 box
433939053 1.246033 box
433939153 1.243835 box
433939253 1.243347 box
433939353 1.247009 box
433939453 1.247192 box
433939553 1.247131 box
433939653 1.244141 box
433939753 1.245789 box
433939853 1.246521 box
433939953 1.244568 box
433940053 1.246643 box
433940153 1.246399 box
433940253 1.243896 box
433940353 1.246521 box
433940453 1.244263 box
433940553 1.246277 box
433940653 1.244995 box
433940753 1.245544 box
433940853 1.244568 box
433940953 1.244324 box
433941053 1.247925 box
433941153 1.242920 box
433941253 1.244385 box
433941353 1.246704 box
433941453 1.243835 box
433941553 1.245667 box
433941653 1.246338 box
433941753 1.245056 box
433941853 1.244202 box
433941953 1.245178 box
433942053 1.247498 box
433942153 1.245972 box
433942253 1.243835 box
433942353 1.245728 box
433942453 1.246582 box
433942553 1.245972 box
433942653 1.244263 box
433942753 1.247009 box
433942853 1.244568 box
433942953 1.244263 box
433943053 1.246521 box
433943153 1.246338 box
433943253 1.244446 box
433943353 1.246460 box
433943453 1.245239 box
433943553 1.244812 box
433943653 1.245972 box
433943753 1.245789 box
433943853 1.242249 box
433943953 1.246155 box
433944053 1.244629 box
433944153 1.244202 box
433944253 1.245117 box
433944353 1.245850 box
433944453 1.243835 box
433944553 1.244080 box
433944653 1.245361 box
433944753 1.247742 box
433944853 1.244019 box
433944953 1.244446 box
433945053 1.246826 box
433945153 1.243164 box
433945253 1.245911 box
433945353 1.247192 box
433945453 1.244385 box
433945553 1.245728 box
433945653 1.245728 box
433945753 1.244080 box
433945853 1.244690 box
433945953 1.246582 box
433946053 1.244995 box
433946153 1.242310 box
433946253 1.245728 box
433946353 1.245972 box
433946453 1.245911 box
433946553 1.245789 box
433946653 1.245483 box
433946753 1.244263 box
433946853 1.246094 box
433946953 1.246216 box
433947053 1.243958 box
433947153 1.244751 box
433947253 1.245361 box
433947353 1.246582 box
433947453 1.245667 box
433947553 1.246582 box
433947653 1.244995 box
433947753 1.244507 box
433947853 1.245605 box
433947953 1.245850 box
433948053 1.245544 box
433948153 1.244385 box
433948253 1.246704 box
433948353 1.244324 box
433948453 1.245178 box
433948553 1.247131 box
433948653 1.243896 box
433948753 1.243713 box
433948853 1.246155 box
433948953 1.244507 box
433949053 1.245667 box
433949153 1.244263 box
433949253 1.245178 box
433949353 1.244263 box
433949453 1.246582 box
433949553 1.245117 box
433949653 1.244507 box
433949753 1.244690 box
433949853 1.244629 box
433949953 1.245667 box
433950053 1.246521 box
433950153 1.245850 box
433950253 1.246521 box
433950353 1.245422 box
433950454 1.246643 box
433950553 1.246765 box
433950653 1.243286 box
433950753 1.245728 box
433950853 1.247009 box
433950953 1.244019 box
433951053 1.245117 box
433951153 1.246887 box
433951253 1.244629 box
433951353 1.245605 box
433951453 1.245483 box
433951553 1.244934 box
433951653 1.245728 box
433951753 1.245544 box
433951853 1.243835 box
433951953 1.245117 box
433952053 1.245911 box
433952153 1.245544 box
433952253 1.245056 box
433952353 1.245728 box
433952453 1.244812 box
433952553 1.243347 box
433952653 1.246521 box
433952753 1.246948 box
433952853 1.245850 box
433952953 1.247009 box
433953053 1.245667 box
433953153 1.246643 box
433953253 1.245239 box
433953353 1.246643 box
433953453 1.244629 box
433953553 1.243713 box
433953653 1.245789 box
433953753 1.245911 box
433953853 1.244629 box
433953953 1.245178 box
433954053 1.244385 box
433954153 1.244873 box
433954253 1.247620 box
433954353 1.243591 box
433954453 1.244629 box
433954553 1.246155 box
433954653 1.246521 box
433954753 1.243713 box
433954853 1.247070 box
433954953 1.244568 box
433955053 1.243469 box
433955153 1.244629 box
433955253 1.247864 box
433955353 1.246155 box
433955453 1.243591 box
433955553 1.245972 box
433955653 1.245605 box
433955753 1.245850 box
433955853 1.245239 box
433955953 1.246216 box
433956053 1.244080 box
433956153 1.245789 box
433956253 1.246582 box
433956353 1.245361 box
433956453 1.244629 box
433956553 1.245667 box
433956653 1.243530 box
433956753 1.244507 box
433956853 1.246460 box
433956953 1.245178 box
433957053 1.244324 box
433957153 1.245361 box
433957253 1.244995 box
433957353 1.245178 box
433957453 1.246521 box
433957553 1.244995 box
433957653 1.243835 box
433957753 1.246033 box
433957853 1.245667 box
433957953 1.246216 box
433958053 1.244019 box
433958153 1.246033 box
433958253 1.245850 box
433958353 1.244141 box
433958453 1.244690 box
433958553 1.245667 box
433958653 1.244751 box
433958753 1.246338 box
433958853 1.245056 box
433958953 1.244812 box
433959053 1.246460 box
433959153 1.246521 box
433959253 1.244019 box
433959353 1.244080 box
433959453 1.245728 box
433959553 1.244568 box
433959653 1.244202 box
433959753 1.246094 box
433959853 1.244446 box
433959953 1.245300 box
433960053 1.245850 box
433960153 1.245483 box
433960253 1.243347 box
433960353 1.246704 box
433960453 1.244873 box
433960553 1.248657 box
433960653 1.244263 box
433960753 1.246033 box
433960853 1.246033 box
433960953 1.242981 box
433961053 1.247375 box
433961153 1.245850 box
433961253 1.243652 box
433961353 1.245667 box
433961453 1.246826 box
433961553 1.244507 box
433961653 1.245300 box
433961753 1.246277 box
433961853 1.244751 box
433961953 1.244568 box
433962053 1.246094 box
433962153 1.244446 box
433962253 1.246582 box
433962353 1.245178 box
433962453 1.244080 box
433962553 1.244385 box
433962653 1.246948 box
433962753 1.243408 box
433962853 1.245056 box
433962953 1.245850 box
433963053 1.244019 box
433963153 1.246216 box
433963253 1.246155 box
433963353 1.246582 box
433963453 1.244995 box
433963553 1.245178 box
433963653 1.246216 box
433963753 1.245239 box
433963853 1.243774 box
433963953 1.246765 box
433964053 1.245300 box
433964153 1.243713 box
433964253 1.244934 box
433964353 1.246948 box
433964453 1.244202 box
433964553 1.245361 box
433964653 1.246277 box
433964753 1.244263 box
433964853 1.246033 box
433964953 1.245422 box
433965053 1.245239 box
433965153 1.244812 box
433965253 1.246033 box
433965353 1.244812 box
433965453 1.244080 box
433965553 1.245972 box
433965653 1.243835 box
433965753 1.245178 box
433965853 1.247253 box
433965953 1.245667 box
433966053 1.244507 box
433966153 1.244751 box
433966253 1.247192 box
433966353 1.244934 box
433966453 1.244934 box
433966553 1.245789 box
433966653 1.245056 box
433966753 1.244629 box
433966853 1.246155 box
433966953 1.246338 box
433967053 1.244934 box
433967153 1.245239 box
433967253 1.248535 box
433967353 1.243591 box
433967453 1.246582 box
433967553 1.244324 box
433967653 1.244812 box
433967753 1.246094 box
433967853 1.245300 box
433967953 1.244995 box
433968053 1.246216 box
433968153 1.244568 box
433968253 1.241699 box
433968353 1.246765 box
433968453 1.248352 box
433968553 1.244385 box
433968653 1.243713 box
433968753 1.245972 box
433968853 1.247131 box
433968953 1.243591 box
433969053 1.245972 box
433969153 1.246643 box
433969253 1.244019 box
433969353 1.245972 box
433969453 1.245850 box
433969553 1.244629 box
433969653 1.246033 box
433969753 1.244629 box
433969853 1.243042 box
433969953 1.246155 box
433970053 1.244934 box
433970153 1.242432 box
433970253 1.245789 box
433970353 1.245178 box
433970453 1.243958 box
433970553 1.245667 box
433970653 1.244324 box
433970753 1.245117 box
433970853 1.244385 box
433970953 1.245544 box
433971053 1.247559 box
433971153 1.244751 box
433971253 1.245178 box
433971353 1.247253 box
433971453 1.245178 box
433971553 1.244812 box
433971653 1.245728 box
433971753 1.243286 box
433971853 1.245728 box
433971953 1.245789 box
433972053 1.244873 box
433972153 1.245605 box
433972253 1.246460 box
433972353 1.243042 box
433972453 1.246460 box
433972553 1.246033 box
433972653 1.244812 box
433972753 1.244507 box
433972853 1.244080 box
433972953 1.245667 box
433973053 1.196899 box
433973153 1.194824 box
433973253 1.212769 box
433973353 1.208923 box
433973453 1.217163 box
433973553 1.212891 box
433973653 1.222046 box
433973753 1.204224 box
433973853 1.244080 box
433973953 1.239807 box
433974053 1.244324 box
433974153 1.244629 box
433974253 1.246094 box
433974353 1.243469 box
433974453 1.245117 box
433974553 1.245239 box
433974653 1.247498 box
433974753 1.245300 box
433974853 1.244934 box
433974953 1.245728 box
433975053 1.245361 box
433975153 1.245850 box
433975253 1.245544 box
433975353 1.244751 box
433975453 1.243958 box
433975553 1.246216 box
433975653 1.244141 box
433975753 1.245056 box
433975853 1.247375 box
433975953 1.245544 box
433976053 1.243530 box
433976153 1.245789 box
433976253 1.245544 box
433976353 1.246338 box
433976453 1.245789 box
433976553 1.243713 box
433976653 1.244995 box
433976753 1.246399 box
433976853 1.244568 box
433976953 1.244568 box
433977053 1.246216 box
433977153 1.244873 box
433977253 1.246277 box
433977353 1.245911 box
433977453 1.245728 box
433977553 1.245117 box
433977653 1.244324 box
433977753 1.246765 box
433977853 1.245789 box
433977953 1.244995 box
433978053 1.246399 box
433978153 1.245239 box
433978253 1.244995 box
433978353 1.245850 box
433978453 1.245544 box
433978553 1.245972 box
433978653 1.244507 box
433978753 1.244995 box
433978853 1.243774 box
433978953 1.247681 box
433979053 1.243774 box
433979153 1.244080 box
433979253 1.245422 box
433979353 1.246094 box
433979453 1.244629 box
433979553 1.245850 box
433979653 1.245300 box
433979753 1.243286 box
433979853 1.245789 box
433979953 1.247009 box
433980053 1.246216 box
433980153 1.242920 box
433980253 1.246887 box
433980353 1.246704 box
433980453 1.242859 box
433980553 1.245544 box
433980653 1.245728 box
433980753 1.246460 box
433980853 1.245422 box
433980953 1.245789 box
433981053 1.244507 box
433981153 1.245972 box
433981253 1.244812 box
433981353 1.244629 box
433981453 1.245605 box
433981553 1.246399 box
433981653 1.243225 box
433981753 1.246338 box
433981853 1.245361 box
433981953 1.245117 box
433982053 1.244263 box
433982153 1.245911 box
433982253 1.244934 box
433982353 1.243530 box
433982453 1.246765 box
433982553 1.246521 box
433982653 1.244080 box
433982753 1.245850 box
433982853 1.245239 box
433982953 1.245972 box
433983053 1.245667 box
433983153 1.245544 box
433983253 1.244995 box
433983353 1.244629 box
433983453 1.246338 box
433983553 1.245789 box
433983653 1.244812 box
433983753 1.245667 box
433983853 1.243469 box
433983953 1.245789 box
433984053 1.247009 box
433984153 1.243591 box
433984253 1.245422 box
433984353 1.246643 box
433984453 1.244263 box
433984553 1.244446 box
433984653 1.245483 box
433984753 1.244446 box
433984853 1.242920 box
433984953 1.246155 box
433985053 1.246948 box
433985153 1.243958 box
433985253 1.245178 box
433985353 1.247925 box
433985454 1.245422 box
433985553 1.245605 box
433985653 1.245483 box
433985753 1.243591 box
433985853 1.244934 box
433985953 1.246399 box
433986053 1.244446 box
433986153 1.245544 box
433986253 1.247009 box
433986353 1.242920 box
433986453 1.245178 box
433986553 1.246033 box
433986653 1.245239 box
433986753 1.244995 box
433986853 1.245911 box
433986953 1.244263 box
433987053 1.245300 box
433987153 1.246338 box
433987253 1.243591 box
433987353 1.244507 box
433987453 1.244568 box
433987553 1.247437 box
433987653 1.244080 box
433987753 1.245056 box
433987853 1.246399 box
433987953 1.242615 box
433988053 1.247314 box
433988153 1.246033 box
433988253 1.244751 box
433988353 1.246094 box
433988453 1.244995 box
433988553 1.245239 box
433988653 1.245911 box
433988753 1.245605 box
433988853 1.244080 box
433988953 1.245056 box
433989053 1.245544 box
433989153 1.244934 box
433989253 1.245422 box
433989353 1.245972 box
433989453 1.244385 box
433989553 1.245911 box
433989653 1.245544 box
433989753 1.244507 box
433989853 1.245544 box
433989953 1.244934 box
433990053 1.245850 box
433990153 1.245117 box
433990253 1.245972 box
433990353 1.245361 box
433990453 1.245850 box
433990553 1.245422 box
433990653 1.245789 box
433990753 1.243896 box
433990853 1.245117 box
433990953 1.246521 box
433991053 1.244690 box
433991153 1.246094 box
433991253 1.247559 box
433991353 1.243896 box
433991453 1.245422 box
433991553 1.244995 box
433991653 1.244202 box
433991753 1.247742 box
433991853 1.243347 box
433991953 1.244202 box
433992053 1.246277 box
433992153 1.245850 box
433992253 1.243774 box
433992353 1.245728 box
433992453 1.244751 box
433992553 1.244812 box
433992653 1.246826 box
433992753 1.246155 box
433992853 1.245850 box
433992953 1.243896 box
433993053 1.246094 box
433993153 1.246765 box
433993253 1.244751 box
433993353 1.245483 box
433993453 1.246826 box
433993553 1.243530 box
433993653 1.245850 box
433993753 1.245972 box
433993853 1.245422 box
433993953 1.245605 box
433994053 1.244202 box
433994153 1.244995 box
433994253 1.247437 box
433994353 1.243652 box
433994453 1.247620 box
433994553 1.246399 box
433994653 1.246094 box
433994753 1.243469 box
433994853 1.246277 box
433994953 1.245544 box
433995053 1.243103 box
433995153 1.246582 box
433995253 1.247192 box
433995353 1.245667 box
433995453 1.244141 box
433995553 1.246277 box
433995653 1.246033 box
433995753 1.245667 box
433995853 1.246399 box
433995953 1.244141 box
433996053 1.244568 box
433996153 1.245972 box
433996253 1.244995 box
433996353 1.245239 box
433996453 1.245911 box
433996553 1.244507 box
433996653 1.245117 box
433996753 1.246643 box
433996853 1.243530 box
433996953 1.246948 box
433997053 1.245300 box
433997153 1.244019 box
433997253 1.246338 box
433997353 1.244568 box
433997453 1.243164 box
433997553 1.244080 box
433997653 1.247253 box
433997753 1.246887 box
433997853 1.244263 box
433997953 1.245361 box
433998053 1.245361 box
433998153 1.245789 box
433998253 1.246277 box
433998353 1.245178 box
433998453 1.245544 box
433998553 1.245911 box
433998653 1.245361 box
433998753 1.244568 box
433998853 1.247253 box
433998953 1.243530 box
433999053 1.244568 box
433999153 1.245361 box
433999253 1.246033 box
433999353 1.243958 box
433999453 1.245300 box
433999553 1.244324 box
433999653 1.245178 box
433999753 1.245667 box
433999853 1.245728 box
433999953 1.244629 box
434000053 1.245361 box
434000153 1.247314 box
434000253 1.244385 box
434000353 1.244568 box
434000453 1.247070 box
434000553 1.243408 box
434000653 1.246155 box
434000753 1.246765 box
434000853 1.243164 box
434000953 1.245911 box
434001053 1.245544 box
434001153 1.244507 box
434001253 1.247253 box
434001353 1.244995 box
434001453 1.243958 box
434001553 1.245239 box
434001653 1.244934 box
434001753 1.244263 box
434001853 1.245239 box
434001953 1.245239 box
434002053 1.244446 box
434002153 1.246460 box
434002253 1.244568 box
434002353 1.244873 box
434002453 1.244141 box
434002553 1.246643 box
434002653 1.245667 box
434002753 1.245728 box
434002853 1.246460 box
434002953 1.244690 box
434003053 1.244812 box
434003153 1.246582 box
434003253 1.243774 box
434003353 1.245239 box
434003453 1.246277 box
434003553 1.245239 box
434003653 1.245850 box
434003753 1.246033 box
434003853 1.244263 box
434003953 1.245850 box
434004053 1.244446 box
434004153 1.245728 box
434004253 1.244446 box
434004353 1.245605 box
434004453 1.243530 box
434004553 1.246765 box
434004653 1.244141 box
434004753 1.245605 box
434004853 1.246155 box
434004953 1.244690 box
434005053 1.245056 box
434005153 1.246887 box
434005253 1.245667 box
434005353 1.244629 box
434005453 1.244202 box
434005553 1.248352 box
434005653 1.243713 box
434005753 1.245605 box
434005853 1.245972 box
434005953 1.244019 box
434006053 1.245728 box
434006153 1.245972 box
434006253 1.244202 box
434006353 1.245911 box
434006453 1.244019 box
434006553 1.245178 box
434006653 1.246521 box
434006753 1.244202 box
434006853 1.243713 box
434006953 1.247253 box
434007053 1.244141 box
434007153 1.245850 box
434007253 1.245056 box
434007353 1.243530 box
434007453 1.245117 box
434007553 1.247803 box
434007653 1.245056 box
434007753 1.245789 box
434007853 1.244507 box
434007953 1.247192 box
434008053 1.243042 box
434008153 1.245972 box
434008253 1.245789 box
434008353 1.247070 box
434008453 1.246887 box
434008553 1.244873 box
434008653 1.246643 box
434008753 1.245605 box
434008853 1.245056 box
434008953 1.243896 box
434009053 1.247253 box
434009153 1.244019 box
434009253 1.244751 box
434009353 1.246155 box
434009453 1.245361 box
434009553 1.245667 box
434009653 1.244934 box
434009753 1.244019 box
434009853 1.243835 box
434009953 1.248230 box
434010053 1.245117 box
434010153 1.243835 box
434010253 1.246826 box
434010353 1.246826 box
434010453 1.243591 box
434010553 1.246033 box
434010653 1.244751 box
434010753 1.245483 box
434010853 1.246277 box
434010953 1.245056 box
434011053 1.245605 box
434011153 1.247009 box
434011253 1.243896 box
434011353 1.244751 box
434011453 1.247192 box
434011553 1.242737 box
434011653 1.246643 box
434011753 1.246399 box
434011853 1.244141 box
434011953 1.246216 box
434012053 1.244690 box
434012153 1.245544 box
434012253 1.244812 box
434012353 1.247314 box
434012453 1.245361 box
434012553 1.244568 box
434012653 1.247070 box
434012753 1.246033 box
434012853 1.243713 box
434012953 1.245789 box
434013053 1.244507 box
434013153 1.245728 box
434013253 1.246399 box
434013353 1.244934 box
434013453 1.245850 box
434013553 1.245422 box
434013653 1.243286 box
434013753 1.246765 box
434013853 1.245605 box
434013953 1.242188 box
434014053 1.246521 box
434014153 1.244995 box
434014253 1.244873 box
434014353 1.246582 box
434014453 1.245178 box
434014553 1.243652 box
434014653 1.245056 box
434014753 1.247375 box
434014853 1.246094 box
434014953 1.244629 box
434015053 1.246826 box
434015153 1.244751 box
434015253 1.244995 box
434015353 1.245972 box
434015453 1.244019 box
434015553 1.245911 box
434015653 1.245422 box
434015753 1.244629 box
434015853 1.246643 box
434015953 1.245544 box
434016053 1.244385 box
434016153 1.245117 box
434016253 1.245605 box
434016353 1.245178 box
434016453 1.244995 box
434016553 1.244446 box
434016653 1.245483 box
434016753 1.246521 box
434016853 1.243042 box
434016953 1.246765 box
434017053 1.243591 box
434017153 1.247009 box
434017253 1.245422 box
434017353 1.246582 box
434017453 1.246094 box
434017553 1.243896 box
434017653 1.247742 box
434017753 1.245117 box
434017853 1.244995 box
434017953 1.246033 box
434018053 1.243652 box
434018153 1.244812 box
434018253 1.247742 box
434018353 1.244202 box
434018453 1.245361 box
434018553 1.246277 box
434018653 1.244690 box
434018753 1.245117 box
434018853 1.245178 box
434018953 1.244385 box
434019053 1.246521 box
434019153 1.245361 box
434019253 1.244141 box
434019353 1.246277 box
434019453 1.244690 box
434019553 1.245789 box
434019653 1.247192 box
434019753 1.246582 box
434019853 1.243530 box
434019953 1.244934 box
434020053 1.249207 box
434020153 1.243042 box
434020253 1.245728 box
434020353 1.245789 box
434020453 1.243713 box
434020553 1.245728 box
434020653 1.247864 box
434020753 1.245117 box
434020853 1.243652 box
434020953 1.246399 box
434021053 1.246460 box
434021153 1.246155 box
434021253 1.244263 box
434021353 1.245117 box
434021453 1.245300 box
434021553 1.246155 box
434021653 1.245483 box
434021753 1.245117 box
434021853 1.243896 box
434021953 1.246704 box
434022053 1.247070 box
434022153 1.244751 box
434022253 1.245300 box
434022353 1.246826 box
434022453 1.244995 box
434022553 1.244202 box
434022653 1.245728 box
434022753 1.246582 box
434022853 1.245850 box
434022953 1.246399 box
434023053 1.246277 box
434023153 1.244995 box
434023253 1.244141 box
434023353 1.245361 box
434023453 1.246887 box
434023553 1.242920 box
434023653 1.246460 box
434023753 1.247192 box
434023853 1.243408 box
434023953 1.245056 box
434024053 1.245728 box
434024153 1.242859 box
434024253 1.246094 box
434024353 1.247620 box
434024453 1.245361 box
434024553 1.244324 box
434024653 1.245483 box
434024753 1.246399 box
434024853 1.245361 box
434024953 1.246521 box
434025053 1.244141 box
434025153 1.245972 box
434025253 1.245850 box
434025353 1.245422 box
434025453 1.245911 box
434025553 1.243408 box
434025653 1.245239 box
434025753 1.247253 box
434025853 1.243042 box
434025953 1.245605 box
434026053 1.245850 box
434026153 1.244568 box
434026253 1.245789 box
434026353 1.245728 box
434026453 1.243652 box
434026553 1.245361 box
434026653 1.247681 box
434026753 1.244507 box
434026853 1.244995 box
434026953 1.246704 box
434027053 1.243896 box
434027153 1.246826 box
434027253 1.245789 box
434027353 1.244019 box
434027453 1.245728 box
434027553 1.245850 box
434027653 1.245850 box
434027753 1.247131 box
434027853 1.244568 box
434027953 1.244324 box
434028053 1.245422 box
434028153 1.244263 box
434028253 1.244202 box
434028353 1.246277 box
434028453 1.246033 box
434028553 1.246826 box
434028653 1.246094 box
434028753 1.243225 box
434028853 1.244690 box
434028953 1.247498 box
434029053 1.245239 box
434029153 1.244690 box
434029253 1.246765 box
434029353 1.243896 box
434029453 1.246277 box
434029553 1.245667 box
434029653 1.244507 box
434029753 1.246460 box
434029853 1.245728 box
434029953 1.245178 box
434030053 1.247742 box
434030153 1.244629 box
434030253 1.242859 box
434030353 1.246033 box
434030453 1.244080 box
434030553 1.244263 box
434030653 1.246643 box
434030753 1.244629 box
434030853 1.245117 box
434030953 1.246887 box
434031053 1.244507 box
434031153 1.245239 box
434031253 1.245361 box
434031353 1.247009 box
434031453 1.245300 box
434031553 1.246948 box
434031653 1.245361 box
434031753 1.245361 box
434031853 1.245239 box
434031953 1.244934 box
434032053 1.246704 box
434032153 1.245056 box
434032253 1.245056 box
434032353 1.247131 box
434032453 1.244629 box
434032553 1.245178 box
434032653 1.245117 box
434032753 1.244751 box
434032853 1.246643 box
434032953 1.243774 box
434033053 1.245239 box
434033153 1.246521 box
434033253 1.246033 box
434033353 1.243896 box
434033453 1.245911 box
434033553 1.244507 box
434033653 1.246216 box
434033753 1.245728 box
434033853 1.246155 box
434033953 1.244263 box
434034053 1.247314 box
434034153 1.244568 box
434034253 1.244385 box
434034353 1.246948 box
434034453 1.243286 box
434034553 1.246826 box
434034653 1.245239 box
434034753 1.244812 box
434034853 1.245056 box
434034953 1.245117 box
434035053 1.244446 box
434035153 1.246277 box
434035253 1.243713 box
434035353 1.246094 box
434035453 1.246887 box
434035553 1.247620 box
434035653 1.245605 box
434035753 1.245300 box
434035853 1.244019 box
434035953 1.248169 box
434036053 1.245972 box
434036153 1.245605 box
434036253 1.245544 box
434036353 1.247559 box
434036453 1.243713 box
434036553 1.246704 box
434036653 1.245178 box
434036753 1.244873 box
434036853 1.245361 box
434036953 1.245422 box
434037053 1.246033 box
434037153 1.245361 box
434037253 1.243958 box
434037353 1.246338 box
434037453 1.245850 box
434037553 1.244263 box
434037653 1.246216 box
434037753 1.244995 box
434037853 1.246277 box
434037953 1.245239 box
434038053 1.243469 box
434038153 1.245422 box
434038253 1.247375 box
434038353 1.243591 box
434038453 1.245789 box
434038553 1.245361 box
434038653 1.245911 box
434038753 1.246094 box
434038853 1.245361 box
434038953 1.244568 box
434039053 1.245728 box
434039153 1.246460 box
434039253 1.245483 box
434039353 1.246033 box
434039453 1.244141 box
434039553 1.245850 box
434039653 1.246521 box
434039753 1.242371 box
434039853 1.245972 box
434039953 1.245178 box
434040053 1.244141 box
434040153 1.246521 box
434040253 1.244873 box
434040353 1.244934 box
434040453 1.245911 box
434040553 1.246338 box
434040653 1.245178 box
434040753 1.245911 box
434040853 1.244690 box
434040953 1.246765 box
434041053 1.246338 box
434041153 1.243591 box
434041253 1.245789 box
434041353 1.246460 box
434041453 1.245117 box
434041553 1.247070 box
434041653 1.243408 box
434041753 1.245483 box
434041853 1.245911 box
434041953 1.245178 box
434042053 1.246094 box
434042153 1.244202 box
434042253 1.245728 box
434042353 1.246216 box
434042453 1.243774 box
434042553 1.245056 box
434042653 1.244751 box
434042753 1.248535 box
434042853 1.244263 box
434042953 1.247131 box
434043053 1.244934 box
434043153 1.245117 box
434043253 1.247620 box
434043353 1.244629 box
434043453 1.245239 box
434043553 1.245361 box
434043653 1.243835 box
434043753 1.247375 box
434043853 1.244812 box
434043953 1.243896 box
434044053 1.246826 box
434044153 1.244690 box
434044253 1.244629 box
434044353 1.244751 box
434044453 1.243896 box
434044553 1.246704 box
434044653 1.245605 box
434044753 1.245544 box
434044853 1.244690 box
434044953 1.244446 box
434045053 1.246338 box
434045153 1.246338 box
434045253 1.245728 box
434045353 1.243408 box
434045453 1.247131 box
434045553 1.244751 box
434045653 1.245605 box
434045753 1.246277 box
434045853 1.244934 box
434045953 1.246277 box
434046053 1.246216 box
434046153 1.243713 box
434046253 1.246094 box
434046353 1.244202 box
434046453 1.246277 box
434046553 1.245544 box
434046653 1.244080 box
434046753 1.246399 box
434046853 1.245850 box
434046953 1.245117 box
434047053 1.244446 box
434047153 1.244446 box
434047253 1.245422 box
434047353 1.247253 box
434047453 1.245728 box
434047553 1.245544 box
434047653 1.246582 box
434047753 1.245483 box
434047853 1.244995 box
434047953 1.246948 box
434048053 1.243835 box
434048153 1.246338 box
434048253 1.246582 box
434048353 1.245361 box
434048453 1.245178 box
434048553 1.244751 box
434048653 1.246460 box
434048753 1.245483 box
434048853 1.244324 box
434048953 1.246826 box
434049053 1.244568 box
434049153 1.247620 box
434049253 1.245056 box
434049353 1.243347 box
434049453 1.244202 box
434049553 1.249451 box
434049653 1.245056 box
434049753 1.244995 box
434049853 1.235596 box
434049953 1.170837 box
434050053 1.216003 box
434050153 1.210083 box
434050253 1.227539 box
434050353 1.202576 box
434050453 1.239685 box
434050553 1.242249 box
434050653 1.243713 box
434050753 1.247070 box
434050853 1.246948 box
434050953 1.244629 box
434051053 1.246033 box
434051153 1.246277 box
434051253 1.245605 box
434051353 1.238220 box
434051453 1.172974 box
434051553 1.217102 box
434051653 1.208740 box
434051753 1.242004 box
434051853 1.242493 box
434051953 1.245972 box
434052053 1.245422 box
434052153 1.243835 box
434052253 1.244507 box
434052353 1.247131 box
434052453 1.245850 box
434052553 1.245728 box
434052653 1.246582 box
434052753 1.246765 box
434052853 1.244324 box
434052953 1.245972 box
434053053 1.244995 box
434053153 1.245667 box
434053253 1.245544 box
434053353 1.245239 box
434053453 1.246460 box
434053553 1.242859 box
434053653 1.245300 box
434053753 1.247009 box
434053853 1.243408 box
434053953 1.246460 box
434054053 1.245178 box
434054153 1.246216 box
434054253 1.247009 box
434054353 1.243469 box
434054453 1.243652 box
434054553 1.246338 box
434054653 1.246216 box
434054753 1.244629 box
434054853 1.246521 box
434054953 1.244934 box
434055053 1.245911 box
434055153 1.246826 box
434055253 1.243835 box
434055353 1.246399 box
434055453 1.245544 box
434055553 1.244873 box
434055653 1.246887 box
434055753 1.243774 box
434055853 1.244263 box
434055953 1.245850 box
434056053 1.245544 box
434056153 1.245239 box
434056253 1.244812 box
434056353 1.246094 box
434056453 1.246094 box
434056553 1.244568 box
434056653 1.244324 box
434056753 1.244568 box
434056853 1.247070 box
434056953 1.245728 box
434057053 1.245850 box
434057153 1.245850 box
434057253 1.246216 box
434057353 1.246094 box
434057453 1.243958 box
434057553 1.246216 box
434057653 1.246460 box
434057753 1.244568 box
434057853 1.246155 box
434057953 1.245117 box
434058053 1.243347 box
434058153 1.245483 box
434058253 1.245117 box
434058353 1.245667 box
434058453 1.245178 box
434058553 1.244568 box
434058653 1.246582 box
434058753 1.245972 box
434058853 1.243469 box
434058953 1.245544 box
434059053 1.244751 box
434059153 1.247437 box
434059253 1.243713 box
434059353 1.245728 box
434059453 1.244934 box
434059553 1.236267 box
434059653 1.175232 box
434059753 1.215576 box
434059853 1.211609 box
434059953 1.241211 box
434060053 1.244202 box
434060153 1.244995 box
434060253 1.246033 box
434060353 1.245117 box
434060453 1.245422 box
434060553 1.244751 box
434060653 1.246399 box
434060753 1.246521 box
434060853 1.246826 box
434060953 1.243835 box
434061053 1.244995 box
434061153 1.247192 box
434061253 1.244446 box
434061353 1.246765 box
434061453 1.244812 box
434061553 1.245483 box
434061653 1.246460 box
434061753 1.245789 box
434061853 1.245911 box
434061953 1.244446 box
434062053 1.244751 box
434062153 1.246338 box
434062253 1.243225 box
434062353 1.245056 box
434062453 1.246155 box
434062553 1.244873 box
434062653 1.246216 box
434062753 1.245544 box
434062853 1.245483 box
434062953 1.247742 box
434063053 1.246643 box
434063153 1.244202 box
434063253 1.245544 box
434063353 1.246460 box
434063453 1.244263 box
434063553 1.245911 box
434063653 1.245605 box
434063753 1.245422 box
434063853 1.245483 box
434063953 1.246216 box
434064053 1.245972 box
434064153 1.244812 box
434064253 1.244995 box
434064353 1.247803 box
434064453 1.244385 box
434064553 1.244507 box
434064653 1.246094 box
434064753 1.245361 box
434064853 1.246216 box
434064953 1.245972 box
434065053 1.243713 box
434065153 1.246277 box
434065253 1.246643 box
434065353 1.244995 box
434065453 1.245422 box
434065553 1.247742 box
434065653 1.244507 box
434065753 1.246094 box
434065853 1.246033 box
434065953 1.245117 box
434066053 1.247314 box
434066153 1.244812 box
434066253 1.246521 box
434066353 1.244385 box
434066453 1.245667 box
434066553 1.246216 box
434066653 1.244446 box
434066753 1.244080 box
434066853 1.246277 box
434066953 1.245117 box
434067053 1.245667 box
434067153 1.245239 box
434067253 1.243652 box
434067353 1.244507 box
434067453 1.248657 box
434067553 1.243286 box
434067653 1.245422 box
434067753 1.245972 box
434067853 1.244873 box
434067953 1.246399 box
434068053 1.245300 box
434068153 1.245422 box
434068253 1.246704 box
434068353 1.244385 box
434068453 1.246216 box
434068553 1.245605 box
434068653 1.245605 box
434068753 1.244568 box
434068853 1.246704 box
434068953 1.244080 box
433887474 1.245605 box
433887574 1.243652 box
433887674 1.246033 box
433887774 1.244019 box
433887874 1.072754 box
