/dev/cpu/msr_batch: No such file or directory
graph_generation:               6.441458 s
construction_time:              1.040654 s
Running BFS 0
Time for BFS 0 is 0.262698
TEPS for BFS 0 is 6.38598e+07
Validating BFS 0
Validate time for BFS 0 is 1.641713
Running BFS 1
Time for BFS 1 is 0.262981
TEPS for BFS 1 is 6.3791e+07
Validating BFS 1
Validate time for BFS 1 is 1.641609
Running BFS 2
Time for BFS 2 is 0.262803
TEPS for BFS 2 is 6.38341e+07
Validating BFS 2
Validate time for BFS 2 is 1.642690
Running BFS 3
Time for BFS 3 is 0.262826
TEPS for BFS 3 is 6.38286e+07
Validating BFS 3
Validate time for BFS 3 is 1.634729
Running BFS 4
Time for BFS 4 is 0.262819
TEPS for BFS 4 is 6.38303e+07
Validating BFS 4
Validate time for BFS 4 is 1.633752
Running BFS 5
Time for BFS 5 is 0.262988
TEPS for BFS 5 is 6.37892e+07
Validating BFS 5
Validate time for BFS 5 is 1.641536
Running BFS 6
Time for BFS 6 is 0.262784
TEPS for BFS 6 is 6.38389e+07
Validating BFS 6
Validate time for BFS 6 is 1.633631
Running BFS 7
Time for BFS 7 is 0.262742
TEPS for BFS 7 is 6.3849e+07
Validating BFS 7
Validate time for BFS 7 is 1.638041
Running BFS 8
Time for BFS 8 is 0.262958
TEPS for BFS 8 is 6.37966e+07
Validating BFS 8
Validate time for BFS 8 is 1.633520
Running BFS 9
Time for BFS 9 is 0.262883
TEPS for BFS 9 is 6.38149e+07
Validating BFS 9
Validate time for BFS 9 is 1.635571
Running BFS 10
Time for BFS 10 is 0.262873
TEPS for BFS 10 is 6.38172e+07
Validating BFS 10
Validate time for BFS 10 is 1.641404
Running BFS 11
Time for BFS 11 is 0.262950
TEPS for BFS 11 is 6.37985e+07
Validating BFS 11
Validate time for BFS 11 is 1.633579
Running BFS 12
Time for BFS 12 is 0.262759
TEPS for BFS 12 is 6.38449e+07
Validating BFS 12
Validate time for BFS 12 is 1.639032
Running BFS 13
Time for BFS 13 is 0.263006
TEPS for BFS 13 is 6.3785e+07
Validating BFS 13
Validate time for BFS 13 is 1.635319
Running BFS 14
Time for BFS 14 is 0.262931
TEPS for BFS 14 is 6.38031e+07
Validating BFS 14
Validate time for BFS 14 is 1.635025
Running BFS 15
Time for BFS 15 is 0.262889
TEPS for BFS 15 is 6.38132e+07
Validating BFS 15
Validate time for BFS 15 is 1.642793
Running BFS 16
Time for BFS 16 is 0.262943
TEPS for BFS 16 is 6.38003e+07
Validating BFS 16
Validate time for BFS 16 is 1.634911
Running BFS 17
Time for BFS 17 is 0.262729
TEPS for BFS 17 is 6.38521e+07
Validating BFS 17
Validate time for BFS 17 is 1.642072
Running BFS 18
Time for BFS 18 is 0.262880
TEPS for BFS 18 is 6.38155e+07
Validating BFS 18
Validate time for BFS 18 is 1.641851
Running BFS 19
Time for BFS 19 is 0.262832
TEPS for BFS 19 is 6.38272e+07
Validating BFS 19
Validate time for BFS 19 is 1.642775
Running BFS 20
Time for BFS 20 is 0.262925
TEPS for BFS 20 is 6.38046e+07
Validating BFS 20
Validate time for BFS 20 is 1.634840
Running BFS 21
Time for BFS 21 is 0.262843
TEPS for BFS 21 is 6.38244e+07
Validating BFS 21
Validate time for BFS 21 is 1.638862
Running BFS 22
Time for BFS 22 is 0.262792
TEPS for BFS 22 is 6.38369e+07
Validating BFS 22
Validate time for BFS 22 is 1.640336
Running BFS 23
Time for BFS 23 is 0.262808
TEPS for BFS 23 is 6.38329e+07
Validating BFS 23
Validate time for BFS 23 is 1.641743
Running BFS 24
Time for BFS 24 is 0.262832
TEPS for BFS 24 is 6.38271e+07
Validating BFS 24
Validate time for BFS 24 is 1.636088
Running BFS 25
Time for BFS 25 is 0.262719
TEPS for BFS 25 is 6.38546e+07
Validating BFS 25
Validate time for BFS 25 is 1.642580
Running BFS 26
Time for BFS 26 is 0.262984
TEPS for BFS 26 is 6.37902e+07
Validating BFS 26
Validate time for BFS 26 is 1.642378
Running BFS 27
Time for BFS 27 is 0.262740
TEPS for BFS 27 is 6.38496e+07
Validating BFS 27
Validate time for BFS 27 is 1.635659
Running BFS 28
Time for BFS 28 is 0.262788
TEPS for BFS 28 is 6.38378e+07
Validating BFS 28
Validate time for BFS 28 is 1.642219
Running BFS 29
Time for BFS 29 is 0.262751
TEPS for BFS 29 is 6.38468e+07
Validating BFS 29
Validate time for BFS 29 is 1.642504
Running BFS 30
Time for BFS 30 is 0.262883
TEPS for BFS 30 is 6.38147e+07
Validating BFS 30
Validate time for BFS 30 is 1.643074
Running BFS 31
Time for BFS 31 is 0.262877
TEPS for BFS 31 is 6.38163e+07
Validating BFS 31
Validate time for BFS 31 is 1.634977
Running BFS 32
Time for BFS 32 is 0.262911
TEPS for BFS 32 is 6.38081e+07
Validating BFS 32
Validate time for BFS 32 is 1.635952
Running BFS 33
Time for BFS 33 is 0.262733
TEPS for BFS 33 is 6.38512e+07
Validating BFS 33
Validate time for BFS 33 is 1.641619
Running BFS 34
Time for BFS 34 is 0.262785
TEPS for BFS 34 is 6.38385e+07
Validating BFS 34
Validate time for BFS 34 is 1.634957
Running BFS 35
Time for BFS 35 is 0.262817
TEPS for BFS 35 is 6.38309e+07
Validating BFS 35
Validate time for BFS 35 is 1.633567
Running BFS 36
Time for BFS 36 is 0.262797
TEPS for BFS 36 is 6.38356e+07
Validating BFS 36
Validate time for BFS 36 is 1.634489
Running BFS 37
Time for BFS 37 is 0.262735
TEPS for BFS 37 is 6.38507e+07
Validating BFS 37
Validate time for BFS 37 is 1.639292
Running BFS 38
Time for BFS 38 is 0.262816
TEPS for BFS 38 is 6.3831e+07
Validating BFS 38
Validate time for BFS 38 is 1.633292
Running BFS 39
Time for BFS 39 is 0.262727
TEPS for BFS 39 is 6.38527e+07
Validating BFS 39
Validate time for BFS 39 is 1.636041
Running BFS 40
Time for BFS 40 is 0.262894
TEPS for BFS 40 is 6.38121e+07
Validating BFS 40
Validate time for BFS 40 is 1.635285
Running BFS 41
Time for BFS 41 is 0.262809
TEPS for BFS 41 is 6.38327e+07
Validating BFS 41
Validate time for BFS 41 is 1.641297
Running BFS 42
Time for BFS 42 is 0.262849
TEPS for BFS 42 is 6.38231e+07
Validating BFS 42
Validate time for BFS 42 is 1.634827
Running BFS 43
Time for BFS 43 is 0.262861
TEPS for BFS 43 is 6.38202e+07
Validating BFS 43
Validate time for BFS 43 is 1.638110
Running BFS 44
Time for BFS 44 is 0.262858
TEPS for BFS 44 is 6.38208e+07
Validating BFS 44
Validate time for BFS 44 is 1.640543
Running BFS 45
Time for BFS 45 is 0.262893
TEPS for BFS 45 is 6.38124e+07
Validating BFS 45
Validate time for BFS 45 is 1.633259
Running BFS 46
Time for BFS 46 is 0.262803
TEPS for BFS 46 is 6.38341e+07
Validating BFS 46
Validate time for BFS 46 is 1.638499
Running BFS 47
Time for BFS 47 is 0.262705
TEPS for BFS 47 is 6.38579e+07
Validating BFS 47
Validate time for BFS 47 is 1.634767
Running BFS 48
Time for BFS 48 is 0.262831
TEPS for BFS 48 is 6.38274e+07
Validating BFS 48
Validate time for BFS 48 is 1.641343
Running BFS 49
Time for BFS 49 is 0.262854
TEPS for BFS 49 is 6.38218e+07
Validating BFS 49
Validate time for BFS 49 is 1.635693
Running BFS 50
Time for BFS 50 is 0.262925
TEPS for BFS 50 is 6.38046e+07
Validating BFS 50
Validate time for BFS 50 is 1.635030
Running BFS 51
Time for BFS 51 is 0.262842
TEPS for BFS 51 is 6.38248e+07
Validating BFS 51
Validate time for BFS 51 is 1.641062
Running BFS 52
Time for BFS 52 is 0.262934
TEPS for BFS 52 is 6.38024e+07
Validating BFS 52
Validate time for BFS 52 is 1.640910
Running BFS 53
Time for BFS 53 is 0.263045
TEPS for BFS 53 is 6.37754e+07
Validating BFS 53
Validate time for BFS 53 is 1.634054
Running BFS 54
Time for BFS 54 is 0.262889
TEPS for BFS 54 is 6.38133e+07
Validating BFS 54
Validate time for BFS 54 is 1.641558
Running BFS 55
Time for BFS 55 is 0.262868
TEPS for BFS 55 is 6.38185e+07
Validating BFS 55
Validate time for BFS 55 is 1.634173
Running BFS 56
Time for BFS 56 is 0.262951
TEPS for BFS 56 is 6.37982e+07
Validating BFS 56
Validate time for BFS 56 is 1.635103
Running BFS 57
Time for BFS 57 is 0.262812
TEPS for BFS 57 is 6.38321e+07
Validating BFS 57
Validate time for BFS 57 is 1.642784
Running BFS 58
Time for BFS 58 is 0.262918
TEPS for BFS 58 is 6.38062e+07
Validating BFS 58
Validate time for BFS 58 is 1.639536
Running BFS 59
Time for BFS 59 is 0.262867
TEPS for BFS 59 is 6.38187e+07
Validating BFS 59
Validate time for BFS 59 is 1.641481
Running BFS 60
Time for BFS 60 is 0.262836
TEPS for BFS 60 is 6.38263e+07
Validating BFS 60
Validate time for BFS 60 is 1.634700
Running BFS 61
Time for BFS 61 is 0.262755
TEPS for BFS 61 is 6.38459e+07
Validating BFS 61
Validate time for BFS 61 is 1.641301
Running BFS 62
Time for BFS 62 is 0.262720
TEPS for BFS 62 is 6.38544e+07
Validating BFS 62
Validate time for BFS 62 is 1.642147
Running BFS 63
Time for BFS 63 is 0.262642
TEPS for BFS 63 is 6.38733e+07
Validating BFS 63
Validate time for BFS 63 is 1.632574
real	2m 20.77s
user	2m 20.67s
sys	0m 0.08s
