time(ms) energy(J) hostname
491165545 0.000000 box
491165645 1.033875 box
491165745 0.958740 box
491165845 1.018005 box
491165945 1.017334 box
491166045 1.018860 box
491166145 1.018799 box
491166245 1.019043 box
491166345 1.024597 box
491166445 1.026184 box
491166545 1.027710 box
491166645 1.048035 box
491166745 1.071899 box
491166845 1.070557 box
491166945 1.054871 box
491167045 1.056580 box
491167145 1.055786 box
491167245 1.056091 box
491167345 1.052795 box
491167445 1.043213 box
491167545 0.957642 box
491167645 0.957275 box
491167745 1.016296 box
491167845 1.038269 box
491167945 1.068542 box
491168045 1.093994 box
491168145 1.094055 box
491168245 1.092407 box
491168345 1.094910 box
491168445 1.092041 box
491168545 1.094116 box
491168645 1.093506 box
491168745 1.092651 box
491168845 1.094299 box
491168945 1.094727 box
491169045 1.094604 box
491169145 1.093811 box
491169245 1.094849 box
491169345 1.094299 box
491169445 1.095276 box
491169545 1.094238 box
491169645 1.094727 box
491169745 1.095703 box
491169845 1.095459 box
491169945 1.094543 box
491170045 1.093994 box
491170145 1.094299 box
491170245 1.094788 box
491170345 1.078857 box
491170445 1.086243 box
491170545 1.097412 box
491170645 1.096252 box
491170745 1.097351 box
491170845 1.095581 box
491170945 1.096375 box
491171045 1.095886 box
491171145 1.095825 box
491171245 1.096680 box
491171345 1.095337 box
491171445 1.096436 box
491171545 1.096191 box
491171645 1.096008 box
491171745 1.096863 box
491171845 1.096741 box
491171945 1.095703 box
491172045 1.094849 box
491172145 1.097168 box
491172245 1.096497 box
491172345 1.095703 box
491172445 1.096375 box
491172545 1.096436 box
491172645 1.095581 box
491172745 1.096619 box
491172845 1.096130 box
491172945 1.097229 box
491173045 1.096008 box
491173145 1.095886 box
491173245 1.096130 box
491173345 1.095520 box
491173445 1.097534 box
491173545 1.095764 box
491173645 1.095642 box
491173745 1.096985 box
491173845 1.096985 box
491173945 1.095276 box
491174045 1.096863 box
491174145 1.096130 box
491174245 1.094421 box
491174345 1.097656 box
491174445 1.095825 box
491174545 1.095947 box
491174645 1.096375 box
491174745 1.096191 box
491174845 1.096497 box
491174945 1.095520 box
491175045 1.096558 box
491175145 1.096191 box
491175245 1.095581 box
491175345 1.095581 box
491175445 1.096680 box
491175545 1.096741 box
491175645 1.098877 box
491175745 1.096069 box
491175845 1.095093 box
491175945 1.097107 box
491176045 1.096069 box
491176145 1.095764 box
491176245 1.095886 box
491176345 1.096985 box
491176445 1.096619 box
491176545 1.096252 box
491176645 1.096680 box
491176745 1.095215 box
491176845 1.095886 box
491176945 1.095947 box
491177045 1.096130 box
491177145 1.097290 box
491177245 1.095703 box
491177345 1.095459 box
491177445 1.095154 box
491177545 1.096008 box
491177645 1.096497 box
491177745 1.096313 box
491177845 1.095825 box
491177945 1.097107 box
491178045 1.095764 box
491178145 1.096558 box
491178245 1.094971 box
491178345 1.096497 box
491178445 1.096497 box
491178545 1.097473 box
491178645 1.094299 box
491178745 1.096619 box
491178845 1.095581 box
491178945 1.097107 box
491179045 1.096558 box
491179145 1.096436 box
491179245 1.095398 box
491179345 1.096558 box
491179445 1.096619 box
491179545 1.095703 box
491179645 1.096497 box
491179745 1.097107 box
491179845 1.095703 box
491179945 1.096008 box
491180045 1.096375 box
491180145 1.096191 box
491180245 1.095947 box
491180345 1.096130 box
491180445 1.096375 box
491180545 1.096252 box
491180645 1.096313 box
491180745 1.097473 box
491180845 1.095215 box
491180945 1.095947 box
491181045 1.096558 box
491181145 1.096619 box
491181245 1.095215 box
491181345 1.096680 box
491181445 1.096558 box
491181545 1.095398 box
491181645 1.096558 box
491181745 1.096252 box
491181845 1.096008 box
491181945 1.097107 box
491182045 1.096191 box
491182145 1.094482 box
491182245 1.097107 box
491182345 1.096497 box
491182445 1.096191 box
491182545 1.094666 box
491182645 1.096924 box
491182745 1.095947 box
491182845 1.096436 box
491182945 1.096924 box
491183045 1.095276 box
491183145 1.097595 box
491183245 1.090759 box
491183345 1.095947 box
491183445 1.096924 box
491183545 1.095154 box
491183645 1.095825 box
491183745 1.097107 box
491183845 1.096191 box
491183945 1.096558 box
491184045 1.096375 box
491184145 1.096375 box
491184245 1.095398 box
491184345 1.096130 box
491184445 1.097229 box
491184545 1.094849 box
491184645 1.097351 box
491184745 1.095825 box
491184845 1.096802 box
491184945 1.095825 box
491185045 1.096741 box
491185145 1.097107 box
491185245 1.096863 box
491185345 1.095947 box
491185445 1.096252 box
491185545 1.095703 box
491185645 1.096985 box
491185745 1.095947 box
491185845 1.095764 box
491185945 1.096741 box
491186045 1.095642 box
491186145 1.097107 box
491186245 1.096313 box
491186345 1.095215 box
491186445 1.097717 box
491186545 1.096130 box
491186645 1.096008 box
491186745 1.096069 box
491186845 1.096619 box
491186945 1.096985 box
491187045 1.095337 box
491187145 1.096313 box
491187245 1.097046 box
491187345 1.094971 box
491187445 1.097595 box
491187545 1.095337 box
491187645 1.096863 box
491187745 1.095032 box
491187845 1.096069 box
491187945 1.097107 box
491188045 1.096741 box
491188145 1.096008 box
491188245 1.095764 box
491188345 1.096313 box
491188445 1.096497 box
491188545 1.096802 box
491188645 1.094971 box
491188745 1.086853 box
491188845 1.095825 box
491188945 1.096252 box
491189045 1.095886 box
491189145 1.097107 box
491189245 1.096375 box
491189345 1.095093 box
491189445 1.097107 box
491189545 1.096375 box
491189645 1.096924 box
491189745 1.098511 box
491189845 1.096252 box
491189945 1.097229 box
491190045 1.096863 box
491190145 1.096069 box
491190245 1.095581 box
491190345 1.096191 box
491190445 1.096252 box
491190545 1.096802 box
491190645 1.096130 box
491190745 1.096985 box
491190845 1.095459 box
491190945 1.095337 box
491191045 1.096741 box
491191145 1.096802 box
491191245 1.095459 box
491191345 1.096436 box
491191445 1.097046 box
491191545 1.096252 box
491191645 1.096313 box
491191745 1.096741 box
491191845 1.096069 box
491191945 1.097107 box
491192045 0.927063 box
491192145 0.877930 box
491192245 0.855225 box
491192345 0.854309 box
491192445 0.855042 box
491192545 0.852600 box
491192645 0.854065 box
491192745 0.855225 box
491192845 0.854614 box
491192945 0.853088 box
491193045 0.853882 box
491193145 0.854797 box
491193245 0.853882 box
491193345 0.854126 box
491193445 0.853149 box
491193545 0.855164 box
491193645 0.855896 box
491193745 0.854248 box
491193845 0.854065 box
491193945 0.853821 box
491194045 0.854065 box
491194145 0.855225 box
491194245 0.852966 box
491194345 0.853699 box
491194445 0.855652 box
491194545 0.853516 box
491194645 0.854431 box
491194745 0.854004 box
491194845 0.852661 box
491194945 0.853149 box
491195045 0.852661 box
491195145 0.851868 box
491195245 0.852600 box
491195345 0.853149 box
491195445 0.853027 box
491195545 0.854919 box
491195645 0.853577 box
491195745 0.854675 box
491195845 0.853821 box
491195945 0.852966 box
491196045 0.852600 box
491196145 0.855835 box
491196245 0.854309 box
491196345 0.851501 box
491196445 0.851929 box
491196545 0.852783 box
491196645 0.853394 box
491196745 0.852478 box
491196845 0.854431 box
491196945 0.854553 box
491197045 0.853760 box
491197145 0.852417 box
491197245 0.854736 box
491197345 0.854553 box
491197445 0.854797 box
491197545 0.850769 box
491197645 0.852112 box
491197745 0.851746 box
491197845 0.849243 box
491197945 0.844849 box
491198045 0.847046 box
491198145 0.848267 box
491198245 0.845337 box
491198345 0.846619 box
491198445 0.852783 box
491198545 0.848816 box
491198645 0.844238 box
491198745 0.846436 box
491198845 0.848938 box
491198945 0.847595 box
491199045 0.845642 box
491199145 0.846863 box
491199245 0.847229 box
491199345 0.848145 box
491199445 0.846191 box
491199545 0.847900 box
491199645 0.846741 box
491199745 0.847900 box
491199845 0.848938 box
491199945 0.848022 box
491200045 0.846252 box
491200145 0.851135 box
491200245 0.857239 box
491200345 0.855713 box
491200445 0.856323 box
491200545 0.846985 box
491200645 0.841187 box
491200745 0.839783 box
491200845 0.839111 box
491200945 0.839478 box
491201045 0.838745 box
491201145 0.838257 box
491201245 0.840454 box
491201345 0.838318 box
491201445 0.833313 box
491201545 0.807495 box
491201645 0.810364 box
491201745 0.809570 box
491201845 0.808594 box
491201945 0.811218 box
491202045 0.808289 box
491202145 0.812622 box
491202245 0.808105 box
491202345 0.809021 box
491202445 0.811707 box
491202545 0.815918 box
491202645 0.814514 box
491202745 0.818909 box
491202845 0.817200 box
491202945 0.823669 box
491203045 0.872742 box
491203145 1.015320 box
491203245 1.014954 box
491203345 1.014832 box
491203445 1.014832 box
491203545 1.012695 box
491203645 1.011475 box
491203745 1.014526 box
491203845 1.013977 box
491203945 1.015015 box
491204045 1.017212 box
491204145 1.015320 box
491204245 1.016113 box
491204345 1.015503 box
491204445 1.015503 box
491204545 1.013245 box
491204645 1.014526 box
491204745 1.014343 box
491204845 1.014404 box
491204945 1.014404 box
491205045 1.014526 box
491205145 1.016235 box
491205245 1.014832 box
491205345 1.014160 box
491205445 1.016235 box
491205545 1.014404 box
491205645 1.011353 box
491205745 1.012390 box
491205845 1.012573 box
491205945 0.999451 box
491206045 0.970398 box
491206145 0.934265 box
491206245 1.024109 box
491206345 1.095886 box
491206445 1.096802 box
491206545 1.097168 box
491206645 1.096436 box
491206745 1.095825 box
491206845 1.088745 box
491206945 1.088928 box
491207045 1.001770 box
491207145 1.090637 box
491207245 1.090149 box
491207345 1.088928 box
491207445 1.077026 box
491207545 1.002075 box
491207645 1.091492 box
491207745 1.091736 box
491207845 1.090210 box
491207945 1.050476 box
491208045 1.035522 box
491208145 1.091858 box
491208245 1.091553 box
491208345 1.090210 box
491208445 1.029968 box
491208545 1.064880 box
491208645 1.089783 box
491208745 1.090332 box
491208845 1.090271 box
491208945 0.994934 box
491209045 1.089111 box
491209145 1.090942 box
491209245 1.091675 box
491209345 1.084656 box
491209445 1.003845 box
491209545 1.083801 box
491209645 1.083801 box
491209745 1.084656 box
491209845 1.093811 box
491209945 1.093628 box
491210045 1.098145 box
491210145 1.095459 box
491210245 1.096497 box
491210345 1.090698 box
491210445 1.044189 box
491210545 1.085510 box
491210645 1.090637 box
491210745 1.087097 box
491210845 1.024353 box
491210945 1.049011 box
491211045 1.091431 box
491211145 1.092041 box
491211245 1.087891 box
491211345 1.016174 box
491211445 1.065796 box
491211545 1.082092 box
491211645 1.080933 box
491211745 1.086060 box
491211845 1.007446 box
491211945 1.072937 box
491212045 1.083740 box
491212145 1.083130 box
491212245 1.082275 box
491212345 1.002563 box
491212445 1.079346 box
491212545 1.083313 box
491212645 1.082092 box
491212745 1.081848 box
491212845 0.992920 box
491212945 1.084229 box
491213045 1.090820 box
491213145 1.085815 box
491213245 1.086487 box
491213345 0.994019 box
491213445 1.098267 box
491213545 1.096313 box
491213645 1.098267 box
491213745 1.094238 box
491213845 1.091431 box
491213945 1.087341 box
491214045 1.081299 box
491214145 1.082397 box
491214245 1.080688 box
491214345 0.991943 box
491214445 1.081909 box
491214545 1.081543 box
491214645 1.082458 box
491214745 1.083984 box
491214845 0.989990 box
491214945 1.082764 box
491215045 1.082581 box
491215145 1.082947 box
491215245 1.082947 box
491215345 0.989746 box
491215445 1.082520 box
491215545 1.086060 box
491215645 1.082031 box
491215745 1.080750 box
491215845 0.992554 box
491215945 1.084045 box
491216045 1.081482 box
491216145 1.083313 box
491216245 1.081360 box
491216345 0.989319 box
491216445 1.081543 box
491216545 1.080872 box
491216645 1.082581 box
491216745 1.083069 box
491216845 0.989441 box
491216945 1.091614 box
491217045 1.096497 box
491217145 1.098267 box
491217245 1.095093 box
491217345 1.093506 box
491217445 1.095703 box
491217545 1.079468 box
491217645 1.083618 box
491217745 1.081177 box
491217845 0.994080 box
491217945 1.082336 box
491218045 1.081970 box
491218145 1.083557 box
491218245 1.086182 box
491218345 0.996216 box
491218445 1.081421 box
491218545 1.083435 box
491218645 1.083984 box
491218745 1.079956 box
491218845 0.996216 box
491218945 1.081848 box
491219045 1.082214 box
491219145 1.082581 box
491219245 1.082458 box
491219345 0.996521 box
491219445 1.083618 box
491219545 1.083557 box
491219645 1.085815 box
491219745 1.082825 box
491219845 0.995300 box
491219945 1.083374 box
491220045 1.083313 box
491220145 1.084839 box
491220245 1.082886 box
491220345 0.993042 box
491220445 1.084595 box
491220545 1.099609 box
491220645 1.096069 box
491220745 1.098022 box
491220845 1.095703 box
491220945 1.096252 box
491221045 1.095642 box
491221145 1.085510 box
491221245 1.084595 box
491221345 0.994507 box
491221445 1.084229 box
491221545 1.081726 box
491221645 1.084900 box
491221745 1.082397 box
491221845 0.993530 box
491221945 1.083740 box
491222045 1.084106 box
491222145 1.083557 box
491222245 1.082092 box
491222345 0.995605 box
491222445 1.084473 box
491222545 1.085083 box
491222645 1.084900 box
491222745 1.082947 box
491222845 0.995361 box
491222945 1.085144 box
491223045 1.084961 box
491223145 1.084534 box
491223245 1.083008 box
491223345 0.994995 box
491223445 1.085388 box
491223545 1.084473 box
491223645 1.084961 box
491223745 1.085510 box
491223845 0.995300 box
491223945 1.083252 box
491224045 1.083801 box
491224145 1.095703 box
491224245 1.095764 box
491224345 1.090759 box
491224445 1.097961 box
491224545 1.096497 box
491224645 1.092407 box
491224745 1.083618 box
491224845 0.993286 box
491224945 1.085144 box
491225045 1.082397 box
491225145 1.085388 box
491225245 1.082703 box
491225345 0.994690 box
491225445 1.083557 box
491225545 1.082214 box
491225645 1.083801 box
491225745 1.083923 box
491225845 0.994385 box
491225945 1.083435 box
491226045 1.083252 box
491226145 1.083923 box
491226245 1.084595 box
491226345 0.993591 box
491226445 1.083008 box
491226545 1.084167 box
491226645 1.082947 box
491226745 1.084106 box
491226845 0.993469 box
491226945 1.084473 box
491227045 1.083740 box
491227145 1.083984 box
491227245 1.084229 box
491227345 0.996399 box
491227445 1.083374 box
491227545 1.082947 box
491227645 1.087708 box
491227745 1.096680 box
491227845 1.093323 box
491227945 1.099182 box
491228045 1.094360 box
491228145 1.097046 box
491228245 1.086609 box
491228345 0.990906 box
491228445 1.082886 box
491228545 1.082275 box
491228645 1.083191 box
491228745 1.084900 box
491228845 0.994995 box
491228945 1.083252 box
491229045 1.082153 box
491229145 1.082764 box
491229245 1.084778 box
491229345 0.999268 box
491229445 1.082947 box
491229545 1.085510 box
491229645 1.084534 box
491229745 1.081604 box
491229845 0.995911 box
491229945 1.082703 box
491230045 1.085510 box
491230145 1.084534 box
491230245 1.084106 box
491230345 0.998291 box
491230445 1.086060 box
491230545 1.083618 box
491230645 1.083496 box
491230745 1.083313 box
491230845 0.997864 box
491230945 1.084656 box
491231045 1.083679 box
491231145 1.084717 box
491231245 1.093689 box
491231345 1.092224 box
491231445 1.099426 box
491231545 1.095032 box
491231645 1.096802 box
491231745 1.096313 box
491231845 0.990967 box
491231945 1.084290 box
491232045 1.082214 box
491232145 1.083435 box
491232245 1.085144 box
491232345 0.994751 box
491232445 1.084717 box
491232545 1.084106 box
491232645 1.084167 box
491232745 1.083862 box
491232845 0.993713 box
491232945 1.085938 box
491233045 1.083374 box
491233145 1.083557 box
491233245 1.085449 box
491233345 0.994873 box
491233445 1.084351 box
491233545 1.083862 box
491233645 1.085205 box
491233745 1.083862 box
491233845 0.993774 box
491233945 1.086792 box
491234045 1.083557 box
491234145 1.085327 box
491234245 1.085327 box
491234345 0.994385 box
491234445 1.085632 box
491234545 1.082947 box
491234645 1.083923 box
491234745 1.084167 box
491234845 1.092712 box
491234945 1.100708 box
491235045 1.098145 box
491235145 1.094543 box
491235245 1.096558 box
491235345 1.039917 box
491235445 1.084045 box
491235545 1.083374 box
491235645 1.085083 box
491235745 1.083252 box
491235845 0.994873 box
491235945 1.083374 box
491236045 1.085266 box
491236145 1.084473 box
491236245 1.084045 box
491236345 1.001587 box
491236445 1.082092 box
491236545 1.083862 box
491236645 1.084534 box
491236745 1.085327 box
491236845 1.005005 box
491236945 1.078308 box
491237045 1.083374 box
491237145 1.083557 box
491237245 1.083862 box
491237345 1.003906 box
491237445 1.078735 box
491237545 1.084045 box
491237645 1.084778 box
491237745 1.084167 box
491237845 1.004700 box
491237945 1.078491 box
491238045 1.085083 box
491238145 1.084229 box
491238245 1.086060 box
491238345 1.052185 box
491238445 1.099731 box
491238545 1.099548 box
491238645 1.093811 box
491238745 1.095703 box
491238845 1.090454 box
491238945 1.085083 box
491239045 1.084351 box
491239145 1.084473 box
491239245 1.085693 box
491239345 1.002563 box
491239445 1.077820 box
491239545 1.082642 box
491239645 1.086060 box
491239745 1.084167 box
491239845 1.004761 box
491239945 1.078308 box
491240045 1.084412 box
491240145 1.085266 box
491240245 1.084045 box
491240345 1.004517 box
491240445 1.076477 box
491240545 1.084900 box
491240645 1.084595 box
491240745 1.085449 box
491240845 1.005005 box
491240945 1.075745 box
491241045 1.084534 box
491241145 1.083496 box
491241245 1.084839 box
491241345 1.007935 box
491241445 1.074280 box
491241545 1.086121 box
491241645 1.085510 box
491241745 1.085327 box
491241845 1.002563 box
491241945 1.094788 box
491242045 1.096497 box
491242145 1.099243 box
491242245 1.093628 box
491242345 1.091675 box
491242445 1.092041 box
491242545 1.083618 box
491242645 1.083984 box
491242745 1.084900 box
491242845 1.001770 box
491242945 1.079346 box
491243045 1.084534 box
491243145 1.084778 box
491243245 1.087402 box
491243345 1.006958 box
491243445 1.088257 box
491243545 1.087830 box
491243645 1.083252 box
491243745 1.086487 box
491243845 0.995850 box
491243945 1.085999 box
491244045 1.082825 box
491244145 1.083618 box
491244245 1.083801 box
491244345 0.997131 box
491244445 1.086304 box
491244545 1.084412 box
491244645 1.085266 box
491244745 1.085327 box
491244845 0.998840 box
491244945 1.086792 box
491245045 1.082397 box
491245145 1.084534 box
491245245 1.083374 box
491245345 0.996765 box
491245445 1.092041 box
491245545 1.095520 box
491245645 1.098022 box
491245745 1.095093 box
491245845 1.091797 box
491245945 1.097778 box
491246045 1.083313 box
491246145 1.085815 box
491246245 1.083923 box
491246345 1.006409 box
491246445 1.084290 box
491246545 1.084778 box
491246645 1.085022 box
491246745 1.084106 box
491246845 0.997925 box
491246945 1.087280 box
491247045 1.084412 box
491247145 1.086548 box
491247245 1.085144 box
491247345 0.997559 box
491247445 1.085083 box
491247545 1.083618 box
491247645 1.085571 box
491247745 1.084106 box
491247845 0.999695 box
491247945 1.083801 box
491248045 1.084412 box
491248145 1.084900 box
491248245 1.086365 box
491248345 1.001343 box
491248445 1.083374 box
491248545 1.085449 box
491248645 1.085388 box
491248745 1.084900 box
491248845 1.005310 box
491248945 1.078857 box
491249045 1.099487 box
491249145 1.096375 box
491249245 1.099365 box
491249345 1.088257 box
491249445 1.099854 box
491249545 1.090759 box
491249645 1.082825 box
491249745 1.085693 box
491249845 0.999146 box
491249945 1.084717 box
491250045 1.085815 box
491250145 1.085083 box
491250245 1.084961 box
491250345 0.999451 box
491250445 1.083801 box
491250545 1.086060 box
491250645 1.085205 box
491250745 1.084106 box
491250845 1.007996 box
491250945 1.080505 box
491251045 1.086426 box
491251145 1.085022 box
491251245 1.085815 box
491251345 1.009338 box
491251445 1.077698 box
491251545 1.086426 box
491251645 1.085144 box
491251745 1.085388 box
491251845 1.008423 box
491251945 1.079346 box
491252045 1.084595 box
491252145 1.086243 box
491252245 1.084961 box
491252345 1.009155 box
491252445 1.078552 box
491252545 1.091003 box
491252645 1.096191 box
491252745 1.095947 box
491252845 1.095642 box
491252945 1.097656 box
491253045 1.096375 box
491253145 1.090393 box
491253245 1.086426 box
491253345 1.000183 box
491253445 1.085754 box
491253545 1.085022 box
491253645 1.085815 box
491253745 1.086426 box
491253845 1.000916 box
491253945 1.083740 box
491254045 1.085876 box
491254145 1.084778 box
491254245 1.084412 box
491254345 1.003296 box
491254445 1.083313 box
491254545 1.084595 box
491254645 1.084412 box
491254745 1.084534 box
491254845 1.003296 box
491254945 1.083862 box
491255045 1.084351 box
491255145 1.086182 box
491255245 1.085693 box
491255345 1.003601 box
491255445 1.082886 box
491255545 1.085693 box
491255645 1.084839 box
491255745 1.084778 box
491255845 1.005310 box
491255945 1.081726 box
491256045 1.084412 box
491256145 1.090454 box
491256245 1.095703 box
491256345 1.090942 box
491256445 1.101135 box
491256545 1.094482 box
491256645 1.097229 box
491256745 1.084839 box
491256845 1.001282 box
491256945 1.080078 box
491257045 1.085754 box
491257145 1.084534 box
491257245 1.084106 box
491257345 1.000916 box
491257445 1.081238 box
491257545 1.084961 box
491257645 1.083130 box
491257745 1.084778 box
491257845 1.009644 box
491257945 1.084656 box
491258045 1.084534 box
491258145 1.084595 box
491258245 1.084045 box
491258345 1.000977 box
491258445 1.083313 box
491258545 1.086304 box
491258645 1.085938 box
491258745 1.084290 box
491258845 1.000366 box
491258945 1.084717 box
491259045 1.088196 box
491259145 1.084839 box
491259245 1.085693 box
491259345 0.999939 box
491259445 1.084106 box
491259545 1.083191 box
491259645 1.083801 box
491259745 1.097473 box
491259845 1.088989 box
491259945 1.101746 box
491260045 1.094360 box
491260145 1.096558 box
491260245 1.090515 box
491260345 0.998901 box
491260445 1.085083 box
491260545 1.084900 box
491260645 1.085144 box
491260745 1.083862 box
491260845 0.999939 box
491260945 1.085510 box
491261045 1.083923 box
491261145 1.085815 box
491261245 1.084473 box
491261345 1.003052 box
491261445 1.087463 box
491261545 1.084656 box
491261645 1.085693 box
491261745 1.085205 box
491261845 0.999695 box
491261945 1.086304 box
491262045 1.083984 box
491262145 1.084351 box
491262245 1.084839 box
491262345 0.999634 box
491262445 1.085266 box
491262545 1.083801 box
491262645 1.085571 box
491262745 1.083984 box
491262845 1.001648 box
491262945 1.082764 box
491263045 1.084656 box
491263145 1.083130 box
491263245 1.090210 box
491263345 1.090881 box
491263445 1.100708 box
491263545 1.098328 box
491263645 1.094910 box
491263745 1.096375 box
491263845 1.021606 box
491263945 1.085083 box
491264045 1.085754 box
491264145 1.086182 box
491264245 1.086243 box
491264345 1.010681 box
491264445 1.086365 box
491264545 1.086426 box
491264645 1.087646 box
491264745 1.083862 box
491264845 1.002380 box
491264945 1.084534 box
491265045 1.084961 box
491265145 1.086121 box
491265245 1.083923 box
491265345 1.001038 box
491265445 1.081848 box
491265545 1.083130 box
491265645 1.084656 box
491265745 1.083923 box
491265845 1.005737 box
491265945 1.080444 box
491266045 1.083313 box
491266145 1.085327 box
491266245 1.084229 box
491266345 1.008423 box
491266445 1.079651 box
491266545 1.085022 box
491266645 1.085571 box
491266745 1.087097 box
491266845 1.078003 box
491266945 1.099976 box
491267045 1.097961 box
491267145 1.094727 box
491267245 1.095703 box
491267345 1.078735 box
491267445 1.083496 box
491267545 1.085022 box
491267645 1.085144 box
491267745 1.086304 box
491267845 1.002136 box
491267945 1.085632 box
491268045 1.085815 box
491268145 1.084717 box
491268245 1.086914 box
491268345 1.003540 box
491268445 1.084106 box
491268545 1.085327 box
491268645 1.085999 box
491268745 1.083374 box
491268845 1.005737 box
491268945 1.082031 box
491269045 1.084290 box
491269145 1.086121 box
491269245 1.086365 box
491269345 1.006531 box
491269445 1.083862 box
491269545 1.086365 box
491269645 1.085266 box
491269745 1.086121 box
491269845 1.005737 box
491269945 1.083008 box
491270045 1.085632 box
491270145 1.084351 box
491270245 1.084534 box
491270345 1.018860 box
491270445 1.098511 box
491270545 1.096558 box
491270645 1.098999 box
491270745 1.094482 box
491270845 1.092407 box
491270945 1.092224 box
491271045 1.087280 box
491271145 1.085327 box
491271245 1.083984 box
491271345 1.002625 box
491271445 1.083008 box
491271545 1.084656 box
491271645 1.083740 box
491271745 1.084900 box
491271845 1.004578 box
491271945 1.082458 box
491272045 1.085510 box
491272145 1.084473 box
491272245 1.086731 box
491272345 1.003601 box
491272445 1.082214 box
491272545 1.084534 box
491272645 1.085449 box
491272745 1.084656 box
491272845 1.003296 box
491272945 1.082092 box
491273045 1.084961 box
491273145 1.085022 box
491273245 1.087036 box
491273345 1.005615 box
491273445 1.080261 box
491273545 1.084717 box
491273645 1.085022 box
491273745 1.083923 box
491273845 1.009766 box
491273945 1.089050 box
491274045 1.096375 box
491274145 1.098450 box
491274245 1.093933 box
491274345 1.091736 box
491274445 1.096680 box
491274545 1.086121 box
491274645 1.084290 box
491274745 1.085815 box
491274845 1.008423 box
491274945 1.078613 box
491275045 1.086243 box
491275145 1.085022 box
491275245 1.085754 box
491275345 1.010742 box
491275445 1.078430 box
491275545 1.085266 box
491275645 1.086304 box
491275745 1.085144 box
491275845 1.012329 box
491275945 1.076416 box
491276045 1.085754 box
491276145 1.084717 box
491276245 1.084961 box
491276345 1.012573 box
491276445 1.076233 box
491276545 1.081848 box
491276645 1.085388 box
491276745 1.084595 box
491276845 1.015259 box
491276945 1.074280 box
491277045 1.082092 box
491277145 1.086731 box
491277245 1.086060 box
491277345 1.013916 box
491277445 1.079468 box
491277545 1.096497 box
491277645 1.096436 box
491277745 1.099426 box
491277845 1.088989 box
491277945 1.100098 box
491278045 1.085144 box
491278145 1.086365 box
491278245 1.087524 box
491278345 1.012634 box
491278445 1.073792 box
491278545 1.084473 box
491278645 1.084595 box
491278745 1.085327 box
491278845 1.011353 box
491278945 1.076172 box
491279045 1.084656 box
491279145 1.084961 box
491279245 1.083557 box
491279345 1.013123 box
491279445 1.075439 box
491279545 1.086121 box
491279645 1.088196 box
491279745 1.088440 box
491279845 1.011658 box
491279945 1.080322 box
491280045 1.086365 box
491280145 1.087341 box
491280245 1.085999 box
491280345 1.014404 box
491280445 1.077393 box
491280545 1.086121 box
491280645 1.085205 box
491280745 1.085510 box
491280845 1.011902 box
491280945 1.078186 box
491281045 1.095276 box
491281145 1.096008 box
491281245 1.098694 box
491281345 1.093445 box
491281445 1.098267 box
491281545 1.096008 box
491281645 1.088074 box
491281745 1.084351 box
491281845 1.010742 box
491281945 1.073669 box
491282045 1.083923 box
491282145 1.084412 box
491282245 1.084534 box
491282345 1.012756 box
491282445 1.073792 box
491282545 1.083374 box
491282645 1.086853 box
491282745 1.087158 box
491282845 1.014160 box
491282945 1.072327 box
491283045 1.085632 box
491283145 1.084595 box
491283245 1.085754 box
491283345 1.018311 box
491283445 1.070251 box
491283545 1.084778 box
491283645 1.084290 box
491283745 1.085632 box
491283845 1.019714 box
491283945 1.069946 box
491284045 1.085876 box
491284145 1.084778 box
491284245 1.084045 box
491284345 1.019592 box
491284445 1.068359 box
491284545 1.085388 box
491284645 1.092163 box
491284745 1.096497 box
491284845 1.095520 box
491284945 1.096252 box
491285045 1.095581 box
491285145 1.096375 box
491285245 1.083984 box
491285345 1.018555 box
491285445 1.067261 box
491285545 1.084778 box
491285645 1.085693 box
491285745 1.085876 box
491285845 1.018311 box
491285945 1.068726 box
491286045 1.084045 box
491286145 1.086304 box
491286245 1.083801 box
491286345 1.017639 box
491286445 1.070679 box
491286545 1.085815 box
491286645 1.084290 box
491286745 1.085999 box
491286845 1.020142 box
491286945 1.068298 box
491287045 1.085754 box
491287145 1.085571 box
491287245 1.084045 box
491287345 1.020203 box
491287445 1.069092 box
491287545 1.084961 box
491287645 1.086426 box
491287745 1.083679 box
491287845 1.020752 box
491287945 1.064819 box
491288045 1.088745 box
491288145 1.084595 box
491288245 1.098511 box
491288345 1.091675 box
491288445 1.099731 box
491288545 1.094849 box
491288645 1.095581 box
491288745 1.090149 box
491288845 1.027405 box
491288945 1.061157 box
491289045 1.085449 box
491289145 1.085205 box
491289245 1.084167 box
491289345 1.027710 box
491289445 1.061340 box
491289545 1.084290 box
491289645 1.084534 box
491289745 1.084167 box
491289845 1.027283 box
491289945 1.058960 box
491290045 1.084961 box
491290145 1.083435 box
491290245 1.084412 box
491290345 1.028137 box
491290445 1.059509 box
491290545 1.083008 box
491290645 1.082520 box
491290745 1.086792 box
491290845 1.027344 box
491290945 1.059265 box
491291045 1.084656 box
491291145 1.085449 box
491291245 1.085632 box
491291345 1.029907 box
491291445 1.059265 box
491291545 1.085571 box
491291645 1.085999 box
491291745 1.091492 box
491291845 1.094055 box
491291945 1.096558 box
491292045 1.097412 box
491292145 1.096130 box
491292245 1.095886 box
491292345 1.025757 box
491292445 1.057678 box
491292545 1.084167 box
491292645 1.084229 box
491292745 1.084656 box
491292845 1.026428 box
491292945 1.058777 box
491293045 1.084045 box
491293145 1.084229 box
491293245 1.086609 box
491293345 1.027649 box
491293445 1.059021 box
491293545 1.085327 box
491293645 1.084351 box
491293745 1.085510 box
491293845 1.027100 box
491293945 1.057983 box
491294045 1.085205 box
491294145 1.084839 box
491294245 1.085144 box
491294345 1.027771 box
491294445 1.059082 box
491294545 1.086060 box
491294645 1.084045 box
491294745 1.083618 box
491294845 1.027832 box
491294945 1.060486 box
491295045 1.085754 box
491295145 1.087402 box
491295245 1.084839 box
491295345 1.095764 box
491295445 1.096985 box
491295545 1.098206 box
491295645 1.094299 box
491295745 1.096680 box
491295845 1.066345 box
491295945 1.060425 box
491296045 1.085754 box
491296145 1.084290 box
491296245 1.085388 box
491296345 1.027649 box
491296445 1.059692 box
491296545 1.084717 box
491296645 1.084900 box
491296745 1.083618 box
491296845 1.028870 box
491296945 1.058350 box
491297045 1.084595 box
491297145 1.083252 box
491297245 1.084167 box
491297345 1.030457 box
491297445 1.058411 box
491297545 1.085510 box
491297645 1.083557 box
491297745 1.085754 box
491297845 1.031067 box
491297945 1.056824 box
491298045 1.085754 box
491298145 1.084229 box
491298245 1.084534 box
491298345 1.032471 box
491298445 1.055176 box
491298545 1.086548 box
491298645 1.085693 box
491298745 1.086609 box
491298845 1.061523 box
491298945 1.098572 box
491299045 1.095459 box
491299145 1.097534 box
491299245 1.096741 box
491299345 1.091370 box
491299445 1.080750 box
491299545 1.085449 box
491299645 1.084900 box
491299745 1.085327 box
491299845 1.033264 box
491299945 1.056091 box
491300045 1.084595 box
491300145 1.087219 box
491300245 1.085266 box
491300345 1.035828 box
491300445 1.054260 box
491300545 1.084106 box
491300645 1.085510 box
491300745 1.087097 box
491300845 1.036621 box
491300945 1.051270 box
491301045 1.084290 box
491301145 1.084351 box
491301245 1.084045 box
491301345 1.036560 box
491301445 1.050598 box
491301545 1.084778 box
491301645 1.083313 box
491301745 1.084045 box
491301845 1.037659 box
491301945 1.049866 box
491302045 1.084595 box
491302145 1.084473 box
491302245 1.083801 box
491302345 1.038574 box
491302445 1.075073 box
491302545 1.097046 box
491302645 1.098328 box
491302745 1.094421 box
491302845 1.092651 box
491302945 1.093140 box
491303045 1.085022 box
491303145 1.084106 box
491303245 1.084961 box
491303345 1.037537 box
491303445 1.046631 box
491303545 1.085510 box
491303645 1.084656 box
491303745 1.084900 box
491303845 1.037354 box
491303945 1.046082 box
491304045 1.084656 box
491304145 1.084167 box
491304245 1.084656 box
491304345 1.039001 box
491304445 1.046143 box
491304545 1.084717 box
491304645 1.085510 box
491304745 1.085876 box
491304845 1.041321 box
491304945 1.045349 box
491305045 1.083557 box
491305145 1.084473 box
491305245 1.084839 box
491305345 1.041443 box
491305445 1.048279 box
491305545 1.086365 box
491305645 1.085449 box
491305745 1.084534 box
491305845 1.041687 box
491305945 1.054810 box
491306045 1.096008 box
491306145 1.096375 box
491306245 1.097290 box
491306345 1.090698 box
