------------
Profiler Configuration
output path: /home/tc/pwr2018_data/output_graph500_proc1/cap_12/nowrapper-3
monitoring frequency: 100000000 nano seconds
------------
SCALE:                          20
edgefactor:                     16
NBFS:                           64
graph_generation:               6.44367
num_mpi_processes:              1
construction_time:              1.04769
bfs  min_time:                  0.257563
bfs  firstquartile_time:        0.257665
bfs  median_time:               0.257723
bfs  thirdquartile_time:        0.257778
bfs  max_time:                  0.258471
bfs  mean_time:                 0.257734
bfs  stddev_time:               0.000119839
min_nedge:                      16775818
firstquartile_nedge:            16775818
median_nedge:                   16775818
thirdquartile_nedge:            16775818
max_nedge:                      16775818
mean_nedge:                     16775818
stddev_nedge:                   0
bfs  min_TEPS:                  6.49041e+07
bfs  firstquartile_TEPS:        6.50785e+07
bfs  median_TEPS:               6.50924e+07
bfs  thirdquartile_TEPS:        6.5107e+07
bfs  max_TEPS:                  6.51329e+07
bfs  harmonic_mean_TEPS:     !  6.50897e+07
bfs  harmonic_stddev_TEPS:      3813.02
bfs  min_validate:              1.63807
bfs  firstquartile_validate:    1.64062
bfs  median_validate:           1.64414
bfs  thirdquartile_validate:    1.64777
bfs  max_validate:              1.6495
bfs  mean_validate:             1.64392
bfs  stddev_validate:           0.00362745
