------------
Profiler Configuration
output path: /home/tc/pwr2018_data/output_fixed/graph500_proc1/cap_14/nowrapper-5
monitoring frequency: 100000000 nano seconds
------------
SCALE:                          20
edgefactor:                     16
NBFS:                           64
graph_generation:               6.43946
num_mpi_processes:              1
construction_time:              1.05186
bfs  min_time:                  0.263202
bfs  firstquartile_time:        0.263286
bfs  median_time:               0.263329
bfs  thirdquartile_time:        0.263385
bfs  max_time:                  0.263468
bfs  mean_time:                 0.263336
bfs  stddev_time:               6.11672e-05
min_nedge:                      16775818
firstquartile_nedge:            16775818
median_nedge:                   16775818
thirdquartile_nedge:            16775818
max_nedge:                      16775818
mean_nedge:                     16775818
stddev_nedge:                   0
bfs  min_TEPS:                  6.3673e+07
bfs  firstquartile_TEPS:        6.36931e+07
bfs  median_TEPS:               6.37068e+07
bfs  thirdquartile_TEPS:        6.37172e+07
bfs  max_TEPS:                  6.37375e+07
bfs  harmonic_mean_TEPS:     !  6.37051e+07
bfs  harmonic_stddev_TEPS:      1864.29
bfs  min_validate:              1.59618
bfs  firstquartile_validate:    1.5988
bfs  median_validate:           1.60268
bfs  thirdquartile_validate:    1.60539
bfs  max_validate:              1.60747
bfs  mean_validate:             1.60208
bfs  stddev_validate:           0.00350217
