/dev/cpu/msr_batch: No such file or directory
graph_generation:               6.444405 s
construction_time:              1.054745 s
Running BFS 0
Time for BFS 0 is 0.265998
TEPS for BFS 0 is 6.30674e+07
Validating BFS 0
Validate time for BFS 0 is 1.603829
Running BFS 1
Time for BFS 1 is 0.265970
TEPS for BFS 1 is 6.30741e+07
Validating BFS 1
Validate time for BFS 1 is 1.603497
Running BFS 2
Time for BFS 2 is 0.265790
TEPS for BFS 2 is 6.31168e+07
Validating BFS 2
Validate time for BFS 2 is 1.604383
Running BFS 3
Time for BFS 3 is 0.265827
TEPS for BFS 3 is 6.31081e+07
Validating BFS 3
Validate time for BFS 3 is 1.598125
Running BFS 4
Time for BFS 4 is 0.265953
TEPS for BFS 4 is 6.30782e+07
Validating BFS 4
Validate time for BFS 4 is 1.595800
Running BFS 5
Time for BFS 5 is 0.265999
TEPS for BFS 5 is 6.30672e+07
Validating BFS 5
Validate time for BFS 5 is 1.601804
Running BFS 6
Time for BFS 6 is 0.265878
TEPS for BFS 6 is 6.30958e+07
Validating BFS 6
Validate time for BFS 6 is 1.596393
Running BFS 7
Time for BFS 7 is 0.265794
TEPS for BFS 7 is 6.31158e+07
Validating BFS 7
Validate time for BFS 7 is 1.601370
Running BFS 8
Time for BFS 8 is 0.265851
TEPS for BFS 8 is 6.31024e+07
Validating BFS 8
Validate time for BFS 8 is 1.596040
Running BFS 9
Time for BFS 9 is 0.265953
TEPS for BFS 9 is 6.30781e+07
Validating BFS 9
Validate time for BFS 9 is 1.597464
Running BFS 10
Time for BFS 10 is 0.265833
TEPS for BFS 10 is 6.31067e+07
Validating BFS 10
Validate time for BFS 10 is 1.603979
Running BFS 11
Time for BFS 11 is 0.265948
TEPS for BFS 11 is 6.30794e+07
Validating BFS 11
Validate time for BFS 11 is 1.596655
Running BFS 12
Time for BFS 12 is 0.266028
TEPS for BFS 12 is 6.30602e+07
Validating BFS 12
Validate time for BFS 12 is 1.602431
Running BFS 13
Time for BFS 13 is 0.265903
TEPS for BFS 13 is 6.30899e+07
Validating BFS 13
Validate time for BFS 13 is 1.597469
Running BFS 14
Time for BFS 14 is 0.265569
TEPS for BFS 14 is 6.31692e+07
Validating BFS 14
Validate time for BFS 14 is 1.597005
Running BFS 15
Time for BFS 15 is 0.265773
TEPS for BFS 15 is 6.31208e+07
Validating BFS 15
Validate time for BFS 15 is 1.604366
Running BFS 16
Time for BFS 16 is 0.265912
TEPS for BFS 16 is 6.30878e+07
Validating BFS 16
Validate time for BFS 16 is 1.597210
Running BFS 17
Time for BFS 17 is 0.265888
TEPS for BFS 17 is 6.30935e+07
Validating BFS 17
Validate time for BFS 17 is 1.603698
Running BFS 18
Time for BFS 18 is 0.265910
TEPS for BFS 18 is 6.30884e+07
Validating BFS 18
Validate time for BFS 18 is 1.603664
Running BFS 19
Time for BFS 19 is 0.265890
TEPS for BFS 19 is 6.30931e+07
Validating BFS 19
Validate time for BFS 19 is 1.604666
Running BFS 20
Time for BFS 20 is 0.265887
TEPS for BFS 20 is 6.30938e+07
Validating BFS 20
Validate time for BFS 20 is 1.594237
Running BFS 21
Time for BFS 21 is 0.265800
TEPS for BFS 21 is 6.31144e+07
Validating BFS 21
Validate time for BFS 21 is 1.601464
Running BFS 22
Time for BFS 22 is 0.265868
TEPS for BFS 22 is 6.30984e+07
Validating BFS 22
Validate time for BFS 22 is 1.603216
Running BFS 23
Time for BFS 23 is 0.266070
TEPS for BFS 23 is 6.30503e+07
Validating BFS 23
Validate time for BFS 23 is 1.603589
Running BFS 24
Time for BFS 24 is 0.266054
TEPS for BFS 24 is 6.30541e+07
Validating BFS 24
Validate time for BFS 24 is 1.598079
Running BFS 25
Time for BFS 25 is 0.265782
TEPS for BFS 25 is 6.31187e+07
Validating BFS 25
Validate time for BFS 25 is 1.604126
Running BFS 26
Time for BFS 26 is 0.266094
TEPS for BFS 26 is 6.30448e+07
Validating BFS 26
Validate time for BFS 26 is 1.604947
Running BFS 27
Time for BFS 27 is 0.266179
TEPS for BFS 27 is 6.30246e+07
Validating BFS 27
Validate time for BFS 27 is 1.597213
Running BFS 28
Time for BFS 28 is 0.265898
TEPS for BFS 28 is 6.30911e+07
Validating BFS 28
Validate time for BFS 28 is 1.604402
Running BFS 29
Time for BFS 29 is 0.265773
TEPS for BFS 29 is 6.31208e+07
Validating BFS 29
Validate time for BFS 29 is 1.604487
Running BFS 30
Time for BFS 30 is 0.265892
TEPS for BFS 30 is 6.30927e+07
Validating BFS 30
Validate time for BFS 30 is 1.604364
Running BFS 31
Time for BFS 31 is 0.266060
TEPS for BFS 31 is 6.30528e+07
Validating BFS 31
Validate time for BFS 31 is 1.596823
Running BFS 32
Time for BFS 32 is 0.265774
TEPS for BFS 32 is 6.31205e+07
Validating BFS 32
Validate time for BFS 32 is 1.596038
Running BFS 33
Time for BFS 33 is 0.265731
TEPS for BFS 33 is 6.31308e+07
Validating BFS 33
Validate time for BFS 33 is 1.603942
Running BFS 34
Time for BFS 34 is 0.265800
TEPS for BFS 34 is 6.31146e+07
Validating BFS 34
Validate time for BFS 34 is 1.597404
Running BFS 35
Time for BFS 35 is 0.265890
TEPS for BFS 35 is 6.30931e+07
Validating BFS 35
Validate time for BFS 35 is 1.595958
Running BFS 36
Time for BFS 36 is 0.265897
TEPS for BFS 36 is 6.30914e+07
Validating BFS 36
Validate time for BFS 36 is 1.598373
Running BFS 37
Time for BFS 37 is 0.265751
TEPS for BFS 37 is 6.3126e+07
Validating BFS 37
Validate time for BFS 37 is 1.602285
Running BFS 38
Time for BFS 38 is 0.265963
TEPS for BFS 38 is 6.30758e+07
Validating BFS 38
Validate time for BFS 38 is 1.596561
Running BFS 39
Time for BFS 39 is 0.265994
TEPS for BFS 39 is 6.30683e+07
Validating BFS 39
Validate time for BFS 39 is 1.597119
Running BFS 40
Time for BFS 40 is 0.266125
TEPS for BFS 40 is 6.30373e+07
Validating BFS 40
Validate time for BFS 40 is 1.595352
Running BFS 41
Time for BFS 41 is 0.265979
TEPS for BFS 41 is 6.3072e+07
Validating BFS 41
Validate time for BFS 41 is 1.604137
Running BFS 42
Time for BFS 42 is 0.266061
TEPS for BFS 42 is 6.30524e+07
Validating BFS 42
Validate time for BFS 42 is 1.597106
Running BFS 43
Time for BFS 43 is 0.265896
TEPS for BFS 43 is 6.30916e+07
Validating BFS 43
Validate time for BFS 43 is 1.598953
Running BFS 44
Time for BFS 44 is 0.265986
TEPS for BFS 44 is 6.30704e+07
Validating BFS 44
Validate time for BFS 44 is 1.603072
Running BFS 45
Time for BFS 45 is 0.265815
TEPS for BFS 45 is 6.31109e+07
Validating BFS 45
Validate time for BFS 45 is 1.595346
Running BFS 46
Time for BFS 46 is 0.265974
TEPS for BFS 46 is 6.30733e+07
Validating BFS 46
Validate time for BFS 46 is 1.601384
Running BFS 47
Time for BFS 47 is 0.265798
TEPS for BFS 47 is 6.31148e+07
Validating BFS 47
Validate time for BFS 47 is 1.597352
Running BFS 48
Time for BFS 48 is 0.265809
TEPS for BFS 48 is 6.31124e+07
Validating BFS 48
Validate time for BFS 48 is 1.603974
Running BFS 49
Time for BFS 49 is 0.265823
TEPS for BFS 49 is 6.3109e+07
Validating BFS 49
Validate time for BFS 49 is 1.597115
Running BFS 50
Time for BFS 50 is 0.265777
TEPS for BFS 50 is 6.31198e+07
Validating BFS 50
Validate time for BFS 50 is 1.594288
Running BFS 51
Time for BFS 51 is 0.265982
TEPS for BFS 51 is 6.30713e+07
Validating BFS 51
Validate time for BFS 51 is 1.603924
Running BFS 52
Time for BFS 52 is 0.266008
TEPS for BFS 52 is 6.30651e+07
Validating BFS 52
Validate time for BFS 52 is 1.603867
Running BFS 53
Time for BFS 53 is 0.265827
TEPS for BFS 53 is 6.31079e+07
Validating BFS 53
Validate time for BFS 53 is 1.596270
Running BFS 54
Time for BFS 54 is 0.265870
TEPS for BFS 54 is 6.30978e+07
Validating BFS 54
Validate time for BFS 54 is 1.604070
Running BFS 55
Time for BFS 55 is 0.265937
TEPS for BFS 55 is 6.3082e+07
Validating BFS 55
Validate time for BFS 55 is 1.596606
Running BFS 56
Time for BFS 56 is 0.265962
TEPS for BFS 56 is 6.30759e+07
Validating BFS 56
Validate time for BFS 56 is 1.596103
Running BFS 57
Time for BFS 57 is 0.265703
TEPS for BFS 57 is 6.31376e+07
Validating BFS 57
Validate time for BFS 57 is 1.604949
Running BFS 58
Time for BFS 58 is 0.265899
TEPS for BFS 58 is 6.30909e+07
Validating BFS 58
Validate time for BFS 58 is 1.602606
Running BFS 59
Time for BFS 59 is 0.265836
TEPS for BFS 59 is 6.31059e+07
Validating BFS 59
Validate time for BFS 59 is 1.604819
Running BFS 60
Time for BFS 60 is 0.266569
TEPS for BFS 60 is 6.29324e+07
Validating BFS 60
Validate time for BFS 60 is 1.597769
Running BFS 61
Time for BFS 61 is 0.265906
TEPS for BFS 61 is 6.30893e+07
Validating BFS 61
Validate time for BFS 61 is 1.604164
Running BFS 62
Time for BFS 62 is 0.265797
TEPS for BFS 62 is 6.31153e+07
Validating BFS 62
Validate time for BFS 62 is 1.603934
Running BFS 63
Time for BFS 63 is 0.265920
TEPS for BFS 63 is 6.30859e+07
Validating BFS 63
Validate time for BFS 63 is 1.596514
real	2m 18.61s
user	2m 18.52s
sys	0m 0.08s
