time(ms) energy(J) hostname
368120457 0.000000 box
368120557 1.265930 box
368120657 1.294373 box
368120757 1.369995 box
368120857 1.285583 box
368120957 1.284912 box
368121057 1.283264 box
368121157 1.283325 box
368121257 1.307068 box
368121357 1.393372 box
368121457 1.393982 box
368121557 1.398010 box
368121657 1.396545 box
368121757 1.399353 box
368121857 1.395569 box
368121957 1.396484 box
368122057 1.396362 box
368122157 1.396057 box
368122257 1.393799 box
368122357 1.396484 box
368122457 1.396240 box
368122557 1.396912 box
368122657 1.399170 box
368122757 1.396362 box
368122857 1.396423 box
368122957 1.396362 box
368123057 1.396362 box
368123157 1.397217 box
368123257 1.398499 box
368123357 1.395813 box
368123457 1.396484 box
368123557 1.396545 box
368123657 1.395935 box
368123757 1.396179 box
368123857 1.396667 box
368123957 1.397034 box
368124057 1.395569 box
368124157 1.396057 box
368124257 1.396362 box
368124357 1.396057 box
368124457 1.395264 box
368124557 1.399109 box
368124657 1.396301 box
368124757 1.396179 box
368124857 1.393921 box
368124957 1.395752 box
368125057 1.396912 box
368125157 1.395813 box
368125257 1.397034 box
368125357 1.396057 box
368125457 1.396057 box
368125557 1.395691 box
368125657 1.396362 box
368125757 1.395691 box
368125857 1.396362 box
368125957 1.395386 box
368126057 1.397461 box
368126157 1.395569 box
368126257 1.395386 box
368126357 1.397400 box
368126457 1.395264 box
368126557 1.397400 box
368126657 1.395874 box
368126757 1.395447 box
368126857 1.397339 box
368126957 1.395691 box
368127057 1.395996 box
368127157 1.396179 box
368127257 1.396179 box
368127357 1.396606 box
368127457 1.395142 box
368127557 1.396423 box
368127657 1.395630 box
368127757 1.397156 box
368127857 1.395264 box
368127957 1.396240 box
368128057 1.397034 box
368128157 1.395691 box
368128257 1.395874 box
368128357 1.396973 box
368128457 1.395386 box
368128557 1.396179 box
368128657 1.395691 box
368128757 1.396729 box
368128857 1.395630 box
368128957 1.396362 box
368129057 1.396118 box
368129157 1.395935 box
368129257 1.396057 box
368129357 1.395386 box
368129457 1.397339 box
368129557 1.395752 box
368129657 1.395996 box
368129757 1.396851 box
368129857 1.396118 box
368129957 1.395508 box
368130057 1.396606 box
368130157 1.395386 box
368130257 1.396912 box
368130357 1.395874 box
368130457 1.396423 box
368130557 1.395874 box
368130657 1.395691 box
368130757 1.395447 box
368130857 1.397217 box
368130957 1.395630 box
368131057 1.396851 box
368131157 1.396851 box
368131257 1.395386 box
368131357 1.396057 box
368131457 1.396179 box
368131557 1.395203 box
368131657 1.397339 box
368131757 1.395569 box
368131857 1.397949 box
368131957 1.396912 box
368132057 1.394836 box
368132157 1.397339 box
368132257 1.396484 box
368132357 1.396057 box
368132457 1.395996 box
368132557 1.397095 box
368132657 1.395813 box
368132757 1.396240 box
368132857 1.395264 box
368132957 1.396667 box
368133057 1.394653 box
368133157 1.396362 box
368133257 1.396729 box
368133357 1.394897 box
368133457 1.396057 box
368133557 1.395996 box
368133657 1.397095 box
368133757 1.395630 box
368133857 1.396179 box
368133957 1.395996 box
368134057 1.395569 box
368134157 1.396362 box
368134257 1.395935 box
368134357 1.395508 box
368134457 1.396423 box
368134557 1.395691 box
368134657 1.395996 box
368134757 1.396118 box
368134857 1.397522 box
368134957 1.395935 box
368135057 1.396118 box
368135157 1.396118 box
368135257 1.395569 box
368135357 1.396912 box
368135457 1.396851 box
368135557 1.395752 box
368135657 1.397644 box
368135757 1.395142 box
368135857 1.396729 box
368135957 1.396973 box
368136057 1.397278 box
368136157 1.394958 box
368136257 1.396179 box
368136357 1.396240 box
368136457 1.395752 box
368136557 1.396484 box
368136657 1.396362 box
368136757 1.396057 box
368136857 1.393188 box
368136957 1.380371 box
368137057 1.362793 box
368137157 1.351746 box
368137257 1.362976 box
368137357 1.366150 box
368137457 1.363281 box
368137557 1.365601 box
368137657 1.368469 box
368137757 1.365173 box
368137857 1.360107 box
368137957 1.357910 box
368138057 1.354492 box
368138157 1.362244 box
368138257 1.360962 box
368138357 1.361572 box
368138457 1.360962 box
368138557 1.366028 box
368138657 1.367432 box
368138757 1.359436 box
368138857 1.354004 box
368138957 1.349182 box
368139057 1.348572 box
368139157 1.350342 box
368139257 1.354431 box
368139357 1.357422 box
368139457 1.356201 box
368139557 1.359985 box
368139657 1.353516 box
368139757 1.352478 box
368139857 1.350647 box
368139957 1.351440 box
368140057 1.348206 box
368140157 1.339417 box
368140257 1.333252 box
368140357 1.368408 box
368140457 1.375366 box
368140557 1.375916 box
368140657 1.394470 box
368140757 1.396118 box
368140857 1.394958 box
368140957 1.395020 box
368141057 1.397766 box
368141157 1.396973 box
368141257 1.395996 box
368141357 1.395081 box
368141457 1.396729 box
368141557 1.396179 box
368141657 1.396606 box
368141757 1.394531 box
368141857 1.396973 box
368141957 1.395813 box
368142057 1.397278 box
368142157 1.398315 box
368142257 1.395569 box
368142357 1.397888 box
368142457 1.392883 box
368142557 1.398315 box
368142657 1.396362 box
368142757 1.391907 box
368142857 1.392212 box
368142957 1.389099 box
368143057 1.394165 box
368143157 1.350281 box
368143257 1.376587 box
368143357 1.376709 box
368143457 1.378601 box
368143557 1.326965 box
368143657 1.378540 box
368143757 1.381897 box
368143857 1.381531 box
368143957 1.378296 box
368144057 1.272095 box
368144157 1.380066 box
368144257 1.380188 box
368144357 1.381653 box
368144457 1.378784 box
368144557 1.280212 box
368144657 1.380737 box
368144757 1.381287 box
368144857 1.382141 box
368144957 1.381226 box
368145057 1.278687 box
368145157 1.379517 box
368145257 1.380188 box
368145357 1.381897 box
368145457 1.373657 box
368145557 1.280640 box
368145657 1.380066 box
368145757 1.390808 box
368145857 1.396790 box
368145957 1.395203 box
368146057 1.397766 box
368146157 1.395081 box
368146257 1.396362 box
368146357 1.396790 box
368146457 1.350647 box
368146557 1.299316 box
368146657 1.378662 box
368146757 1.378601 box
368146857 1.380005 box
368146957 1.349854 box
368147057 1.306763 box
368147157 1.381775 box
368147257 1.380859 box
368147357 1.384033 box
368147457 1.344788 box
368147557 1.316345 box
368147657 1.379944 box
368147757 1.378967 box
368147857 1.380310 box
368147957 1.337036 box
368148057 1.319153 box
368148157 1.382874 box
368148257 1.381409 box
368148357 1.379150 box
368148457 1.329285 box
368148557 1.321899 box
368148657 1.380066 box
368148757 1.382202 box
368148857 1.380310 box
368148957 1.327881 box
368149057 1.336243 box
368149157 1.386108 box
368149257 1.386963 box
368149357 1.385864 box
368149457 1.391479 box
368149557 1.394653 box
368149657 1.397461 box
368149757 1.394531 box
368149857 1.396179 box
368149957 1.392639 box
368150057 1.347656 box
368150157 1.380920 box
368150257 1.381836 box
368150357 1.381958 box
368150457 1.314880 box
368150557 1.345703 box
368150657 1.381104 box
368150757 1.379517 box
368150857 1.380554 box
368150957 1.303650 box
368151057 1.352600 box
368151157 1.379700 box
368151257 1.381287 box
368151357 1.382080 box
368151457 1.299866 box
368151557 1.358154 box
368151657 1.379883 box
368151757 1.380798 box
368151857 1.381775 box
368151957 1.299194 box
368152057 1.364380 box
368152157 1.378540 box
368152257 1.379150 box
368152357 1.379883 box
368152457 1.284546 box
368152557 1.370483 box
368152657 1.379517 box
368152757 1.379333 box
368152857 1.381042 box
368152957 1.279724 box
368153057 1.392334 box
368153157 1.395752 box
368153257 1.399292 box
368153357 1.395691 box
368153457 1.387329 box
368153557 1.396484 box
368153657 1.381409 box
368153757 1.380188 box
368153857 1.377380 box
368153957 1.284058 box
368154057 1.378113 box
368154157 1.381287 box
368154257 1.378601 box
368154357 1.377380 box
368154457 1.283447 box
368154557 1.380127 box
368154657 1.378418 box
368154757 1.380249 box
368154857 1.376038 box
368154957 1.278870 box
368155057 1.380737 box
368155157 1.379761 box
368155257 1.379395 box
368155357 1.377808 box
368155457 1.283020 box
368155557 1.379089 box
368155657 1.379028 box
368155757 1.379761 box
368155857 1.372375 box
368155957 1.291016 box
368156057 1.379883 box
368156157 1.380127 box
368156257 1.380493 box
368156357 1.363159 box
368156457 1.294373 box
368156557 1.380676 box
368156657 1.392395 box
368156757 1.396606 box
368156857 1.394348 box
368156957 1.399536 box
368157057 1.394653 box
368157157 1.395996 box
368157257 1.392944 box
368157357 1.346375 box
368157457 1.313232 box
368157557 1.380920 box
368157657 1.378967 box
368157757 1.379333 box
368157857 1.338806 box
368157957 1.315491 box
368158057 1.378845 box
368158157 1.379395 box
368158257 1.382019 box
368158357 1.336609 box
368158457 1.335632 box
368158557 1.385193 box
368158657 1.384460 box
368158757 1.385254 box
368158857 1.339050 box
368158957 1.339478 box
368159057 1.385681 box
368159157 1.385498 box
368159257 1.383911 box
368159357 1.332703 box
368159457 1.342407 box
368159557 1.385559 box
368159657 1.382324 box
368159757 1.384216 box
368159857 1.329773 box
368159957 1.347717 box
368160057 1.384277 box
368160157 1.385986 box
368160257 1.388489 box
368160357 1.389648 box
368160457 1.389465 box
368160557 1.397583 box
368160657 1.394775 box
368160757 1.396423 box
368160857 1.389709 box
368160957 1.353333 box
368161057 1.381653 box
368161157 1.381104 box
368161257 1.381226 box
368161357 1.310425 box
368161457 1.354187 box
368161557 1.382751 box
368161657 1.378845 box
368161757 1.381470 box
368161857 1.296326 box
368161957 1.362244 box
368162057 1.380554 box
368162157 1.381836 box
368162257 1.381897 box
368162357 1.291321 box
368162457 1.368896 box
368162557 1.379578 box
368162657 1.380493 box
368162757 1.379822 box
368162857 1.291931 box
368162957 1.373474 box
368163057 1.380005 box
368163157 1.380920 box
368163257 1.379822 box
368163357 1.281738 box
368163457 1.378479 box
368163557 1.380676 box
368163657 1.380005 box
368163757 1.380249 box
368163857 1.280762 box
368163957 1.394226 box
368164057 1.395752 box
368164157 1.397705 box
368164257 1.394653 box
368164357 1.388855 box
368164457 1.396118 box
368164557 1.382080 box
368164657 1.382568 box
368164757 1.385925 box
368164857 1.298035 box
368164957 1.384949 box
368165057 1.386597 box
368165157 1.387085 box
368165257 1.381226 box
368165357 1.300598 box
368165457 1.385254 box
368165557 1.384277 box
368165657 1.387634 box
368165757 1.371094 box
368165857 1.291748 box
368165957 1.380676 box
368166057 1.379089 box
368166157 1.380798 box
368166257 1.366394 box
368166357 1.297485 box
368166457 1.381531 box
368166557 1.381226 box
368166657 1.381348 box
368166757 1.365601 box
368166857 1.317871 box
368166957 1.383484 box
368167057 1.385620 box
368167157 1.385437 box
368167257 1.360474 box
368167357 1.320618 box
368167457 1.384277 box
368167557 1.395203 box
368167657 1.396118 box
368167757 1.391907 box
368167857 1.398193 box
368167957 1.394958 box
368168057 1.396484 box
368168157 1.393127 box
368168257 1.340393 box
368168357 1.337402 box
368168457 1.384033 box
368168557 1.383545 box
368168657 1.385681 box
368168757 1.335693 box
368168857 1.330933 box
368168957 1.379517 box
368169057 1.380127 box
368169157 1.380615 box
368169257 1.324829 box
368169357 1.341187 box
368169457 1.380127 box
368169557 1.380127 box
368169657 1.380615 box
368169757 1.316772 box
368169857 1.349182 box
368169957 1.384827 box
368170057 1.384277 box
368170157 1.385559 box
368170257 1.319763 box
368170357 1.357056 box
368170457 1.383972 box
368170557 1.384216 box
368170657 1.388062 box
368170757 1.328491 box
368170857 1.351990 box
368170957 1.384277 box
368171057 1.387207 box
368171157 1.387329 box
368171257 1.393677 box
368171357 1.392700 box
368171457 1.396851 box
368171557 1.395813 box
368171657 1.396484 box
368171757 1.377258 box
368171857 1.370544 box
368171957 1.385132 box
368172057 1.383362 box
368172157 1.385620 box
368172257 1.312744 box
368172357 1.372620 box
368172457 1.384705 box
368172557 1.384705 box
368172657 1.385315 box
368172757 1.300720 box
368172857 1.380371 box
368172957 1.384583 box
368173057 1.383850 box
368173157 1.384399 box
368173257 1.294983 box
368173357 1.385071 box
368173457 1.385864 box
368173557 1.384705 box
368173657 1.383484 box
368173757 1.300232 box
368173857 1.386047 box
368173957 1.384766 box
368174057 1.380127 box
368174157 1.382568 box
368174257 1.285034 box
368174357 1.379211 box
368174457 1.381104 box
368174557 1.381287 box
368174657 1.379150 box
368174757 1.282104 box
368174857 1.395386 box
368174957 1.396118 box
368175057 1.398315 box
368175157 1.393921 box
368175257 1.393921 box
368175357 1.395447 box
368175457 1.383484 box
368175557 1.384399 box
368175657 1.383423 box
368175757 1.296326 box
368175857 1.382385 box
368175957 1.383606 box
368176057 1.384949 box
368176157 1.381165 box
368176257 1.304871 box
368176357 1.387085 box
368176457 1.385071 box
368176557 1.384399 box
368176657 1.373474 box
368176757 1.312988 box
368176857 1.384888 box
368176957 1.384338 box
368177057 1.386108 box
368177157 1.366272 box
368177257 1.311523 box
368177357 1.384583 box
368177457 1.385437 box
368177557 1.385498 box
368177657 1.365723 box
368177757 1.318359 box
368177857 1.383240 box
368177957 1.386414 box
368178057 1.384827 box
368178157 1.363831 box
368178257 1.326050 box
368178357 1.385071 box
368178457 1.396606 box
368178557 1.396240 box
368178657 1.394897 box
368178757 1.399780 box
368178857 1.394531 box
368178957 1.396057 box
368179057 1.390747 box
368179157 1.347351 box
368179257 1.338562 box
368179357 1.383301 box
368179457 1.382446 box
368179557 1.385437 box
368179657 1.341187 box
368179757 1.344910 box
368179857 1.385193 box
368179957 1.384399 box
368180057 1.385620 box
368180157 1.334106 box
368180257 1.348022 box
368180357 1.386719 box
368180457 1.386780 box
368180557 1.383850 box
368180657 1.333313 box
368180757 1.351379 box
368180857 1.383118 box
368180957 1.384399 box
368181057 1.385132 box
368181157 1.328125 box
368181257 1.359680 box
368181357 1.385803 box
368181457 1.386292 box
368181557 1.387146 box
368181657 1.328186 box
368181757 1.354736 box
368181857 1.387390 box
368181957 1.385620 box
368182057 1.391296 box
368182157 1.393372 box
368182257 1.392090 box
368182357 1.397766 box
368182457 1.394775 box
368182557 1.396484 box
368182657 1.376831 box
368182757 1.367493 box
368182857 1.387085 box
368182957 1.385315 box
368183057 1.386169 box
368183157 1.307434 box
368183257 1.374512 box
368183357 1.387024 box
368183457 1.385376 box
368183557 1.385193 box
368183657 1.308044 box
368183757 1.378784 box
368183857 1.386353 box
368183957 1.385803 box
368184057 1.385071 box
368184157 1.306641 box
368184257 1.382141 box
368184357 1.384460 box
368184457 1.386902 box
368184557 1.385376 box
368184657 1.297607 box
368184757 1.386108 box
368184857 1.386780 box
368184957 1.387817 box
368185057 1.385132 box
368185157 1.298523 box
368185257 1.387634 box
368185357 1.385986 box
368185457 1.386108 box
368185557 1.385681 box
368185657 1.303162 box
368185757 1.396667 box
368185857 1.395874 box
368185957 1.398376 box
368186057 1.394531 box
368186157 1.389465 box
368186257 1.396606 box
368186357 1.385864 box
368186457 1.385315 box
368186557 1.385437 box
368186657 1.300354 box
368186757 1.385132 box
368186857 1.384338 box
368186957 1.385376 box
368187057 1.379761 box
368187157 1.307556 box
368187257 1.384705 box
368187357 1.385681 box
368187457 1.385864 box
368187557 1.373169 box
368187657 1.308716 box
368187757 1.384583 box
368187857 1.383667 box
368187957 1.387024 box
368188057 1.370300 box
368188157 1.314636 box
368188257 1.386353 box
368188357 1.385071 box
368188457 1.383972 box
368188557 1.364441 box
368188657 1.321533 box
368188757 1.384583 box
368188857 1.384399 box
368188957 1.387207 box
368189057 1.360352 box
368189157 1.325195 box
368189257 1.385254 box
368189357 1.396729 box
368189457 1.396606 box
368189557 1.392273 box
368189657 1.399170 box
368189757 1.395508 box
368189857 1.395813 box
368189957 1.391418 box
368190057 1.345581 box
368190157 1.341003 box
368190257 1.385559 box
368190357 1.384521 box
368190457 1.384827 box
368190557 1.336426 box
368190657 1.343628 box
368190757 1.385254 box
368190857 1.386353 box
368190957 1.384644 box
368191057 1.334900 box
368191157 1.349670 box
368191257 1.386292 box
368191357 1.385071 box
368191457 1.386841 box
368191557 1.332703 box
368191657 1.356506 box
368191757 1.381287 box
368191857 1.381836 box
368191957 1.381348 box
368192057 1.315674 box
368192157 1.352539 box
368192257 1.380676 box
368192357 1.380615 box
368192457 1.380859 box
368192557 1.315857 box
368192657 1.347778 box
368192757 1.383789 box
368192857 1.385437 box
368192957 1.390137 box
368193057 1.394714 box
368193157 1.393127 box
368193257 1.397400 box
368193357 1.395386 box
368193457 1.395752 box
368193557 1.370117 box
368193657 1.370056 box
368193757 1.384338 box
368193857 1.385315 box
368193957 1.383362 box
368194057 1.313416 box
368194157 1.374207 box
368194257 1.386658 box
368194357 1.385132 box
368194457 1.384399 box
368194557 1.312500 box
368194657 1.376831 box
368194757 1.385742 box
368194857 1.383789 box
368194957 1.386230 box
368195057 1.297546 box
368195157 1.384033 box
368195257 1.386047 box
368195357 1.384827 box
368195457 1.384766 box
368195557 1.302734 box
368195657 1.385864 box
368195757 1.386047 box
368195857 1.384827 box
368195957 1.386475 box
368196057 1.303467 box
368196157 1.386353 box
368196257 1.387390 box
368196357 1.385193 box
368196457 1.385376 box
368196557 1.302490 box
368196657 1.395630 box
368196757 1.396912 box
368196857 1.397522 box
368196957 1.393860 box
368197057 1.395630 box
368197157 1.396118 box
368197257 1.384583 box
368197357 1.385498 box
368197457 1.381897 box
368197557 1.299377 box
368197657 1.386108 box
368197757 1.384949 box
368197857 1.384216 box
368197957 1.381592 box
368198057 1.305908 box
368198157 1.385376 box
368198257 1.385010 box
368198357 1.387146 box
368198457 1.375854 box
368198557 1.313904 box
368198657 1.387207 box
368198757 1.384094 box
368198857 1.385193 box
368198957 1.370117 box
368199057 1.320007 box
368199157 1.384766 box
368199257 1.387390 box
368199357 1.385132 box
368199457 1.363464 box
368199557 1.320007 box
368199657 1.386963 box
368199757 1.385193 box
368199857 1.385254 box
368199957 1.358582 box
368200057 1.325500 box
368200157 1.386169 box
368200257 1.395020 box
368200357 1.397034 box
368200457 1.395020 box
368200557 1.396545 box
368200657 1.394958 box
368200757 1.395691 box
368200857 1.392822 box
368200957 1.345154 box
368201057 1.340942 box
368201157 1.386963 box
368201257 1.384338 box
368201357 1.385681 box
368201457 1.344238 box
368201557 1.345886 box
368201657 1.384949 box
368201757 1.387024 box
368201857 1.384155 box
368201957 1.334656 box
368202057 1.353760 box
368202157 1.386169 box
368202257 1.386414 box
368202357 1.386169 box
368202457 1.328003 box
368202557 1.355957 box
368202657 1.386658 box
368202757 1.386414 box
368202857 1.386536 box
368202957 1.333984 box
368203057 1.356445 box
368203157 1.383972 box
368203257 1.381104 box
368203357 1.382446 box
368203457 1.321411 box
368203557 1.349487 box
368203657 1.379089 box
368203757 1.382019 box
368203857 1.386230 box
368203957 1.388000 box
368204057 1.396667 box
368204157 1.397339 box
368204257 1.395081 box
368204357 1.396118 box
368204457 1.378174 box
368204557 1.369507 box
368204657 1.386169 box
368204757 1.385315 box
368204857 1.385620 box
368204957 1.305847 box
368205057 1.375793 box
368205157 1.385742 box
368205257 1.384521 box
368205357 1.385986 box
368205457 1.305969 box
368205557 1.381592 box
368205657 1.384644 box
368205757 1.385498 box
368205857 1.387878 box
368205957 1.307983 box
368206057 1.385437 box
368206157 1.385376 box
368206257 1.385376 box
368206357 1.384155 box
368206457 1.303284 box
368206557 1.385681 box
368206657 1.383362 box
368206757 1.386475 box
368206857 1.386108 box
368206957 1.299744 box
368207057 1.384827 box
368207157 1.384216 box
368207257 1.386963 box
368207357 1.383484 box
368207457 1.306213 box
368207557 1.399414 box
368207657 1.396729 box
368207757 1.397034 box
368207857 1.394592 box
368207957 1.391113 box
368208057 1.396851 box
368208157 1.383484 box
368208257 1.387573 box
368208357 1.385315 box
368208457 1.306091 box
368208557 1.385376 box
368208657 1.385132 box
368208757 1.386047 box
368208857 1.376953 box
368208957 1.313904 box
368209057 1.387878 box
368209157 1.385559 box
368209257 1.385071 box
368209357 1.371948 box
368209457 1.314209 box
368209557 1.385681 box
368209657 1.386963 box
368209757 1.384277 box
368209857 1.368225 box
368209957 1.317078 box
368210057 1.383850 box
368210157 1.384338 box
368210257 1.385742 box
368210357 1.368347 box
368210457 1.323608 box
368210557 1.385681 box
368210657 1.384949 box
368210757 1.385132 box
368210857 1.362427 box
368210957 1.330078 box
368211057 1.385193 box
368211157 1.396729 box
368211257 1.396851 box
368211357 1.395020 box
368211457 1.398254 box
368211557 1.395264 box
368211657 1.395691 box
368211757 1.390503 box
368211857 1.337219 box
368211957 1.332703 box
368212057 1.379333 box
368212157 1.379456 box
368212257 1.380676 box
368212357 1.330566 box
368212457 1.336792 box
368212557 1.381470 box
368212657 1.380737 box
368212757 1.381592 box
368212857 1.325439 box
368212957 1.341980 box
368213057 1.379883 box
368213157 1.383423 box
368213257 1.380554 box
368213357 1.321899 box
368213457 1.352478 box
368213557 1.384766 box
368213657 1.385742 box
368213757 1.385376 box
368213857 1.331665 box
368213957 1.358765 box
368214057 1.386047 box
368214157 1.387756 box
368214257 1.385925 box
368214357 1.329041 box
368214457 1.356201 box
368214557 1.385193 box
368214657 1.384216 box
368214757 1.389954 box
368214857 1.393494 box
368214957 1.395142 box
368215057 1.398438 box
368215157 1.394226 box
368215257 1.396301 box
368215357 1.371338 box
368215457 1.368530 box
368215557 1.383911 box
368215657 1.386658 box
368215757 1.383728 box
368215857 1.315613 box
368215957 1.373535 box
368216057 1.384399 box
368216157 1.385254 box
368216257 1.385498 box
368216357 1.311646 box
368216457 1.378479 box
368216557 1.384094 box
368216657 1.384705 box
368216757 1.385925 box
368216857 1.302795 box
368216957 1.383911 box
368217057 1.385254 box
368217157 1.384460 box
368217257 1.385803 box
368217357 1.299316 box
368217457 1.385864 box
368217557 1.384155 box
368217657 1.386108 box
368217757 1.385742 box
368217857 1.306335 box
368217957 1.384460 box
368218057 1.385315 box
368218157 1.385559 box
368218257 1.385742 box
368218357 1.305969 box
368218457 1.396973 box
368218557 1.396362 box
368218657 1.397461 box
368218757 1.393799 box
368218857 1.394470 box
368218957 1.396973 box
368219057 1.383850 box
368219157 1.386475 box
368219257 1.387573 box
368219357 1.303528 box
368219457 1.386475 box
368219557 1.387207 box
368219657 1.384949 box
368219757 1.378540 box
368219857 1.306152 box
368219957 1.384521 box
368220057 1.383179 box
368220157 1.387146 box
368220257 1.377441 box
368220357 1.310913 box
368220457 1.386658 box
368220557 1.386169 box
368220657 1.385681 box
368220757 1.373474 box
368220857 1.317993 box
368220957 1.385803 box
368221057 1.386597 box
368221157 1.385742 box
368221257 1.366516 box
368221357 1.324097 box
368221457 1.384888 box
368221557 1.384766 box
368221657 1.386414 box
368221757 1.359619 box
368221857 1.328064 box
368221957 1.385803 box
368222057 1.396240 box
368222157 1.396423 box
368222257 1.394470 box
368222357 1.399170 box
368222457 1.394348 box
368222557 1.395874 box
368222657 1.391479 box
368222757 1.343994 box
368222857 1.340698 box
368222957 1.382874 box
368223057 1.380188 box
368223157 1.379700 box
368223257 1.332703 box
368223357 1.337952 box
368223457 1.381226 box
368223557 1.380188 box
368223657 1.380371 box
368223757 1.325134 box
368223857 1.345337 box
368223957 1.381287 box
368224057 1.388611 box
368224157 1.385193 box
368224257 1.328247 box
368224357 1.357178 box
368224457 1.384277 box
368224557 1.384521 box
368224657 1.385010 box
368224757 1.330322 box
368224857 1.356995 box
368224957 1.385986 box
368225057 1.385132 box
368225157 1.385742 box
368225257 1.333740 box
368225357 1.356079 box
368225457 1.385193 box
368225557 1.385315 box
368225657 1.390137 box
368225757 1.392151 box
368225857 1.395630 box
368225957 1.398254 box
368226057 1.394897 box
368226157 1.396790 box
368226257 1.378479 box
368226357 1.372070 box
368226457 1.384644 box
368226557 1.386230 box
368226657 1.384338 box
368226757 1.308777 box
368226857 1.377319 box
368226957 1.385864 box
368227057 1.387390 box
368227157 1.386169 box
368227257 1.301147 box
368227357 1.383667 box
368227457 1.386292 box
368227557 1.384155 box
368227657 1.385803 box
368227757 1.302002 box
368227857 1.386353 box
368227957 1.385132 box
368228057 1.385010 box
368228157 1.384521 box
368228257 1.305786 box
368228357 1.384033 box
368228457 1.385803 box
368228557 1.386597 box
368228657 1.386536 box
368228757 1.300354 box
368228857 1.384949 box
368228957 1.384766 box
368229057 1.385315 box
368229157 1.383118 box
368229257 1.303284 box
368229357 1.398132 box
368229457 1.396423 box
368229557 1.396973 box
368229657 1.394409 box
368229757 1.394409 box
368229857 1.396057 box
368229957 1.384399 box
368230057 1.385315 box
368230157 1.383179 box
368230257 1.298767 box
368230357 1.380554 box
368230457 1.380188 box
368230557 1.379150 box
368230657 1.371155 box
368230757 1.302002 box
368230857 1.381897 box
368230957 1.380798 box
368231057 1.381653 box
368231157 1.361938 box
368231257 1.308350 box
368231357 1.382568 box
368231457 1.385986 box
368231557 1.384155 box
368231657 1.367859 box
368231757 1.321289 box
368231857 1.384827 box
368231957 1.385620 box
368232057 1.383118 box
368232157 1.363464 box
368232257 1.329590 box
368232357 1.386169 box
368232457 1.385315 box
368232557 1.385559 box
368232657 1.355347 box
368232757 1.330994 box
368232857 1.382935 box
368232957 1.397400 box
368233057 1.396667 box
368233157 1.392883 box
368233257 1.399475 box
368233357 1.394958 box
368233457 1.396667 box
368233557 1.391663 box
368233657 1.340515 box
368233757 1.346863 box
368233857 1.384827 box
368233957 1.384644 box
368234057 1.383850 box
368234157 1.336914 box
368234257 1.347412 box
368234357 1.384949 box
368234457 1.381470 box
368234557 1.379272 box
368234657 1.323975 box
368234757 1.346069 box
368234857 1.381226 box
368234957 1.383667 box
368235057 1.379456 box
368235157 1.321838 box
368235257 1.352478 box
368235357 1.381287 box
368235457 1.384644 box
368235557 1.387512 box
368235657 1.330994 box
368235757 1.357178 box
368235857 1.387146 box
368235957 1.385498 box
368236057 1.385437 box
368236157 1.326782 box
368236257 1.358032 box
368236357 1.384949 box
368236457 1.385986 box
368236557 1.390442 box
368236657 1.391785 box
368236757 1.397827 box
368236857 1.397827 box
368236957 1.394714 box
368237057 1.396484 box
368237157 1.366089 box
368237257 1.372986 box
368237357 1.383972 box
368237457 1.386597 box
368237557 1.385864 box
368237657 1.309387 box
368237757 1.378052 box
368237857 1.386841 box
368237957 1.384949 box
368238057 1.385986 box
368238157 1.308655 box
368238257 1.383545 box
368238357 1.385193 box
368238457 1.386963 box
368238557 1.387878 box
368238657 1.301147 box
368238757 1.386353 box
368238857 1.386169 box
368238957 1.385925 box
368239057 1.387146 box
368239157 1.304443 box
368239257 1.385376 box
368239357 1.388245 box
368239457 1.385803 box
368239557 1.385681 box
368239657 1.307251 box
368239757 1.385315 box
368239857 1.387207 box
368239957 1.388367 box
368240057 1.386963 box
368240157 1.304077 box
368240257 1.397339 box
368240357 1.396667 box
368240457 1.397766 box
368240557 1.393311 box
368240657 1.394714 box
368240757 1.396057 box
368240857 1.384399 box
368240957 1.386963 box
368241057 1.382324 box
368241157 1.308228 box
368241257 1.385559 box
368241357 1.385071 box
368241457 1.387878 box
368241557 1.374878 box
368241657 1.310181 box
368241757 1.386658 box
368241857 1.386414 box
368241957 1.388000 box
368242057 1.374512 box
368242157 1.318542 box
368242257 1.386475 box
368242357 1.385559 box
368242457 1.387024 box
368242557 1.368103 box
