time(ms) energy(J) hostname
300107277 0.000000 box
300107377 1.361389 box
300107477 1.306335 box
300107577 1.332336 box
300107677 1.354980 box
300107777 1.376709 box
300107877 1.390625 box
300107977 1.393616 box
300108077 1.394043 box
300108177 1.392944 box
300108277 1.395203 box
300108377 1.395203 box
300108477 1.394531 box
300108577 1.396545 box
300108677 1.393982 box
300108777 1.395264 box
300108877 1.390625 box
300108977 1.393188 box
300109077 1.396606 box
300109177 1.394836 box
300109277 1.394958 box
300109377 1.393433 box
300109477 1.393738 box
300109577 1.391968 box
300109677 1.391968 box
300109777 1.396729 box
300109877 1.400635 box
300109977 1.399475 box
300110077 1.396729 box
300110177 1.397156 box
300110277 1.397339 box
300110377 1.397034 box
300110477 1.397949 box
300110577 1.396301 box
300110677 1.400024 box
300110777 1.393250 box
300110877 1.395447 box
300110977 1.392639 box
300111077 1.394348 box
300111177 1.400208 box
300111277 1.399475 box
300111377 1.399963 box
300111477 1.395630 box
300111577 1.394287 box
300111677 1.392517 box
300111777 1.392151 box
300111877 1.395325 box
300111977 1.395142 box
300112077 1.393677 box
300112177 1.387756 box
300112277 1.393005 box
300112377 1.394470 box
300112477 1.393738 box
300112577 1.394287 box
300112677 1.392578 box
300112777 1.389587 box
300112877 1.391846 box
300112977 1.392944 box
300113077 1.393188 box
300113177 1.392944 box
300113277 1.393982 box
300113377 1.396362 box
300113477 1.395203 box
300113577 1.393738 box
300113677 1.392334 box
300113777 1.395935 box
300113877 1.395508 box
300113977 1.394775 box
300114077 1.394287 box
300114177 1.391724 box
300114277 1.391968 box
300114377 1.393982 box
300114477 1.395996 box
300114577 1.394226 box
300114677 1.395569 box
300114777 1.396057 box
300114877 1.395508 box
300114977 1.398743 box
300115077 1.397522 box
300115177 1.399658 box
300115277 1.400513 box
300115377 1.395813 box
300115477 1.395081 box
300115577 1.395996 box
300115677 1.396729 box
300115777 1.395142 box
300115877 1.395996 box
300115977 1.396118 box
300116077 1.390930 box
300116177 1.395691 box
300116277 1.399170 box
300116377 1.398987 box
300116477 1.395874 box
300116577 1.396912 box
300116677 1.395752 box
300116777 1.393860 box
300116877 1.393311 box
300116977 1.394958 box
300117077 1.391663 box
300117177 1.395935 box
300117277 1.394348 box
300117377 1.391541 box
300117477 1.392578 box
300117577 1.391968 box
300117677 1.391907 box
300117777 1.391418 box
300117877 1.392700 box
300117977 1.392090 box
300118077 1.395569 box
300118177 1.392822 box
300118277 1.393250 box
300118377 1.392700 box
300118477 1.394653 box
300118577 1.395630 box
300118677 1.397644 box
300118777 1.393188 box
300118877 1.390991 box
300118977 1.393494 box
300119077 1.394226 box
300119177 1.395264 box
300119277 1.396423 box
300119377 1.394592 box
300119477 1.391479 box
300119577 1.390259 box
300119677 1.394531 box
300119777 1.391602 box
300119877 1.393860 box
300119977 1.391785 box
300120077 1.396606 box
300120177 1.395447 box
300120277 1.396729 box
300120377 1.397644 box
300120477 1.396606 box
300120577 1.398499 box
300120677 1.393921 box
300120777 1.392578 box
300120877 1.393311 box
300120977 1.394897 box
300121077 1.395203 box
300121177 1.393005 box
300121277 1.392822 box
300121377 1.395630 box
300121477 1.394531 box
300121577 1.394287 box
300121677 1.394409 box
300121777 1.394714 box
300121877 1.391174 box
300121977 1.390259 box
300122077 1.393921 box
300122177 1.392517 box
300122277 1.395142 box
300122377 1.394165 box
300122477 1.391663 box
300122577 1.392090 box
300122677 1.389404 box
300122777 1.389221 box
300122877 1.389771 box
300122977 1.395447 box
300123077 1.394592 box
300123177 1.392029 box
300123277 1.392578 box
300123377 1.392944 box
300123477 1.394409 box
300123577 1.395569 box
300123677 1.397888 box
300123777 1.393555 box
300123877 1.390930 box
300123977 1.391785 box
300124077 1.392151 box
300124177 1.395203 box
300124277 1.394043 box
300124377 1.392639 box
300124477 1.392212 box
300124577 1.393433 box
300124677 1.393982 box
300124777 1.391785 box
300124877 1.399109 box
300124977 1.397034 box
300125077 1.399292 box
300125177 1.395264 box
300125277 1.396057 box
300125377 1.395630 box
300125477 1.396545 box
300125577 1.398010 box
300125677 1.394653 box
300125777 1.393005 box
300125877 1.394165 box
300125977 1.395264 box
300126077 1.397522 box
300126177 1.397156 box
300126277 1.397095 box
300126377 1.393677 box
300126477 1.394287 box
300126577 1.394043 box
300126677 1.396179 box
300126777 1.393311 box
300126877 1.391968 box
300126977 1.391296 box
300127077 1.391785 box
300127177 1.393494 box
300127277 1.396729 box
300127377 1.390259 box
300127477 1.388489 box
300127577 1.388855 box
300127677 1.392212 box
300127777 1.391541 box
300127877 1.394714 box
300127977 1.392639 box
300128077 1.392822 box
300128177 1.391724 box
300128277 1.392395 box
300128377 1.392456 box
300128477 1.392517 box
300128577 1.395752 box
300128677 1.393677 box
300128777 1.390625 box
300128877 1.388855 box
300128977 1.392578 box
300129077 1.397095 box
300129177 1.392273 box
300129277 1.396057 box
300129377 1.388733 box
300129477 1.390991 box
300129577 1.389648 box
300129677 1.396790 box
300129777 1.394165 box
300129877 1.394836 box
300129977 1.393555 box
300130077 1.393616 box
300130177 1.394348 box
300130277 1.392517 box
300130377 1.391968 box
300130477 1.388000 box
300130577 1.388550 box
300130677 1.393005 box
300130777 1.392822 box
300130877 1.392700 box
300130977 1.390991 box
300131077 1.389343 box
300131177 1.391418 box
300131277 1.389465 box
300131377 1.388550 box
300131477 1.388306 box
300131577 1.388428 box
300131677 1.387634 box
300131777 1.387573 box
300131877 1.386902 box
300131977 1.387573 box
300132077 1.386963 box
300132177 1.389709 box
300132277 1.393494 box
300132377 1.392151 box
300132477 1.388855 box
300132577 1.386475 box
300132677 1.387634 box
300132777 1.390320 box
300132877 1.392029 box
300132977 1.389282 box
300133077 1.389526 box
300133177 1.392334 box
300133277 1.390503 box
300133377 1.388733 box
300133477 1.389954 box
300133577 1.393066 box
300133677 1.394348 box
300133777 1.395752 box
300133877 1.394714 box
300133977 1.392578 box
300134077 1.390930 box
300134177 1.389771 box
300134277 1.388733 box
300134377 1.392212 box
300134477 1.391418 box
300134577 1.389526 box
300134677 1.393860 box
300134777 1.391113 box
300134877 1.392639 box
300134977 1.391174 box
300135077 1.387329 box
300135177 1.387817 box
300135277 1.392395 box
300135377 1.390686 box
300135477 1.389221 box
300135577 1.386780 box
300135677 1.387390 box
300135777 1.384216 box
300135877 1.386536 box
300135977 1.392456 box
300136077 1.390137 box
300136177 1.390015 box
300136277 1.388855 box
300136377 1.390076 box
300136477 1.391235 box
300136577 1.387756 box
300136677 1.387085 box
300136777 1.389587 box
300136877 1.389709 box
300136977 1.390991 box
300137077 1.393188 box
300137177 1.389893 box
300137277 1.389404 box
300137377 1.390442 box
300137477 1.388672 box
300137577 1.396484 box
300137677 1.394958 box
300137777 1.392944 box
300137877 1.393250 box
300137977 1.394958 box
300138077 1.393188 box
300138177 1.392578 box
300138277 1.390564 box
300138377 1.390381 box
300138477 1.390503 box
300138577 1.394836 box
300138677 1.392883 box
300138777 1.392578 box
300138877 1.389465 box
300138977 1.390381 box
300139077 1.389587 box
300139177 1.386780 box
300139277 1.388062 box
300139377 1.388855 box
300139477 1.390015 box
300139577 1.390991 box
300139677 1.390259 box
300139777 1.389038 box
300139877 1.385132 box
300139977 1.387329 box
300140077 1.391235 box
300140177 1.392090 box
300140277 1.388306 box
300140377 1.388550 box
300140477 1.391113 box
300140577 1.393616 box
300140677 1.389648 box
300140777 1.387939 box
300140877 1.390320 box
300140977 1.389648 box
300141077 1.391846 box
300141177 1.390869 box
300141277 1.391541 box
300141377 1.391113 box
300141477 1.388916 box
300141577 1.396606 box
300141677 1.397644 box
300141777 1.394836 box
300141877 1.394226 box
300141977 1.395020 box
300142077 1.393311 box
300142177 1.392761 box
300142277 1.391907 box
300142377 1.390137 box
300142477 1.392029 box
300142577 1.393860 box
300142677 1.394714 box
300142777 1.391418 box
300142877 1.391907 box
300142977 1.390564 box
300143077 1.391235 box
300143177 1.390930 box
300143277 1.391907 box
300143377 1.386902 box
300143477 1.388367 box
300143577 1.390198 box
300143677 1.387695 box
300143777 1.386475 box
300143877 1.387329 box
300143977 1.390137 box
300144077 1.388977 box
300144177 1.390259 box
300144277 1.391418 box
300144377 1.389587 box
300144477 1.387451 box
300144577 1.388367 box
300144677 1.389832 box
300144777 1.392334 box
300144877 1.391785 box
300144977 1.388977 box
300145077 1.391357 box
300145177 1.392334 box
300145277 1.389404 box
300145377 1.390625 box
300145477 1.394348 box
300145577 1.393982 box
300145677 1.394226 box
300145777 1.396057 box
300145877 1.394897 box
300145977 1.393250 box
300146077 1.392395 box
300146177 1.391479 box
300146277 1.393005 box
300146377 1.390991 box
300146477 1.388855 box
300146577 1.393372 box
300146677 1.390808 box
300146777 1.393066 box
300146877 1.388733 box
300146977 1.387634 box
300147077 1.391113 box
300147177 1.390015 box
300147277 1.391541 box
300147377 1.388855 box
300147477 1.389282 box
300147577 1.389404 box
300147677 1.386719 box
300147777 1.387878 box
300147877 1.389832 box
300147977 1.387756 box
300148077 1.388062 box
300148177 1.389465 box
300148277 1.393372 box
300148377 1.387939 box
300148477 1.389587 box
300148577 1.387329 box
300148677 1.390625 box
300148777 1.390198 box
300148877 1.391418 box
300148977 1.390198 box
300149077 1.389343 box
300149177 1.389282 box
300149277 1.389771 box
300149377 1.381775 box
300149477 1.392700 box
300149577 1.393738 box
300149677 1.394348 box
300149777 1.392334 box
300149877 1.394104 box
300149977 1.396118 box
300150077 1.393250 box
300150177 1.392029 box
300150277 1.391113 box
300150377 1.391663 box
300150477 1.391357 box
300150577 1.393738 box
300150677 1.393616 box
300150777 1.394226 box
300150877 1.390930 box
300150977 1.388489 box
300151077 1.387024 box
300151177 1.388672 box
300151277 1.387573 box
300151377 1.392578 box
300151477 1.390198 box
300151577 1.390198 box
300151677 1.385559 box
300151777 1.388916 box
300151877 1.389465 box
300151977 1.390625 box
300152077 1.390625 box
300152177 1.388367 box
300152277 1.390320 box
300152377 1.391357 box
300152477 1.393616 box
300152577 1.392456 box
300152677 1.386475 box
300152777 1.388428 box
300152877 1.390137 box
300152977 1.392456 box
300153077 1.393860 box
300153177 1.390320 box
300153277 1.391418 box
300153377 1.390747 box
300153477 1.396484 box
300153577 1.394287 box
300153677 1.392517 box
300153777 1.392883 box
300153877 1.395996 box
300153977 1.395081 box
300154077 1.393005 box
300154177 1.394531 box
300154277 1.391357 box
300154377 1.392944 box
300154477 1.392944 box
300154577 1.395447 box
300154677 1.393799 box
300154777 1.391724 box
300154877 1.390991 box
300154977 1.391541 box
300155077 1.390686 box
300155177 1.387268 box
300155277 1.387756 box
300155377 1.390442 box
300155477 1.391785 box
300155577 1.389832 box
300155677 1.388733 box
300155777 1.384766 box
300155877 1.390869 box
300155977 1.390015 box
300156077 1.391052 box
300156177 1.391296 box
300156277 1.388550 box
300156377 1.390259 box
300156477 1.392883 box
300156577 1.391052 box
300156677 1.387573 box
300156777 1.389526 box
300156877 1.391357 box
300156977 1.392029 box
300157077 1.391785 box
300157177 1.391235 box
300157277 1.392517 box
300157377 1.390869 box
300157477 1.395447 box
300157577 1.397705 box
300157677 1.393860 box
300157777 1.393250 box
300157877 1.393311 box
300157977 1.393127 box
300158077 1.393250 box
300158177 1.393311 box
300158277 1.391541 box
300158377 1.390991 box
300158477 1.394775 box
300158577 1.394714 box
300158677 1.391235 box
300158777 1.393372 box
300158877 1.389282 box
300158977 1.392151 box
300159077 1.392517 box
300159177 1.390869 box
300159277 1.387024 box
300159377 1.387451 box
300159477 1.390930 box
300159577 1.389038 box
300159677 1.387024 box
300159777 1.388306 box
300159877 1.386658 box
300159977 1.391907 box
300160077 1.389465 box
300160177 1.390076 box
300160277 1.390686 box
300160377 1.389954 box
300160477 1.390686 box
300160577 1.388550 box
300160677 1.389465 box
300160777 1.391846 box
300160877 1.391418 box
300160977 1.387695 box
300161077 1.388367 box
300161177 1.391113 box
300161277 1.392212 box
300161377 1.389038 box
300161477 1.389709 box
300161577 1.394897 box
300161677 1.391724 box
300161777 1.394409 box
300161877 1.393555 box
300161977 1.396484 box
300162077 1.394653 box
300162177 1.392761 box
300162277 1.390076 box
300162377 1.391968 box
300162477 1.389526 box
300162577 1.390625 box
300162677 1.392212 box
300162777 1.391296 box
300162877 1.391113 box
300162977 1.392456 box
300163077 1.388733 box
300163177 1.389771 box
300163277 1.388916 box
300163377 1.392212 box
300163477 1.392273 box
300163577 1.389221 box
300163677 1.387451 box
300163777 1.388367 box
300163877 1.390503 box
300163977 1.387512 box
300164077 1.392273 box
300164177 1.389465 box
300164277 1.389526 box
300164377 1.391357 box
300164477 1.392090 box
300164577 1.391724 box
300164677 1.389709 box
300164777 1.388977 box
300164877 1.387878 box
300164977 1.392456 box
300165077 1.390686 box
300165177 1.392517 box
300165277 1.386536 box
300165377 1.391113 box
300165477 1.389404 box
300165577 1.389038 box
300165677 1.394592 box
300165777 1.393921 box
300165877 1.395020 box
300165977 1.394714 box
300166077 1.393738 box
300166177 1.396545 box
300166277 1.393677 box
300166377 1.390198 box
300166477 1.392273 box
300166577 1.391052 box
300166677 1.390564 box
300166777 1.395020 box
300166877 1.392273 box
300166977 1.390747 box
300167077 1.393311 box
300167177 1.393250 box
300167277 1.390869 box
300167377 1.391174 box
300167477 1.386230 box
300167577 1.389587 box
300167677 1.390564 box
300167777 1.390869 box
300167877 1.390991 box
300167977 1.386353 box
300168077 1.387756 box
300168177 1.391052 box
300168277 1.393555 box
300168377 1.388794 box
300168477 1.388306 box
300168577 1.391541 box
300168677 1.391113 box
300168777 1.394043 box
300168877 1.390137 box
300168977 1.391174 box
300169077 1.388794 box
300169177 1.389404 box
300169277 1.391418 box
300169377 1.393738 box
300169477 1.392151 box
300169577 1.392944 box
300169677 1.393066 box
300169777 1.390686 box
300169877 1.396484 box
300169977 1.396545 box
300170077 1.395203 box
300170177 1.393188 box
300170277 1.391663 box
300170377 1.395264 box
300170477 1.394470 box
300170577 1.393860 box
300170677 1.394958 box
300170777 1.390015 box
300170877 1.389343 box
300170977 1.396545 box
300171077 1.394348 box
300171177 1.393250 box
300171277 1.388916 box
300171377 1.390503 box
300171477 1.393311 box
300171577 1.390076 box
300171677 1.387939 box
300171777 1.388489 box
300171877 1.390808 box
300171977 1.391663 box
300172077 1.388733 box
300172177 1.385437 box
300172277 1.385742 box
300172377 1.390442 box
300172477 1.389648 box
300172577 1.392700 box
300172677 1.389343 box
300172777 1.391907 box
300172877 1.388794 box
300172977 1.391174 box
300173077 1.391724 box
300173177 1.391113 box
300173277 1.392334 box
300173377 1.390076 box
300173477 1.391113 box
300173577 1.393555 box
300173677 1.391907 box
300173777 1.392029 box
300173877 1.393311 box
300173977 1.395386 box
300174077 1.392822 box
300174177 1.396912 box
300174277 1.396118 box
300174377 1.394409 box
300174477 1.395020 box
300174577 1.392517 box
300174677 1.394043 box
300174777 1.392334 box
300174877 1.391174 box
300174977 1.391296 box
300175077 1.392578 box
300175177 1.393616 box
300175277 1.395142 box
300175377 1.390625 box
300175477 1.389709 box
300175577 1.387085 box
300175677 1.390747 box
300175777 1.390686 box
300175877 1.391357 box
300175977 1.389160 box
300176077 1.388916 box
300176177 1.389648 box
300176277 1.387512 box
300176377 1.390747 box
300176477 1.390442 box
300176577 1.390686 box
300176677 1.389099 box
300176777 1.393066 box
300176877 1.390137 box
300176977 1.388977 box
300177077 1.388367 box
300177177 1.391113 box
300177277 1.392273 box
300177377 1.392029 box
300177477 1.392883 box
300177577 1.393188 box
300177677 1.390564 box
300177777 1.391785 box
300177877 1.389709 box
300177977 1.389954 box
300178077 1.389648 box
300178177 1.393921 box
300178277 1.395691 box
300178377 1.395569 box
300178477 1.396118 box
300178577 1.394287 box
300178677 1.393250 box
300178777 1.392700 box
300178877 1.392517 box
300178977 1.391968 box
300179077 1.393250 box
300179177 1.390930 box
300179277 1.394348 box
300179377 1.390442 box
300179477 1.392212 box
300179577 1.391357 box
300179677 1.389832 box
300179777 1.388550 box
300179877 1.386841 box
300179977 1.391418 box
300180077 1.390198 box
300180177 1.391418 box
300180277 1.390442 box
300180377 1.390198 box
300180477 1.387268 box
300180577 1.389404 box
300180677 1.390198 box
300180777 1.392090 box
300180877 1.391968 box
300180977 1.389099 box
300181077 1.392822 box
300181177 1.392822 box
300181277 1.390930 box
300181377 1.391663 box
300181477 1.388184 box
300181577 1.389160 box
300181677 1.391418 box
300181777 1.391541 box
300181877 1.392761 box
300181977 1.391541 box
300182077 1.391052 box
300182177 1.393799 box
300182277 1.392456 box
300182377 1.398438 box
300182477 1.395020 box
300182577 1.391418 box
300182677 1.395569 box
300182777 1.395996 box
300182877 1.396545 box
300182977 1.393921 box
300183077 1.394043 box
300183177 1.395386 box
300183277 1.391907 box
300183377 1.396057 box
300183477 1.396057 box
300183577 1.393738 box
300183677 1.393555 box
300183777 1.392334 box
300183877 1.392334 box
300183977 1.395447 box
300184077 1.391663 box
300184177 1.392090 box
300184277 1.390442 box
300184377 1.391541 box
300184477 1.391052 box
300184577 1.393005 box
300184677 1.388611 box
300184777 1.386169 box
300184877 1.390808 box
300184977 1.390991 box
300185077 1.390137 box
300185177 1.391541 box
300185277 1.391418 box
300185377 1.391357 box
300185477 1.391479 box
300185577 1.392090 box
300185677 1.392334 box
300185777 1.387268 box
300185877 1.391602 box
300185977 1.389648 box
300186077 1.391724 box
300186177 1.392822 box
300186277 1.389343 box
300186377 1.392456 box
300186477 1.389771 box
300186577 1.397034 box
300186677 1.396667 box
300186777 1.395264 box
300186877 1.394470 box
300186977 1.397095 box
300187077 1.394348 box
300187177 1.395142 box
300187277 1.395264 box
300187377 1.392517 box
300187477 1.392273 box
300187577 1.391846 box
300187677 1.393738 box
300187777 1.395386 box
300187877 1.391541 box
300187977 1.393372 box
300188077 1.391541 box
300188177 1.392700 box
300188277 1.393799 box
300188377 1.391357 box
300188477 1.388672 box
300188577 1.389099 box
300188677 1.390320 box
300188777 1.394653 box
300188877 1.390808 box
300188977 1.387695 box
300189077 1.390198 box
300189177 1.389526 box
300189277 1.392517 box
300189377 1.391235 box
300189477 1.392700 box
300189577 1.391113 box
300189677 1.390869 box
300189777 1.390259 box
300189877 1.392761 box
300189977 1.393066 box
300190077 1.392151 box
300190177 1.389160 box
300190277 1.390869 box
300190377 1.391479 box
300190477 1.392456 box
300190577 1.390564 box
300190677 1.391235 box
300190777 1.393005 box
300190877 1.396667 box
300190977 1.394775 box
300191077 1.397034 box
300191177 1.394836 box
300191277 1.394592 box
300191377 1.393555 box
300191477 1.393188 box
300191577 1.393372 box
300191677 1.394592 box
300191777 1.391663 box
300191877 1.394897 box
300191977 1.394958 box
300192077 1.393555 box
300192177 1.392151 box
300192277 1.391724 box
300192377 1.391663 box
300192477 1.390198 box
300192577 1.390747 box
300192677 1.391235 box
300192777 1.392090 box
300192877 1.391846 box
300192977 1.390991 box
300193077 1.389709 box
300193177 1.389282 box
300193277 1.391052 box
300193377 1.392883 box
300193477 1.391174 box
300193577 1.391602 box
300193677 1.391724 box
300193777 1.393433 box
300193877 1.395325 box
300193977 1.392700 box
300194077 1.390686 box
300194177 1.390991 box
300194277 1.392822 box
300194377 1.393066 box
300194477 1.393005 box
300194577 1.393005 box
300194677 1.391663 box
300194777 1.392944 box
300194877 1.390930 box
300194977 1.394775 box
300195077 1.395447 box
300195177 1.396545 box
300195277 1.394714 box
300195377 1.394836 box
300195477 1.395264 box
300195577 1.393555 box
300195677 1.392822 box
300195777 1.394714 box
300195877 1.392944 box
300195977 1.390808 box
300196077 1.391235 box
300196177 1.395081 box
300196277 1.394104 box
300196377 1.392456 box
300196477 1.391663 box
300196577 1.393555 box
300196677 1.394531 box
300196777 1.392395 box
300196877 1.391235 box
300196977 1.391357 box
300197077 1.393860 box
300197177 1.395020 box
300197277 1.392456 box
300197377 1.390198 box
300197477 1.387085 box
300197577 1.388428 box
300197677 1.393738 box
300197777 1.391846 box
300197877 1.390564 box
300197977 1.389709 box
300198077 1.391479 box
300198177 1.390320 box
300198277 1.393127 box
300198377 1.393738 box
300198477 1.392456 box
300198577 1.391052 box
300198677 1.390198 box
300198777 1.394226 box
300198877 1.392395 box
300198977 1.391541 box
300199077 1.394775 box
300199177 1.393005 box
300199277 1.390076 box
300199377 1.398560 box
300199477 1.397217 box
300199577 1.394470 box
300199677 1.396057 box
300199777 1.397278 box
300199877 1.396057 box
300199977 1.395203 box
300200077 1.394897 box
300200177 1.395081 box
300200277 1.392639 box
300200377 1.392334 box
300200477 1.395264 box
300200577 1.395020 box
300200677 1.393921 box
300200777 1.395447 box
300200877 1.391174 box
300200977 1.389587 box
300201077 1.393433 box
300201177 1.393127 box
300201277 1.391541 box
300201377 1.389404 box
300201477 1.390320 box
300201577 1.390991 box
300201677 1.391785 box
300201777 1.390137 box
300201877 1.390442 box
300201977 1.393005 box
300202077 1.389343 box
300202177 1.393921 box
300202277 1.392883 box
300202377 1.392151 box
300202477 1.392700 box
300202577 1.390747 box
300202677 1.389648 box
300202777 1.392700 box
300202877 1.393677 box
300202977 1.390442 box
300203077 1.389648 box
300203177 1.393738 box
300203277 1.393616 box
300203377 1.392029 box
300203477 1.394409 box
300203577 1.392151 box
300203677 1.392395 box
300203777 1.395874 box
300203877 1.396851 box
300203977 1.397827 box
300204077 1.398193 box
300204177 1.395691 box
300204277 1.393738 box
300204377 1.393005 box
300204477 1.394470 box
300204577 1.394470 box
300204677 1.393005 box
300204777 1.392700 box
300204877 1.395874 box
300204977 1.394287 box
300205077 1.393372 box
300205177 1.393860 box
300205277 1.390564 box
300205377 1.392029 box
300205477 1.392578 box
300205577 1.392883 box
300205677 1.390991 box
300205777 1.392517 box
300205877 1.391602 box
300205977 1.390747 box
300206077 1.390076 box
300206177 1.390808 box
300206277 1.389587 box
300206377 1.394226 box
300206477 1.390869 box
300206577 1.388306 box
300206677 1.393127 box
300206777 1.392700 box
300206877 1.392822 box
300206977 1.395081 box
300207077 1.391968 box
300207177 1.391663 box
300207277 1.393127 box
300207377 1.394531 box
300207477 1.394470 box
300207577 1.392517 box
300207677 1.391724 box
300207777 1.388611 box
300207877 1.392456 box
300207977 1.391541 box
300208077 1.395203 box
300208177 1.397095 box
300208277 1.396667 box
300208377 1.395935 box
300208477 1.396484 box
300208577 1.395386 box
300208677 1.395569 box
300208777 1.395386 box
300208877 1.395264 box
300208977 1.394836 box
300209077 1.392578 box
300209177 1.395569 box
300209277 1.392944 box
300209377 1.394897 box
300209477 1.394104 box
300209577 1.394897 box
300209677 1.394165 box
300209777 1.394958 box
300209877 1.392883 box
300209977 1.390747 box
300210077 1.390381 box
300210177 1.392334 box
300210277 1.393616 box
300210377 1.396362 box
300210477 1.392334 box
300210577 1.391174 box
300210677 1.388794 box
300210777 1.392334 box
300210877 1.394653 box
300210977 1.395569 box
300211077 1.393372 box
300211177 1.392578 box
300211277 1.391907 box
300211377 1.393616 box
300211477 1.394897 box
300211577 1.392517 box
300211677 1.394348 box
300211777 1.392700 box
300211877 1.390747 box
300211977 1.392456 box
300212077 1.395508 box
300212177 1.393433 box
300212277 1.391052 box
300212377 1.395203 box
300212477 1.393494 box
300212577 1.393250 box
300212677 1.398376 box
300212777 1.396057 box
300212877 1.396729 box
300212977 1.397217 box
300213077 1.397217 box
300213177 1.396240 box
300213277 1.396484 box
300213377 1.397034 box
300213477 1.395508 box
300213577 1.392700 box
300213677 1.393738 box
300213777 1.393555 box
300213877 1.398071 box
300213977 1.396545 box
300214077 1.396667 box
300214177 1.395447 box
300214277 1.393921 box
300214377 1.393494 box
300214477 1.395142 box
300214577 1.396179 box
300214677 1.391663 box
300214777 1.391418 box
300214877 1.393127 box
300214977 1.391541 box
300215077 1.392578 box
300215177 1.391907 box
300215277 1.389526 box
300215377 1.391541 box
300215477 1.392212 box
300215577 1.393127 box
300215677 1.393005 box
300215777 1.393433 box
300215877 1.392944 box
300215977 1.389282 box
300216077 1.394226 box
300216177 1.391968 box
300216277 1.395447 box
300216377 1.392517 box
300216477 1.393066 box
300216577 1.390747 box
300216677 1.393799 box
300216777 1.394958 box
300216877 1.394470 box
300216977 1.392273 box
300217077 1.394592 box
300217177 1.393127 box
300217277 1.399597 box
300217377 1.398438 box
300217477 1.398315 box
300217577 1.396423 box
300217677 1.397705 box
300217777 1.396545 box
300217877 1.395447 box
300217977 1.394592 box
300218077 1.395081 box
300218177 1.395264 box
300218277 1.393311 box
300218377 1.392456 box
300218477 1.396667 box
300218577 1.395996 box
300218677 1.394958 box
300218777 1.392700 box
300218877 1.392944 box
300218977 1.391235 box
300219077 1.392090 box
300219177 1.393982 box
300219277 1.394836 box
300219377 1.394409 box
300219477 1.392395 box
300219577 1.391174 box
300219677 1.390686 box
300219777 1.390381 box
300219877 1.391785 box
300219977 1.391541 box
300220077 1.393250 box
300220177 1.391541 box
300220277 1.392151 box
300220377 1.395325 box
300220477 1.394653 box
300220577 1.393494 box
300220677 1.394165 box
300220777 1.391846 box
300220877 1.393738 box
300220977 1.392273 box
300221077 1.395081 box
300221177 1.392883 box
300221277 1.396362 box
300221377 1.393677 box
300221477 1.390686 box
300221577 1.393982 box
300221677 1.394531 box
300221777 1.396790 box
300221877 1.397644 box
300221977 1.395996 box
300222077 1.398376 box
300222177 1.396729 box
300222277 1.395081 box
300222377 1.398193 box
300222477 1.394531 box
300222577 1.393555 box
300222677 1.396240 box
300222777 1.394958 box
300222877 1.395569 box
300222977 1.397949 box
300223077 1.396851 box
300223177 1.395874 box
300223277 1.395081 box
300223377 1.394165 box
300223477 1.395264 box
300223577 1.391296 box
300223677 1.394348 box
300223777 1.391113 box
300223877 1.391418 box
300223977 1.395264 box
300224077 1.393921 box
300224177 1.392273 box
300224277 1.388306 box
300224377 1.390930 box
300224477 1.391602 box
300224577 1.394043 box
300224677 1.393799 box
300224777 1.393494 box
300224877 1.391785 box
300224977 1.390686 box
300225077 1.393982 box
300225177 1.393066 box
300225277 1.393311 box
300225377 1.395813 box
300225477 1.390015 box
300225577 1.392456 box
300225677 1.394165 box
300225777 1.394409 box
300225877 1.396423 box
300225977 1.397888 box
300226077 1.393127 box
300226177 1.393127 box
300226277 1.394653 box
300226377 1.394043 box
300226477 1.399292 box
300226577 1.396973 box
300226677 1.396545 box
300226777 1.396851 box
300226877 1.396118 box
300226977 1.399109 box
300227077 1.398010 box
300227177 1.399170 box
300227277 1.396057 box
300227377 1.396484 box
300227477 1.395691 box
300227577 1.393127 box
300227677 1.397705 box
300227777 1.397644 box
300227877 1.395020 box
300227977 1.397583 box
300228077 1.393311 box
300228177 1.393860 box
300228277 1.395142 box
300228377 1.395630 box
300228477 1.392944 box
300228577 1.392517 box
300228677 1.390991 box
300228777 1.393250 box
300228877 1.395447 box
300228977 1.392517 box
300229077 1.392639 box
300229177 1.390686 box
300229277 1.393799 box
300229377 1.394592 box
300229477 1.394775 box
300229577 1.393860 box
300229677 1.394104 box
300229777 1.391846 box
300229877 1.391968 box
300229977 1.393433 box
300230077 1.393921 box
300230177 1.394958 box
300230277 1.393677 box
300230377 1.392639 box
300230477 1.390991 box
300230577 1.396973 box
300230677 1.397583 box
300230777 1.393066 box
300230877 1.394287 box
300230977 1.393677 box
300231077 1.392639 box
300231177 1.398865 box
300231277 1.398743 box
300231377 1.401428 box
300231477 1.399780 box
300231577 1.395081 box
300231677 1.397400 box
300231777 1.396606 box
300231877 1.396606 box
300231977 1.395569 box
300232077 1.395569 box
300232177 1.394287 box
300232277 1.395386 box
300232377 1.395264 box
300232477 1.396423 box
300232577 1.396057 box
300232677 1.398132 box
300232777 1.393738 box
300232877 1.392273 box
300232977 1.389221 box
300233077 1.392883 box
300233177 1.394775 box
300233277 1.393677 box
300233377 1.394165 box
300233477 1.392822 box
300233577 1.393616 box
300233677 1.393494 box
300233777 1.390869 box
300233877 1.393066 box
300233977 1.392944 box
300234077 1.393494 box
300234177 1.391907 box
300234277 1.391602 box
300234377 1.393372 box
300234477 1.395325 box
300234577 1.394409 box
300234677 1.395325 box
300234777 1.391846 box
300234877 1.391724 box
300234977 1.393677 box
300235077 1.395874 box
300235177 1.398132 box
300235277 1.393860 box
300235377 1.397156 box
300235477 1.395386 box
300235577 1.392090 box
300235677 1.395508 box
300235777 1.394714 box
300235877 1.397461 box
300235977 1.396118 box
300236077 1.397827 box
300236177 1.397339 box
300236277 1.398193 box
300236377 1.399536 box
300236477 1.399658 box
300236577 1.397888 box
300236677 1.395447 box
300236777 1.396912 box
300236877 1.393677 box
300236977 1.394775 box
300237077 1.392273 box
300237177 1.395874 box
300237277 1.399231 box
300237377 1.396606 box
300237477 1.396729 box
300237577 1.395020 box
300237677 1.394653 box
300237777 1.394470 box
300237877 1.393005 box
300237977 1.394409 box
300238077 1.393127 box
300238177 1.397278 box
300238277 1.394836 box
300238377 1.396667 box
300238477 1.390869 box
300238577 1.390198 box
300238677 1.391296 box
300238777 1.394653 box
300238877 1.393982 box
300238977 1.395935 box
300239077 1.395142 box
300239177 1.392395 box
300239277 1.394287 box
300239377 1.396118 box
300239477 1.397095 box
300239577 1.397278 box
300239677 1.391174 box
300239777 1.393372 box
300239877 1.390747 box
300239977 1.394104 box
300240077 1.396118 box
300240177 1.396912 box
300240277 1.393738 box
300240377 1.396423 box
300240477 1.394409 box
300240577 1.398865 box
300240677 1.398132 box
300240777 1.400330 box
300240877 1.399292 box
300240977 1.396851 box
300241077 1.397522 box
300241177 1.398743 box
300241277 1.397949 box
300241377 1.399475 box
300241477 1.398560 box
300241577 1.395691 box
300241677 1.396240 box
300241777 1.395386 box
300241877 1.394958 box
300241977 1.398376 box
300242077 1.400391 box
300242177 1.396667 box
300242277 1.395264 box
300242377 1.393311 box
300242477 1.394165 box
300242577 1.396606 box
300242677 1.396606 box
300242777 1.396606 box
300242877 1.392700 box
300242977 1.393677 box
300243077 1.395203 box
300243177 1.394531 box
300243277 1.394409 box
300243377 1.392944 box
300243477 1.390991 box
300243577 1.393372 box
300243677 1.392456 box
300243777 1.393799 box
300243877 1.398865 box
300243977 1.396484 box
300244077 1.397949 box
300244177 1.392456 box
300244277 1.394714 box
300244377 1.397583 box
300244477 1.394592 box
300244577 1.397644 box
300244677 1.395386 box
300244777 1.392639 box
300244877 1.394287 box
300244977 1.396606 box
300245077 1.398132 box
300245177 1.394592 box
300245277 1.395508 box
300245377 1.394653 box
300245477 1.397278 box
300245577 1.400269 box
300245677 1.400757 box
300245777 1.399109 box
300245877 1.397339 box
300245977 1.395813 box
300246077 1.396423 box
300246177 1.394958 box
300246277 1.398071 box
300246377 1.396362 box
300246477 1.397583 box
300246577 1.394409 box
300246677 1.395264 box
300246777 1.395020 box
300246877 1.397827 box
300246977 1.398560 box
300247077 1.395447 box
300247177 1.395569 box
300247277 1.394775 box
300247377 1.394348 box
300247477 1.392395 box
300247577 1.392456 box
300247677 1.396606 box
300247777 1.396484 box
300247877 1.393982 box
300247977 1.395874 box
300248077 1.394104 box
300248177 1.397156 box
300248277 1.392822 box
300248377 1.394897 box
300248477 1.394836 box
300248577 1.395813 box
300248677 1.395081 box
300248777 1.391846 box
300248877 1.394531 box
300248977 1.397766 box
300249077 1.394653 box
300249177 1.395508 box
300249277 1.395691 box
300249377 1.392578 box
300249477 1.395630 box
300249577 1.393982 box
300249677 1.394836 box
300249777 1.394470 box
300249877 1.397827 box
300249977 1.397400 box
300250077 1.396484 box
300250177 1.397217 box
300250277 1.394592 box
300250377 1.395142 box
300250477 1.395020 box
300250577 1.393127 box
300250677 1.401306 box
300250777 1.397583 box
300250877 1.398987 box
300250977 1.398804 box
300251077 1.398499 box
300251177 1.399170 box
300251277 1.399475 box
300251377 1.397034 box
300251477 1.396545 box
300251577 1.397156 box
300251677 1.396179 box
300251777 1.397095 box
300251877 1.395874 box
300251977 1.398865 box
300252077 1.397583 box
300252177 1.397400 box
300252277 1.397461 box
300252377 1.399536 box
300252477 1.395020 box
300252577 1.397156 box
300252677 1.392639 box
300252777 1.393188 box
300252877 1.394531 box
300252977 1.393799 box
300253077 1.395325 box
300253177 1.396057 box
300253277 1.397583 box
300253377 1.392029 box
300253477 1.395386 box
300253577 1.393494 box
300253677 1.397034 box
300253777 1.395996 box
300253877 1.395020 box
300253977 1.395264 box
300254077 1.392212 box
300254177 1.395691 box
300254277 1.394409 box
300254377 1.396667 box
300254477 1.397278 box
300254577 1.396362 box
300254677 1.397156 box
300254777 1.394287 box
300254877 1.396484 box
300254977 1.396118 box
300255077 1.397888 box
300255177 1.396423 box
300255277 1.398621 box
300255377 1.400024 box
300255477 1.395569 box
300255577 1.398376 box
300255677 1.400879 box
300255777 1.399475 box
300255877 1.398987 box
300255977 1.398804 box
300256077 1.397888 box
300256177 1.398438 box
300256277 1.398193 box
300256377 1.399597 box
300256477 1.397949 box
300256577 1.399475 box
300256677 1.398987 box
300256777 1.397217 box
300256877 1.395508 box
300256977 1.398560 box
300257077 1.398804 box
300257177 1.398987 box
300257277 1.398865 box
300257377 1.400757 box
300257477 1.395630 box
300257577 1.394165 box
300257677 1.399414 box
300257777 1.396606 box
300257877 1.396057 box
300257977 1.392822 box
300258077 1.395264 box
300258177 1.395508 box
300258277 1.394348 box
300258377 1.396423 box
300258477 1.394470 box
300258577 1.393433 box
300258677 1.393860 box
300258777 1.395325 box
300258877 1.395508 box
300258977 1.396301 box
300259077 1.393799 box
300259177 1.396973 box
300259277 1.396118 box
300259377 1.391724 box
300259477 1.394653 box
300259577 1.395691 box
300259677 1.396667 box
300259777 1.398621 box
300259877 1.395081 box
300259977 1.394592 box
300260077 1.392761 box
300260177 1.395447 box
300260277 1.397217 box
300260377 1.400208 box
300260477 1.395264 box
300260577 1.395996 box
300260677 1.395203 box
300260777 1.400635 box
300260877 1.400452 box
300260977 1.401489 box
300261077 1.400635 box
300261177 1.400452 box
300261277 1.399414 box
300261377 1.398743 box
300261477 1.396423 box
300261577 1.398376 box
300261677 1.398621 box
300261777 1.396545 box
300261877 1.396606 box
300261977 1.394897 box
300262077 1.394653 box
300262177 1.398804 box
300262277 1.399597 box
300262377 1.398987 box
300262477 1.397949 box
300262577 1.394836 box
300262677 1.395813 box
300262777 1.394531 box
300262877 1.397583 box
300262977 1.395874 box
300263077 1.398315 box
300263177 1.396057 box
300263277 1.396729 box
300263377 1.393005 box
300263477 1.396423 box
300263577 1.393799 box
300263677 1.393433 box
300263777 1.397034 box
300263877 1.399170 box
300263977 1.396240 box
300264077 1.395630 box
300264177 1.397400 box
300264277 1.396484 box
300264377 1.396179 box
300264477 1.398560 box
300264577 1.398132 box
300264677 1.395142 box
300264777 1.397522 box
300264877 1.398315 box
300264977 1.396973 box
300265077 1.400574 box
300265177 1.398376 box
300265277 1.395935 box
300265377 1.396057 box
300265477 1.399475 box
300265577 1.396851 box
300265677 1.396606 box
300265777 1.399292 box
300265877 1.400879 box
300265977 1.397949 box
300266077 1.400452 box
300266177 1.400635 box
300266277 1.401550 box
300266377 1.401245 box
300266477 1.400940 box
300266577 1.400940 box
300266677 1.396301 box
300266777 1.396301 box
300266877 1.397949 box
300266977 1.398438 box
300267077 1.398132 box
300267177 1.400635 box
300267277 1.400940 box
300267377 1.399109 box
300267477 1.398499 box
300267577 1.398132 box
300267677 1.399231 box
300267777 1.395264 box
300267877 1.397705 box
300267977 1.394043 box
300268077 1.395020 box
300268177 1.397827 box
300268277 1.397095 box
300268377 1.397949 box
300268477 1.396240 box
300268577 1.392944 box
300268677 1.393494 box
300268777 1.393005 box
300268877 1.396790 box
300268977 1.399353 box
300269077 1.396851 box
300269177 1.397156 box
300269277 1.395996 box
300269377 1.393982 box
300269477 1.398193 box
300269577 1.396790 box
300269677 1.399048 box
300269777 1.394714 box
300269877 1.399170 box
300269977 1.396118 box
300270077 1.394958 box
300270177 1.396912 box
300270277 1.399048 box
300270377 1.399292 box
300270477 1.395264 box
300270577 1.401306 box
300270677 1.397217 box
300270777 1.400330 box
300270877 1.399353 box
300270977 1.402527 box
300271077 1.401306 box
300271177 1.399414 box
300271277 1.399414 box
300271377 1.400513 box
300271477 1.399719 box
300271577 1.401611 box
300271677 1.402100 box
300271777 1.400879 box
300271877 1.400940 box
300271977 1.397827 box
300272077 1.398193 box
300272177 1.400085 box
300272277 1.399414 box
300272377 1.398560 box
300272477 1.400208 box
300272577 1.398804 box
300272677 1.398438 box
300272777 1.398438 box
300272877 1.399536 box
300272977 1.398743 box
300273077 1.396851 box
300273177 1.396912 box
300273277 1.396912 box
300273377 1.392761 box
300273477 1.399902 box
300273577 1.396057 box
300273677 1.396301 box
300273777 1.396545 box
300273877 1.395935 box
300273977 1.397461 box
300274077 1.397461 box
300274177 1.397461 box
300274277 1.398315 box
300274377 1.397339 box
300274477 1.400696 box
300274577 1.397095 box
300274677 1.397095 box
300274777 1.397644 box
300274877 1.400574 box
300274977 1.398926 box
300275077 1.396667 box
300275177 1.397644 box
300275277 1.396362 box
300275377 1.400391 box
300275477 1.399597 box
300275577 1.397644 box
300275677 1.396729 box
300275777 1.399719 box
300275877 1.398804 box
300275977 1.398376 box
300276077 1.402466 box
300276177 1.402039 box
300276277 1.402649 box
300276377 1.401794 box
300276477 1.401123 box
300276577 1.401367 box
300276677 1.398987 box
300276777 1.397095 box
300276877 1.398743 box
300276977 1.398987 box
300277077 1.398499 box
300277177 1.107849 box
