time(ms) function_name moment
359238117 MPI_Allreduce 0
359238117 MPI_Allreduce 1
359238117 MPI_Bcast 0
359238117 MPI_Bcast 1
359238117 MPI_Bcast 0
359238117 MPI_Bcast 1
359238117 MPI_Allreduce 0
359238117 MPI_Allreduce 1
359238117 MPI_Allreduce 0
359238117 MPI_Allreduce 1
359238117 MPI_Allgather 0
359238117 MPI_Allgather 1
359238143 MPI_Allgather 0
359238143 MPI_Allgather 1
359238143 MPI_Allgather 0
359238143 MPI_Allgather 1
359241782 MPI_Allreduce 0
359242154 MPI_Allreduce 1
359261771 MPI_Allreduce 0
359262211 MPI_Allreduce 1
359262424 MPI_Allreduce 0
359262425 MPI_Allreduce 1
359262425 MPI_Send 0
359262425 MPI_Send 1
359262425 MPI_Wait 0
359262425 MPI_Wait 1
359262425 MPI_Send 0
359262425 MPI_Send 1
359262425 MPI_Wait 0
359262425 MPI_Wait 1
359262425 MPI_Send 0
359262426 MPI_Send 1
359262426 MPI_Wait 0
359262426 MPI_Wait 1
359262428 MPI_Allreduce 0
359262428 MPI_Allreduce 1
359262428 MPI_Allreduce 0
359262428 MPI_Allreduce 1
359262428 MPI_Allreduce 0
359262428 MPI_Allreduce 1
359262503 MPI_Send 0
359262503 MPI_Send 1
359262503 MPI_Wait 0
359262503 MPI_Wait 1
359262945 MPI_Allreduce 0
359262945 MPI_Allreduce 1
359262968 MPI_Send 0
359262969 MPI_Send 1
359262969 MPI_Wait 0
359262969 MPI_Wait 1
359263390 MPI_Allreduce 0
359263390 MPI_Allreduce 1
359263443 MPI_Allreduce 0
359263443 MPI_Allreduce 1
359263466 MPI_Send 0
359263466 MPI_Send 1
359263466 MPI_Wait 0
359263466 MPI_Wait 1
359263887 MPI_Allreduce 0
359263887 MPI_Allreduce 1
359263940 MPI_Allreduce 0
359263940 MPI_Allreduce 1
359263963 MPI_Send 0
359263963 MPI_Send 1
359263963 MPI_Wait 0
359263963 MPI_Wait 1
359264384 MPI_Allreduce 0
359264384 MPI_Allreduce 1
359264437 MPI_Allreduce 0
359264437 MPI_Allreduce 1
359264460 MPI_Send 0
359264460 MPI_Send 1
359264460 MPI_Wait 0
359264460 MPI_Wait 1
359264881 MPI_Allreduce 0
359264881 MPI_Allreduce 1
359264934 MPI_Allreduce 0
359264934 MPI_Allreduce 1
359264957 MPI_Send 0
359264957 MPI_Send 1
359264957 MPI_Wait 0
359264957 MPI_Wait 1
359265378 MPI_Allreduce 0
359265378 MPI_Allreduce 1
359265431 MPI_Allreduce 0
359265431 MPI_Allreduce 1
359265454 MPI_Send 0
359265454 MPI_Send 1
359265454 MPI_Wait 0
359265454 MPI_Wait 1
359265876 MPI_Allreduce 0
359265876 MPI_Allreduce 1
359265929 MPI_Allreduce 0
359265929 MPI_Allreduce 1
359265952 MPI_Send 0
359265952 MPI_Send 1
359265952 MPI_Wait 0
359265952 MPI_Wait 1
359266368 MPI_Allreduce 0
359266368 MPI_Allreduce 1
359266420 MPI_Allreduce 0
359266420 MPI_Allreduce 1
359266443 MPI_Send 0
359266443 MPI_Send 1
359266443 MPI_Wait 0
359266443 MPI_Wait 1
359266865 MPI_Allreduce 0
359266865 MPI_Allreduce 1
359266917 MPI_Allreduce 0
359266917 MPI_Allreduce 1
359266940 MPI_Send 0
359266941 MPI_Send 1
359266941 MPI_Wait 0
359266941 MPI_Wait 1
359267362 MPI_Allreduce 0
359267362 MPI_Allreduce 1
359267415 MPI_Allreduce 0
359267415 MPI_Allreduce 1
359267438 MPI_Send 0
359267438 MPI_Send 1
359267438 MPI_Wait 0
359267438 MPI_Wait 1
359267859 MPI_Allreduce 0
359267859 MPI_Allreduce 1
359267912 MPI_Allreduce 0
359267912 MPI_Allreduce 1
359267935 MPI_Send 0
359267935 MPI_Send 1
359267935 MPI_Wait 0
359267935 MPI_Wait 1
359268357 MPI_Allreduce 0
359268357 MPI_Allreduce 1
359268410 MPI_Allreduce 0
359268410 MPI_Allreduce 1
359268433 MPI_Send 0
359268433 MPI_Send 1
359268433 MPI_Wait 0
359268433 MPI_Wait 1
359268854 MPI_Allreduce 0
359268854 MPI_Allreduce 1
359268907 MPI_Allreduce 0
359268907 MPI_Allreduce 1
359268930 MPI_Send 0
359268930 MPI_Send 1
359268930 MPI_Wait 0
359268930 MPI_Wait 1
359269351 MPI_Allreduce 0
359269351 MPI_Allreduce 1
359269404 MPI_Allreduce 0
359269404 MPI_Allreduce 1
359269427 MPI_Send 0
359269427 MPI_Send 1
359269427 MPI_Wait 0
359269427 MPI_Wait 1
359269844 MPI_Allreduce 0
359269844 MPI_Allreduce 1
359269896 MPI_Allreduce 0
359269896 MPI_Allreduce 1
359269919 MPI_Send 0
359269919 MPI_Send 1
359269919 MPI_Wait 0
359269919 MPI_Wait 1
359270339 MPI_Allreduce 0
359270339 MPI_Allreduce 1
359270392 MPI_Allreduce 0
359270392 MPI_Allreduce 1
359270415 MPI_Send 0
359270415 MPI_Send 1
359270415 MPI_Wait 0
359270415 MPI_Wait 1
359270836 MPI_Allreduce 0
359270836 MPI_Allreduce 1
359270889 MPI_Allreduce 0
359270889 MPI_Allreduce 1
359270912 MPI_Send 0
359270912 MPI_Send 1
359270912 MPI_Wait 0
359270912 MPI_Wait 1
359271334 MPI_Allreduce 0
359271334 MPI_Allreduce 1
359271387 MPI_Allreduce 0
359271387 MPI_Allreduce 1
359271410 MPI_Send 0
359271410 MPI_Send 1
359271410 MPI_Wait 0
359271410 MPI_Wait 1
359271831 MPI_Allreduce 0
359271831 MPI_Allreduce 1
359271884 MPI_Allreduce 0
359271884 MPI_Allreduce 1
359271907 MPI_Send 0
359271907 MPI_Send 1
359271907 MPI_Wait 0
359271907 MPI_Wait 1
359272329 MPI_Allreduce 0
359272329 MPI_Allreduce 1
359272382 MPI_Allreduce 0
359272382 MPI_Allreduce 1
359272405 MPI_Send 0
359272405 MPI_Send 1
359272405 MPI_Wait 0
359272405 MPI_Wait 1
359272826 MPI_Allreduce 0
359272826 MPI_Allreduce 1
359272879 MPI_Allreduce 0
359272879 MPI_Allreduce 1
359272902 MPI_Send 0
359272902 MPI_Send 1
359272902 MPI_Wait 0
359272902 MPI_Wait 1
359273320 MPI_Allreduce 0
359273320 MPI_Allreduce 1
359273372 MPI_Allreduce 0
359273372 MPI_Allreduce 1
359273395 MPI_Send 0
359273395 MPI_Send 1
359273395 MPI_Wait 0
359273395 MPI_Wait 1
359273815 MPI_Allreduce 0
359273815 MPI_Allreduce 1
359273868 MPI_Allreduce 0
359273868 MPI_Allreduce 1
359273891 MPI_Send 0
359273891 MPI_Send 1
359273891 MPI_Wait 0
359273891 MPI_Wait 1
359274312 MPI_Allreduce 0
359274312 MPI_Allreduce 1
359274365 MPI_Allreduce 0
359274365 MPI_Allreduce 1
359274388 MPI_Send 0
359274389 MPI_Send 1
359274389 MPI_Wait 0
359274389 MPI_Wait 1
359274810 MPI_Allreduce 0
359274810 MPI_Allreduce 1
359274863 MPI_Allreduce 0
359274863 MPI_Allreduce 1
359274886 MPI_Send 0
359274886 MPI_Send 1
359274886 MPI_Wait 0
359274886 MPI_Wait 1
359275308 MPI_Allreduce 0
359275308 MPI_Allreduce 1
359275361 MPI_Allreduce 0
359275361 MPI_Allreduce 1
359275384 MPI_Send 0
359275384 MPI_Send 1
359275384 MPI_Wait 0
359275384 MPI_Wait 1
359275805 MPI_Allreduce 0
359275805 MPI_Allreduce 1
359275858 MPI_Allreduce 0
359275858 MPI_Allreduce 1
359275881 MPI_Send 0
359275881 MPI_Send 1
359275881 MPI_Wait 0
359275881 MPI_Wait 1
359276302 MPI_Allreduce 0
359276302 MPI_Allreduce 1
359276355 MPI_Allreduce 0
359276355 MPI_Allreduce 1
359276378 MPI_Send 0
359276378 MPI_Send 1
359276378 MPI_Wait 0
359276378 MPI_Wait 1
359276798 MPI_Allreduce 0
359276798 MPI_Allreduce 1
359276851 MPI_Allreduce 0
359276851 MPI_Allreduce 1
359276871 MPI_Send 0
359276871 MPI_Send 1
359276871 MPI_Wait 0
359276871 MPI_Wait 1
359277291 MPI_Allreduce 0
359277291 MPI_Allreduce 1
359277344 MPI_Allreduce 0
359277344 MPI_Allreduce 1
359277367 MPI_Send 0
359277367 MPI_Send 1
359277367 MPI_Wait 0
359277367 MPI_Wait 1
359277789 MPI_Allreduce 0
359277789 MPI_Allreduce 1
359277842 MPI_Allreduce 0
359277842 MPI_Allreduce 1
359277865 MPI_Send 0
359277865 MPI_Send 1
359277865 MPI_Wait 0
359277865 MPI_Wait 1
359278286 MPI_Allreduce 0
359278286 MPI_Allreduce 1
359278339 MPI_Allreduce 0
359278339 MPI_Allreduce 1
359278362 MPI_Send 0
359278362 MPI_Send 1
359278362 MPI_Wait 0
359278362 MPI_Wait 1
359278783 MPI_Allreduce 0
359278783 MPI_Allreduce 1
359278836 MPI_Allreduce 0
359278836 MPI_Allreduce 1
359278859 MPI_Send 0
359278859 MPI_Send 1
359278859 MPI_Wait 0
359278859 MPI_Wait 1
359279280 MPI_Allreduce 0
359279280 MPI_Allreduce 1
359279333 MPI_Allreduce 0
359279333 MPI_Allreduce 1
359279356 MPI_Send 0
359279356 MPI_Send 1
359279356 MPI_Wait 0
359279356 MPI_Wait 1
359279778 MPI_Allreduce 0
359279778 MPI_Allreduce 1
359279831 MPI_Allreduce 0
359279831 MPI_Allreduce 1
359279854 MPI_Send 0
359279854 MPI_Send 1
359279854 MPI_Wait 0
359279854 MPI_Wait 1
359280275 MPI_Allreduce 0
359280275 MPI_Allreduce 1
359280328 MPI_Allreduce 0
359280328 MPI_Allreduce 1
359280351 MPI_Send 0
359280352 MPI_Send 1
359280352 MPI_Wait 0
359280352 MPI_Wait 1
359280767 MPI_Allreduce 0
359280767 MPI_Allreduce 1
359280820 MPI_Allreduce 0
359280820 MPI_Allreduce 1
359280843 MPI_Send 0
359280843 MPI_Send 1
359280843 MPI_Wait 0
359280843 MPI_Wait 1
359281265 MPI_Allreduce 0
359281265 MPI_Allreduce 1
359281318 MPI_Allreduce 0
359281318 MPI_Allreduce 1
359281341 MPI_Send 0
359281341 MPI_Send 1
359281341 MPI_Wait 0
359281341 MPI_Wait 1
359281762 MPI_Allreduce 0
359281762 MPI_Allreduce 1
359281815 MPI_Allreduce 0
359281815 MPI_Allreduce 1
359281838 MPI_Send 0
359281838 MPI_Send 1
359281838 MPI_Wait 0
359281838 MPI_Wait 1
359282259 MPI_Allreduce 0
359282259 MPI_Allreduce 1
359282312 MPI_Allreduce 0
359282312 MPI_Allreduce 1
359282335 MPI_Send 0
359282335 MPI_Send 1
359282335 MPI_Wait 0
359282335 MPI_Wait 1
359282756 MPI_Allreduce 0
359282756 MPI_Allreduce 1
359282809 MPI_Allreduce 0
359282809 MPI_Allreduce 1
359282832 MPI_Send 0
359282832 MPI_Send 1
359282832 MPI_Wait 0
359282832 MPI_Wait 1
359283253 MPI_Allreduce 0
359283253 MPI_Allreduce 1
359283306 MPI_Allreduce 0
359283306 MPI_Allreduce 1
359283329 MPI_Send 0
359283329 MPI_Send 1
359283329 MPI_Wait 0
359283329 MPI_Wait 1
359283750 MPI_Allreduce 0
359283750 MPI_Allreduce 1
359283803 MPI_Allreduce 0
359283803 MPI_Allreduce 1
359283826 MPI_Send 0
359283826 MPI_Send 1
359283826 MPI_Wait 0
359283826 MPI_Wait 1
359284242 MPI_Allreduce 0
359284242 MPI_Allreduce 1
359284294 MPI_Allreduce 0
359284294 MPI_Allreduce 1
359284317 MPI_Send 0
359284317 MPI_Send 1
359284317 MPI_Wait 0
359284317 MPI_Wait 1
359284738 MPI_Allreduce 0
359284738 MPI_Allreduce 1
359284791 MPI_Allreduce 0
359284791 MPI_Allreduce 1
359284814 MPI_Send 0
359284814 MPI_Send 1
359284814 MPI_Wait 0
359284814 MPI_Wait 1
359285235 MPI_Allreduce 0
359285235 MPI_Allreduce 1
359285288 MPI_Allreduce 0
359285288 MPI_Allreduce 1
359285311 MPI_Send 0
359285311 MPI_Send 1
359285311 MPI_Wait 0
359285311 MPI_Wait 1
359285732 MPI_Allreduce 0
359285732 MPI_Allreduce 1
359285785 MPI_Allreduce 0
359285785 MPI_Allreduce 1
359285808 MPI_Send 0
359285808 MPI_Send 1
359285808 MPI_Wait 0
359285808 MPI_Wait 1
359286230 MPI_Allreduce 0
359286230 MPI_Allreduce 1
359286283 MPI_Allreduce 0
359286283 MPI_Allreduce 1
359286306 MPI_Send 0
359286306 MPI_Send 1
359286306 MPI_Wait 0
359286306 MPI_Wait 1
359286728 MPI_Allreduce 0
359286728 MPI_Allreduce 1
359286781 MPI_Allreduce 0
359286781 MPI_Allreduce 1
359286804 MPI_Send 0
359286804 MPI_Send 1
359286804 MPI_Wait 0
359286804 MPI_Wait 1
359287225 MPI_Allreduce 0
359287225 MPI_Allreduce 1
359287278 MPI_Allreduce 0
359287278 MPI_Allreduce 1
359287301 MPI_Send 0
359287301 MPI_Send 1
359287301 MPI_Wait 0
359287301 MPI_Wait 1
359287718 MPI_Allreduce 0
359287718 MPI_Allreduce 1
359287770 MPI_Allreduce 0
359287770 MPI_Allreduce 1
359287793 MPI_Send 0
359287793 MPI_Send 1
359287793 MPI_Wait 0
359287793 MPI_Wait 1
359288214 MPI_Allreduce 0
359288214 MPI_Allreduce 1
359288267 MPI_Allreduce 0
359288267 MPI_Allreduce 1
359288290 MPI_Send 0
359288290 MPI_Send 1
359288290 MPI_Wait 0
359288290 MPI_Wait 1
359288711 MPI_Allreduce 0
359288711 MPI_Allreduce 1
359288764 MPI_Allreduce 0
359288764 MPI_Allreduce 1
359288787 MPI_Send 0
359288787 MPI_Send 1
359288787 MPI_Wait 0
359288787 MPI_Wait 1
359289208 MPI_Allreduce 0
359289208 MPI_Allreduce 1
359289261 MPI_Allreduce 0
359289261 MPI_Allreduce 1
359289284 MPI_Send 0
359289284 MPI_Send 1
359289284 MPI_Wait 0
359289284 MPI_Wait 1
359289706 MPI_Allreduce 0
359289706 MPI_Allreduce 1
359289759 MPI_Allreduce 0
359289759 MPI_Allreduce 1
359289782 MPI_Send 0
359289782 MPI_Send 1
359289782 MPI_Wait 0
359289782 MPI_Wait 1
359290203 MPI_Allreduce 0
359290203 MPI_Allreduce 1
359290256 MPI_Allreduce 0
359290256 MPI_Allreduce 1
359290279 MPI_Send 0
359290279 MPI_Send 1
359290279 MPI_Wait 0
359290279 MPI_Wait 1
359290701 MPI_Allreduce 0
359290701 MPI_Allreduce 1
359290754 MPI_Allreduce 0
359290754 MPI_Allreduce 1
359290777 MPI_Send 0
359290777 MPI_Send 1
359290777 MPI_Wait 0
359290777 MPI_Wait 1
359291195 MPI_Allreduce 0
359291195 MPI_Allreduce 1
359291246 MPI_Allreduce 0
359291246 MPI_Allreduce 1
359291268 MPI_Send 0
359291268 MPI_Send 1
359291268 MPI_Wait 0
359291268 MPI_Wait 1
359291685 MPI_Allreduce 0
359291685 MPI_Allreduce 1
359291738 MPI_Allreduce 0
359291738 MPI_Allreduce 1
359291760 MPI_Send 0
359291761 MPI_Send 1
359291761 MPI_Wait 0
359291761 MPI_Wait 1
359292181 MPI_Allreduce 0
359292181 MPI_Allreduce 1
359292235 MPI_Allreduce 0
359292235 MPI_Allreduce 1
359292257 MPI_Send 0
359292258 MPI_Send 1
359292258 MPI_Wait 0
359292258 MPI_Wait 1
359292678 MPI_Allreduce 0
359292678 MPI_Allreduce 1
359292731 MPI_Allreduce 0
359292731 MPI_Allreduce 1
359292754 MPI_Send 0
359292754 MPI_Send 1
359292754 MPI_Wait 0
359292754 MPI_Wait 1
359293175 MPI_Allreduce 0
359293175 MPI_Allreduce 1
359293228 MPI_Allreduce 0
359293228 MPI_Allreduce 1
359293251 MPI_Send 0
359293251 MPI_Send 1
359293251 MPI_Wait 0
359293251 MPI_Wait 1
359293673 MPI_Allreduce 0
359293673 MPI_Allreduce 1
359293726 MPI_Allreduce 0
359293726 MPI_Allreduce 1
359293749 MPI_Send 0
359293749 MPI_Send 1
359293749 MPI_Wait 0
359293749 MPI_Wait 1
359294170 MPI_Allreduce 0
359294170 MPI_Allreduce 1
359294223 MPI_Allreduce 0
359294223 MPI_Allreduce 1
359294246 MPI_Send 0
359294247 MPI_Send 1
359294247 MPI_Wait 0
359294247 MPI_Wait 1
359294668 MPI_Allreduce 0
359294668 MPI_Allreduce 1
359294720 MPI_Allreduce 0
359294720 MPI_Allreduce 1
359294740 MPI_Send 0
359294740 MPI_Send 1
359294740 MPI_Wait 0
359294740 MPI_Wait 1
359295160 MPI_Allreduce 0
359295160 MPI_Allreduce 1
359295213 MPI_Allreduce 0
359295213 MPI_Allreduce 1
359295237 MPI_Send 0
359295237 MPI_Send 1
359295237 MPI_Wait 0
359295237 MPI_Wait 1
359295658 MPI_Allreduce 0
359295658 MPI_Allreduce 1
359295711 MPI_Allreduce 0
359295711 MPI_Allreduce 1
359295734 MPI_Send 0
359295734 MPI_Send 1
359295734 MPI_Wait 0
359295734 MPI_Wait 1
359296155 MPI_Allreduce 0
359296155 MPI_Allreduce 1
359296208 MPI_Allreduce 0
359296208 MPI_Allreduce 1
359296231 MPI_Send 0
359296231 MPI_Send 1
359296231 MPI_Wait 0
359296231 MPI_Wait 1
359296653 MPI_Allreduce 0
359296653 MPI_Allreduce 1
359296705 MPI_Allreduce 0
359296705 MPI_Allreduce 1
359296728 MPI_Send 0
359296729 MPI_Send 1
359296729 MPI_Wait 0
359296729 MPI_Wait 1
359297149 MPI_Allreduce 0
359297149 MPI_Allreduce 1
359297202 MPI_Allreduce 0
359297202 MPI_Allreduce 1
359297225 MPI_Send 0
359297226 MPI_Send 1
359297226 MPI_Wait 0
359297226 MPI_Wait 1
359297647 MPI_Allreduce 0
359297647 MPI_Allreduce 1
359297700 MPI_Allreduce 0
359297700 MPI_Allreduce 1
359297723 MPI_Send 0
359297723 MPI_Send 1
359297723 MPI_Wait 0
359297723 MPI_Wait 1
359298144 MPI_Allreduce 0
359298144 MPI_Allreduce 1
359298197 MPI_Allreduce 0
359298197 MPI_Allreduce 1
359298220 MPI_Send 0
359298220 MPI_Send 1
359298220 MPI_Wait 0
359298220 MPI_Wait 1
359298636 MPI_Allreduce 0
359298636 MPI_Allreduce 1
359298689 MPI_Allreduce 0
359298689 MPI_Allreduce 1
359298712 MPI_Send 0
359298712 MPI_Send 1
359298712 MPI_Wait 0
359298712 MPI_Wait 1
359299133 MPI_Allreduce 0
359299133 MPI_Allreduce 1
359299186 MPI_Allreduce 0
359299186 MPI_Allreduce 1
359299209 MPI_Send 0
359299209 MPI_Send 1
359299209 MPI_Wait 0
359299209 MPI_Wait 1
359299630 MPI_Allreduce 0
359299630 MPI_Allreduce 1
359299684 MPI_Allreduce 0
359299684 MPI_Allreduce 1
359299707 MPI_Send 0
359299707 MPI_Send 1
359299707 MPI_Wait 0
359299707 MPI_Wait 1
359300128 MPI_Allreduce 0
359300128 MPI_Allreduce 1
359300181 MPI_Allreduce 0
359300181 MPI_Allreduce 1
359300204 MPI_Send 0
359300204 MPI_Send 1
359300204 MPI_Wait 0
359300204 MPI_Wait 1
359300625 MPI_Allreduce 0
359300625 MPI_Allreduce 1
359300678 MPI_Allreduce 0
359300678 MPI_Allreduce 1
359300701 MPI_Send 0
359300701 MPI_Send 1
359300701 MPI_Wait 0
359300701 MPI_Wait 1
359301122 MPI_Allreduce 0
359301122 MPI_Allreduce 1
359301175 MPI_Allreduce 0
359301175 MPI_Allreduce 1
359301198 MPI_Send 0
359301198 MPI_Send 1
359301198 MPI_Wait 0
359301198 MPI_Wait 1
359301619 MPI_Allreduce 0
359301619 MPI_Allreduce 1
359301672 MPI_Allreduce 0
359301672 MPI_Allreduce 1
359301695 MPI_Send 0
359301695 MPI_Send 1
359301695 MPI_Wait 0
359301695 MPI_Wait 1
359302112 MPI_Allreduce 0
359302112 MPI_Allreduce 1
359302164 MPI_Allreduce 0
359302164 MPI_Allreduce 1
359302187 MPI_Send 0
359302187 MPI_Send 1
359302187 MPI_Wait 0
359302187 MPI_Wait 1
359302608 MPI_Allreduce 0
359302608 MPI_Allreduce 1
359302661 MPI_Allreduce 0
359302661 MPI_Allreduce 1
359302684 MPI_Send 0
359302684 MPI_Send 1
359302684 MPI_Wait 0
359302684 MPI_Wait 1
359303105 MPI_Allreduce 0
359303105 MPI_Allreduce 1
359303158 MPI_Allreduce 0
359303158 MPI_Allreduce 1
359303181 MPI_Send 0
359303181 MPI_Send 1
359303181 MPI_Wait 0
359303181 MPI_Wait 1
359303602 MPI_Allreduce 0
359303602 MPI_Allreduce 1
359303655 MPI_Allreduce 0
359303655 MPI_Allreduce 1
359303678 MPI_Send 0
359303679 MPI_Send 1
359303679 MPI_Wait 0
359303679 MPI_Wait 1
359304100 MPI_Allreduce 0
359304100 MPI_Allreduce 1
359304153 MPI_Allreduce 0
359304153 MPI_Allreduce 1
359304176 MPI_Send 0
359304176 MPI_Send 1
359304176 MPI_Wait 0
359304176 MPI_Wait 1
359304597 MPI_Allreduce 0
359304597 MPI_Allreduce 1
359304650 MPI_Allreduce 0
359304650 MPI_Allreduce 1
359304673 MPI_Send 0
359304673 MPI_Send 1
359304673 MPI_Wait 0
359304673 MPI_Wait 1
359305095 MPI_Allreduce 0
359305095 MPI_Allreduce 1
359305148 MPI_Allreduce 0
359305148 MPI_Allreduce 1
359305171 MPI_Send 0
359305171 MPI_Send 1
359305171 MPI_Wait 0
359305171 MPI_Wait 1
359305588 MPI_Allreduce 0
359305588 MPI_Allreduce 1
359305640 MPI_Allreduce 0
359305640 MPI_Allreduce 1
359305662 MPI_Send 0
359305663 MPI_Send 1
359305663 MPI_Wait 0
359305663 MPI_Wait 1
359306083 MPI_Allreduce 0
359306083 MPI_Allreduce 1
359306136 MPI_Allreduce 0
359306136 MPI_Allreduce 1
359306159 MPI_Send 0
359306159 MPI_Send 1
359306159 MPI_Wait 0
359306159 MPI_Wait 1
359306580 MPI_Allreduce 0
359306580 MPI_Allreduce 1
359306633 MPI_Allreduce 0
359306633 MPI_Allreduce 1
359306656 MPI_Send 0
359306656 MPI_Send 1
359306656 MPI_Wait 0
359306656 MPI_Wait 1
359307078 MPI_Allreduce 0
359307078 MPI_Allreduce 1
359307131 MPI_Allreduce 0
359307131 MPI_Allreduce 1
359307154 MPI_Send 0
359307154 MPI_Send 1
359307154 MPI_Wait 0
359307154 MPI_Wait 1
359307575 MPI_Allreduce 0
359307575 MPI_Allreduce 1
359307628 MPI_Allreduce 0
359307628 MPI_Allreduce 1
359307651 MPI_Send 0
359307651 MPI_Send 1
359307651 MPI_Wait 0
359307651 MPI_Wait 1
359308072 MPI_Allreduce 0
359308072 MPI_Allreduce 1
359308125 MPI_Allreduce 0
359308125 MPI_Allreduce 1
359308148 MPI_Send 0
359308149 MPI_Send 1
359308149 MPI_Wait 0
359308149 MPI_Wait 1
359308570 MPI_Allreduce 0
359308570 MPI_Allreduce 1
359308623 MPI_Allreduce 0
359308623 MPI_Allreduce 1
359308646 MPI_Send 0
359308646 MPI_Send 1
359308646 MPI_Wait 0
359308646 MPI_Wait 1
359309065 MPI_Allreduce 0
359309065 MPI_Allreduce 1
359309117 MPI_Allreduce 0
359309117 MPI_Allreduce 1
359309137 MPI_Send 0
359309137 MPI_Send 1
359309137 MPI_Wait 0
359309137 MPI_Wait 1
359309551 MPI_Allreduce 0
359309551 MPI_Allreduce 1
359309604 MPI_Allreduce 0
359309604 MPI_Allreduce 1
359309627 MPI_Send 0
359309627 MPI_Send 1
359309627 MPI_Wait 0
359309627 MPI_Wait 1
359310048 MPI_Allreduce 0
359310048 MPI_Allreduce 1
359310101 MPI_Allreduce 0
359310101 MPI_Allreduce 1
359310124 MPI_Send 0
359310124 MPI_Send 1
359310124 MPI_Wait 0
359310124 MPI_Wait 1
359310545 MPI_Allreduce 0
359310545 MPI_Allreduce 1
359310598 MPI_Allreduce 0
359310598 MPI_Allreduce 1
359310621 MPI_Send 0
359310621 MPI_Send 1
359310621 MPI_Wait 0
359310621 MPI_Wait 1
359311043 MPI_Allreduce 0
359311043 MPI_Allreduce 1
359311096 MPI_Allreduce 0
359311096 MPI_Allreduce 1
359311119 MPI_Send 0
359311119 MPI_Send 1
359311119 MPI_Wait 0
359311119 MPI_Wait 1
359311541 MPI_Allreduce 0
359311541 MPI_Allreduce 1
359311594 MPI_Allreduce 0
359311594 MPI_Allreduce 1
359311617 MPI_Send 0
359311617 MPI_Send 1
359311617 MPI_Wait 0
359311617 MPI_Wait 1
359312038 MPI_Allreduce 0
359312038 MPI_Allreduce 1
359312091 MPI_Allreduce 0
359312091 MPI_Allreduce 1
359312114 MPI_Send 0
359312115 MPI_Send 1
359312115 MPI_Wait 0
359312115 MPI_Wait 1
359312536 MPI_Allreduce 0
359312536 MPI_Allreduce 1
359312588 MPI_Allreduce 0
359312588 MPI_Allreduce 1
359312608 MPI_Send 0
359312608 MPI_Send 1
359312608 MPI_Wait 0
359312608 MPI_Wait 1
359313028 MPI_Allreduce 0
359313028 MPI_Allreduce 1
359313081 MPI_Allreduce 0
359313081 MPI_Allreduce 1
359313104 MPI_Send 0
359313104 MPI_Send 1
359313104 MPI_Wait 0
359313104 MPI_Wait 1
359313525 MPI_Allreduce 0
359313525 MPI_Allreduce 1
359313578 MPI_Allreduce 0
359313578 MPI_Allreduce 1
359313601 MPI_Send 0
359313601 MPI_Send 1
359313601 MPI_Wait 0
359313601 MPI_Wait 1
359314022 MPI_Allreduce 0
359314022 MPI_Allreduce 1
359314075 MPI_Allreduce 0
359314075 MPI_Allreduce 1
359314098 MPI_Send 0
359314098 MPI_Send 1
359314098 MPI_Wait 0
359314098 MPI_Wait 1
359314519 MPI_Allreduce 0
359314519 MPI_Allreduce 1
359314572 MPI_Allreduce 0
359314572 MPI_Allreduce 1
359314595 MPI_Send 0
359314595 MPI_Send 1
359314595 MPI_Wait 0
359314595 MPI_Wait 1
359315017 MPI_Allreduce 0
359315017 MPI_Allreduce 1
359315070 MPI_Allreduce 0
359315070 MPI_Allreduce 1
359315093 MPI_Send 0
359315093 MPI_Send 1
359315093 MPI_Wait 0
359315093 MPI_Wait 1
359315513 MPI_Allreduce 0
359315513 MPI_Allreduce 1
359315566 MPI_Allreduce 0
359315566 MPI_Allreduce 1
359315589 MPI_Send 0
359315590 MPI_Send 1
359315590 MPI_Wait 0
359315590 MPI_Wait 1
359316011 MPI_Allreduce 0
359316011 MPI_Allreduce 1
359316064 MPI_Allreduce 0
359316064 MPI_Allreduce 1
359316087 MPI_Send 0
359316087 MPI_Send 1
359316087 MPI_Wait 0
359316087 MPI_Wait 1
359316503 MPI_Allreduce 0
359316503 MPI_Allreduce 1
359316556 MPI_Allreduce 0
359316556 MPI_Allreduce 1
359316579 MPI_Send 0
359316579 MPI_Send 1
359316579 MPI_Wait 0
359316579 MPI_Wait 1
359317000 MPI_Allreduce 0
359317000 MPI_Allreduce 1
359317053 MPI_Allreduce 0
359317053 MPI_Allreduce 1
359317076 MPI_Send 0
359317076 MPI_Send 1
359317076 MPI_Wait 0
359317076 MPI_Wait 1
359317497 MPI_Allreduce 0
359317497 MPI_Allreduce 1
359317550 MPI_Allreduce 0
359317550 MPI_Allreduce 1
359317573 MPI_Send 0
359317573 MPI_Send 1
359317573 MPI_Wait 0
359317573 MPI_Wait 1
359317994 MPI_Allreduce 0
359317994 MPI_Allreduce 1
359318047 MPI_Allreduce 0
359318047 MPI_Allreduce 1
359318070 MPI_Send 0
359318070 MPI_Send 1
359318070 MPI_Wait 0
359318070 MPI_Wait 1
359318491 MPI_Allreduce 0
359318491 MPI_Allreduce 1
359318544 MPI_Allreduce 0
359318544 MPI_Allreduce 1
359318567 MPI_Send 0
359318567 MPI_Send 1
359318567 MPI_Wait 0
359318567 MPI_Wait 1
359318989 MPI_Allreduce 0
359318989 MPI_Allreduce 1
359319042 MPI_Allreduce 0
359319042 MPI_Allreduce 1
359319065 MPI_Send 0
359319065 MPI_Send 1
359319065 MPI_Wait 0
359319065 MPI_Wait 1
359319487 MPI_Allreduce 0
359319487 MPI_Allreduce 1
359319540 MPI_Allreduce 0
359319540 MPI_Allreduce 1
359319563 MPI_Send 0
359319563 MPI_Send 1
359319563 MPI_Wait 0
359319563 MPI_Wait 1
359319980 MPI_Allreduce 0
359319980 MPI_Allreduce 1
359320032 MPI_Allreduce 0
359320032 MPI_Allreduce 1
359320055 MPI_Send 0
359320055 MPI_Send 1
359320055 MPI_Wait 0
359320055 MPI_Wait 1
359320476 MPI_Allreduce 0
359320476 MPI_Allreduce 1
359320529 MPI_Allreduce 0
359320529 MPI_Allreduce 1
359320552 MPI_Send 0
359320552 MPI_Send 1
359320552 MPI_Wait 0
359320552 MPI_Wait 1
359320974 MPI_Allreduce 0
359320974 MPI_Allreduce 1
359321027 MPI_Allreduce 0
359321027 MPI_Allreduce 1
359321050 MPI_Send 0
359321050 MPI_Send 1
359321050 MPI_Wait 0
359321050 MPI_Wait 1
359321471 MPI_Allreduce 0
359321471 MPI_Allreduce 1
359321524 MPI_Allreduce 0
359321524 MPI_Allreduce 1
359321547 MPI_Send 0
359321547 MPI_Send 1
359321547 MPI_Wait 0
359321547 MPI_Wait 1
359321969 MPI_Allreduce 0
359321969 MPI_Allreduce 1
359322022 MPI_Allreduce 0
359322022 MPI_Allreduce 1
359322045 MPI_Send 0
359322045 MPI_Send 1
359322045 MPI_Wait 0
359322045 MPI_Wait 1
359322467 MPI_Allreduce 0
359322467 MPI_Allreduce 1
359322520 MPI_Allreduce 0
359322520 MPI_Allreduce 1
359322543 MPI_Send 0
359322543 MPI_Send 1
359322543 MPI_Wait 0
359322543 MPI_Wait 1
359322963 MPI_Allreduce 0
359322963 MPI_Allreduce 1
359323016 MPI_Allreduce 0
359323016 MPI_Allreduce 1
359323039 MPI_Send 0
359323040 MPI_Send 1
359323040 MPI_Wait 0
359323040 MPI_Wait 1
359323457 MPI_Allreduce 0
359323457 MPI_Allreduce 1
359323510 MPI_Allreduce 0
359323510 MPI_Allreduce 1
359323532 MPI_Send 0
359323532 MPI_Send 1
359323532 MPI_Wait 0
359323532 MPI_Wait 1
359323952 MPI_Allreduce 0
359323952 MPI_Allreduce 1
359324005 MPI_Allreduce 0
359324005 MPI_Allreduce 1
359324028 MPI_Send 0
359324028 MPI_Send 1
359324028 MPI_Wait 0
359324028 MPI_Wait 1
359324449 MPI_Allreduce 0
359324449 MPI_Allreduce 1
359324502 MPI_Allreduce 0
359324502 MPI_Allreduce 1
359324525 MPI_Send 0
359324525 MPI_Send 1
359324525 MPI_Wait 0
359324525 MPI_Wait 1
359324945 MPI_Allreduce 0
359324945 MPI_Allreduce 1
359324998 MPI_Allreduce 0
359324998 MPI_Allreduce 1
359325021 MPI_Send 0
359325022 MPI_Send 1
359325022 MPI_Wait 0
359325022 MPI_Wait 1
359325442 MPI_Allreduce 0
359325442 MPI_Allreduce 1
359325495 MPI_Allreduce 0
359325495 MPI_Allreduce 1
359325518 MPI_Send 0
359325518 MPI_Send 1
359325518 MPI_Wait 0
359325518 MPI_Wait 1
359325940 MPI_Allreduce 0
359325940 MPI_Allreduce 1
359325993 MPI_Allreduce 0
359325993 MPI_Allreduce 1
359326016 MPI_Send 0
359326016 MPI_Send 1
359326016 MPI_Wait 0
359326016 MPI_Wait 1
359326437 MPI_Allreduce 0
359326437 MPI_Allreduce 1
359326491 MPI_Allreduce 0
359326491 MPI_Allreduce 1
359326514 MPI_Send 0
359326514 MPI_Send 1
359326514 MPI_Wait 0
359326514 MPI_Wait 1
359326934 MPI_Allreduce 0
359326934 MPI_Allreduce 1
359326987 MPI_Allreduce 0
359326987 MPI_Allreduce 1
359327007 MPI_Send 0
359327007 MPI_Send 1
359327007 MPI_Wait 0
359327007 MPI_Wait 1
359327427 MPI_Allreduce 0
359327427 MPI_Allreduce 1
359327480 MPI_Allreduce 0
359327480 MPI_Allreduce 1
359327503 MPI_Send 0
359327503 MPI_Send 1
359327503 MPI_Wait 0
359327503 MPI_Wait 1
359327924 MPI_Allreduce 0
359327924 MPI_Allreduce 1
359327977 MPI_Allreduce 0
359327977 MPI_Allreduce 1
359328000 MPI_Send 0
359328000 MPI_Send 1
359328000 MPI_Wait 0
359328000 MPI_Wait 1
359328421 MPI_Allreduce 0
359328421 MPI_Allreduce 1
359328474 MPI_Allreduce 0
359328474 MPI_Allreduce 1
359328497 MPI_Send 0
359328497 MPI_Send 1
359328497 MPI_Wait 0
359328497 MPI_Wait 1
359328919 MPI_Allreduce 0
359328919 MPI_Allreduce 1
359328972 MPI_Allreduce 0
359328972 MPI_Allreduce 1
359328995 MPI_Send 0
359328995 MPI_Send 1
359328995 MPI_Wait 0
359328995 MPI_Wait 1
359329416 MPI_Allreduce 0
359329416 MPI_Allreduce 1
359329469 MPI_Allreduce 0
359329469 MPI_Allreduce 1
359329492 MPI_Send 0
359329492 MPI_Send 1
359329492 MPI_Wait 0
359329492 MPI_Wait 1
359329913 MPI_Allreduce 0
359329913 MPI_Allreduce 1
359329966 MPI_Allreduce 0
359329966 MPI_Allreduce 1
359329989 MPI_Send 0
359329989 MPI_Send 1
359329989 MPI_Wait 0
359329989 MPI_Wait 1
359330410 MPI_Allreduce 0
359330410 MPI_Allreduce 1
359330463 MPI_Allreduce 0
359330463 MPI_Allreduce 1
359330487 MPI_Send 0
359330487 MPI_Send 1
359330487 MPI_Wait 0
359330487 MPI_Wait 1
359330902 MPI_Allreduce 0
359330902 MPI_Allreduce 1
359330955 MPI_Allreduce 0
359330955 MPI_Allreduce 1
359330978 MPI_Send 0
359330978 MPI_Send 1
359330978 MPI_Wait 0
359330978 MPI_Wait 1
359331399 MPI_Allreduce 0
359331399 MPI_Allreduce 1
359331452 MPI_Allreduce 0
359331452 MPI_Allreduce 1
359331475 MPI_Send 0
359331475 MPI_Send 1
359331475 MPI_Wait 0
359331475 MPI_Wait 1
359331896 MPI_Allreduce 0
359331896 MPI_Allreduce 1
359331949 MPI_Allreduce 0
359331949 MPI_Allreduce 1
359331972 MPI_Send 0
359331972 MPI_Send 1
359331972 MPI_Wait 0
359331972 MPI_Wait 1
359332394 MPI_Allreduce 0
359332394 MPI_Allreduce 1
359332447 MPI_Allreduce 0
359332447 MPI_Allreduce 1
359332470 MPI_Send 0
359332470 MPI_Send 1
359332470 MPI_Wait 0
359332470 MPI_Wait 1
359332891 MPI_Allreduce 0
359332891 MPI_Allreduce 1
359332944 MPI_Allreduce 0
359332944 MPI_Allreduce 1
359332967 MPI_Send 0
359332967 MPI_Send 1
359332967 MPI_Wait 0
359332967 MPI_Wait 1
359333388 MPI_Allreduce 0
359333388 MPI_Allreduce 1
359333441 MPI_Allreduce 0
359333441 MPI_Allreduce 1
359333464 MPI_Send 0
359333465 MPI_Send 1
359333465 MPI_Wait 0
359333465 MPI_Wait 1
359333885 MPI_Allreduce 0
359333885 MPI_Allreduce 1
359333938 MPI_Allreduce 0
359333938 MPI_Allreduce 1
359333961 MPI_Send 0
359333961 MPI_Send 1
359333961 MPI_Wait 0
359333962 MPI_Wait 1
359334377 MPI_Allreduce 0
359334377 MPI_Allreduce 1
359334430 MPI_Allreduce 0
359334430 MPI_Allreduce 1
359334453 MPI_Send 0
359334453 MPI_Send 1
359334453 MPI_Wait 0
359334453 MPI_Wait 1
359334874 MPI_Allreduce 0
359334874 MPI_Allreduce 1
359334927 MPI_Allreduce 0
359334927 MPI_Allreduce 1
359334950 MPI_Send 0
359334950 MPI_Send 1
359334950 MPI_Wait 0
359334950 MPI_Wait 1
359335371 MPI_Allreduce 0
359335371 MPI_Allreduce 1
359335424 MPI_Allreduce 0
359335424 MPI_Allreduce 1
359335447 MPI_Send 0
359335447 MPI_Send 1
359335447 MPI_Wait 0
359335447 MPI_Wait 1
359335868 MPI_Allreduce 0
359335868 MPI_Allreduce 1
359335921 MPI_Allreduce 0
359335921 MPI_Allreduce 1
359335944 MPI_Send 0
359335944 MPI_Send 1
359335944 MPI_Wait 0
359335944 MPI_Wait 1
359336366 MPI_Allreduce 0
359336366 MPI_Allreduce 1
359336419 MPI_Allreduce 0
359336419 MPI_Allreduce 1
359336442 MPI_Send 0
359336442 MPI_Send 1
359336442 MPI_Wait 0
359336442 MPI_Wait 1
359336863 MPI_Allreduce 0
359336863 MPI_Allreduce 1
359336916 MPI_Allreduce 0
359336916 MPI_Allreduce 1
359336939 MPI_Send 0
359336939 MPI_Send 1
359336939 MPI_Wait 0
359336939 MPI_Wait 1
359337360 MPI_Allreduce 0
359337360 MPI_Allreduce 1
359337413 MPI_Allreduce 0
359337413 MPI_Allreduce 1
359337436 MPI_Send 0
359337436 MPI_Send 1
359337436 MPI_Wait 0
359337436 MPI_Wait 1
359337852 MPI_Allreduce 0
359337852 MPI_Allreduce 1
359337905 MPI_Allreduce 0
359337905 MPI_Allreduce 1
359337927 MPI_Send 0
359337927 MPI_Send 1
359337927 MPI_Wait 0
359337927 MPI_Wait 1
359338348 MPI_Allreduce 0
359338348 MPI_Allreduce 1
359338401 MPI_Allreduce 0
359338401 MPI_Allreduce 1
359338424 MPI_Send 0
359338424 MPI_Send 1
359338424 MPI_Wait 0
359338424 MPI_Wait 1
359338845 MPI_Allreduce 0
359338845 MPI_Allreduce 1
359338898 MPI_Allreduce 0
359338898 MPI_Allreduce 1
359338921 MPI_Send 0
359338921 MPI_Send 1
359338921 MPI_Wait 0
359338921 MPI_Wait 1
359339342 MPI_Allreduce 0
359339342 MPI_Allreduce 1
359339395 MPI_Allreduce 0
359339395 MPI_Allreduce 1
359339418 MPI_Send 0
359339418 MPI_Send 1
359339418 MPI_Wait 0
359339418 MPI_Wait 1
359339839 MPI_Allreduce 0
359339839 MPI_Allreduce 1
359339892 MPI_Allreduce 0
359339892 MPI_Allreduce 1
359339915 MPI_Send 0
359339916 MPI_Send 1
359339916 MPI_Wait 0
359339916 MPI_Wait 1
359340336 MPI_Allreduce 0
359340336 MPI_Allreduce 1
359340390 MPI_Allreduce 0
359340390 MPI_Allreduce 1
359340413 MPI_Send 0
359340413 MPI_Send 1
359340413 MPI_Wait 0
359340413 MPI_Wait 1
359340834 MPI_Allreduce 0
359340834 MPI_Allreduce 1
359340887 MPI_Allreduce 0
359340887 MPI_Allreduce 1
359340910 MPI_Send 0
359340910 MPI_Send 1
359340910 MPI_Wait 0
359340910 MPI_Wait 1
359341329 MPI_Allreduce 0
359341329 MPI_Allreduce 1
359341377 MPI_Allreduce 0
359341377 MPI_Allreduce 1
359341398 MPI_Send 0
359341398 MPI_Send 1
359341398 MPI_Wait 0
359341398 MPI_Wait 1
359341816 MPI_Allreduce 0
359341816 MPI_Allreduce 1
359341870 MPI_Allreduce 0
359341870 MPI_Allreduce 1
359341892 MPI_Send 0
359341893 MPI_Send 1
359341893 MPI_Wait 0
359341893 MPI_Wait 1
359342314 MPI_Allreduce 0
359342314 MPI_Allreduce 1
359342367 MPI_Allreduce 0
359342367 MPI_Allreduce 1
359342390 MPI_Send 0
359342390 MPI_Send 1
359342390 MPI_Wait 0
359342390 MPI_Wait 1
359342811 MPI_Allreduce 0
359342811 MPI_Allreduce 1
359342864 MPI_Allreduce 0
359342864 MPI_Allreduce 1
359342887 MPI_Send 0
359342888 MPI_Send 1
359342888 MPI_Wait 0
359342888 MPI_Wait 1
359343309 MPI_Allreduce 0
359343309 MPI_Allreduce 1
359343362 MPI_Allreduce 0
359343362 MPI_Allreduce 1
359343385 MPI_Send 0
359343385 MPI_Send 1
359343385 MPI_Wait 0
359343385 MPI_Wait 1
359343806 MPI_Allreduce 0
359343806 MPI_Allreduce 1
359343859 MPI_Allreduce 0
359343859 MPI_Allreduce 1
359343882 MPI_Send 0
359343882 MPI_Send 1
359343882 MPI_Wait 0
359343882 MPI_Wait 1
359344304 MPI_Allreduce 0
359344304 MPI_Allreduce 1
359344357 MPI_Allreduce 0
359344357 MPI_Allreduce 1
359344380 MPI_Send 0
359344380 MPI_Send 1
359344380 MPI_Wait 0
359344380 MPI_Wait 1
359344801 MPI_Allreduce 0
359344801 MPI_Allreduce 1
359344854 MPI_Allreduce 0
359344854 MPI_Allreduce 1
359344874 MPI_Send 0
359344874 MPI_Send 1
359344874 MPI_Wait 0
359344874 MPI_Wait 1
359345294 MPI_Allreduce 0
359345294 MPI_Allreduce 1
359345347 MPI_Allreduce 0
359345347 MPI_Allreduce 1
359345370 MPI_Send 0
359345370 MPI_Send 1
359345370 MPI_Wait 0
359345370 MPI_Wait 1
359345791 MPI_Allreduce 0
359345791 MPI_Allreduce 1
359345844 MPI_Allreduce 0
359345844 MPI_Allreduce 1
359345867 MPI_Send 0
359345867 MPI_Send 1
359345867 MPI_Wait 0
359345867 MPI_Wait 1
359346288 MPI_Allreduce 0
359346288 MPI_Allreduce 1
359346341 MPI_Allreduce 0
359346341 MPI_Allreduce 1
359346364 MPI_Send 0
359346364 MPI_Send 1
359346364 MPI_Wait 0
359346364 MPI_Wait 1
359346785 MPI_Allreduce 0
359346785 MPI_Allreduce 1
359346838 MPI_Allreduce 0
359346838 MPI_Allreduce 1
359346861 MPI_Send 0
359346861 MPI_Send 1
359346861 MPI_Wait 0
359346861 MPI_Wait 1
359347282 MPI_Allreduce 0
359347282 MPI_Allreduce 1
359347335 MPI_Allreduce 0
359347335 MPI_Allreduce 1
359347358 MPI_Send 0
359347358 MPI_Send 1
359347358 MPI_Wait 0
359347358 MPI_Wait 1
359347779 MPI_Allreduce 0
359347779 MPI_Allreduce 1
359347832 MPI_Allreduce 0
359347832 MPI_Allreduce 1
359347855 MPI_Send 0
359347855 MPI_Send 1
359347855 MPI_Wait 0
359347855 MPI_Wait 1
359348277 MPI_Allreduce 0
359348277 MPI_Allreduce 1
359348330 MPI_Allreduce 0
359348330 MPI_Allreduce 1
359348353 MPI_Send 0
359348353 MPI_Send 1
359348353 MPI_Wait 0
359348353 MPI_Wait 1
359348769 MPI_Allreduce 0
359348769 MPI_Allreduce 1
359348822 MPI_Allreduce 0
359348822 MPI_Allreduce 1
359348845 MPI_Send 0
359348845 MPI_Send 1
359348845 MPI_Wait 0
359348845 MPI_Wait 1
359349266 MPI_Allreduce 0
359349266 MPI_Allreduce 1
359349319 MPI_Allreduce 0
359349319 MPI_Allreduce 1
359349342 MPI_Send 0
359349342 MPI_Send 1
359349342 MPI_Wait 0
359349342 MPI_Wait 1
359349763 MPI_Allreduce 0
359349763 MPI_Allreduce 1
359349816 MPI_Allreduce 0
359349816 MPI_Allreduce 1
359349839 MPI_Send 0
359349839 MPI_Send 1
359349839 MPI_Wait 0
359349839 MPI_Wait 1
359350260 MPI_Allreduce 0
359350260 MPI_Allreduce 1
359350313 MPI_Allreduce 0
359350313 MPI_Allreduce 1
359350336 MPI_Send 0
359350337 MPI_Send 1
359350337 MPI_Wait 0
359350337 MPI_Wait 1
359350758 MPI_Allreduce 0
359350758 MPI_Allreduce 1
359350811 MPI_Allreduce 0
359350811 MPI_Allreduce 1
359350834 MPI_Send 0
359350834 MPI_Send 1
359350834 MPI_Wait 0
359350834 MPI_Wait 1
359351255 MPI_Allreduce 0
359351255 MPI_Allreduce 1
359351308 MPI_Allreduce 0
359351308 MPI_Allreduce 1
359351331 MPI_Send 0
359351331 MPI_Send 1
359351331 MPI_Wait 0
359351331 MPI_Wait 1
359351753 MPI_Allreduce 0
359351753 MPI_Allreduce 1
359351806 MPI_Allreduce 0
359351806 MPI_Allreduce 1
359351829 MPI_Send 0
359351829 MPI_Send 1
359351829 MPI_Wait 0
359351829 MPI_Wait 1
359352245 MPI_Allreduce 0
359352245 MPI_Allreduce 1
359352298 MPI_Allreduce 0
359352298 MPI_Allreduce 1
359352320 MPI_Send 0
359352321 MPI_Send 1
359352321 MPI_Wait 0
359352321 MPI_Wait 1
359352742 MPI_Allreduce 0
359352742 MPI_Allreduce 1
359352795 MPI_Allreduce 0
359352795 MPI_Allreduce 1
359352818 MPI_Send 0
359352818 MPI_Send 1
359352818 MPI_Wait 0
359352818 MPI_Wait 1
359353239 MPI_Allreduce 0
359353239 MPI_Allreduce 1
359353292 MPI_Allreduce 0
359353292 MPI_Allreduce 1
359353315 MPI_Send 0
359353315 MPI_Send 1
359353315 MPI_Wait 0
359353315 MPI_Wait 1
359353737 MPI_Allreduce 0
359353737 MPI_Allreduce 1
359353790 MPI_Allreduce 0
359353790 MPI_Allreduce 1
359353813 MPI_Send 0
359353813 MPI_Send 1
359353813 MPI_Wait 0
359353813 MPI_Wait 1
359354234 MPI_Allreduce 0
359354234 MPI_Allreduce 1
359354288 MPI_Allreduce 0
359354288 MPI_Allreduce 1
359354311 MPI_Send 0
359354311 MPI_Send 1
359354311 MPI_Wait 0
359354311 MPI_Wait 1
359354732 MPI_Allreduce 0
359354732 MPI_Allreduce 1
359354785 MPI_Allreduce 0
359354785 MPI_Allreduce 1
359354808 MPI_Send 0
359354808 MPI_Send 1
359354808 MPI_Wait 0
359354808 MPI_Wait 1
359355229 MPI_Allreduce 0
359355229 MPI_Allreduce 1
359355282 MPI_Allreduce 0
359355282 MPI_Allreduce 1
359355305 MPI_Send 0
359355306 MPI_Send 1
359355306 MPI_Wait 0
359355306 MPI_Wait 1
359355722 MPI_Allreduce 0
359355722 MPI_Allreduce 1
359355774 MPI_Allreduce 0
359355774 MPI_Allreduce 1
359355797 MPI_Send 0
359355797 MPI_Send 1
359355797 MPI_Wait 0
359355797 MPI_Wait 1
359356217 MPI_Allreduce 0
359356217 MPI_Allreduce 1
359356270 MPI_Allreduce 0
359356270 MPI_Allreduce 1
359356293 MPI_Send 0
359356293 MPI_Send 1
359356293 MPI_Wait 0
359356293 MPI_Wait 1
359356715 MPI_Allreduce 0
359356715 MPI_Allreduce 1
359356768 MPI_Allreduce 0
359356768 MPI_Allreduce 1
359356791 MPI_Send 0
359356791 MPI_Send 1
359356791 MPI_Wait 0
359356791 MPI_Wait 1
359357211 MPI_Allreduce 0
359357211 MPI_Allreduce 1
359357264 MPI_Allreduce 0
359357264 MPI_Allreduce 1
359357288 MPI_Send 0
359357288 MPI_Send 1
359357288 MPI_Wait 0
359357288 MPI_Wait 1
359357708 MPI_Allreduce 0
359357708 MPI_Allreduce 1
359357762 MPI_Allreduce 0
359357762 MPI_Allreduce 1
359357785 MPI_Send 0
359357785 MPI_Send 1
359357785 MPI_Wait 0
359357785 MPI_Wait 1
359358206 MPI_Allreduce 0
359358206 MPI_Allreduce 1
359358259 MPI_Allreduce 0
359358259 MPI_Allreduce 1
359358282 MPI_Send 0
359358282 MPI_Send 1
359358282 MPI_Wait 0
359358282 MPI_Wait 1
359358703 MPI_Allreduce 0
359358703 MPI_Allreduce 1
359358756 MPI_Allreduce 0
359358756 MPI_Allreduce 1
359358779 MPI_Send 0
359358779 MPI_Send 1
359358779 MPI_Wait 0
359358779 MPI_Wait 1
359359198 MPI_Allreduce 0
359359198 MPI_Allreduce 1
359359251 MPI_Allreduce 0
359359251 MPI_Allreduce 1
359359271 MPI_Send 0
359359271 MPI_Send 1
359359271 MPI_Wait 0
359359271 MPI_Wait 1
359359692 MPI_Allreduce 0
359359692 MPI_Allreduce 1
359359745 MPI_Allreduce 0
359359745 MPI_Allreduce 1
359359768 MPI_Send 0
359359768 MPI_Send 1
359359768 MPI_Wait 0
359359768 MPI_Wait 1
359360189 MPI_Allreduce 0
359360189 MPI_Allreduce 1
359360242 MPI_Allreduce 0
359360242 MPI_Allreduce 1
359360265 MPI_Send 0
359360265 MPI_Send 1
359360265 MPI_Wait 0
359360265 MPI_Wait 1
359360686 MPI_Allreduce 0
359360686 MPI_Allreduce 1
359360739 MPI_Allreduce 0
359360739 MPI_Allreduce 1
359360762 MPI_Send 0
359360763 MPI_Send 1
359360763 MPI_Wait 0
359360763 MPI_Wait 1
359361184 MPI_Allreduce 0
359361184 MPI_Allreduce 1
359361237 MPI_Allreduce 0
359361237 MPI_Allreduce 1
359361260 MPI_Send 0
359361260 MPI_Send 1
359361260 MPI_Wait 0
359361260 MPI_Wait 1
359361681 MPI_Allreduce 0
359361681 MPI_Allreduce 1
359361734 MPI_Allreduce 0
359361734 MPI_Allreduce 1
359361757 MPI_Send 0
359361757 MPI_Send 1
359361757 MPI_Wait 0
359361757 MPI_Wait 1
359362178 MPI_Allreduce 0
359362178 MPI_Allreduce 1
