------------
Profiler Configuration
output path: /home/tc/pwr2018_data/output_lulesh_proc1_size30_order_change/cap_11/nowrapper-5
monitoring frequency: 100000000 nano seconds
------------
Running problem size 30^3 per domain until completion
Num processors: 1
Num threads: 2
Total number of elements: 27000

To run other sizes, use -s <integer>.
To run a fixed number of iterations, use -i <integer>.
To run a more or less balanced region set, use -b <integer>.
To change the relative costs of regions, use -c <integer>.
To print out progress, use -p
To write an output file for VisIt, use -v
See help (-h) for more options

Run completed:  
   Problem size        =  30 
   MPI tasks           =  1 
   Iteration count     =  932 
   Final Origin Energy = 2.025075e+05 
   Testing Plane 0 of Energy Array on rank 0:
        MaxAbsDiff   = 6.548362e-11
        TotalAbsDiff = 8.615093e-10
        MaxRelDiff   = 1.461140e-12


Elapsed time         =      22.59 (s)
Grind time (us/z/c)  = 0.89782485 (per dom)  (0.89782485 overall)
FOM                  =   1113.803 (z/s)

