/dev/cpu/msr_batch: No such file or directory
graph_generation:               3.287458 s
construction_time:              0.882457 s
Running BFS 0
Time for BFS 0 is 0.315020
TEPS for BFS 0 is 5.32531e+07
Validating BFS 0
Validate time for BFS 0 is 1.083289
Running BFS 1
Time for BFS 1 is 0.313721
TEPS for BFS 1 is 5.34737e+07
Validating BFS 1
Validate time for BFS 1 is 1.082812
Running BFS 2
Time for BFS 2 is 0.314026
TEPS for BFS 2 is 5.34217e+07
Validating BFS 2
Validate time for BFS 2 is 1.082815
Running BFS 3
Time for BFS 3 is 0.314140
TEPS for BFS 3 is 5.34024e+07
Validating BFS 3
Validate time for BFS 3 is 1.080666
Running BFS 4
Time for BFS 4 is 0.314106
TEPS for BFS 4 is 5.34081e+07
Validating BFS 4
Validate time for BFS 4 is 1.080338
Running BFS 5
Time for BFS 5 is 0.314215
TEPS for BFS 5 is 5.33897e+07
Validating BFS 5
Validate time for BFS 5 is 1.081777
Running BFS 6
Time for BFS 6 is 0.314102
TEPS for BFS 6 is 5.34088e+07
Validating BFS 6
Validate time for BFS 6 is 1.080688
Running BFS 7
Time for BFS 7 is 0.313866
TEPS for BFS 7 is 5.34489e+07
Validating BFS 7
Validate time for BFS 7 is 1.081558
Running BFS 8
Time for BFS 8 is 0.313567
TEPS for BFS 8 is 5.34999e+07
Validating BFS 8
Validate time for BFS 8 is 1.079424
Running BFS 9
Time for BFS 9 is 0.314219
TEPS for BFS 9 is 5.33889e+07
Validating BFS 9
Validate time for BFS 9 is 1.080375
Running BFS 10
Time for BFS 10 is 0.314276
TEPS for BFS 10 is 5.33792e+07
Validating BFS 10
Validate time for BFS 10 is 1.082558
Running BFS 11
Time for BFS 11 is 0.314054
TEPS for BFS 11 is 5.3417e+07
Validating BFS 11
Validate time for BFS 11 is 1.081025
Running BFS 12
Time for BFS 12 is 0.313840
TEPS for BFS 12 is 5.34534e+07
Validating BFS 12
Validate time for BFS 12 is 1.081256
Running BFS 13
Time for BFS 13 is 0.313768
TEPS for BFS 13 is 5.34656e+07
Validating BFS 13
Validate time for BFS 13 is 1.081058
Running BFS 14
Time for BFS 14 is 0.314356
TEPS for BFS 14 is 5.33656e+07
Validating BFS 14
Validate time for BFS 14 is 1.080298
Running BFS 15
Time for BFS 15 is 0.314426
TEPS for BFS 15 is 5.33538e+07
Validating BFS 15
Validate time for BFS 15 is 1.082831
Running BFS 16
Time for BFS 16 is 0.314138
TEPS for BFS 16 is 5.34027e+07
Validating BFS 16
Validate time for BFS 16 is 1.080177
Running BFS 17
Time for BFS 17 is 0.314546
TEPS for BFS 17 is 5.33334e+07
Validating BFS 17
Validate time for BFS 17 is 1.082329
Running BFS 18
Time for BFS 18 is 0.314027
TEPS for BFS 18 is 5.34215e+07
Validating BFS 18
Validate time for BFS 18 is 1.082228
Running BFS 19
Time for BFS 19 is 0.313885
TEPS for BFS 19 is 5.34457e+07
Validating BFS 19
Validate time for BFS 19 is 1.082111
Running BFS 20
Time for BFS 20 is 0.313929
TEPS for BFS 20 is 5.34382e+07
Validating BFS 20
Validate time for BFS 20 is 1.080239
Running BFS 21
Time for BFS 21 is 0.314323
TEPS for BFS 21 is 5.33712e+07
Validating BFS 21
Validate time for BFS 21 is 1.081552
Running BFS 22
Time for BFS 22 is 0.314205
TEPS for BFS 22 is 5.33913e+07
Validating BFS 22
Validate time for BFS 22 is 1.081739
Running BFS 23
Time for BFS 23 is 0.313729
TEPS for BFS 23 is 5.34723e+07
Validating BFS 23
Validate time for BFS 23 is 1.082534
Running BFS 24
Time for BFS 24 is 0.313566
TEPS for BFS 24 is 5.35001e+07
Validating BFS 24
Validate time for BFS 24 is 1.080669
Running BFS 25
Time for BFS 25 is 0.314336
TEPS for BFS 25 is 5.33691e+07
Validating BFS 25
Validate time for BFS 25 is 1.083179
Running BFS 26
Time for BFS 26 is 0.313843
TEPS for BFS 26 is 5.34529e+07
Validating BFS 26
Validate time for BFS 26 is 1.082074
Running BFS 27
Time for BFS 27 is 0.314169
TEPS for BFS 27 is 5.33974e+07
Validating BFS 27
Validate time for BFS 27 is 1.079789
Running BFS 28
Time for BFS 28 is 0.315310
TEPS for BFS 28 is 5.32042e+07
Validating BFS 28
Validate time for BFS 28 is 1.083325
Running BFS 29
Time for BFS 29 is 0.314421
TEPS for BFS 29 is 5.33546e+07
Validating BFS 29
Validate time for BFS 29 is 1.083367
Running BFS 30
Time for BFS 30 is 0.313705
TEPS for BFS 30 is 5.34763e+07
Validating BFS 30
Validate time for BFS 30 is 1.082703
Running BFS 31
Time for BFS 31 is 0.313690
TEPS for BFS 31 is 5.3479e+07
Validating BFS 31
Validate time for BFS 31 is 1.080938
Running BFS 32
Time for BFS 32 is 0.314686
TEPS for BFS 32 is 5.33097e+07
Validating BFS 32
Validate time for BFS 32 is 1.081048
Running BFS 33
Time for BFS 33 is 0.313906
TEPS for BFS 33 is 5.34422e+07
Validating BFS 33
Validate time for BFS 33 is 1.082195
Running BFS 34
Time for BFS 34 is 0.313883
TEPS for BFS 34 is 5.3446e+07
Validating BFS 34
Validate time for BFS 34 is 1.079939
Running BFS 35
Time for BFS 35 is 0.314427
TEPS for BFS 35 is 5.33536e+07
Validating BFS 35
Validate time for BFS 35 is 1.080188
Running BFS 36
Time for BFS 36 is 0.314290
TEPS for BFS 36 is 5.33768e+07
Validating BFS 36
Validate time for BFS 36 is 1.080858
Running BFS 37
Time for BFS 37 is 0.314242
TEPS for BFS 37 is 5.33851e+07
Validating BFS 37
Validate time for BFS 37 is 1.079853
Running BFS 38
Time for BFS 38 is 0.314283
TEPS for BFS 38 is 5.33781e+07
Validating BFS 38
Validate time for BFS 38 is 1.081042
Running BFS 39
Time for BFS 39 is 0.313457
TEPS for BFS 39 is 5.35187e+07
Validating BFS 39
Validate time for BFS 39 is 1.080464
Running BFS 40
Time for BFS 40 is 0.314253
TEPS for BFS 40 is 5.33832e+07
Validating BFS 40
Validate time for BFS 40 is 1.080881
Running BFS 41
Time for BFS 41 is 0.314006
TEPS for BFS 41 is 5.34252e+07
Validating BFS 41
Validate time for BFS 41 is 1.081795
Running BFS 42
Time for BFS 42 is 0.313709
TEPS for BFS 42 is 5.34757e+07
Validating BFS 42
Validate time for BFS 42 is 1.080120
Running BFS 43
Time for BFS 43 is 0.314483
TEPS for BFS 43 is 5.33441e+07
Validating BFS 43
Validate time for BFS 43 is 1.080295
Running BFS 44
Time for BFS 44 is 0.314046
TEPS for BFS 44 is 5.34184e+07
Validating BFS 44
Validate time for BFS 44 is 1.081862
Running BFS 45
Time for BFS 45 is 0.314296
TEPS for BFS 45 is 5.33759e+07
Validating BFS 45
Validate time for BFS 45 is 1.081390
Running BFS 46
Time for BFS 46 is 0.313918
TEPS for BFS 46 is 5.34401e+07
Validating BFS 46
Validate time for BFS 46 is 1.081304
Running BFS 47
Time for BFS 47 is 0.314618
TEPS for BFS 47 is 5.33212e+07
Validating BFS 47
Validate time for BFS 47 is 1.080774
Running BFS 48
Time for BFS 48 is 0.314024
TEPS for BFS 48 is 5.34221e+07
Validating BFS 48
Validate time for BFS 48 is 1.081827
Running BFS 49
Time for BFS 49 is 0.313696
TEPS for BFS 49 is 5.34779e+07
Validating BFS 49
Validate time for BFS 49 is 1.080300
Running BFS 50
Time for BFS 50 is 0.314556
TEPS for BFS 50 is 5.33318e+07
Validating BFS 50
Validate time for BFS 50 is 1.081226
Running BFS 51
Time for BFS 51 is 0.313972
TEPS for BFS 51 is 5.3431e+07
Validating BFS 51
Validate time for BFS 51 is 1.080976
Running BFS 52
Time for BFS 52 is 0.314274
TEPS for BFS 52 is 5.33796e+07
Validating BFS 52
Validate time for BFS 52 is 1.081039
Running BFS 53
Time for BFS 53 is 0.314163
TEPS for BFS 53 is 5.33984e+07
Validating BFS 53
Validate time for BFS 53 is 1.080701
Running BFS 54
Time for BFS 54 is 0.313944
TEPS for BFS 54 is 5.34358e+07
Validating BFS 54
Validate time for BFS 54 is 1.081757
Running BFS 55
Time for BFS 55 is 0.313764
TEPS for BFS 55 is 5.34663e+07
Validating BFS 55
Validate time for BFS 55 is 1.080029
Running BFS 56
Time for BFS 56 is 0.314076
TEPS for BFS 56 is 5.34132e+07
Validating BFS 56
Validate time for BFS 56 is 1.080278
Running BFS 57
Time for BFS 57 is 0.313909
TEPS for BFS 57 is 5.34416e+07
Validating BFS 57
Validate time for BFS 57 is 1.082770
Running BFS 58
Time for BFS 58 is 0.314115
TEPS for BFS 58 is 5.34067e+07
Validating BFS 58
Validate time for BFS 58 is 1.082271
Running BFS 59
Time for BFS 59 is 0.314099
TEPS for BFS 59 is 5.34093e+07
Validating BFS 59
Validate time for BFS 59 is 1.081889
Running BFS 60
Time for BFS 60 is 0.314479
TEPS for BFS 60 is 5.33448e+07
Validating BFS 60
Validate time for BFS 60 is 1.080806
Running BFS 61
Time for BFS 61 is 0.314053
TEPS for BFS 61 is 5.34171e+07
Validating BFS 61
Validate time for BFS 61 is 1.082016
Running BFS 62
Time for BFS 62 is 0.313704
TEPS for BFS 62 is 5.34765e+07
Validating BFS 62
Validate time for BFS 62 is 1.081093
Running BFS 63
Time for BFS 63 is 0.314090
TEPS for BFS 63 is 5.34109e+07
Validating BFS 63
Validate time for BFS 63 is 1.080404
real	1m 40.90s
user	3m 15.27s
sys	0m 6.41s
