------------
Profiler Configuration
output path: /home/tc/pwr2018/output_miniFE_proc1//cap_13-5/profiler-2
monitoring frequency: 100000000 nano seconds
------------
MiniFE Mini-App, OpenMP Peer Implementation
Creating OpenMP Thread Pool...
Counted: 2 threads.
Running MiniFE Mini-App...
      creating/filling mesh...0.14075s, total time: 0.140751
generating matrix structure...7.16563s, total time: 7.30638
         assembling FE data...28.9526s, total time: 36.259
      imposing Dirichlet BC...13.8649s, total time: 50.1238
      imposing Dirichlet BC...3.84771s, total time: 53.9715
making matrix indices local...0.00671983s, total time: 53.9783
Starting CG solver ... 
-------------------------------------------------------
Primary job  terminated normally, but 1 process returned
a non-zero exit code. Per user-direction, the job has been aborted.
-------------------------------------------------------
