/dev/cpu/msr_batch: No such file or directory
graph_generation:               3.802308 s
construction_time:              1.022319 s
Running BFS 0
Time for BFS 0 is 0.370894
TEPS for BFS 0 is 4.52307e+07
Validating BFS 0
Validate time for BFS 0 is 1.303446
Running BFS 1
Time for BFS 1 is 0.371380
TEPS for BFS 1 is 4.51716e+07
Validating BFS 1
Validate time for BFS 1 is 1.302881
Running BFS 2
Time for BFS 2 is 0.370798
TEPS for BFS 2 is 4.52425e+07
Validating BFS 2
Validate time for BFS 2 is 1.302491
Running BFS 3
Time for BFS 3 is 0.371005
TEPS for BFS 3 is 4.52173e+07
Validating BFS 3
Validate time for BFS 3 is 1.301174
Running BFS 4
Time for BFS 4 is 0.372243
TEPS for BFS 4 is 4.50668e+07
Validating BFS 4
Validate time for BFS 4 is 1.298117
Running BFS 5
Time for BFS 5 is 0.369780
TEPS for BFS 5 is 4.5367e+07
Validating BFS 5
Validate time for BFS 5 is 1.300009
Running BFS 6
Time for BFS 6 is 0.370035
TEPS for BFS 6 is 4.53358e+07
Validating BFS 6
Validate time for BFS 6 is 1.300272
Running BFS 7
Time for BFS 7 is 0.370235
TEPS for BFS 7 is 4.53113e+07
Validating BFS 7
Validate time for BFS 7 is 1.298483
Running BFS 8
Time for BFS 8 is 0.369692
TEPS for BFS 8 is 4.53778e+07
Validating BFS 8
Validate time for BFS 8 is 1.297917
Running BFS 9
Time for BFS 9 is 0.370019
TEPS for BFS 9 is 4.53378e+07
Validating BFS 9
Validate time for BFS 9 is 1.298695
Running BFS 10
Time for BFS 10 is 0.370673
TEPS for BFS 10 is 4.52578e+07
Validating BFS 10
Validate time for BFS 10 is 1.301909
Running BFS 11
Time for BFS 11 is 0.369837
TEPS for BFS 11 is 4.53601e+07
Validating BFS 11
Validate time for BFS 11 is 1.297585
Running BFS 12
Time for BFS 12 is 0.370018
TEPS for BFS 12 is 4.53379e+07
Validating BFS 12
Validate time for BFS 12 is 1.298283
Running BFS 13
Time for BFS 13 is 0.369754
TEPS for BFS 13 is 4.53702e+07
Validating BFS 13
Validate time for BFS 13 is 1.299747
Running BFS 14
Time for BFS 14 is 0.370018
TEPS for BFS 14 is 4.53378e+07
Validating BFS 14
Validate time for BFS 14 is 1.298762
Running BFS 15
Time for BFS 15 is 0.369971
TEPS for BFS 15 is 4.53436e+07
Validating BFS 15
Validate time for BFS 15 is 1.299105
Running BFS 16
Time for BFS 16 is 0.370141
TEPS for BFS 16 is 4.53228e+07
Validating BFS 16
Validate time for BFS 16 is 1.299057
Running BFS 17
Time for BFS 17 is 0.370064
TEPS for BFS 17 is 4.53322e+07
Validating BFS 17
Validate time for BFS 17 is 1.301956
Running BFS 18
Time for BFS 18 is 0.369772
TEPS for BFS 18 is 4.5368e+07
Validating BFS 18
Validate time for BFS 18 is 1.300359
Running BFS 19
Time for BFS 19 is 0.370253
TEPS for BFS 19 is 4.53091e+07
Validating BFS 19
Validate time for BFS 19 is 1.300964
Running BFS 20
Time for BFS 20 is 0.370271
TEPS for BFS 20 is 4.53069e+07
Validating BFS 20
Validate time for BFS 20 is 1.297166
Running BFS 21
Time for BFS 21 is 0.369895
TEPS for BFS 21 is 4.5353e+07
Validating BFS 21
Validate time for BFS 21 is 1.298958
Running BFS 22
Time for BFS 22 is 0.369837
TEPS for BFS 22 is 4.53601e+07
Validating BFS 22
Validate time for BFS 22 is 1.299185
Running BFS 23
Time for BFS 23 is 0.370149
TEPS for BFS 23 is 4.53218e+07
Validating BFS 23
Validate time for BFS 23 is 1.302122
Running BFS 24
Time for BFS 24 is 0.370200
TEPS for BFS 24 is 4.53156e+07
Validating BFS 24
Validate time for BFS 24 is 1.299547
Running BFS 25
Time for BFS 25 is 0.370533
TEPS for BFS 25 is 4.52749e+07
Validating BFS 25
Validate time for BFS 25 is 1.300406
Running BFS 26
Time for BFS 26 is 0.369816
TEPS for BFS 26 is 4.53626e+07
Validating BFS 26
Validate time for BFS 26 is 1.299932
Running BFS 27
Time for BFS 27 is 0.370123
TEPS for BFS 27 is 4.5325e+07
Validating BFS 27
Validate time for BFS 27 is 1.299359
Running BFS 28
Time for BFS 28 is 0.369711
TEPS for BFS 28 is 4.53755e+07
Validating BFS 28
Validate time for BFS 28 is 1.302673
Running BFS 29
Time for BFS 29 is 0.369769
TEPS for BFS 29 is 4.53684e+07
Validating BFS 29
Validate time for BFS 29 is 1.299867
Running BFS 30
Time for BFS 30 is 0.371450
TEPS for BFS 30 is 4.5163e+07
Validating BFS 30
Validate time for BFS 30 is 1.300779
Running BFS 31
Time for BFS 31 is 0.369996
TEPS for BFS 31 is 4.53406e+07
Validating BFS 31
Validate time for BFS 31 is 1.298200
Running BFS 32
Time for BFS 32 is 0.370344
TEPS for BFS 32 is 4.5298e+07
Validating BFS 32
Validate time for BFS 32 is 1.301822
Running BFS 33
Time for BFS 33 is 0.370769
TEPS for BFS 33 is 4.5246e+07
Validating BFS 33
Validate time for BFS 33 is 1.300222
Running BFS 34
Time for BFS 34 is 0.370033
TEPS for BFS 34 is 4.5336e+07
Validating BFS 34
Validate time for BFS 34 is 1.298723
Running BFS 35
Time for BFS 35 is 0.369668
TEPS for BFS 35 is 4.53807e+07
Validating BFS 35
Validate time for BFS 35 is 1.298742
Running BFS 36
Time for BFS 36 is 0.369821
TEPS for BFS 36 is 4.5362e+07
Validating BFS 36
Validate time for BFS 36 is 1.299583
Running BFS 37
Time for BFS 37 is 0.369440
TEPS for BFS 37 is 4.54088e+07
Validating BFS 37
Validate time for BFS 37 is 1.299897
Running BFS 38
Time for BFS 38 is 0.369775
TEPS for BFS 38 is 4.53677e+07
Validating BFS 38
Validate time for BFS 38 is 1.297421
Running BFS 39
Time for BFS 39 is 0.369975
TEPS for BFS 39 is 4.53431e+07
Validating BFS 39
Validate time for BFS 39 is 1.298969
Running BFS 40
Time for BFS 40 is 0.370334
TEPS for BFS 40 is 4.52991e+07
Validating BFS 40
Validate time for BFS 40 is 1.298781
Running BFS 41
Time for BFS 41 is 0.370149
TEPS for BFS 41 is 4.53218e+07
Validating BFS 41
Validate time for BFS 41 is 1.300193
Running BFS 42
Time for BFS 42 is 0.370363
TEPS for BFS 42 is 4.52956e+07
Validating BFS 42
Validate time for BFS 42 is 1.298847
Running BFS 43
Time for BFS 43 is 0.369711
TEPS for BFS 43 is 4.53755e+07
Validating BFS 43
Validate time for BFS 43 is 1.302314
Running BFS 44
Time for BFS 44 is 0.371245
TEPS for BFS 44 is 4.5188e+07
Validating BFS 44
Validate time for BFS 44 is 1.299487
Running BFS 45
Time for BFS 45 is 0.370801
TEPS for BFS 45 is 4.52421e+07
Validating BFS 45
Validate time for BFS 45 is 1.300955
Running BFS 46
Time for BFS 46 is 0.369545
TEPS for BFS 46 is 4.53959e+07
Validating BFS 46
Validate time for BFS 46 is 1.300448
Running BFS 47
Time for BFS 47 is 0.370955
TEPS for BFS 47 is 4.52233e+07
Validating BFS 47
Validate time for BFS 47 is 1.299439
Running BFS 48
Time for BFS 48 is 0.370010
TEPS for BFS 48 is 4.53388e+07
Validating BFS 48
Validate time for BFS 48 is 1.299017
Running BFS 49
Time for BFS 49 is 0.370176
TEPS for BFS 49 is 4.53185e+07
Validating BFS 49
Validate time for BFS 49 is 1.298173
Running BFS 50
Time for BFS 50 is 0.369640
TEPS for BFS 50 is 4.53842e+07
Validating BFS 50
Validate time for BFS 50 is 1.303613
Running BFS 51
Time for BFS 51 is 0.371750
TEPS for BFS 51 is 4.51266e+07
Validating BFS 51
Validate time for BFS 51 is 1.299654
Running BFS 52
Time for BFS 52 is 0.370355
TEPS for BFS 52 is 4.52966e+07
Validating BFS 52
Validate time for BFS 52 is 1.302427
Running BFS 53
Time for BFS 53 is 0.369600
TEPS for BFS 53 is 4.53892e+07
Validating BFS 53
Validate time for BFS 53 is 1.299531
Running BFS 54
Time for BFS 54 is 0.370296
TEPS for BFS 54 is 4.53038e+07
Validating BFS 54
Validate time for BFS 54 is 1.298917
Running BFS 55
Time for BFS 55 is 0.369911
TEPS for BFS 55 is 4.5351e+07
Validating BFS 55
Validate time for BFS 55 is 1.299863
Running BFS 56
Time for BFS 56 is 0.371480
TEPS for BFS 56 is 4.51594e+07
Validating BFS 56
Validate time for BFS 56 is 1.298101
Running BFS 57
Time for BFS 57 is 0.370899
TEPS for BFS 57 is 4.52301e+07
Validating BFS 57
Validate time for BFS 57 is 1.302228
Running BFS 58
Time for BFS 58 is 0.370015
TEPS for BFS 58 is 4.53382e+07
Validating BFS 58
Validate time for BFS 58 is 1.299360
Running BFS 59
Time for BFS 59 is 0.372203
TEPS for BFS 59 is 4.50717e+07
Validating BFS 59
Validate time for BFS 59 is 1.300923
Running BFS 60
Time for BFS 60 is 0.370117
TEPS for BFS 60 is 4.53257e+07
Validating BFS 60
Validate time for BFS 60 is 1.298813
Running BFS 61
Time for BFS 61 is 0.370002
TEPS for BFS 61 is 4.53398e+07
Validating BFS 61
Validate time for BFS 61 is 1.299818
Running BFS 62
Time for BFS 62 is 0.370048
TEPS for BFS 62 is 4.53342e+07
Validating BFS 62
Validate time for BFS 62 is 1.300523
Running BFS 63
Time for BFS 63 is 0.370765
TEPS for BFS 63 is 4.52465e+07
Validating BFS 63
Validate time for BFS 63 is 1.298028
real	1m 59.63s
user	3m 51.34s
sys	0m 7.82s
