------------
Profiler Configuration
output path: /home/tc/pwr2018/output_miniFE_proc1//cap_11-5/nowrapper-4
monitoring frequency: 100000000 nano seconds
------------
MiniFE Mini-App, OpenMP Peer Implementation
Creating OpenMP Thread Pool...
Counted: 2 threads.
Running MiniFE Mini-App...
      creating/filling mesh...0.151172s, total time: 0.151173
generating matrix structure...7.15717s, total time: 7.30835
         assembling FE data...29.8199s, total time: 37.1282
      imposing Dirichlet BC...13.996s, total time: 51.1242
      imposing Dirichlet BC...3.83727s, total time: 54.9615
making matrix indices local...0.00672603s, total time: 54.9682
Starting CG solver ... 
-------------------------------------------------------
Primary job  terminated normally, but 1 process returned
a non-zero exit code. Per user-direction, the job has been aborted.
-------------------------------------------------------
