time(ms) function_name moment
349688255 MPI_Barrier 0
349688255 MPI_Barrier 1
349688314 MPI_Allreduce 0
349688314 MPI_Allreduce 1
349688371 MPI_Allreduce 0
349688371 MPI_Allreduce 1
349688427 MPI_Allreduce 0
349688427 MPI_Allreduce 1
349688484 MPI_Allreduce 0
349688484 MPI_Allreduce 1
349688540 MPI_Allreduce 0
349688540 MPI_Allreduce 1
349688597 MPI_Allreduce 0
349688597 MPI_Allreduce 1
349688653 MPI_Allreduce 0
349688653 MPI_Allreduce 1
349688710 MPI_Allreduce 0
349688710 MPI_Allreduce 1
349688766 MPI_Allreduce 0
349688766 MPI_Allreduce 1
349688823 MPI_Allreduce 0
349688823 MPI_Allreduce 1
349688879 MPI_Allreduce 0
349688879 MPI_Allreduce 1
349688936 MPI_Allreduce 0
349688936 MPI_Allreduce 1
349688992 MPI_Allreduce 0
349688992 MPI_Allreduce 1
349689049 MPI_Allreduce 0
349689049 MPI_Allreduce 1
349689105 MPI_Allreduce 0
349689105 MPI_Allreduce 1
349689162 MPI_Allreduce 0
349689162 MPI_Allreduce 1
349689218 MPI_Allreduce 0
349689218 MPI_Allreduce 1
349689275 MPI_Allreduce 0
349689275 MPI_Allreduce 1
349689331 MPI_Allreduce 0
349689331 MPI_Allreduce 1
349689388 MPI_Allreduce 0
349689388 MPI_Allreduce 1
349689444 MPI_Allreduce 0
349689444 MPI_Allreduce 1
349689501 MPI_Allreduce 0
349689501 MPI_Allreduce 1
349689557 MPI_Allreduce 0
349689557 MPI_Allreduce 1
349689614 MPI_Allreduce 0
349689614 MPI_Allreduce 1
349689670 MPI_Allreduce 0
349689670 MPI_Allreduce 1
349689726 MPI_Allreduce 0
349689726 MPI_Allreduce 1
349689783 MPI_Allreduce 0
349689783 MPI_Allreduce 1
349689839 MPI_Allreduce 0
349689839 MPI_Allreduce 1
349689896 MPI_Allreduce 0
349689896 MPI_Allreduce 1
349689952 MPI_Allreduce 0
349689952 MPI_Allreduce 1
349690009 MPI_Allreduce 0
349690009 MPI_Allreduce 1
349690065 MPI_Allreduce 0
349690065 MPI_Allreduce 1
349690122 MPI_Allreduce 0
349690122 MPI_Allreduce 1
349690178 MPI_Allreduce 0
349690178 MPI_Allreduce 1
349690235 MPI_Allreduce 0
349690235 MPI_Allreduce 1
349690291 MPI_Allreduce 0
349690291 MPI_Allreduce 1
349690348 MPI_Allreduce 0
349690348 MPI_Allreduce 1
349690404 MPI_Allreduce 0
349690404 MPI_Allreduce 1
349690461 MPI_Allreduce 0
349690461 MPI_Allreduce 1
349690517 MPI_Allreduce 0
349690517 MPI_Allreduce 1
349690574 MPI_Allreduce 0
349690574 MPI_Allreduce 1
349690630 MPI_Allreduce 0
349690630 MPI_Allreduce 1
349690687 MPI_Allreduce 0
349690687 MPI_Allreduce 1
349690743 MPI_Allreduce 0
349690743 MPI_Allreduce 1
349690800 MPI_Allreduce 0
349690800 MPI_Allreduce 1
349690856 MPI_Allreduce 0
349690856 MPI_Allreduce 1
349690913 MPI_Allreduce 0
349690913 MPI_Allreduce 1
349690969 MPI_Allreduce 0
349690969 MPI_Allreduce 1
349691026 MPI_Allreduce 0
349691026 MPI_Allreduce 1
349691082 MPI_Allreduce 0
349691082 MPI_Allreduce 1
349691138 MPI_Allreduce 0
349691138 MPI_Allreduce 1
349691195 MPI_Allreduce 0
349691195 MPI_Allreduce 1
349691251 MPI_Allreduce 0
349691251 MPI_Allreduce 1
349691308 MPI_Allreduce 0
349691308 MPI_Allreduce 1
349691364 MPI_Allreduce 0
349691364 MPI_Allreduce 1
349691421 MPI_Allreduce 0
349691421 MPI_Allreduce 1
349691477 MPI_Allreduce 0
349691477 MPI_Allreduce 1
349691534 MPI_Allreduce 0
349691534 MPI_Allreduce 1
349691590 MPI_Allreduce 0
349691590 MPI_Allreduce 1
349691647 MPI_Allreduce 0
349691647 MPI_Allreduce 1
349691703 MPI_Allreduce 0
349691703 MPI_Allreduce 1
349691760 MPI_Allreduce 0
349691760 MPI_Allreduce 1
349691816 MPI_Allreduce 0
349691816 MPI_Allreduce 1
349691873 MPI_Allreduce 0
349691873 MPI_Allreduce 1
349691929 MPI_Allreduce 0
349691929 MPI_Allreduce 1
349691986 MPI_Allreduce 0
349691986 MPI_Allreduce 1
349692042 MPI_Allreduce 0
349692042 MPI_Allreduce 1
349692099 MPI_Allreduce 0
349692099 MPI_Allreduce 1
349692155 MPI_Allreduce 0
349692155 MPI_Allreduce 1
349692212 MPI_Allreduce 0
349692212 MPI_Allreduce 1
349692268 MPI_Allreduce 0
349692268 MPI_Allreduce 1
349692325 MPI_Allreduce 0
349692325 MPI_Allreduce 1
349692381 MPI_Allreduce 0
349692381 MPI_Allreduce 1
349692438 MPI_Allreduce 0
349692438 MPI_Allreduce 1
349692494 MPI_Allreduce 0
349692494 MPI_Allreduce 1
349692551 MPI_Allreduce 0
349692551 MPI_Allreduce 1
349692607 MPI_Allreduce 0
349692607 MPI_Allreduce 1
349692664 MPI_Allreduce 0
349692664 MPI_Allreduce 1
349692720 MPI_Allreduce 0
349692720 MPI_Allreduce 1
349692777 MPI_Allreduce 0
349692777 MPI_Allreduce 1
349692833 MPI_Allreduce 0
349692833 MPI_Allreduce 1
349692890 MPI_Allreduce 0
349692890 MPI_Allreduce 1
349692946 MPI_Allreduce 0
349692946 MPI_Allreduce 1
349693003 MPI_Allreduce 0
349693003 MPI_Allreduce 1
349693059 MPI_Allreduce 0
349693059 MPI_Allreduce 1
349693116 MPI_Allreduce 0
349693116 MPI_Allreduce 1
349693172 MPI_Allreduce 0
349693172 MPI_Allreduce 1
349693229 MPI_Allreduce 0
349693229 MPI_Allreduce 1
349693285 MPI_Allreduce 0
349693285 MPI_Allreduce 1
349693342 MPI_Allreduce 0
349693342 MPI_Allreduce 1
349693398 MPI_Allreduce 0
349693398 MPI_Allreduce 1
349693455 MPI_Allreduce 0
349693455 MPI_Allreduce 1
349693512 MPI_Allreduce 0
349693512 MPI_Allreduce 1
349693568 MPI_Allreduce 0
349693568 MPI_Allreduce 1
349693625 MPI_Allreduce 0
349693625 MPI_Allreduce 1
349693681 MPI_Allreduce 0
349693681 MPI_Allreduce 1
349693738 MPI_Allreduce 0
349693738 MPI_Allreduce 1
349693794 MPI_Allreduce 0
349693794 MPI_Allreduce 1
349693851 MPI_Allreduce 0
349693851 MPI_Allreduce 1
349693907 MPI_Allreduce 0
349693907 MPI_Allreduce 1
349693964 MPI_Allreduce 0
349693964 MPI_Allreduce 1
349694020 MPI_Allreduce 0
349694020 MPI_Allreduce 1
349694077 MPI_Allreduce 0
349694077 MPI_Allreduce 1
349694133 MPI_Allreduce 0
349694133 MPI_Allreduce 1
349694190 MPI_Allreduce 0
349694190 MPI_Allreduce 1
349694246 MPI_Allreduce 0
349694246 MPI_Allreduce 1
349694303 MPI_Allreduce 0
349694303 MPI_Allreduce 1
349694359 MPI_Allreduce 0
349694359 MPI_Allreduce 1
349694416 MPI_Allreduce 0
349694416 MPI_Allreduce 1
349694472 MPI_Allreduce 0
349694472 MPI_Allreduce 1
349694529 MPI_Allreduce 0
349694529 MPI_Allreduce 1
349694585 MPI_Allreduce 0
349694585 MPI_Allreduce 1
349694642 MPI_Allreduce 0
349694642 MPI_Allreduce 1
349694699 MPI_Allreduce 0
349694699 MPI_Allreduce 1
349694755 MPI_Allreduce 0
349694755 MPI_Allreduce 1
349694812 MPI_Allreduce 0
349694812 MPI_Allreduce 1
349694868 MPI_Allreduce 0
349694868 MPI_Allreduce 1
349694925 MPI_Allreduce 0
349694925 MPI_Allreduce 1
349694981 MPI_Allreduce 0
349694981 MPI_Allreduce 1
349695038 MPI_Allreduce 0
349695038 MPI_Allreduce 1
349695094 MPI_Allreduce 0
349695094 MPI_Allreduce 1
349695151 MPI_Allreduce 0
349695151 MPI_Allreduce 1
349695207 MPI_Allreduce 0
349695207 MPI_Allreduce 1
349695264 MPI_Allreduce 0
349695264 MPI_Allreduce 1
349695321 MPI_Allreduce 0
349695321 MPI_Allreduce 1
349695377 MPI_Allreduce 0
349695377 MPI_Allreduce 1
349695434 MPI_Allreduce 0
349695434 MPI_Allreduce 1
349695490 MPI_Allreduce 0
349695490 MPI_Allreduce 1
349695547 MPI_Allreduce 0
349695547 MPI_Allreduce 1
349695603 MPI_Allreduce 0
349695603 MPI_Allreduce 1
349695660 MPI_Allreduce 0
349695660 MPI_Allreduce 1
349695716 MPI_Allreduce 0
349695716 MPI_Allreduce 1
349695773 MPI_Allreduce 0
349695773 MPI_Allreduce 1
349695829 MPI_Allreduce 0
349695829 MPI_Allreduce 1
349695886 MPI_Allreduce 0
349695886 MPI_Allreduce 1
349695942 MPI_Allreduce 0
349695942 MPI_Allreduce 1
349695999 MPI_Allreduce 0
349695999 MPI_Allreduce 1
349696055 MPI_Allreduce 0
349696055 MPI_Allreduce 1
349696112 MPI_Allreduce 0
349696112 MPI_Allreduce 1
349696169 MPI_Allreduce 0
349696169 MPI_Allreduce 1
349696225 MPI_Allreduce 0
349696225 MPI_Allreduce 1
349696282 MPI_Allreduce 0
349696282 MPI_Allreduce 1
349696338 MPI_Allreduce 0
349696338 MPI_Allreduce 1
349696395 MPI_Allreduce 0
349696395 MPI_Allreduce 1
349696451 MPI_Allreduce 0
349696451 MPI_Allreduce 1
349696508 MPI_Allreduce 0
349696508 MPI_Allreduce 1
349696565 MPI_Allreduce 0
349696565 MPI_Allreduce 1
349696621 MPI_Allreduce 0
349696621 MPI_Allreduce 1
349696678 MPI_Allreduce 0
349696678 MPI_Allreduce 1
349696734 MPI_Allreduce 0
349696734 MPI_Allreduce 1
349696791 MPI_Allreduce 0
349696791 MPI_Allreduce 1
349696847 MPI_Allreduce 0
349696847 MPI_Allreduce 1
349696904 MPI_Allreduce 0
349696904 MPI_Allreduce 1
349696961 MPI_Allreduce 0
349696961 MPI_Allreduce 1
349697017 MPI_Allreduce 0
349697017 MPI_Allreduce 1
349697074 MPI_Allreduce 0
349697074 MPI_Allreduce 1
349697130 MPI_Allreduce 0
349697130 MPI_Allreduce 1
349697187 MPI_Allreduce 0
349697187 MPI_Allreduce 1
349697243 MPI_Allreduce 0
349697243 MPI_Allreduce 1
349697300 MPI_Allreduce 0
349697300 MPI_Allreduce 1
349697356 MPI_Allreduce 0
349697356 MPI_Allreduce 1
349697413 MPI_Allreduce 0
349697413 MPI_Allreduce 1
349697469 MPI_Allreduce 0
349697469 MPI_Allreduce 1
349697526 MPI_Allreduce 0
349697526 MPI_Allreduce 1
349697582 MPI_Allreduce 0
349697582 MPI_Allreduce 1
349697639 MPI_Allreduce 0
349697639 MPI_Allreduce 1
349697696 MPI_Allreduce 0
349697696 MPI_Allreduce 1
349697752 MPI_Allreduce 0
349697752 MPI_Allreduce 1
349697809 MPI_Allreduce 0
349697809 MPI_Allreduce 1
349697865 MPI_Allreduce 0
349697865 MPI_Allreduce 1
349697922 MPI_Allreduce 0
349697922 MPI_Allreduce 1
349697978 MPI_Allreduce 0
349697978 MPI_Allreduce 1
349698035 MPI_Allreduce 0
349698035 MPI_Allreduce 1
349698091 MPI_Allreduce 0
349698091 MPI_Allreduce 1
349698148 MPI_Allreduce 0
349698148 MPI_Allreduce 1
349698205 MPI_Allreduce 0
349698205 MPI_Allreduce 1
349698261 MPI_Allreduce 0
349698261 MPI_Allreduce 1
349698318 MPI_Allreduce 0
349698318 MPI_Allreduce 1
349698374 MPI_Allreduce 0
349698374 MPI_Allreduce 1
349698431 MPI_Allreduce 0
349698431 MPI_Allreduce 1
349698487 MPI_Allreduce 0
349698487 MPI_Allreduce 1
349698544 MPI_Allreduce 0
349698544 MPI_Allreduce 1
349698600 MPI_Allreduce 0
349698600 MPI_Allreduce 1
349698657 MPI_Allreduce 0
349698657 MPI_Allreduce 1
349698714 MPI_Allreduce 0
349698714 MPI_Allreduce 1
349698770 MPI_Allreduce 0
349698770 MPI_Allreduce 1
349698827 MPI_Allreduce 0
349698827 MPI_Allreduce 1
349698883 MPI_Allreduce 0
349698883 MPI_Allreduce 1
349698940 MPI_Allreduce 0
349698940 MPI_Allreduce 1
349698996 MPI_Allreduce 0
349698996 MPI_Allreduce 1
349699053 MPI_Allreduce 0
349699053 MPI_Allreduce 1
349699109 MPI_Allreduce 0
349699109 MPI_Allreduce 1
349699166 MPI_Allreduce 0
349699166 MPI_Allreduce 1
349699223 MPI_Allreduce 0
349699223 MPI_Allreduce 1
349699279 MPI_Allreduce 0
349699279 MPI_Allreduce 1
349699336 MPI_Allreduce 0
349699336 MPI_Allreduce 1
349699392 MPI_Allreduce 0
349699392 MPI_Allreduce 1
349699449 MPI_Allreduce 0
349699449 MPI_Allreduce 1
349699505 MPI_Allreduce 0
349699505 MPI_Allreduce 1
349699562 MPI_Allreduce 0
349699562 MPI_Allreduce 1
349699619 MPI_Allreduce 0
349699619 MPI_Allreduce 1
349699675 MPI_Allreduce 0
349699675 MPI_Allreduce 1
349699732 MPI_Allreduce 0
349699732 MPI_Allreduce 1
349699788 MPI_Allreduce 0
349699788 MPI_Allreduce 1
349699845 MPI_Allreduce 0
349699845 MPI_Allreduce 1
349699901 MPI_Allreduce 0
349699901 MPI_Allreduce 1
349699958 MPI_Allreduce 0
349699958 MPI_Allreduce 1
349700014 MPI_Allreduce 0
349700014 MPI_Allreduce 1
349700071 MPI_Allreduce 0
349700071 MPI_Allreduce 1
349700128 MPI_Allreduce 0
349700128 MPI_Allreduce 1
349700184 MPI_Allreduce 0
349700184 MPI_Allreduce 1
349700241 MPI_Allreduce 0
349700241 MPI_Allreduce 1
349700297 MPI_Allreduce 0
349700297 MPI_Allreduce 1
349700354 MPI_Allreduce 0
349700354 MPI_Allreduce 1
349700411 MPI_Allreduce 0
349700411 MPI_Allreduce 1
349700467 MPI_Allreduce 0
349700467 MPI_Allreduce 1
349700524 MPI_Allreduce 0
349700524 MPI_Allreduce 1
349700580 MPI_Allreduce 0
349700580 MPI_Allreduce 1
349700637 MPI_Allreduce 0
349700637 MPI_Allreduce 1
349700693 MPI_Allreduce 0
349700693 MPI_Allreduce 1
349700750 MPI_Allreduce 0
349700750 MPI_Allreduce 1
349700806 MPI_Allreduce 0
349700806 MPI_Allreduce 1
349700863 MPI_Allreduce 0
349700863 MPI_Allreduce 1
349700919 MPI_Allreduce 0
349700919 MPI_Allreduce 1
349700976 MPI_Allreduce 0
349700976 MPI_Allreduce 1
349701032 MPI_Allreduce 0
349701033 MPI_Allreduce 1
349701089 MPI_Allreduce 0
349701089 MPI_Allreduce 1
349701147 MPI_Allreduce 0
349701147 MPI_Allreduce 1
349701203 MPI_Allreduce 0
349701203 MPI_Allreduce 1
349701259 MPI_Allreduce 0
349701259 MPI_Allreduce 1
349701315 MPI_Allreduce 0
349701315 MPI_Allreduce 1
349701371 MPI_Allreduce 0
349701371 MPI_Allreduce 1
349701428 MPI_Allreduce 0
349701428 MPI_Allreduce 1
349701484 MPI_Allreduce 0
349701484 MPI_Allreduce 1
349701540 MPI_Allreduce 0
349701540 MPI_Allreduce 1
349701596 MPI_Allreduce 0
349701596 MPI_Allreduce 1
349701652 MPI_Allreduce 0
349701652 MPI_Allreduce 1
349701708 MPI_Allreduce 0
349701708 MPI_Allreduce 1
349701764 MPI_Allreduce 0
349701764 MPI_Allreduce 1
349701821 MPI_Allreduce 0
349701821 MPI_Allreduce 1
349701877 MPI_Allreduce 0
349701877 MPI_Allreduce 1
349701933 MPI_Allreduce 0
349701933 MPI_Allreduce 1
349701989 MPI_Allreduce 0
349701989 MPI_Allreduce 1
349702045 MPI_Allreduce 0
349702045 MPI_Allreduce 1
349702102 MPI_Allreduce 0
349702102 MPI_Allreduce 1
349702158 MPI_Allreduce 0
349702158 MPI_Allreduce 1
349702214 MPI_Allreduce 0
349702214 MPI_Allreduce 1
349702270 MPI_Allreduce 0
349702270 MPI_Allreduce 1
349702326 MPI_Allreduce 0
349702326 MPI_Allreduce 1
349702382 MPI_Allreduce 0
349702382 MPI_Allreduce 1
349702439 MPI_Allreduce 0
349702439 MPI_Allreduce 1
349702495 MPI_Allreduce 0
349702495 MPI_Allreduce 1
349702551 MPI_Allreduce 0
349702551 MPI_Allreduce 1
349702607 MPI_Allreduce 0
349702607 MPI_Allreduce 1
349702663 MPI_Allreduce 0
349702663 MPI_Allreduce 1
349702719 MPI_Allreduce 0
349702719 MPI_Allreduce 1
349702775 MPI_Allreduce 0
349702775 MPI_Allreduce 1
349702832 MPI_Allreduce 0
349702832 MPI_Allreduce 1
349702888 MPI_Allreduce 0
349702888 MPI_Allreduce 1
349702944 MPI_Allreduce 0
349702944 MPI_Allreduce 1
349703000 MPI_Allreduce 0
349703000 MPI_Allreduce 1
349703056 MPI_Allreduce 0
349703056 MPI_Allreduce 1
349703113 MPI_Allreduce 0
349703113 MPI_Allreduce 1
349703169 MPI_Allreduce 0
349703169 MPI_Allreduce 1
349703225 MPI_Allreduce 0
349703225 MPI_Allreduce 1
349703281 MPI_Allreduce 0
349703281 MPI_Allreduce 1
349703337 MPI_Allreduce 0
349703337 MPI_Allreduce 1
349703394 MPI_Allreduce 0
349703394 MPI_Allreduce 1
349703450 MPI_Allreduce 0
349703450 MPI_Allreduce 1
349703506 MPI_Allreduce 0
349703506 MPI_Allreduce 1
349703562 MPI_Allreduce 0
349703562 MPI_Allreduce 1
349703618 MPI_Allreduce 0
349703618 MPI_Allreduce 1
349703674 MPI_Allreduce 0
349703675 MPI_Allreduce 1
349703731 MPI_Allreduce 0
349703731 MPI_Allreduce 1
349703787 MPI_Allreduce 0
349703787 MPI_Allreduce 1
349703843 MPI_Allreduce 0
349703843 MPI_Allreduce 1
349703899 MPI_Allreduce 0
349703899 MPI_Allreduce 1
349703955 MPI_Allreduce 0
349703955 MPI_Allreduce 1
349704012 MPI_Allreduce 0
349704012 MPI_Allreduce 1
349704068 MPI_Allreduce 0
349704068 MPI_Allreduce 1
349704124 MPI_Allreduce 0
349704124 MPI_Allreduce 1
349704180 MPI_Allreduce 0
349704180 MPI_Allreduce 1
349704236 MPI_Allreduce 0
349704236 MPI_Allreduce 1
349704293 MPI_Allreduce 0
349704293 MPI_Allreduce 1
349704349 MPI_Allreduce 0
349704349 MPI_Allreduce 1
349704405 MPI_Allreduce 0
349704405 MPI_Allreduce 1
349704461 MPI_Allreduce 0
349704461 MPI_Allreduce 1
349704518 MPI_Allreduce 0
349704518 MPI_Allreduce 1
349704574 MPI_Allreduce 0
349704574 MPI_Allreduce 1
349704630 MPI_Allreduce 0
349704630 MPI_Allreduce 1
349704686 MPI_Allreduce 0
349704686 MPI_Allreduce 1
349704743 MPI_Allreduce 0
349704743 MPI_Allreduce 1
349704799 MPI_Allreduce 0
349704799 MPI_Allreduce 1
349704855 MPI_Allreduce 0
349704855 MPI_Allreduce 1
349704911 MPI_Allreduce 0
349704911 MPI_Allreduce 1
349704967 MPI_Allreduce 0
349704967 MPI_Allreduce 1
349705024 MPI_Allreduce 0
349705024 MPI_Allreduce 1
349705080 MPI_Allreduce 0
349705080 MPI_Allreduce 1
349705136 MPI_Allreduce 0
349705136 MPI_Allreduce 1
349705192 MPI_Allreduce 0
349705192 MPI_Allreduce 1
349705248 MPI_Allreduce 0
349705248 MPI_Allreduce 1
349705304 MPI_Allreduce 0
349705304 MPI_Allreduce 1
349705361 MPI_Allreduce 0
349705361 MPI_Allreduce 1
349705417 MPI_Allreduce 0
349705417 MPI_Allreduce 1
349705473 MPI_Allreduce 0
349705473 MPI_Allreduce 1
349705529 MPI_Allreduce 0
349705529 MPI_Allreduce 1
349705585 MPI_Allreduce 0
349705585 MPI_Allreduce 1
349705642 MPI_Allreduce 0
349705642 MPI_Allreduce 1
349705698 MPI_Allreduce 0
349705698 MPI_Allreduce 1
349705754 MPI_Allreduce 0
349705754 MPI_Allreduce 1
349705810 MPI_Allreduce 0
349705810 MPI_Allreduce 1
349705867 MPI_Allreduce 0
349705867 MPI_Allreduce 1
349705923 MPI_Allreduce 0
349705923 MPI_Allreduce 1
349705978 MPI_Allreduce 0
349705978 MPI_Allreduce 1
349706034 MPI_Allreduce 0
349706034 MPI_Allreduce 1
349706090 MPI_Allreduce 0
349706090 MPI_Allreduce 1
349706147 MPI_Allreduce 0
349706147 MPI_Allreduce 1
349706203 MPI_Allreduce 0
349706203 MPI_Allreduce 1
349706259 MPI_Allreduce 0
349706259 MPI_Allreduce 1
349706315 MPI_Allreduce 0
349706315 MPI_Allreduce 1
349706372 MPI_Allreduce 0
349706372 MPI_Allreduce 1
349706428 MPI_Allreduce 0
349706428 MPI_Allreduce 1
349706484 MPI_Allreduce 0
349706484 MPI_Allreduce 1
349706540 MPI_Allreduce 0
349706540 MPI_Allreduce 1
349706596 MPI_Allreduce 0
349706596 MPI_Allreduce 1
349706653 MPI_Allreduce 0
349706653 MPI_Allreduce 1
349706709 MPI_Allreduce 0
349706709 MPI_Allreduce 1
349706765 MPI_Allreduce 0
349706765 MPI_Allreduce 1
349706821 MPI_Allreduce 0
349706821 MPI_Allreduce 1
349706877 MPI_Allreduce 0
349706877 MPI_Allreduce 1
349706934 MPI_Allreduce 0
349706934 MPI_Allreduce 1
349706990 MPI_Allreduce 0
349706990 MPI_Allreduce 1
349707046 MPI_Allreduce 0
349707046 MPI_Allreduce 1
349707102 MPI_Allreduce 0
349707102 MPI_Allreduce 1
349707158 MPI_Allreduce 0
349707158 MPI_Allreduce 1
349707215 MPI_Allreduce 0
349707215 MPI_Allreduce 1
349707271 MPI_Allreduce 0
349707271 MPI_Allreduce 1
349707327 MPI_Allreduce 0
349707327 MPI_Allreduce 1
349707383 MPI_Allreduce 0
349707383 MPI_Allreduce 1
349707440 MPI_Allreduce 0
349707440 MPI_Allreduce 1
349707496 MPI_Allreduce 0
349707496 MPI_Allreduce 1
349707552 MPI_Allreduce 0
349707552 MPI_Allreduce 1
349707608 MPI_Allreduce 0
349707608 MPI_Allreduce 1
349707664 MPI_Allreduce 0
349707664 MPI_Allreduce 1
349707721 MPI_Allreduce 0
349707721 MPI_Allreduce 1
349707777 MPI_Allreduce 0
349707777 MPI_Allreduce 1
349707833 MPI_Allreduce 0
349707833 MPI_Allreduce 1
349707889 MPI_Allreduce 0
349707889 MPI_Allreduce 1
349707945 MPI_Allreduce 0
349707945 MPI_Allreduce 1
349708002 MPI_Allreduce 0
349708002 MPI_Allreduce 1
349708058 MPI_Allreduce 0
349708058 MPI_Allreduce 1
349708114 MPI_Allreduce 0
349708114 MPI_Allreduce 1
349708170 MPI_Allreduce 0
349708170 MPI_Allreduce 1
349708227 MPI_Allreduce 0
349708227 MPI_Allreduce 1
349708283 MPI_Allreduce 0
349708283 MPI_Allreduce 1
349708339 MPI_Allreduce 0
349708339 MPI_Allreduce 1
349708395 MPI_Allreduce 0
349708395 MPI_Allreduce 1
349708452 MPI_Allreduce 0
349708452 MPI_Allreduce 1
349708508 MPI_Allreduce 0
349708508 MPI_Allreduce 1
349708564 MPI_Allreduce 0
349708564 MPI_Allreduce 1
349708620 MPI_Allreduce 0
349708620 MPI_Allreduce 1
349708676 MPI_Allreduce 0
349708676 MPI_Allreduce 1
349708733 MPI_Allreduce 0
349708733 MPI_Allreduce 1
349708789 MPI_Allreduce 0
349708789 MPI_Allreduce 1
349708845 MPI_Allreduce 0
349708845 MPI_Allreduce 1
349708901 MPI_Allreduce 0
349708901 MPI_Allreduce 1
349708958 MPI_Allreduce 0
349708958 MPI_Allreduce 1
349709014 MPI_Allreduce 0
349709014 MPI_Allreduce 1
349709070 MPI_Allreduce 0
349709070 MPI_Allreduce 1
349709126 MPI_Allreduce 0
349709126 MPI_Allreduce 1
349709182 MPI_Allreduce 0
349709182 MPI_Allreduce 1
349709239 MPI_Allreduce 0
349709239 MPI_Allreduce 1
349709295 MPI_Allreduce 0
349709295 MPI_Allreduce 1
349709351 MPI_Allreduce 0
349709351 MPI_Allreduce 1
349709407 MPI_Allreduce 0
349709407 MPI_Allreduce 1
349709464 MPI_Allreduce 0
349709464 MPI_Allreduce 1
349709520 MPI_Allreduce 0
349709520 MPI_Allreduce 1
349709576 MPI_Allreduce 0
349709576 MPI_Allreduce 1
349709632 MPI_Allreduce 0
349709632 MPI_Allreduce 1
349709688 MPI_Allreduce 0
349709688 MPI_Allreduce 1
349709745 MPI_Allreduce 0
349709745 MPI_Allreduce 1
349709801 MPI_Allreduce 0
349709801 MPI_Allreduce 1
349709857 MPI_Allreduce 0
349709857 MPI_Allreduce 1
349709913 MPI_Allreduce 0
349709913 MPI_Allreduce 1
349709970 MPI_Allreduce 0
349709970 MPI_Allreduce 1
349710026 MPI_Allreduce 0
349710026 MPI_Allreduce 1
349710082 MPI_Allreduce 0
349710082 MPI_Allreduce 1
349710138 MPI_Allreduce 0
349710138 MPI_Allreduce 1
349710195 MPI_Allreduce 0
349710195 MPI_Allreduce 1
349710251 MPI_Allreduce 0
349710251 MPI_Allreduce 1
349710307 MPI_Allreduce 0
349710307 MPI_Allreduce 1
349710363 MPI_Allreduce 0
349710363 MPI_Allreduce 1
349710420 MPI_Allreduce 0
349710420 MPI_Allreduce 1
349710476 MPI_Allreduce 0
349710476 MPI_Allreduce 1
349710532 MPI_Allreduce 0
349710532 MPI_Allreduce 1
349710588 MPI_Allreduce 0
349710588 MPI_Allreduce 1
349710645 MPI_Allreduce 0
349710645 MPI_Allreduce 1
349710701 MPI_Allreduce 0
349710701 MPI_Allreduce 1
349710757 MPI_Allreduce 0
349710757 MPI_Allreduce 1
349710813 MPI_Allreduce 0
349710813 MPI_Allreduce 1
349710869 MPI_Allreduce 0
349710869 MPI_Allreduce 1
349710926 MPI_Allreduce 0
349710926 MPI_Allreduce 1
349710982 MPI_Allreduce 0
349710982 MPI_Allreduce 1
349711038 MPI_Allreduce 0
349711038 MPI_Allreduce 1
349711094 MPI_Allreduce 0
349711094 MPI_Allreduce 1
349711151 MPI_Allreduce 0
349711151 MPI_Allreduce 1
349711207 MPI_Allreduce 0
349711207 MPI_Allreduce 1
349711264 MPI_Allreduce 0
349711264 MPI_Allreduce 1
349711320 MPI_Allreduce 0
349711320 MPI_Allreduce 1
349711376 MPI_Allreduce 0
349711376 MPI_Allreduce 1
349711432 MPI_Allreduce 0
349711432 MPI_Allreduce 1
349711488 MPI_Allreduce 0
349711488 MPI_Allreduce 1
349711545 MPI_Allreduce 0
349711545 MPI_Allreduce 1
349711601 MPI_Allreduce 0
349711601 MPI_Allreduce 1
349711657 MPI_Allreduce 0
349711657 MPI_Allreduce 1
349711713 MPI_Allreduce 0
349711713 MPI_Allreduce 1
349711769 MPI_Allreduce 0
349711769 MPI_Allreduce 1
349711825 MPI_Allreduce 0
349711825 MPI_Allreduce 1
349711882 MPI_Allreduce 0
349711882 MPI_Allreduce 1
349711938 MPI_Allreduce 0
349711938 MPI_Allreduce 1
349711994 MPI_Allreduce 0
349711994 MPI_Allreduce 1
349712050 MPI_Allreduce 0
349712050 MPI_Allreduce 1
349712106 MPI_Allreduce 0
349712106 MPI_Allreduce 1
349712163 MPI_Allreduce 0
349712163 MPI_Allreduce 1
349712219 MPI_Allreduce 0
349712219 MPI_Allreduce 1
349712275 MPI_Allreduce 0
349712275 MPI_Allreduce 1
349712331 MPI_Allreduce 0
349712331 MPI_Allreduce 1
349712387 MPI_Allreduce 0
349712387 MPI_Allreduce 1
349712444 MPI_Allreduce 0
349712444 MPI_Allreduce 1
349712500 MPI_Allreduce 0
349712500 MPI_Allreduce 1
349712556 MPI_Allreduce 0
349712556 MPI_Allreduce 1
349712612 MPI_Allreduce 0
349712612 MPI_Allreduce 1
349712668 MPI_Allreduce 0
349712668 MPI_Allreduce 1
349712725 MPI_Allreduce 0
349712725 MPI_Allreduce 1
349712781 MPI_Allreduce 0
349712781 MPI_Allreduce 1
349712837 MPI_Allreduce 0
349712837 MPI_Allreduce 1
349712893 MPI_Allreduce 0
349712893 MPI_Allreduce 1
349712949 MPI_Allreduce 0
349712949 MPI_Allreduce 1
349713006 MPI_Allreduce 0
349713006 MPI_Allreduce 1
349713062 MPI_Allreduce 0
349713062 MPI_Allreduce 1
349713118 MPI_Allreduce 0
349713118 MPI_Allreduce 1
349713174 MPI_Allreduce 0
349713174 MPI_Allreduce 1
349713230 MPI_Allreduce 0
349713230 MPI_Allreduce 1
349713287 MPI_Allreduce 0
349713287 MPI_Allreduce 1
349713343 MPI_Allreduce 0
349713343 MPI_Allreduce 1
349713399 MPI_Allreduce 0
349713399 MPI_Allreduce 1
349713455 MPI_Allreduce 0
349713455 MPI_Allreduce 1
349713511 MPI_Allreduce 0
349713511 MPI_Allreduce 1
349713568 MPI_Allreduce 0
349713568 MPI_Allreduce 1
349713624 MPI_Allreduce 0
349713624 MPI_Allreduce 1
349713680 MPI_Allreduce 0
349713680 MPI_Allreduce 1
349713736 MPI_Allreduce 0
349713736 MPI_Allreduce 1
349713792 MPI_Allreduce 0
349713792 MPI_Allreduce 1
349713849 MPI_Allreduce 0
349713849 MPI_Allreduce 1
349713905 MPI_Allreduce 0
349713905 MPI_Allreduce 1
349713961 MPI_Allreduce 0
349713961 MPI_Allreduce 1
349714017 MPI_Allreduce 0
349714017 MPI_Allreduce 1
349714073 MPI_Allreduce 0
349714073 MPI_Allreduce 1
349714130 MPI_Allreduce 0
349714130 MPI_Allreduce 1
349714186 MPI_Allreduce 0
349714186 MPI_Allreduce 1
349714242 MPI_Allreduce 0
349714242 MPI_Allreduce 1
349714298 MPI_Allreduce 0
349714298 MPI_Allreduce 1
349714354 MPI_Allreduce 0
349714354 MPI_Allreduce 1
349714410 MPI_Allreduce 0
349714410 MPI_Allreduce 1
349714467 MPI_Allreduce 0
349714467 MPI_Allreduce 1
349714523 MPI_Allreduce 0
349714523 MPI_Allreduce 1
349714579 MPI_Allreduce 0
349714579 MPI_Allreduce 1
349714635 MPI_Allreduce 0
349714635 MPI_Allreduce 1
349714691 MPI_Allreduce 0
349714691 MPI_Allreduce 1
349714748 MPI_Allreduce 0
349714748 MPI_Allreduce 1
349714804 MPI_Allreduce 0
349714804 MPI_Allreduce 1
349714860 MPI_Allreduce 0
349714860 MPI_Allreduce 1
349714916 MPI_Allreduce 0
349714916 MPI_Allreduce 1
349714972 MPI_Allreduce 0
349714972 MPI_Allreduce 1
349715029 MPI_Allreduce 0
349715029 MPI_Allreduce 1
349715085 MPI_Allreduce 0
349715085 MPI_Allreduce 1
349715141 MPI_Allreduce 0
349715141 MPI_Allreduce 1
349715197 MPI_Allreduce 0
349715197 MPI_Allreduce 1
349715253 MPI_Allreduce 0
349715253 MPI_Allreduce 1
349715310 MPI_Allreduce 0
349715310 MPI_Allreduce 1
349715366 MPI_Allreduce 0
349715366 MPI_Allreduce 1
349715422 MPI_Allreduce 0
349715422 MPI_Allreduce 1
349715478 MPI_Allreduce 0
349715478 MPI_Allreduce 1
349715535 MPI_Allreduce 0
349715535 MPI_Allreduce 1
349715591 MPI_Allreduce 0
349715591 MPI_Allreduce 1
349715647 MPI_Allreduce 0
349715647 MPI_Allreduce 1
349715703 MPI_Allreduce 0
349715703 MPI_Allreduce 1
349715760 MPI_Allreduce 0
349715760 MPI_Allreduce 1
349715816 MPI_Allreduce 0
349715816 MPI_Allreduce 1
349715872 MPI_Allreduce 0
349715872 MPI_Allreduce 1
349715928 MPI_Allreduce 0
349715928 MPI_Allreduce 1
349715985 MPI_Allreduce 0
349715985 MPI_Allreduce 1
349716041 MPI_Allreduce 0
349716041 MPI_Allreduce 1
349716097 MPI_Allreduce 0
349716097 MPI_Allreduce 1
349716153 MPI_Allreduce 0
349716153 MPI_Allreduce 1
349716209 MPI_Allreduce 0
349716209 MPI_Allreduce 1
349716266 MPI_Allreduce 0
349716266 MPI_Allreduce 1
349716322 MPI_Allreduce 0
349716322 MPI_Allreduce 1
349716378 MPI_Allreduce 0
349716378 MPI_Allreduce 1
349716434 MPI_Allreduce 0
349716434 MPI_Allreduce 1
349716490 MPI_Allreduce 0
349716490 MPI_Allreduce 1
349716547 MPI_Allreduce 0
349716547 MPI_Allreduce 1
349716603 MPI_Allreduce 0
349716603 MPI_Allreduce 1
349716659 MPI_Allreduce 0
349716659 MPI_Allreduce 1
349716715 MPI_Allreduce 0
349716715 MPI_Allreduce 1
349716772 MPI_Allreduce 0
349716772 MPI_Allreduce 1
349716828 MPI_Allreduce 0
349716828 MPI_Allreduce 1
349716884 MPI_Allreduce 0
349716884 MPI_Allreduce 1
349716940 MPI_Allreduce 0
349716940 MPI_Allreduce 1
349716996 MPI_Allreduce 0
349716996 MPI_Allreduce 1
349717052 MPI_Allreduce 0
349717052 MPI_Allreduce 1
349717109 MPI_Allreduce 0
349717109 MPI_Allreduce 1
349717165 MPI_Allreduce 0
349717165 MPI_Allreduce 1
349717221 MPI_Allreduce 0
349717221 MPI_Allreduce 1
349717277 MPI_Allreduce 0
349717277 MPI_Allreduce 1
349717333 MPI_Allreduce 0
349717333 MPI_Allreduce 1
349717390 MPI_Allreduce 0
349717390 MPI_Allreduce 1
349717446 MPI_Allreduce 0
349717446 MPI_Allreduce 1
349717502 MPI_Allreduce 0
349717502 MPI_Allreduce 1
349717558 MPI_Allreduce 0
349717558 MPI_Allreduce 1
349717614 MPI_Allreduce 0
349717614 MPI_Allreduce 1
349717671 MPI_Allreduce 0
349717671 MPI_Allreduce 1
349717727 MPI_Allreduce 0
349717727 MPI_Allreduce 1
349717783 MPI_Allreduce 0
349717783 MPI_Allreduce 1
349717839 MPI_Allreduce 0
349717839 MPI_Allreduce 1
349717895 MPI_Allreduce 0
349717895 MPI_Allreduce 1
349717952 MPI_Allreduce 0
349717952 MPI_Allreduce 1
349718008 MPI_Allreduce 0
349718008 MPI_Allreduce 1
349718064 MPI_Allreduce 0
349718064 MPI_Allreduce 1
349718120 MPI_Allreduce 0
349718120 MPI_Allreduce 1
349718176 MPI_Allreduce 0
349718176 MPI_Allreduce 1
349718232 MPI_Allreduce 0
349718232 MPI_Allreduce 1
349718289 MPI_Allreduce 0
349718289 MPI_Allreduce 1
349718345 MPI_Allreduce 0
349718345 MPI_Allreduce 1
349718401 MPI_Allreduce 0
349718401 MPI_Allreduce 1
349718458 MPI_Allreduce 0
349718458 MPI_Allreduce 1
349718514 MPI_Allreduce 0
349718514 MPI_Allreduce 1
349718570 MPI_Allreduce 0
349718570 MPI_Allreduce 1
349718626 MPI_Allreduce 0
349718626 MPI_Allreduce 1
349718682 MPI_Allreduce 0
349718682 MPI_Allreduce 1
349718738 MPI_Allreduce 0
349718738 MPI_Allreduce 1
349718795 MPI_Allreduce 0
349718795 MPI_Allreduce 1
349718851 MPI_Allreduce 0
349718851 MPI_Allreduce 1
349718907 MPI_Allreduce 0
349718907 MPI_Allreduce 1
349718963 MPI_Allreduce 0
349718963 MPI_Allreduce 1
349719019 MPI_Allreduce 0
349719019 MPI_Allreduce 1
349719076 MPI_Allreduce 0
349719076 MPI_Allreduce 1
349719132 MPI_Allreduce 0
349719132 MPI_Allreduce 1
349719188 MPI_Allreduce 0
349719188 MPI_Allreduce 1
349719244 MPI_Allreduce 0
349719244 MPI_Allreduce 1
349719301 MPI_Allreduce 0
349719301 MPI_Allreduce 1
349719357 MPI_Allreduce 0
349719357 MPI_Allreduce 1
349719413 MPI_Allreduce 0
349719413 MPI_Allreduce 1
349719469 MPI_Allreduce 0
349719469 MPI_Allreduce 1
349719525 MPI_Allreduce 0
349719525 MPI_Allreduce 1
349719582 MPI_Allreduce 0
349719582 MPI_Allreduce 1
349719638 MPI_Allreduce 0
349719638 MPI_Allreduce 1
349719694 MPI_Allreduce 0
349719694 MPI_Allreduce 1
349719750 MPI_Allreduce 0
349719750 MPI_Allreduce 1
349719806 MPI_Allreduce 0
349719806 MPI_Allreduce 1
349719863 MPI_Allreduce 0
349719863 MPI_Allreduce 1
349719919 MPI_Allreduce 0
349719919 MPI_Allreduce 1
349719975 MPI_Allreduce 0
349719975 MPI_Allreduce 1
349720031 MPI_Allreduce 0
349720031 MPI_Allreduce 1
349720088 MPI_Allreduce 0
349720088 MPI_Allreduce 1
349720144 MPI_Allreduce 0
349720144 MPI_Allreduce 1
349720200 MPI_Allreduce 0
349720200 MPI_Allreduce 1
349720256 MPI_Allreduce 0
349720256 MPI_Allreduce 1
349720312 MPI_Allreduce 0
349720312 MPI_Allreduce 1
349720369 MPI_Allreduce 0
349720369 MPI_Allreduce 1
349720425 MPI_Allreduce 0
349720425 MPI_Allreduce 1
349720481 MPI_Allreduce 0
349720481 MPI_Allreduce 1
349720537 MPI_Allreduce 0
349720537 MPI_Allreduce 1
349720594 MPI_Allreduce 0
349720594 MPI_Allreduce 1
349720650 MPI_Allreduce 0
349720650 MPI_Allreduce 1
349720706 MPI_Allreduce 0
349720706 MPI_Allreduce 1
349720762 MPI_Allreduce 0
349720762 MPI_Allreduce 1
349720818 MPI_Allreduce 0
349720818 MPI_Allreduce 1
349720875 MPI_Allreduce 0
349720875 MPI_Allreduce 1
349720931 MPI_Allreduce 0
349720931 MPI_Allreduce 1
349720987 MPI_Allreduce 0
349720987 MPI_Allreduce 1
349721043 MPI_Allreduce 0
349721043 MPI_Allreduce 1
349721099 MPI_Allreduce 0
349721099 MPI_Allreduce 1
349721156 MPI_Allreduce 0
349721156 MPI_Allreduce 1
349721213 MPI_Allreduce 0
349721213 MPI_Allreduce 1
349721269 MPI_Allreduce 0
349721269 MPI_Allreduce 1
349721325 MPI_Allreduce 0
349721325 MPI_Allreduce 1
349721381 MPI_Allreduce 0
349721381 MPI_Allreduce 1
349721437 MPI_Allreduce 0
349721437 MPI_Allreduce 1
349721493 MPI_Allreduce 0
349721493 MPI_Allreduce 1
349721549 MPI_Allreduce 0
349721549 MPI_Allreduce 1
349721605 MPI_Allreduce 0
349721605 MPI_Allreduce 1
349721661 MPI_Allreduce 0
349721661 MPI_Allreduce 1
349721717 MPI_Allreduce 0
349721717 MPI_Allreduce 1
349721773 MPI_Allreduce 0
349721773 MPI_Allreduce 1
349721829 MPI_Allreduce 0
349721829 MPI_Allreduce 1
349721885 MPI_Allreduce 0
349721885 MPI_Allreduce 1
349721941 MPI_Allreduce 0
349721941 MPI_Allreduce 1
349721997 MPI_Allreduce 0
349721997 MPI_Allreduce 1
349722053 MPI_Allreduce 0
349722053 MPI_Allreduce 1
349722109 MPI_Allreduce 0
349722109 MPI_Allreduce 1
349722165 MPI_Allreduce 0
349722165 MPI_Allreduce 1
349722221 MPI_Allreduce 0
349722221 MPI_Allreduce 1
349722278 MPI_Allreduce 0
349722278 MPI_Allreduce 1
349722334 MPI_Allreduce 0
349722334 MPI_Allreduce 1
349722390 MPI_Allreduce 0
349722390 MPI_Allreduce 1
349722446 MPI_Allreduce 0
349722446 MPI_Allreduce 1
349722502 MPI_Allreduce 0
349722502 MPI_Allreduce 1
349722558 MPI_Allreduce 0
349722558 MPI_Allreduce 1
349722614 MPI_Allreduce 0
349722614 MPI_Allreduce 1
349722670 MPI_Allreduce 0
349722670 MPI_Allreduce 1
349722726 MPI_Allreduce 0
349722726 MPI_Allreduce 1
349722782 MPI_Allreduce 0
349722782 MPI_Allreduce 1
349722838 MPI_Allreduce 0
349722838 MPI_Allreduce 1
349722894 MPI_Allreduce 0
349722894 MPI_Allreduce 1
349722950 MPI_Allreduce 0
349722950 MPI_Allreduce 1
349723007 MPI_Allreduce 0
349723007 MPI_Allreduce 1
349723063 MPI_Allreduce 0
349723063 MPI_Allreduce 1
349723119 MPI_Allreduce 0
349723119 MPI_Allreduce 1
349723175 MPI_Allreduce 0
349723175 MPI_Allreduce 1
349723231 MPI_Allreduce 0
349723231 MPI_Allreduce 1
349723287 MPI_Allreduce 0
349723287 MPI_Allreduce 1
349723343 MPI_Allreduce 0
349723343 MPI_Allreduce 1
349723399 MPI_Allreduce 0
349723399 MPI_Allreduce 1
349723455 MPI_Allreduce 0
349723455 MPI_Allreduce 1
349723512 MPI_Allreduce 0
349723512 MPI_Allreduce 1
349723567 MPI_Allreduce 0
349723567 MPI_Allreduce 1
349723624 MPI_Allreduce 0
349723624 MPI_Allreduce 1
349723680 MPI_Allreduce 0
349723680 MPI_Allreduce 1
349723736 MPI_Allreduce 0
349723736 MPI_Allreduce 1
349723792 MPI_Allreduce 0
349723792 MPI_Allreduce 1
349723848 MPI_Allreduce 0
349723848 MPI_Allreduce 1
349723904 MPI_Allreduce 0
349723904 MPI_Allreduce 1
349723960 MPI_Allreduce 0
349723960 MPI_Allreduce 1
349724016 MPI_Allreduce 0
349724016 MPI_Allreduce 1
349724072 MPI_Allreduce 0
349724072 MPI_Allreduce 1
349724128 MPI_Allreduce 0
349724128 MPI_Allreduce 1
349724184 MPI_Allreduce 0
349724184 MPI_Allreduce 1
349724240 MPI_Allreduce 0
349724240 MPI_Allreduce 1
349724297 MPI_Allreduce 0
349724297 MPI_Allreduce 1
349724353 MPI_Allreduce 0
349724353 MPI_Allreduce 1
349724409 MPI_Allreduce 0
349724409 MPI_Allreduce 1
349724465 MPI_Allreduce 0
349724465 MPI_Allreduce 1
349724521 MPI_Allreduce 0
349724521 MPI_Allreduce 1
349724577 MPI_Allreduce 0
349724577 MPI_Allreduce 1
349724633 MPI_Allreduce 0
349724633 MPI_Allreduce 1
349724689 MPI_Allreduce 0
349724689 MPI_Allreduce 1
349724745 MPI_Allreduce 0
349724745 MPI_Allreduce 1
349724801 MPI_Allreduce 0
349724801 MPI_Allreduce 1
349724857 MPI_Allreduce 0
349724857 MPI_Allreduce 1
349724914 MPI_Allreduce 0
349724914 MPI_Allreduce 1
349724970 MPI_Allreduce 0
349724970 MPI_Allreduce 1
349725026 MPI_Allreduce 0
349725026 MPI_Allreduce 1
349725082 MPI_Allreduce 0
349725082 MPI_Allreduce 1
349725138 MPI_Allreduce 0
349725138 MPI_Allreduce 1
349725194 MPI_Allreduce 0
349725194 MPI_Allreduce 1
349725250 MPI_Allreduce 0
349725250 MPI_Allreduce 1
349725306 MPI_Allreduce 0
349725306 MPI_Allreduce 1
349725362 MPI_Allreduce 0
349725362 MPI_Allreduce 1
349725418 MPI_Allreduce 0
349725418 MPI_Allreduce 1
349725474 MPI_Allreduce 0
349725474 MPI_Allreduce 1
349725530 MPI_Allreduce 0
349725530 MPI_Allreduce 1
349725586 MPI_Allreduce 0
349725586 MPI_Allreduce 1
349725642 MPI_Allreduce 0
349725642 MPI_Allreduce 1
349725699 MPI_Allreduce 0
349725699 MPI_Allreduce 1
349725755 MPI_Allreduce 0
349725755 MPI_Allreduce 1
349725811 MPI_Allreduce 0
349725811 MPI_Allreduce 1
349725867 MPI_Allreduce 0
349725867 MPI_Allreduce 1
349725923 MPI_Allreduce 0
349725923 MPI_Allreduce 1
349725979 MPI_Allreduce 0
349725979 MPI_Allreduce 1
349726035 MPI_Allreduce 0
349726035 MPI_Allreduce 1
349726091 MPI_Allreduce 0
349726091 MPI_Allreduce 1
349726147 MPI_Allreduce 0
349726147 MPI_Allreduce 1
349726202 MPI_Allreduce 0
349726202 MPI_Allreduce 1
349726259 MPI_Allreduce 0
349726259 MPI_Allreduce 1
349726315 MPI_Allreduce 0
349726315 MPI_Allreduce 1
349726371 MPI_Allreduce 0
349726371 MPI_Allreduce 1
349726427 MPI_Allreduce 0
349726427 MPI_Allreduce 1
349726483 MPI_Allreduce 0
349726483 MPI_Allreduce 1
349726539 MPI_Allreduce 0
349726539 MPI_Allreduce 1
349726595 MPI_Allreduce 0
349726595 MPI_Allreduce 1
349726651 MPI_Allreduce 0
349726651 MPI_Allreduce 1
349726707 MPI_Allreduce 0
349726707 MPI_Allreduce 1
349726763 MPI_Allreduce 0
349726763 MPI_Allreduce 1
349726819 MPI_Allreduce 0
349726819 MPI_Allreduce 1
349726875 MPI_Allreduce 0
349726875 MPI_Allreduce 1
349726931 MPI_Allreduce 0
349726931 MPI_Allreduce 1
349726987 MPI_Allreduce 0
349726987 MPI_Allreduce 1
349727044 MPI_Allreduce 0
349727044 MPI_Allreduce 1
349727100 MPI_Allreduce 0
349727100 MPI_Allreduce 1
349727156 MPI_Allreduce 0
349727156 MPI_Allreduce 1
349727212 MPI_Allreduce 0
349727212 MPI_Allreduce 1
349727268 MPI_Allreduce 0
349727268 MPI_Allreduce 1
349727324 MPI_Allreduce 0
349727324 MPI_Allreduce 1
349727380 MPI_Allreduce 0
349727380 MPI_Allreduce 1
349727436 MPI_Allreduce 0
349727436 MPI_Allreduce 1
349727492 MPI_Allreduce 0
349727492 MPI_Allreduce 1
349727548 MPI_Allreduce 0
349727548 MPI_Allreduce 1
349727605 MPI_Allreduce 0
349727605 MPI_Allreduce 1
349727661 MPI_Allreduce 0
349727661 MPI_Allreduce 1
349727717 MPI_Allreduce 0
349727717 MPI_Allreduce 1
349727773 MPI_Allreduce 0
349727773 MPI_Allreduce 1
349727829 MPI_Allreduce 0
349727829 MPI_Allreduce 1
349727885 MPI_Allreduce 0
349727885 MPI_Allreduce 1
349727941 MPI_Allreduce 0
349727941 MPI_Allreduce 1
349727997 MPI_Allreduce 0
349727997 MPI_Allreduce 1
349728053 MPI_Allreduce 0
349728053 MPI_Allreduce 1
349728109 MPI_Allreduce 0
349728109 MPI_Allreduce 1
349728165 MPI_Allreduce 0
349728165 MPI_Allreduce 1
349728221 MPI_Allreduce 0
349728221 MPI_Allreduce 1
349728277 MPI_Allreduce 0
349728277 MPI_Allreduce 1
349728334 MPI_Allreduce 0
349728334 MPI_Allreduce 1
349728390 MPI_Allreduce 0
349728390 MPI_Allreduce 1
349728446 MPI_Allreduce 0
349728446 MPI_Allreduce 1
349728502 MPI_Allreduce 0
349728502 MPI_Allreduce 1
349728558 MPI_Allreduce 0
349728558 MPI_Allreduce 1
349728614 MPI_Allreduce 0
349728614 MPI_Allreduce 1
349728670 MPI_Allreduce 0
349728670 MPI_Allreduce 1
349728726 MPI_Allreduce 0
349728726 MPI_Allreduce 1
349728782 MPI_Allreduce 0
349728782 MPI_Allreduce 1
349728838 MPI_Allreduce 0
349728838 MPI_Allreduce 1
349728895 MPI_Allreduce 0
349728895 MPI_Allreduce 1
349728951 MPI_Allreduce 0
349728951 MPI_Allreduce 1
349729007 MPI_Allreduce 0
349729007 MPI_Allreduce 1
349729063 MPI_Allreduce 0
349729063 MPI_Allreduce 1
349729119 MPI_Allreduce 0
349729119 MPI_Allreduce 1
349729175 MPI_Allreduce 0
349729175 MPI_Allreduce 1
349729231 MPI_Allreduce 0
349729231 MPI_Allreduce 1
349729287 MPI_Allreduce 0
349729287 MPI_Allreduce 1
349729343 MPI_Allreduce 0
349729343 MPI_Allreduce 1
349729399 MPI_Allreduce 0
349729399 MPI_Allreduce 1
349729455 MPI_Allreduce 0
349729455 MPI_Allreduce 1
349729511 MPI_Allreduce 0
349729511 MPI_Allreduce 1
349729567 MPI_Allreduce 0
349729567 MPI_Allreduce 1
349729623 MPI_Allreduce 0
349729623 MPI_Allreduce 1
349729679 MPI_Allreduce 0
349729680 MPI_Allreduce 1
349729736 MPI_Allreduce 0
349729736 MPI_Allreduce 1
349729792 MPI_Allreduce 0
349729792 MPI_Allreduce 1
349729848 MPI_Allreduce 0
349729848 MPI_Allreduce 1
349729904 MPI_Allreduce 0
349729904 MPI_Allreduce 1
349729960 MPI_Allreduce 0
349729960 MPI_Allreduce 1
349730016 MPI_Allreduce 0
349730016 MPI_Allreduce 1
349730072 MPI_Allreduce 0
349730072 MPI_Allreduce 1
349730128 MPI_Allreduce 0
349730128 MPI_Allreduce 1
349730184 MPI_Allreduce 0
349730184 MPI_Allreduce 1
349730240 MPI_Allreduce 0
349730240 MPI_Allreduce 1
349730296 MPI_Allreduce 0
349730296 MPI_Allreduce 1
349730352 MPI_Allreduce 0
349730352 MPI_Allreduce 1
349730409 MPI_Allreduce 0
349730409 MPI_Allreduce 1
349730465 MPI_Allreduce 0
349730465 MPI_Allreduce 1
349730521 MPI_Allreduce 0
349730521 MPI_Allreduce 1
349730577 MPI_Allreduce 0
349730577 MPI_Allreduce 1
349730633 MPI_Allreduce 0
349730633 MPI_Allreduce 1
349730689 MPI_Allreduce 0
349730689 MPI_Allreduce 1
349730745 MPI_Allreduce 0
349730745 MPI_Allreduce 1
349730801 MPI_Allreduce 0
349730801 MPI_Allreduce 1
349730857 MPI_Allreduce 0
349730857 MPI_Allreduce 1
349730913 MPI_Allreduce 0
349730913 MPI_Allreduce 1
349730969 MPI_Allreduce 0
349730969 MPI_Allreduce 1
349731025 MPI_Allreduce 0
349731025 MPI_Allreduce 1
349731082 MPI_Allreduce 0
349731082 MPI_Allreduce 1
349731138 MPI_Allreduce 0
349731138 MPI_Allreduce 1
349731194 MPI_Allreduce 0
349731194 MPI_Allreduce 1
349731250 MPI_Allreduce 0
349731250 MPI_Allreduce 1
349731307 MPI_Allreduce 0
349731307 MPI_Allreduce 1
349731363 MPI_Allreduce 0
349731363 MPI_Allreduce 1
349731419 MPI_Allreduce 0
349731419 MPI_Allreduce 1
349731475 MPI_Allreduce 0
349731475 MPI_Allreduce 1
349731531 MPI_Allreduce 0
349731531 MPI_Allreduce 1
349731587 MPI_Allreduce 0
349731587 MPI_Allreduce 1
349731643 MPI_Allreduce 0
349731643 MPI_Allreduce 1
349731700 MPI_Allreduce 0
349731700 MPI_Allreduce 1
349731756 MPI_Allreduce 0
349731756 MPI_Allreduce 1
349731812 MPI_Allreduce 0
349731812 MPI_Allreduce 1
349731868 MPI_Allreduce 0
349731868 MPI_Allreduce 1
349731924 MPI_Allreduce 0
349731924 MPI_Allreduce 1
349731980 MPI_Allreduce 0
349731980 MPI_Allreduce 1
349732036 MPI_Allreduce 0
349732036 MPI_Allreduce 1
349732092 MPI_Allreduce 0
349732092 MPI_Allreduce 1
349732149 MPI_Allreduce 0
349732149 MPI_Allreduce 1
349732205 MPI_Allreduce 0
349732205 MPI_Allreduce 1
349732261 MPI_Allreduce 0
349732261 MPI_Allreduce 1
349732317 MPI_Allreduce 0
349732317 MPI_Allreduce 1
349732373 MPI_Allreduce 0
349732373 MPI_Allreduce 1
349732429 MPI_Allreduce 0
349732429 MPI_Allreduce 1
349732485 MPI_Allreduce 0
349732485 MPI_Allreduce 1
349732542 MPI_Allreduce 0
349732542 MPI_Allreduce 1
349732598 MPI_Allreduce 0
349732598 MPI_Allreduce 1
349732654 MPI_Allreduce 0
349732654 MPI_Allreduce 1
349732710 MPI_Allreduce 0
349732710 MPI_Allreduce 1
349732766 MPI_Allreduce 0
349732766 MPI_Allreduce 1
349732822 MPI_Allreduce 0
349732822 MPI_Allreduce 1
349732878 MPI_Allreduce 0
349732878 MPI_Allreduce 1
349732934 MPI_Allreduce 0
349732934 MPI_Allreduce 1
349732990 MPI_Allreduce 0
349732990 MPI_Allreduce 1
349733047 MPI_Allreduce 0
349733047 MPI_Allreduce 1
349733103 MPI_Allreduce 0
349733103 MPI_Allreduce 1
349733159 MPI_Allreduce 0
349733159 MPI_Allreduce 1
349733215 MPI_Allreduce 0
349733215 MPI_Allreduce 1
349733271 MPI_Allreduce 0
349733271 MPI_Allreduce 1
349733327 MPI_Allreduce 0
349733327 MPI_Allreduce 1
349733384 MPI_Allreduce 0
349733384 MPI_Allreduce 1
349733440 MPI_Allreduce 0
349733440 MPI_Allreduce 1
349733496 MPI_Allreduce 0
349733496 MPI_Allreduce 1
349733552 MPI_Allreduce 0
349733552 MPI_Allreduce 1
349733608 MPI_Allreduce 0
349733608 MPI_Allreduce 1
349733664 MPI_Allreduce 0
349733664 MPI_Allreduce 1
349733720 MPI_Allreduce 0
349733720 MPI_Allreduce 1
349733777 MPI_Allreduce 0
349733777 MPI_Allreduce 1
349733833 MPI_Allreduce 0
349733833 MPI_Allreduce 1
349733889 MPI_Allreduce 0
349733889 MPI_Allreduce 1
349733945 MPI_Allreduce 0
349733945 MPI_Allreduce 1
349734001 MPI_Allreduce 0
349734001 MPI_Allreduce 1
349734057 MPI_Allreduce 0
349734057 MPI_Allreduce 1
349734114 MPI_Allreduce 0
349734114 MPI_Allreduce 1
349734170 MPI_Allreduce 0
349734170 MPI_Allreduce 1
349734226 MPI_Allreduce 0
349734226 MPI_Allreduce 1
349734282 MPI_Allreduce 0
349734282 MPI_Allreduce 1
349734338 MPI_Allreduce 0
349734338 MPI_Allreduce 1
349734394 MPI_Allreduce 0
349734394 MPI_Allreduce 1
349734450 MPI_Allreduce 0
349734450 MPI_Allreduce 1
349734506 MPI_Allreduce 0
349734506 MPI_Allreduce 1
349734563 MPI_Allreduce 0
349734563 MPI_Allreduce 1
349734619 MPI_Allreduce 0
349734619 MPI_Allreduce 1
349734675 MPI_Allreduce 0
349734675 MPI_Allreduce 1
349734731 MPI_Allreduce 0
349734731 MPI_Allreduce 1
349734787 MPI_Allreduce 0
349734787 MPI_Allreduce 1
349734843 MPI_Allreduce 0
349734843 MPI_Allreduce 1
349734899 MPI_Allreduce 0
349734899 MPI_Allreduce 1
349734955 MPI_Allreduce 0
349734955 MPI_Allreduce 1
349735012 MPI_Allreduce 0
349735012 MPI_Allreduce 1
349735068 MPI_Allreduce 0
349735068 MPI_Allreduce 1
349735124 MPI_Allreduce 0
349735124 MPI_Allreduce 1
349735180 MPI_Allreduce 0
349735180 MPI_Allreduce 1
349735236 MPI_Allreduce 0
349735236 MPI_Allreduce 1
349735292 MPI_Allreduce 0
349735292 MPI_Allreduce 1
349735348 MPI_Allreduce 0
349735348 MPI_Allreduce 1
349735405 MPI_Allreduce 0
349735405 MPI_Allreduce 1
349735461 MPI_Allreduce 0
349735461 MPI_Allreduce 1
349735517 MPI_Allreduce 0
349735517 MPI_Allreduce 1
349735573 MPI_Allreduce 0
349735573 MPI_Allreduce 1
349735629 MPI_Allreduce 0
349735629 MPI_Allreduce 1
349735685 MPI_Allreduce 0
349735685 MPI_Allreduce 1
349735741 MPI_Allreduce 0
349735741 MPI_Allreduce 1
349735798 MPI_Allreduce 0
349735798 MPI_Allreduce 1
349735854 MPI_Allreduce 0
349735854 MPI_Allreduce 1
349735910 MPI_Allreduce 0
349735910 MPI_Allreduce 1
349735966 MPI_Allreduce 0
349735966 MPI_Allreduce 1
349736022 MPI_Allreduce 0
349736022 MPI_Allreduce 1
349736078 MPI_Allreduce 0
349736079 MPI_Allreduce 1
349736135 MPI_Allreduce 0
349736135 MPI_Allreduce 1
349736191 MPI_Allreduce 0
349736191 MPI_Allreduce 1
349736247 MPI_Allreduce 0
349736247 MPI_Allreduce 1
349736303 MPI_Allreduce 0
349736303 MPI_Allreduce 1
349736359 MPI_Allreduce 0
349736359 MPI_Allreduce 1
349736415 MPI_Allreduce 0
349736415 MPI_Allreduce 1
349736472 MPI_Allreduce 0
349736472 MPI_Allreduce 1
349736528 MPI_Allreduce 0
349736528 MPI_Allreduce 1
349736584 MPI_Allreduce 0
349736584 MPI_Allreduce 1
349736640 MPI_Allreduce 0
349736640 MPI_Allreduce 1
349736696 MPI_Allreduce 0
349736696 MPI_Allreduce 1
349736752 MPI_Allreduce 0
349736752 MPI_Allreduce 1
349736808 MPI_Allreduce 0
349736808 MPI_Allreduce 1
349736865 MPI_Allreduce 0
349736865 MPI_Allreduce 1
349736921 MPI_Allreduce 0
349736921 MPI_Allreduce 1
349736977 MPI_Allreduce 0
349736977 MPI_Allreduce 1
349737033 MPI_Allreduce 0
349737033 MPI_Allreduce 1
349737089 MPI_Allreduce 0
349737089 MPI_Allreduce 1
349737146 MPI_Allreduce 0
349737146 MPI_Allreduce 1
349737202 MPI_Allreduce 0
349737202 MPI_Allreduce 1
349737258 MPI_Allreduce 0
349737258 MPI_Allreduce 1
349737314 MPI_Allreduce 0
349737314 MPI_Allreduce 1
349737370 MPI_Allreduce 0
349737370 MPI_Allreduce 1
349737427 MPI_Allreduce 0
349737427 MPI_Allreduce 1
349737483 MPI_Allreduce 0
349737483 MPI_Allreduce 1
349737539 MPI_Allreduce 0
349737539 MPI_Allreduce 1
349737595 MPI_Allreduce 0
349737595 MPI_Allreduce 1
349737651 MPI_Allreduce 0
349737651 MPI_Allreduce 1
349737707 MPI_Allreduce 0
349737707 MPI_Allreduce 1
349737763 MPI_Allreduce 0
349737763 MPI_Allreduce 1
349737820 MPI_Allreduce 0
349737820 MPI_Allreduce 1
349737876 MPI_Allreduce 0
349737876 MPI_Allreduce 1
349737932 MPI_Allreduce 0
349737932 MPI_Allreduce 1
349737988 MPI_Allreduce 0
349737988 MPI_Allreduce 1
349738045 MPI_Allreduce 0
349738045 MPI_Allreduce 1
349738101 MPI_Allreduce 0
349738101 MPI_Allreduce 1
349738157 MPI_Allreduce 0
349738157 MPI_Allreduce 1
349738213 MPI_Allreduce 0
349738213 MPI_Allreduce 1
349738269 MPI_Allreduce 0
349738269 MPI_Allreduce 1
349738326 MPI_Allreduce 0
349738326 MPI_Allreduce 1
349738382 MPI_Allreduce 0
349738382 MPI_Allreduce 1
349738438 MPI_Allreduce 0
349738438 MPI_Allreduce 1
349738494 MPI_Allreduce 0
349738494 MPI_Allreduce 1
349738550 MPI_Allreduce 0
349738551 MPI_Allreduce 1
349738607 MPI_Allreduce 0
349738607 MPI_Allreduce 1
349738663 MPI_Allreduce 0
349738663 MPI_Allreduce 1
349738719 MPI_Allreduce 0
349738719 MPI_Allreduce 1
349738775 MPI_Allreduce 0
349738775 MPI_Allreduce 1
349738832 MPI_Allreduce 0
349738832 MPI_Allreduce 1
349738888 MPI_Allreduce 0
349738888 MPI_Allreduce 1
349738944 MPI_Allreduce 0
349738944 MPI_Allreduce 1
349739000 MPI_Allreduce 0
349739000 MPI_Allreduce 1
349739056 MPI_Allreduce 0
349739056 MPI_Allreduce 1
349739112 MPI_Allreduce 0
349739112 MPI_Allreduce 1
349739169 MPI_Allreduce 0
349739169 MPI_Allreduce 1
349739225 MPI_Allreduce 0
349739225 MPI_Allreduce 1
349739281 MPI_Allreduce 0
349739281 MPI_Allreduce 1
349739337 MPI_Allreduce 0
349739337 MPI_Allreduce 1
349739393 MPI_Allreduce 0
349739393 MPI_Allreduce 1
349739450 MPI_Allreduce 0
349739450 MPI_Allreduce 1
349739506 MPI_Allreduce 0
349739506 MPI_Allreduce 1
349739562 MPI_Allreduce 0
349739562 MPI_Allreduce 1
349739618 MPI_Allreduce 0
349739618 MPI_Allreduce 1
349739674 MPI_Allreduce 0
349739674 MPI_Allreduce 1
349739730 MPI_Allreduce 0
349739730 MPI_Allreduce 1
349739787 MPI_Allreduce 0
349739787 MPI_Allreduce 1
349739843 MPI_Allreduce 0
349739843 MPI_Allreduce 1
349739899 MPI_Allreduce 0
349739899 MPI_Allreduce 1
349739955 MPI_Allreduce 0
349739955 MPI_Allreduce 1
349740011 MPI_Allreduce 0
349740011 MPI_Allreduce 1
349740068 MPI_Allreduce 0
349740068 MPI_Allreduce 1
349740124 MPI_Allreduce 0
349740124 MPI_Allreduce 1
349740180 MPI_Allreduce 0
349740180 MPI_Allreduce 1
349740236 MPI_Allreduce 0
349740236 MPI_Allreduce 1
349740292 MPI_Allreduce 0
349740292 MPI_Allreduce 1
349740348 MPI_Allreduce 0
349740348 MPI_Allreduce 1
349740405 MPI_Allreduce 0
349740405 MPI_Allreduce 1
349740461 MPI_Allreduce 0
349740461 MPI_Allreduce 1
349740517 MPI_Allreduce 0
349740517 MPI_Allreduce 1
349740573 MPI_Allreduce 0
349740573 MPI_Allreduce 1
349740629 MPI_Allreduce 0
349740629 MPI_Allreduce 1
349740685 MPI_Allreduce 0
349740685 MPI_Allreduce 1
349740741 MPI_Allreduce 0
349740741 MPI_Allreduce 1
349740798 MPI_Allreduce 0
349740798 MPI_Allreduce 1
349740854 MPI_Allreduce 0
349740854 MPI_Allreduce 1
349740910 MPI_Allreduce 0
349740910 MPI_Allreduce 1
349740966 MPI_Allreduce 0
349740966 MPI_Allreduce 1
349741023 MPI_Allreduce 0
349741023 MPI_Allreduce 1
349741079 MPI_Allreduce 0
349741079 MPI_Allreduce 1
349741135 MPI_Allreduce 0
349741135 MPI_Allreduce 1
349741191 MPI_Allreduce 0
349741191 MPI_Allreduce 1
349741247 MPI_Allreduce 0
349741247 MPI_Allreduce 1
349741304 MPI_Allreduce 0
349741304 MPI_Allreduce 1
349741360 MPI_Allreduce 0
349741360 MPI_Allreduce 1
349741416 MPI_Allreduce 0
349741416 MPI_Allreduce 1
349741472 MPI_Allreduce 0
349741472 MPI_Allreduce 1
349741528 MPI_Allreduce 0
349741528 MPI_Allreduce 1
349741585 MPI_Allreduce 0
349741585 MPI_Allreduce 1
349741641 MPI_Allreduce 0
349741641 MPI_Allreduce 1
349741697 MPI_Allreduce 0
349741697 MPI_Allreduce 1
349741753 MPI_Allreduce 0
349741753 MPI_Allreduce 1
349741809 MPI_Allreduce 0
349741809 MPI_Allreduce 1
349741866 MPI_Allreduce 0
349741866 MPI_Allreduce 1
349741922 MPI_Allreduce 0
349741922 MPI_Allreduce 1
349741978 MPI_Allreduce 0
349741978 MPI_Allreduce 1
349742035 MPI_Allreduce 0
349742035 MPI_Allreduce 1
349742091 MPI_Allreduce 0
349742091 MPI_Allreduce 1
349742147 MPI_Allreduce 0
349742147 MPI_Allreduce 1
349742203 MPI_Allreduce 0
349742203 MPI_Allreduce 1
349742259 MPI_Allreduce 0
349742259 MPI_Allreduce 1
349742316 MPI_Allreduce 0
349742316 MPI_Allreduce 1
349742372 MPI_Allreduce 0
349742372 MPI_Allreduce 1
349742428 MPI_Allreduce 0
349742428 MPI_Allreduce 1
349742484 MPI_Allreduce 0
349742484 MPI_Allreduce 1
349742541 MPI_Allreduce 0
349742541 MPI_Allreduce 1
349742597 MPI_Allreduce 0
349742597 MPI_Allreduce 1
349742653 MPI_Allreduce 0
349742653 MPI_Allreduce 1
349742709 MPI_Allreduce 0
349742709 MPI_Allreduce 1
349742765 MPI_Allreduce 0
349742765 MPI_Allreduce 1
349742822 MPI_Allreduce 0
349742822 MPI_Allreduce 1
349742878 MPI_Allreduce 0
349742878 MPI_Allreduce 1
349742934 MPI_Allreduce 0
349742934 MPI_Allreduce 1
349742990 MPI_Allreduce 0
349742990 MPI_Allreduce 1
349743047 MPI_Allreduce 0
349743047 MPI_Allreduce 1
349743103 MPI_Allreduce 0
349743103 MPI_Allreduce 1
349743159 MPI_Allreduce 0
349743159 MPI_Allreduce 1
349743215 MPI_Allreduce 0
349743215 MPI_Allreduce 1
349743271 MPI_Allreduce 0
349743271 MPI_Allreduce 1
349743328 MPI_Allreduce 0
349743328 MPI_Allreduce 1
349743384 MPI_Allreduce 0
349743384 MPI_Allreduce 1
349743440 MPI_Allreduce 0
349743440 MPI_Allreduce 1
349743496 MPI_Allreduce 0
349743496 MPI_Allreduce 1
349743553 MPI_Allreduce 0
349743553 MPI_Allreduce 1
349743609 MPI_Allreduce 0
349743609 MPI_Allreduce 1
349743665 MPI_Allreduce 0
349743665 MPI_Allreduce 1
349743721 MPI_Allreduce 0
349743721 MPI_Allreduce 1
349743777 MPI_Allreduce 0
349743777 MPI_Allreduce 1
349743834 MPI_Allreduce 0
349743834 MPI_Allreduce 1
349743890 MPI_Allreduce 0
349743890 MPI_Allreduce 1
349743946 MPI_Allreduce 0
349743946 MPI_Allreduce 1
349744002 MPI_Allreduce 0
349744002 MPI_Allreduce 1
349744059 MPI_Allreduce 0
349744059 MPI_Allreduce 1
349744115 MPI_Allreduce 0
349744115 MPI_Allreduce 1
349744171 MPI_Allreduce 0
349744171 MPI_Allreduce 1
349744227 MPI_Allreduce 0
349744227 MPI_Allreduce 1
349744284 MPI_Allreduce 0
349744284 MPI_Allreduce 1
349744340 MPI_Allreduce 0
349744340 MPI_Allreduce 1
349744396 MPI_Allreduce 0
349744396 MPI_Allreduce 1
349744452 MPI_Allreduce 0
349744452 MPI_Allreduce 1
349744508 MPI_Allreduce 0
349744508 MPI_Allreduce 1
349744565 MPI_Allreduce 0
349744565 MPI_Allreduce 1
349744621 MPI_Allreduce 0
349744621 MPI_Allreduce 1
349744677 MPI_Allreduce 0
349744677 MPI_Allreduce 1
349744733 MPI_Allreduce 0
349744733 MPI_Allreduce 1
349744790 MPI_Allreduce 0
349744790 MPI_Allreduce 1
349744846 MPI_Allreduce 0
349744846 MPI_Allreduce 1
349744902 MPI_Allreduce 0
349744902 MPI_Allreduce 1
349744958 MPI_Allreduce 0
349744958 MPI_Allreduce 1
349745014 MPI_Allreduce 0
349745014 MPI_Allreduce 1
349745071 MPI_Allreduce 0
349745071 MPI_Allreduce 1
349745127 MPI_Allreduce 0
349745127 MPI_Allreduce 1
349745183 MPI_Allreduce 0
349745183 MPI_Allreduce 1
349745239 MPI_Allreduce 0
349745239 MPI_Allreduce 1
349745295 MPI_Allreduce 0
349745295 MPI_Allreduce 1
349745352 MPI_Allreduce 0
349745352 MPI_Allreduce 1
349745408 MPI_Allreduce 0
349745408 MPI_Allreduce 1
349745464 MPI_Allreduce 0
349745464 MPI_Allreduce 1
349745520 MPI_Allreduce 0
349745520 MPI_Allreduce 1
349745577 MPI_Allreduce 0
349745577 MPI_Allreduce 1
349745633 MPI_Allreduce 0
349745633 MPI_Allreduce 1
349745689 MPI_Allreduce 0
349745689 MPI_Allreduce 1
349745745 MPI_Allreduce 0
349745745 MPI_Allreduce 1
349745802 MPI_Allreduce 0
349745802 MPI_Allreduce 1
349745858 MPI_Allreduce 0
349745858 MPI_Allreduce 1
349745914 MPI_Allreduce 0
349745914 MPI_Allreduce 1
349745970 MPI_Allreduce 0
349745970 MPI_Allreduce 1
349746026 MPI_Allreduce 0
349746026 MPI_Allreduce 1
349746083 MPI_Allreduce 0
349746083 MPI_Allreduce 1
349746139 MPI_Allreduce 0
349746139 MPI_Allreduce 1
349746195 MPI_Allreduce 0
349746195 MPI_Allreduce 1
349746251 MPI_Allreduce 0
349746251 MPI_Allreduce 1
349746308 MPI_Allreduce 0
349746308 MPI_Allreduce 1
349746364 MPI_Allreduce 0
349746364 MPI_Allreduce 1
349746420 MPI_Allreduce 0
349746420 MPI_Allreduce 1
349746476 MPI_Allreduce 0
349746476 MPI_Allreduce 1
349746533 MPI_Allreduce 0
349746533 MPI_Allreduce 1
349746589 MPI_Allreduce 0
349746589 MPI_Allreduce 1
349746645 MPI_Allreduce 0
349746645 MPI_Allreduce 1
349746702 MPI_Allreduce 0
349746702 MPI_Allreduce 1
349746758 MPI_Allreduce 0
349746758 MPI_Allreduce 1
349746814 MPI_Allreduce 0
349746814 MPI_Allreduce 1
349746870 MPI_Allreduce 0
349746870 MPI_Allreduce 1
349746927 MPI_Allreduce 0
349746927 MPI_Allreduce 1
349746983 MPI_Allreduce 0
349746983 MPI_Allreduce 1
349747039 MPI_Allreduce 0
349747039 MPI_Allreduce 1
349747095 MPI_Allreduce 0
349747095 MPI_Allreduce 1
349747152 MPI_Allreduce 0
349747152 MPI_Allreduce 1
349747208 MPI_Allreduce 0
349747208 MPI_Allreduce 1
349747264 MPI_Allreduce 0
349747264 MPI_Allreduce 1
349747320 MPI_Allreduce 0
349747320 MPI_Allreduce 1
349747377 MPI_Allreduce 0
349747377 MPI_Allreduce 1
349747433 MPI_Allreduce 0
349747433 MPI_Allreduce 1
349747489 MPI_Allreduce 0
349747489 MPI_Allreduce 1
349747545 MPI_Allreduce 0
349747545 MPI_Allreduce 1
349747601 MPI_Allreduce 0
349747601 MPI_Allreduce 1
349747657 MPI_Allreduce 0
349747657 MPI_Allreduce 1
349747713 MPI_Allreduce 0
349747713 MPI_Allreduce 1
349747770 MPI_Allreduce 0
349747770 MPI_Allreduce 1
349747826 MPI_Allreduce 0
349747826 MPI_Allreduce 1
349747882 MPI_Allreduce 0
349747882 MPI_Allreduce 1
349747938 MPI_Allreduce 0
349747938 MPI_Allreduce 1
349747994 MPI_Allreduce 0
349747994 MPI_Allreduce 1
349748051 MPI_Allreduce 0
349748051 MPI_Allreduce 1
349748107 MPI_Allreduce 0
349748107 MPI_Allreduce 1
349748163 MPI_Allreduce 0
349748163 MPI_Allreduce 1
349748219 MPI_Allreduce 0
349748219 MPI_Allreduce 1
349748276 MPI_Allreduce 0
349748276 MPI_Allreduce 1
349748332 MPI_Allreduce 0
349748332 MPI_Allreduce 1
349748388 MPI_Allreduce 0
349748388 MPI_Allreduce 1
349748444 MPI_Allreduce 0
349748444 MPI_Allreduce 1
349748501 MPI_Allreduce 0
349748501 MPI_Allreduce 1
349748557 MPI_Allreduce 0
349748557 MPI_Allreduce 1
349748613 MPI_Allreduce 0
349748613 MPI_Allreduce 1
349748669 MPI_Allreduce 0
349748669 MPI_Allreduce 1
349748726 MPI_Allreduce 0
349748726 MPI_Allreduce 1
349748782 MPI_Allreduce 0
349748782 MPI_Allreduce 1
349748838 MPI_Allreduce 0
349748838 MPI_Allreduce 1
349748894 MPI_Allreduce 0
349748894 MPI_Allreduce 1
349748950 MPI_Allreduce 0
349748950 MPI_Allreduce 1
349749006 MPI_Allreduce 0
349749006 MPI_Allreduce 1
349749062 MPI_Allreduce 0
349749062 MPI_Allreduce 1
349749119 MPI_Allreduce 0
349749119 MPI_Allreduce 1
349749175 MPI_Allreduce 0
349749175 MPI_Allreduce 1
349749231 MPI_Allreduce 0
349749231 MPI_Allreduce 1
349749287 MPI_Allreduce 0
349749287 MPI_Allreduce 1
349749344 MPI_Allreduce 0
349749344 MPI_Allreduce 1
349749400 MPI_Allreduce 0
349749400 MPI_Allreduce 1
349749456 MPI_Allreduce 0
349749456 MPI_Allreduce 1
349749512 MPI_Allreduce 0
349749512 MPI_Allreduce 1
349749569 MPI_Allreduce 0
349749569 MPI_Allreduce 1
349749625 MPI_Allreduce 0
349749625 MPI_Allreduce 1
349749681 MPI_Allreduce 0
349749681 MPI_Allreduce 1
349749737 MPI_Allreduce 0
349749737 MPI_Allreduce 1
349749794 MPI_Allreduce 0
349749794 MPI_Allreduce 1
349749850 MPI_Allreduce 0
349749850 MPI_Allreduce 1
349749906 MPI_Allreduce 0
349749906 MPI_Allreduce 1
349749963 MPI_Allreduce 0
349749963 MPI_Allreduce 1
349750019 MPI_Allreduce 0
349750019 MPI_Allreduce 1
349750075 MPI_Allreduce 0
349750075 MPI_Allreduce 1
349750131 MPI_Allreduce 0
349750131 MPI_Allreduce 1
349750187 MPI_Allreduce 0
349750187 MPI_Allreduce 1
349750244 MPI_Allreduce 0
349750244 MPI_Allreduce 1
349750300 MPI_Allreduce 0
349750300 MPI_Allreduce 1
349750357 MPI_Allreduce 0
349750357 MPI_Allreduce 1
349750413 MPI_Allreduce 0
349750413 MPI_Allreduce 1
349750469 MPI_Allreduce 0
349750469 MPI_Allreduce 1
349750525 MPI_Allreduce 0
349750525 MPI_Allreduce 1
349750582 MPI_Allreduce 0
349750582 MPI_Allreduce 1
349750638 MPI_Allreduce 0
349750638 MPI_Allreduce 1
349750694 MPI_Allreduce 0
349750694 MPI_Allreduce 1
349750750 MPI_Allreduce 0
349750750 MPI_Allreduce 1
349750807 MPI_Allreduce 0
349750807 MPI_Allreduce 1
349750863 MPI_Allreduce 0
349750863 MPI_Allreduce 1
349750919 MPI_Allreduce 0
349750919 MPI_Allreduce 1
349750975 MPI_Allreduce 0
349750975 MPI_Allreduce 1
349751032 MPI_Allreduce 0
349751032 MPI_Allreduce 1
349751088 MPI_Allreduce 0
349751088 MPI_Allreduce 1
349751144 MPI_Allreduce 0
349751144 MPI_Allreduce 1
349751200 MPI_Allreduce 0
349751200 MPI_Allreduce 1
349751257 MPI_Allreduce 0
349751257 MPI_Allreduce 1
349751313 MPI_Allreduce 0
349751313 MPI_Allreduce 1
349751369 MPI_Allreduce 0
349751369 MPI_Allreduce 1
349751425 MPI_Allreduce 0
349751425 MPI_Allreduce 1
349751482 MPI_Allreduce 0
349751482 MPI_Allreduce 1
349751538 MPI_Allreduce 0
349751538 MPI_Allreduce 1
349751594 MPI_Allreduce 0
349751594 MPI_Allreduce 1
349751651 MPI_Allreduce 0
349751651 MPI_Allreduce 1
349751707 MPI_Allreduce 0
349751707 MPI_Allreduce 1
349751763 MPI_Allreduce 0
349751763 MPI_Allreduce 1
349751819 MPI_Allreduce 0
349751819 MPI_Allreduce 1
349751876 MPI_Allreduce 0
349751876 MPI_Allreduce 1
349751932 MPI_Allreduce 0
349751932 MPI_Allreduce 1
349751988 MPI_Allreduce 0
349751988 MPI_Allreduce 1
349752044 MPI_Allreduce 0
349752044 MPI_Allreduce 1
349752101 MPI_Allreduce 0
349752101 MPI_Allreduce 1
349752157 MPI_Allreduce 0
349752157 MPI_Allreduce 1
349752213 MPI_Allreduce 0
349752213 MPI_Allreduce 1
349752269 MPI_Allreduce 0
349752269 MPI_Allreduce 1
349752326 MPI_Allreduce 0
349752326 MPI_Allreduce 1
349752382 MPI_Allreduce 0
349752382 MPI_Allreduce 1
349752438 MPI_Allreduce 0
349752438 MPI_Allreduce 1
349752495 MPI_Allreduce 0
349752495 MPI_Allreduce 1
349752551 MPI_Allreduce 0
349752551 MPI_Allreduce 1
349752607 MPI_Allreduce 0
349752607 MPI_Allreduce 1
349752663 MPI_Allreduce 0
349752663 MPI_Allreduce 1
349752720 MPI_Allreduce 0
349752720 MPI_Allreduce 1
349752776 MPI_Allreduce 0
349752776 MPI_Allreduce 1
349752832 MPI_Allreduce 0
349752832 MPI_Allreduce 1
349752889 MPI_Allreduce 0
349752889 MPI_Allreduce 1
349752945 MPI_Allreduce 0
349752945 MPI_Allreduce 1
349753001 MPI_Allreduce 0
349753001 MPI_Allreduce 1
349753057 MPI_Allreduce 0
349753057 MPI_Allreduce 1
349753114 MPI_Allreduce 0
349753114 MPI_Allreduce 1
349753170 MPI_Allreduce 0
349753170 MPI_Allreduce 1
349753226 MPI_Allreduce 0
349753226 MPI_Allreduce 1
349753282 MPI_Allreduce 0
349753282 MPI_Allreduce 1
349753338 MPI_Allreduce 0
349753338 MPI_Allreduce 1
349753395 MPI_Allreduce 0
349753395 MPI_Allreduce 1
349753451 MPI_Allreduce 0
349753451 MPI_Allreduce 1
349753507 MPI_Allreduce 0
349753507 MPI_Allreduce 1
349753563 MPI_Allreduce 0
349753563 MPI_Allreduce 1
349753620 MPI_Allreduce 0
349753620 MPI_Allreduce 1
349753676 MPI_Allreduce 0
349753676 MPI_Allreduce 1
349753732 MPI_Allreduce 0
349753732 MPI_Allreduce 1
349753789 MPI_Allreduce 0
349753789 MPI_Allreduce 1
349753845 MPI_Allreduce 0
349753845 MPI_Allreduce 1
349753901 MPI_Allreduce 0
349753901 MPI_Allreduce 1
349753957 MPI_Allreduce 0
349753957 MPI_Allreduce 1
349754014 MPI_Allreduce 0
349754014 MPI_Allreduce 1
349754070 MPI_Allreduce 0
349754070 MPI_Allreduce 1
349754126 MPI_Allreduce 0
349754126 MPI_Allreduce 1
349754182 MPI_Allreduce 0
349754182 MPI_Allreduce 1
349754238 MPI_Allreduce 0
349754238 MPI_Allreduce 1
349754295 MPI_Allreduce 0
349754295 MPI_Allreduce 1
349754351 MPI_Allreduce 0
349754351 MPI_Allreduce 1
349754407 MPI_Allreduce 0
349754407 MPI_Allreduce 1
349754463 MPI_Allreduce 0
349754463 MPI_Allreduce 1
349754520 MPI_Allreduce 0
349754520 MPI_Allreduce 1
349754576 MPI_Allreduce 0
349754576 MPI_Allreduce 1
349754632 MPI_Allreduce 0
349754632 MPI_Allreduce 1
349754689 MPI_Allreduce 0
349754689 MPI_Allreduce 1
349754745 MPI_Allreduce 0
349754745 MPI_Allreduce 1
349754801 MPI_Allreduce 0
349754801 MPI_Allreduce 1
349754857 MPI_Allreduce 0
349754857 MPI_Allreduce 1
349754914 MPI_Allreduce 0
349754914 MPI_Allreduce 1
349754970 MPI_Allreduce 0
349754970 MPI_Allreduce 1
349755025 MPI_Allreduce 0
349755025 MPI_Allreduce 1
349755081 MPI_Allreduce 0
349755081 MPI_Allreduce 1
349755138 MPI_Allreduce 0
349755138 MPI_Allreduce 1
349755194 MPI_Allreduce 0
349755194 MPI_Allreduce 1
349755250 MPI_Allreduce 0
349755250 MPI_Allreduce 1
349755306 MPI_Allreduce 0
349755306 MPI_Allreduce 1
349755363 MPI_Allreduce 0
349755363 MPI_Allreduce 1
349755419 MPI_Allreduce 0
349755419 MPI_Allreduce 1
349755475 MPI_Allreduce 0
349755475 MPI_Allreduce 1
349755531 MPI_Allreduce 0
349755531 MPI_Allreduce 1
349755587 MPI_Allreduce 0
349755587 MPI_Allreduce 1
349755644 MPI_Allreduce 0
349755644 MPI_Allreduce 1
349755700 MPI_Allreduce 0
349755700 MPI_Allreduce 1
349755756 MPI_Allreduce 0
349755756 MPI_Allreduce 1
349755812 MPI_Allreduce 0
349755812 MPI_Allreduce 1
349755869 MPI_Allreduce 0
349755869 MPI_Allreduce 1
349755925 MPI_Allreduce 0
349755925 MPI_Allreduce 1
349755981 MPI_Allreduce 0
349755981 MPI_Allreduce 1
349756038 MPI_Allreduce 0
349756038 MPI_Allreduce 1
349756094 MPI_Allreduce 0
349756094 MPI_Allreduce 1
349756150 MPI_Allreduce 0
349756150 MPI_Allreduce 1
349756206 MPI_Allreduce 0
349756206 MPI_Allreduce 1
349756263 MPI_Allreduce 0
349756263 MPI_Allreduce 1
349756319 MPI_Allreduce 0
349756319 MPI_Allreduce 1
349756375 MPI_Allreduce 0
349756375 MPI_Allreduce 1
349756431 MPI_Allreduce 0
349756431 MPI_Allreduce 1
349756488 MPI_Allreduce 0
349756488 MPI_Allreduce 1
349756544 MPI_Allreduce 0
349756544 MPI_Allreduce 1
349756600 MPI_Allreduce 0
349756600 MPI_Allreduce 1
349756657 MPI_Allreduce 0
349756657 MPI_Allreduce 1
349756713 MPI_Allreduce 0
349756713 MPI_Allreduce 1
349756769 MPI_Allreduce 0
349756769 MPI_Allreduce 1
349756825 MPI_Allreduce 0
349756825 MPI_Allreduce 1
349756882 MPI_Allreduce 0
349756882 MPI_Allreduce 1
349756938 MPI_Allreduce 0
349756938 MPI_Allreduce 1
349756994 MPI_Allreduce 0
349756994 MPI_Allreduce 1
349757051 MPI_Allreduce 0
349757051 MPI_Allreduce 1
349757107 MPI_Allreduce 0
349757107 MPI_Allreduce 1
349757163 MPI_Allreduce 0
349757163 MPI_Allreduce 1
349757220 MPI_Allreduce 0
349757220 MPI_Allreduce 1
349757276 MPI_Allreduce 0
349757276 MPI_Allreduce 1
349757332 MPI_Allreduce 0
349757332 MPI_Allreduce 1
349757388 MPI_Allreduce 0
349757388 MPI_Allreduce 1
349757444 MPI_Allreduce 0
349757444 MPI_Allreduce 1
349757501 MPI_Allreduce 0
349757501 MPI_Allreduce 1
349757557 MPI_Allreduce 0
349757557 MPI_Allreduce 1
349757613 MPI_Allreduce 0
349757613 MPI_Allreduce 1
349757670 MPI_Allreduce 0
349757670 MPI_Allreduce 1
349757726 MPI_Allreduce 0
349757726 MPI_Allreduce 1
349757782 MPI_Allreduce 0
349757782 MPI_Allreduce 1
349757838 MPI_Allreduce 0
349757838 MPI_Allreduce 1
349757895 MPI_Allreduce 0
349757895 MPI_Allreduce 1
349757951 MPI_Allreduce 0
349757951 MPI_Allreduce 1
349758007 MPI_Allreduce 0
349758007 MPI_Allreduce 1
349758064 MPI_Allreduce 0
349758064 MPI_Allreduce 1
349758120 MPI_Allreduce 0
349758120 MPI_Allreduce 1
349758176 MPI_Allreduce 0
349758176 MPI_Allreduce 1
349758233 MPI_Allreduce 0
349758233 MPI_Allreduce 1
349758289 MPI_Allreduce 0
349758289 MPI_Allreduce 1
349758345 MPI_Allreduce 0
349758345 MPI_Allreduce 1
349758401 MPI_Allreduce 0
349758401 MPI_Allreduce 1
349758458 MPI_Allreduce 0
349758458 MPI_Allreduce 1
349758514 MPI_Allreduce 0
349758514 MPI_Allreduce 1
349758570 MPI_Allreduce 0
349758570 MPI_Allreduce 1
349758626 MPI_Allreduce 0
349758626 MPI_Allreduce 1
349758683 MPI_Allreduce 0
349758683 MPI_Allreduce 1
349758739 MPI_Allreduce 0
349758739 MPI_Allreduce 1
349758795 MPI_Allreduce 0
349758795 MPI_Allreduce 1
349758852 MPI_Allreduce 0
349758852 MPI_Allreduce 1
349758908 MPI_Allreduce 0
349758908 MPI_Allreduce 1
349758964 MPI_Allreduce 0
349758964 MPI_Allreduce 1
349759020 MPI_Allreduce 0
349759020 MPI_Allreduce 1
349759077 MPI_Allreduce 0
349759077 MPI_Allreduce 1
349759133 MPI_Allreduce 0
349759133 MPI_Allreduce 1
349759189 MPI_Allreduce 0
349759189 MPI_Allreduce 1
349759245 MPI_Allreduce 0
349759245 MPI_Allreduce 1
349759302 MPI_Allreduce 0
349759302 MPI_Allreduce 1
349759358 MPI_Allreduce 0
349759358 MPI_Allreduce 1
349759414 MPI_Allreduce 0
349759414 MPI_Allreduce 1
349759471 MPI_Allreduce 0
349759471 MPI_Allreduce 1
349759527 MPI_Allreduce 0
349759527 MPI_Allreduce 1
349759583 MPI_Allreduce 0
349759583 MPI_Allreduce 1
349759639 MPI_Allreduce 0
349759639 MPI_Allreduce 1
349759696 MPI_Allreduce 0
349759696 MPI_Allreduce 1
349759752 MPI_Allreduce 0
349759752 MPI_Allreduce 1
349759808 MPI_Allreduce 0
349759808 MPI_Allreduce 1
349759864 MPI_Allreduce 0
349759864 MPI_Allreduce 1
349759921 MPI_Allreduce 0
349759921 MPI_Allreduce 1
349759977 MPI_Allreduce 0
349759977 MPI_Allreduce 1
349760033 MPI_Allreduce 0
349760033 MPI_Allreduce 1
349760090 MPI_Allreduce 0
349760090 MPI_Allreduce 1
349760146 MPI_Allreduce 0
349760146 MPI_Allreduce 1
349760202 MPI_Allreduce 0
349760202 MPI_Allreduce 1
349760258 MPI_Allreduce 0
349760258 MPI_Allreduce 1
349760315 MPI_Allreduce 0
349760315 MPI_Allreduce 1
349760371 MPI_Allreduce 0
349760371 MPI_Allreduce 1
349760427 MPI_Allreduce 0
349760427 MPI_Allreduce 1
349760483 MPI_Allreduce 0
349760483 MPI_Allreduce 1
349760540 MPI_Allreduce 0
349760540 MPI_Allreduce 1
349760596 MPI_Allreduce 0
349760596 MPI_Allreduce 1
349760652 MPI_Allreduce 0
349760652 MPI_Allreduce 1
349760708 MPI_Allreduce 0
349760708 MPI_Allreduce 1
349760765 MPI_Allreduce 0
349760765 MPI_Allreduce 1
349760821 MPI_Allreduce 0
349760821 MPI_Allreduce 1
349760877 MPI_Allreduce 0
349760877 MPI_Allreduce 1
349760934 MPI_Allreduce 0
349760934 MPI_Allreduce 1
349760990 MPI_Allreduce 0
349760990 MPI_Allreduce 1
349761046 MPI_Allreduce 0
349761046 MPI_Allreduce 1
349761103 MPI_Allreduce 0
349761103 MPI_Allreduce 1
349761159 MPI_Allreduce 0
349761159 MPI_Allreduce 1
349761215 MPI_Allreduce 0
349761215 MPI_Allreduce 1
349761272 MPI_Allreduce 0
349761272 MPI_Allreduce 1
349761329 MPI_Allreduce 0
349761329 MPI_Allreduce 1
349761385 MPI_Allreduce 0
349761385 MPI_Allreduce 1
349761441 MPI_Allreduce 0
349761441 MPI_Allreduce 1
349761498 MPI_Allreduce 0
349761498 MPI_Allreduce 1
349761554 MPI_Allreduce 0
349761554 MPI_Allreduce 1
349761610 MPI_Allreduce 0
349761610 MPI_Allreduce 1
349761667 MPI_Allreduce 0
349761667 MPI_Allreduce 1
349761723 MPI_Allreduce 0
349761723 MPI_Allreduce 1
349761779 MPI_Allreduce 0
349761779 MPI_Allreduce 1
349761835 MPI_Allreduce 0
349761835 MPI_Allreduce 1
349761892 MPI_Allreduce 0
349761892 MPI_Allreduce 1
349761948 MPI_Allreduce 0
349761948 MPI_Allreduce 1
349762004 MPI_Allreduce 0
349762004 MPI_Allreduce 1
349762061 MPI_Allreduce 0
349762061 MPI_Allreduce 1
349762117 MPI_Allreduce 0
349762117 MPI_Allreduce 1
349762173 MPI_Allreduce 0
349762173 MPI_Allreduce 1
349762230 MPI_Allreduce 0
349762230 MPI_Allreduce 1
349762286 MPI_Allreduce 0
349762286 MPI_Allreduce 1
349762342 MPI_Allreduce 0
349762342 MPI_Allreduce 1
349762398 MPI_Allreduce 0
349762398 MPI_Allreduce 1
349762455 MPI_Allreduce 0
349762455 MPI_Allreduce 1
349762511 MPI_Allreduce 0
349762511 MPI_Allreduce 1
349762567 MPI_Allreduce 0
349762567 MPI_Allreduce 1
349762623 MPI_Allreduce 0
349762623 MPI_Allreduce 1
349762680 MPI_Allreduce 0
349762680 MPI_Allreduce 1
349762736 MPI_Allreduce 0
349762736 MPI_Allreduce 1
349762792 MPI_Allreduce 0
349762792 MPI_Allreduce 1
349762849 MPI_Allreduce 0
349762849 MPI_Allreduce 1
349762905 MPI_Allreduce 0
349762905 MPI_Allreduce 1
349762961 MPI_Allreduce 0
349762961 MPI_Allreduce 1
349763018 MPI_Allreduce 0
349763018 MPI_Allreduce 1
349763074 MPI_Allreduce 0
349763074 MPI_Allreduce 1
349763130 MPI_Allreduce 0
349763130 MPI_Allreduce 1
349763186 MPI_Allreduce 0
349763186 MPI_Allreduce 1
349763243 MPI_Allreduce 0
349763243 MPI_Allreduce 1
349763299 MPI_Allreduce 0
349763299 MPI_Allreduce 1
349763355 MPI_Allreduce 0
349763355 MPI_Allreduce 1
349763411 MPI_Allreduce 0
349763411 MPI_Allreduce 1
349763468 MPI_Allreduce 0
349763468 MPI_Allreduce 1
349763524 MPI_Allreduce 0
349763524 MPI_Allreduce 1
349763580 MPI_Allreduce 0
349763580 MPI_Allreduce 1
349763637 MPI_Allreduce 0
349763637 MPI_Allreduce 1
349763693 MPI_Allreduce 0
349763693 MPI_Allreduce 1
349763749 MPI_Allreduce 0
349763749 MPI_Allreduce 1
349763805 MPI_Allreduce 0
349763805 MPI_Allreduce 1
349763861 MPI_Allreduce 0
349763861 MPI_Allreduce 1
349763917 MPI_Allreduce 0
349763917 MPI_Allreduce 1
349763973 MPI_Allreduce 0
349763973 MPI_Allreduce 1
349764030 MPI_Allreduce 0
349764030 MPI_Allreduce 1
349764086 MPI_Allreduce 0
349764086 MPI_Allreduce 1
349764142 MPI_Allreduce 0
349764142 MPI_Allreduce 1
349764199 MPI_Allreduce 0
349764199 MPI_Allreduce 1
349764255 MPI_Allreduce 0
349764255 MPI_Allreduce 1
349764311 MPI_Allreduce 0
349764311 MPI_Allreduce 1
349764368 MPI_Allreduce 0
349764368 MPI_Allreduce 1
349764424 MPI_Allreduce 0
349764424 MPI_Allreduce 1
349764480 MPI_Allreduce 0
349764480 MPI_Allreduce 1
349764537 MPI_Allreduce 0
349764537 MPI_Allreduce 1
349764593 MPI_Allreduce 0
349764593 MPI_Allreduce 1
349764649 MPI_Allreduce 0
349764649 MPI_Allreduce 1
349764706 MPI_Allreduce 0
349764706 MPI_Allreduce 1
349764762 MPI_Allreduce 0
349764762 MPI_Allreduce 1
349764818 MPI_Allreduce 0
349764818 MPI_Allreduce 1
349764875 MPI_Allreduce 0
349764875 MPI_Allreduce 1
349764931 MPI_Allreduce 0
349764931 MPI_Allreduce 1
349764987 MPI_Allreduce 0
349764987 MPI_Allreduce 1
349765043 MPI_Allreduce 0
349765043 MPI_Allreduce 1
349765100 MPI_Allreduce 0
349765100 MPI_Allreduce 1
349765156 MPI_Reduce 0
349765156 MPI_Reduce 1
