/dev/cpu/msr_batch: No such file or directory
graph_generation:               3.768699 s
construction_time:              1.002677 s
Running BFS 0
Time for BFS 0 is 0.373326
TEPS for BFS 0 is 4.49361e+07
Validating BFS 0
Validate time for BFS 0 is 1.306500
Running BFS 1
Time for BFS 1 is 0.373185
TEPS for BFS 1 is 4.49531e+07
Validating BFS 1
Validate time for BFS 1 is 1.304263
Running BFS 2
Time for BFS 2 is 0.372345
TEPS for BFS 2 is 4.50545e+07
Validating BFS 2
Validate time for BFS 2 is 1.302703
Running BFS 3
Time for BFS 3 is 0.372824
TEPS for BFS 3 is 4.49966e+07
Validating BFS 3
Validate time for BFS 3 is 1.302914
Running BFS 4
Time for BFS 4 is 0.373062
TEPS for BFS 4 is 4.49679e+07
Validating BFS 4
Validate time for BFS 4 is 1.303075
Running BFS 5
Time for BFS 5 is 0.372734
TEPS for BFS 5 is 4.50075e+07
Validating BFS 5
Validate time for BFS 5 is 1.305473
Running BFS 6
Time for BFS 6 is 0.372235
TEPS for BFS 6 is 4.50678e+07
Validating BFS 6
Validate time for BFS 6 is 1.299955
Running BFS 7
Time for BFS 7 is 0.372678
TEPS for BFS 7 is 4.50142e+07
Validating BFS 7
Validate time for BFS 7 is 1.299263
Running BFS 8
Time for BFS 8 is 0.372541
TEPS for BFS 8 is 4.50308e+07
Validating BFS 8
Validate time for BFS 8 is 1.301414
Running BFS 9
Time for BFS 9 is 0.372255
TEPS for BFS 9 is 4.50654e+07
Validating BFS 9
Validate time for BFS 9 is 1.302326
Running BFS 10
Time for BFS 10 is 0.372415
TEPS for BFS 10 is 4.5046e+07
Validating BFS 10
Validate time for BFS 10 is 1.306676
Running BFS 11
Time for BFS 11 is 0.372102
TEPS for BFS 11 is 4.50839e+07
Validating BFS 11
Validate time for BFS 11 is 1.300786
Running BFS 12
Time for BFS 12 is 0.371452
TEPS for BFS 12 is 4.51628e+07
Validating BFS 12
Validate time for BFS 12 is 1.300846
Running BFS 13
Time for BFS 13 is 0.371231
TEPS for BFS 13 is 4.51897e+07
Validating BFS 13
Validate time for BFS 13 is 1.302944
Running BFS 14
Time for BFS 14 is 0.372793
TEPS for BFS 14 is 4.50004e+07
Validating BFS 14
Validate time for BFS 14 is 1.301827
Running BFS 15
Time for BFS 15 is 0.371267
TEPS for BFS 15 is 4.51853e+07
Validating BFS 15
Validate time for BFS 15 is 1.301495
Running BFS 16
Time for BFS 16 is 0.372356
TEPS for BFS 16 is 4.50532e+07
Validating BFS 16
Validate time for BFS 16 is 1.302931
Running BFS 17
Time for BFS 17 is 0.372144
TEPS for BFS 17 is 4.50789e+07
Validating BFS 17
Validate time for BFS 17 is 1.306749
Running BFS 18
Time for BFS 18 is 0.372140
TEPS for BFS 18 is 4.50793e+07
Validating BFS 18
Validate time for BFS 18 is 1.305567
Running BFS 19
Time for BFS 19 is 0.372715
TEPS for BFS 19 is 4.50098e+07
Validating BFS 19
Validate time for BFS 19 is 1.305276
Running BFS 20
Time for BFS 20 is 0.372248
TEPS for BFS 20 is 4.50663e+07
Validating BFS 20
Validate time for BFS 20 is 1.298157
Running BFS 21
Time for BFS 21 is 0.372669
TEPS for BFS 21 is 4.50153e+07
Validating BFS 21
Validate time for BFS 21 is 1.305137
Running BFS 22
Time for BFS 22 is 0.372550
TEPS for BFS 22 is 4.50297e+07
Validating BFS 22
Validate time for BFS 22 is 1.300681
Running BFS 23
Time for BFS 23 is 0.372949
TEPS for BFS 23 is 4.49815e+07
Validating BFS 23
Validate time for BFS 23 is 1.307622
Running BFS 24
Time for BFS 24 is 0.371183
TEPS for BFS 24 is 4.51955e+07
Validating BFS 24
Validate time for BFS 24 is 1.302019
Running BFS 25
Time for BFS 25 is 0.372410
TEPS for BFS 25 is 4.50466e+07
Validating BFS 25
Validate time for BFS 25 is 1.304949
Running BFS 26
Time for BFS 26 is 0.372719
TEPS for BFS 26 is 4.50093e+07
Validating BFS 26
Validate time for BFS 26 is 1.304598
Running BFS 27
Time for BFS 27 is 0.372206
TEPS for BFS 27 is 4.50713e+07
Validating BFS 27
Validate time for BFS 27 is 1.297184
Running BFS 28
Time for BFS 28 is 0.371047
TEPS for BFS 28 is 4.52121e+07
Validating BFS 28
Validate time for BFS 28 is 1.304985
Running BFS 29
Time for BFS 29 is 0.370612
TEPS for BFS 29 is 4.52652e+07
Validating BFS 29
Validate time for BFS 29 is 1.303689
Running BFS 30
Time for BFS 30 is 0.371877
TEPS for BFS 30 is 4.51112e+07
Validating BFS 30
Validate time for BFS 30 is 1.303756
Running BFS 31
Time for BFS 31 is 0.372751
TEPS for BFS 31 is 4.50054e+07
Validating BFS 31
Validate time for BFS 31 is 1.303708
Running BFS 32
Time for BFS 32 is 0.372477
TEPS for BFS 32 is 4.50385e+07
Validating BFS 32
Validate time for BFS 32 is 1.302031
Running BFS 33
Time for BFS 33 is 0.372220
TEPS for BFS 33 is 4.50696e+07
Validating BFS 33
Validate time for BFS 33 is 1.303525
Running BFS 34
Time for BFS 34 is 0.372279
TEPS for BFS 34 is 4.50625e+07
Validating BFS 34
Validate time for BFS 34 is 1.302397
Running BFS 35
Time for BFS 35 is 0.372238
TEPS for BFS 35 is 4.50674e+07
Validating BFS 35
Validate time for BFS 35 is 1.299616
Running BFS 36
Time for BFS 36 is 0.370951
TEPS for BFS 36 is 4.52238e+07
Validating BFS 36
Validate time for BFS 36 is 1.301214
Running BFS 37
Time for BFS 37 is 0.372608
TEPS for BFS 37 is 4.50227e+07
Validating BFS 37
Validate time for BFS 37 is 1.304322
Running BFS 38
Time for BFS 38 is 0.371440
TEPS for BFS 38 is 4.51643e+07
Validating BFS 38
Validate time for BFS 38 is 1.303544
Running BFS 39
Time for BFS 39 is 0.372810
TEPS for BFS 39 is 4.49983e+07
Validating BFS 39
Validate time for BFS 39 is 1.299986
Running BFS 40
Time for BFS 40 is 0.372621
TEPS for BFS 40 is 4.50211e+07
Validating BFS 40
Validate time for BFS 40 is 1.302292
Running BFS 41
Time for BFS 41 is 0.371606
TEPS for BFS 41 is 4.51442e+07
Validating BFS 41
Validate time for BFS 41 is 1.304081
Running BFS 42
Time for BFS 42 is 0.371890
TEPS for BFS 42 is 4.51097e+07
Validating BFS 42
Validate time for BFS 42 is 1.299323
Running BFS 43
Time for BFS 43 is 0.372293
TEPS for BFS 43 is 4.50607e+07
Validating BFS 43
Validate time for BFS 43 is 1.299551
Running BFS 44
Time for BFS 44 is 0.371574
TEPS for BFS 44 is 4.5148e+07
Validating BFS 44
Validate time for BFS 44 is 1.301838
Running BFS 45
Time for BFS 45 is 0.371703
TEPS for BFS 45 is 4.51323e+07
Validating BFS 45
Validate time for BFS 45 is 1.303332
Running BFS 46
Time for BFS 46 is 0.370925
TEPS for BFS 46 is 4.5227e+07
Validating BFS 46
Validate time for BFS 46 is 1.303033
Running BFS 47
Time for BFS 47 is 0.372505
TEPS for BFS 47 is 4.50351e+07
Validating BFS 47
Validate time for BFS 47 is 1.303856
Running BFS 48
Time for BFS 48 is 0.370717
TEPS for BFS 48 is 4.52524e+07
Validating BFS 48
Validate time for BFS 48 is 1.301154
Running BFS 49
Time for BFS 49 is 0.371092
TEPS for BFS 49 is 4.52066e+07
Validating BFS 49
Validate time for BFS 49 is 1.301163
Running BFS 50
Time for BFS 50 is 0.371674
TEPS for BFS 50 is 4.51358e+07
Validating BFS 50
Validate time for BFS 50 is 1.301841
Running BFS 51
Time for BFS 51 is 0.371819
TEPS for BFS 51 is 4.51183e+07
Validating BFS 51
Validate time for BFS 51 is 1.298442
Running BFS 52
Time for BFS 52 is 0.371057
TEPS for BFS 52 is 4.52108e+07
Validating BFS 52
Validate time for BFS 52 is 1.297774
Running BFS 53
Time for BFS 53 is 0.370173
TEPS for BFS 53 is 4.53188e+07
Validating BFS 53
Validate time for BFS 53 is 1.305498
Running BFS 54
Time for BFS 54 is 0.370271
TEPS for BFS 54 is 4.53068e+07
Validating BFS 54
Validate time for BFS 54 is 1.293587
Running BFS 55
Time for BFS 55 is 0.370182
TEPS for BFS 55 is 4.53177e+07
Validating BFS 55
Validate time for BFS 55 is 1.299077
Running BFS 56
Time for BFS 56 is 0.372238
TEPS for BFS 56 is 4.50675e+07
Validating BFS 56
Validate time for BFS 56 is 1.304451
Running BFS 57
Time for BFS 57 is 0.373691
TEPS for BFS 57 is 4.48922e+07
Validating BFS 57
Validate time for BFS 57 is 1.305064
Running BFS 58
Time for BFS 58 is 0.372457
TEPS for BFS 58 is 4.5041e+07
Validating BFS 58
Validate time for BFS 58 is 1.292769
Running BFS 59
Time for BFS 59 is 0.373125
TEPS for BFS 59 is 4.49603e+07
Validating BFS 59
Validate time for BFS 59 is 1.299556
Running BFS 60
Time for BFS 60 is 0.370622
TEPS for BFS 60 is 4.5264e+07
Validating BFS 60
Validate time for BFS 60 is 1.297433
Running BFS 61
Time for BFS 61 is 0.370623
TEPS for BFS 61 is 4.52638e+07
Validating BFS 61
Validate time for BFS 61 is 1.298535
Running BFS 62
Time for BFS 62 is 0.370346
TEPS for BFS 62 is 4.52977e+07
Validating BFS 62
Validate time for BFS 62 is 1.303468
Running BFS 63
Time for BFS 63 is 0.371452
TEPS for BFS 63 is 4.51628e+07
Validating BFS 63
Validate time for BFS 63 is 1.301219
real	1m 59.83s
user	3m 51.81s
sys	0m 7.76s
