time(ms) energy(J) hostname
487905065 0.000000 box
487905165 0.955383 box
487905265 0.941772 box
487905365 0.988647 box
487905465 0.987549 box
487905565 0.986206 box
487905665 0.987732 box
487905765 0.986511 box
487905865 0.985840 box
487905965 0.987976 box
487906065 0.988525 box
487906165 0.994690 box
487906265 0.996094 box
487906365 0.996521 box
487906465 0.995361 box
487906565 0.995728 box
487906665 0.996216 box
487906765 0.994873 box
487906865 0.995239 box
487906965 0.996521 box
487907065 0.961670 box
487907165 0.952026 box
487907265 0.967407 box
487907365 0.992432 box
487907465 0.995300 box
487907565 0.996094 box
487907665 0.995972 box
487907765 0.996399 box
487907865 0.996277 box
487907965 0.996521 box
487908065 0.996521 box
487908165 0.996582 box
487908265 0.995667 box
487908365 0.996155 box
487908465 0.996948 box
487908565 0.995972 box
487908665 0.996887 box
487908765 0.996216 box
487908865 0.996216 box
487908965 0.997009 box
487909065 0.996704 box
487909165 0.996399 box
487909265 0.995972 box
487909365 0.996582 box
487909465 0.996765 box
487909565 0.996765 box
487909665 0.996521 box
487909765 0.996033 box
487909865 0.996948 box
487909965 0.996826 box
487910065 0.989319 box
487910165 0.998291 box
487910265 0.997314 box
487910365 0.995178 box
487910465 0.996277 box
487910565 0.996216 box
487910665 0.996094 box
487910765 0.996582 box
487910865 0.995728 box
487910965 0.997314 box
487911065 0.996094 box
487911165 0.995544 box
487911265 0.996826 box
487911365 0.996155 box
487911465 0.996460 box
487911565 0.996704 box
487911665 0.995422 box
487911765 0.996460 box
487911865 0.996704 box
487911965 0.996521 box
487912065 0.996277 box
487912165 0.996399 box
487912265 0.996521 box
487912365 0.996643 box
487912465 0.995422 box
487912565 0.996948 box
487912665 0.996521 box
487912765 0.995850 box
487912865 0.995544 box
487912965 0.996216 box
487913065 0.995667 box
487913165 0.996948 box
487913265 0.996338 box
487913365 0.995300 box
487913465 0.996216 box
487913565 0.996094 box
487913665 0.996887 box
487913765 0.995728 box
487913865 0.997681 box
487913965 0.997131 box
487914065 0.995483 box
487914165 0.996460 box
487914265 0.996460 box
487914365 0.995911 box
487914465 0.995544 box
487914565 0.997253 box
487914665 0.996216 box
487914765 0.996155 box
487914865 0.995544 box
487914965 0.997070 box
487915065 0.995789 box
487915165 0.996094 box
487915265 0.995422 box
487915365 0.997070 box
487915465 0.995117 box
487915565 0.996582 box
487915665 0.997620 box
487915765 0.996216 box
487915865 0.995544 box
487915965 0.997253 box
487916065 0.995605 box
487916165 0.996033 box
487916265 0.996643 box
487916365 0.996277 box
487916465 0.998718 box
487916565 0.995789 box
487916665 0.995789 box
487916765 0.996338 box
487916865 0.997192 box
487916965 0.996155 box
487917065 0.996948 box
487917165 0.996216 box
487917265 0.995911 box
487917365 0.996216 box
487917465 0.997375 box
487917565 0.995422 box
487917665 0.996582 box
487917765 0.996704 box
487917865 0.996704 box
487917965 0.995300 box
487918065 0.997375 box
487918165 0.995056 box
487918265 0.997620 box
487918365 0.995544 box
487918465 0.996643 box
487918565 0.995789 box
487918665 0.996521 box
487918765 0.995850 box
487918865 0.996399 box
487918965 0.996704 box
487919065 0.995728 box
487919165 0.996338 box
487919265 0.996216 box
487919365 0.996399 box
487919465 0.995911 box
487919565 0.995911 box
487919665 0.995850 box
487919765 0.996765 box
487919865 0.997437 box
487919965 0.995544 box
487920065 0.995728 box
487920165 0.995728 box
487920265 0.996948 box
487920365 0.996216 box
487920465 0.996338 box
487920565 0.996704 box
487920665 0.995850 box
487920765 0.996643 box
487920865 0.995483 box
487920965 0.996460 box
487921065 0.995422 box
487921165 0.996826 box
487921265 0.995972 box
487921365 0.996277 box
487921465 0.996521 box
487921565 0.996094 box
487921665 0.996887 box
487921765 0.995972 box
487921865 0.997253 box
487921965 0.997070 box
487922065 0.995789 box
487922165 0.996521 box
487922265 0.996399 box
487922365 0.995483 box
487922465 0.995972 box
487922565 0.996704 box
487922665 0.996704 box
487922765 0.996765 box
487922865 0.996216 box
487922965 0.996887 box
487923065 0.996460 box
487923165 0.996399 box
487923265 0.995667 box
487923365 0.996582 box
487923465 0.995789 box
487923565 0.995483 box
487923665 0.997437 box
487923765 0.996826 box
487923865 0.995300 box
487923965 0.996277 box
487924065 0.996277 box
487924165 0.996033 box
487924265 0.996155 box
487924365 0.996887 box
487924465 0.996338 box
487924565 0.995789 box
487924665 0.996887 box
487924765 0.996521 box
487924865 0.996704 box
487924965 0.996643 box
487925065 0.995667 box
487925165 0.996338 box
487925265 0.996277 box
487925365 0.996277 box
487925465 0.996033 box
487925565 0.996948 box
487925665 0.996399 box
487925765 0.995483 box
487925865 0.996643 box
487925965 0.995544 box
487926065 0.996155 box
487926165 0.997375 box
487926265 0.995178 box
487926365 0.995605 box
487926465 0.996460 box
487926565 0.996460 box
487926665 0.995789 box
487926765 0.996338 box
487926865 0.996216 box
487926965 0.996948 box
487927065 0.996216 box
487927165 0.996887 box
487927265 0.996033 box
487927365 0.995972 box
487927465 0.997009 box
487927565 0.994446 box
487927665 0.997192 box
487927765 0.995361 box
487927865 0.997070 box
487927965 0.996399 box
487928065 0.996765 box
487928165 0.995605 box
487928265 0.996460 box
487928365 0.996094 box
487928465 0.997009 box
487928565 0.995728 box
487928665 0.997131 box
487928765 0.996582 box
487928865 0.994629 box
487928965 0.996338 box
487929065 0.998657 box
487929165 0.996460 box
487929265 0.995911 box
487929365 0.996155 box
487929465 0.996338 box
487929565 0.995972 box
487929665 0.996826 box
487929765 0.995850 box
487929865 0.995544 box
487929965 0.997131 box
487930065 0.996460 box
487930165 0.997192 box
487930265 0.995728 box
487930365 0.996277 box
487930465 0.996765 box
487930565 0.996460 box
487930665 0.996643 box
487930765 0.996338 box
487930865 0.996155 box
487930965 0.996887 box
487931065 0.995667 box
487931165 0.997192 box
487931265 0.995850 box
487931365 0.996765 box
487931465 0.995850 box
487931565 0.996216 box
487931665 0.996887 box
487931765 0.995605 box
487931865 0.996216 box
487931965 0.996826 box
487932065 0.996887 box
487932165 0.995117 box
487932265 0.996582 box
487932365 0.996765 box
487932465 0.996033 box
487932565 0.996826 box
487932665 0.877808 box
487932765 0.865295 box
487932865 0.846802 box
487932965 0.847717 box
487933065 0.846802 box
487933165 0.845459 box
487933265 0.847168 box
487933365 0.846619 box
487933465 0.844849 box
487933565 0.847717 box
487933665 0.844849 box
487933765 0.847900 box
487933865 0.846802 box
487933965 0.845825 box
487934065 0.846741 box
487934165 0.848206 box
487934265 0.849243 box
487934365 0.848633 box
487934465 0.846741 box
487934565 0.848389 box
487934665 0.850647 box
487934765 0.849487 box
487934865 0.847595 box
487934965 0.847229 box
487935065 0.847046 box
487935165 0.849243 box
487935265 0.845764 box
487935365 0.845276 box
487935465 0.843567 box
487935565 0.843140 box
487935665 0.843567 box
487935765 0.841553 box
487935865 0.842712 box
487935965 0.842163 box
487936065 0.843262 box
487936165 0.842834 box
487936265 0.841736 box
487936365 0.842712 box
487936465 0.843994 box
487936565 0.843811 box
487936665 0.843323 box
487936765 0.843384 box
487936865 0.844299 box
487936965 0.844543 box
487937065 0.843933 box
487937165 0.843506 box
487937265 0.843689 box
487937365 0.843018 box
487937465 0.843323 box
487937565 0.843079 box
487937665 0.844604 box
487937765 0.842407 box
487937865 0.843567 box
487937965 0.843506 box
487938065 0.843262 box
487938165 0.843323 box
487938265 0.843689 box
487938365 0.844849 box
487938465 0.842712 box
487938565 0.843201 box
487938665 0.842834 box
487938765 0.843140 box
487938865 0.839233 box
487938965 0.839783 box
487939065 0.841614 box
487939165 0.844177 box
487939265 0.841064 box
487939365 0.840210 box
487939465 0.842346 box
487939565 0.843933 box
487939665 0.843079 box
487939765 0.841675 box
487939865 0.840088 box
487939965 0.841187 box
487940065 0.843201 box
487940165 0.841431 box
487940265 0.840027 box
487940365 0.841553 box
487940465 0.842102 box
487940565 0.842773 box
487940665 0.838928 box
487940765 0.842773 box
487940865 0.842102 box
487940965 0.843079 box
487941065 0.839905 box
487941165 0.841736 box
487941265 0.841492 box
487941365 0.842102 box
487941465 0.846252 box
487941565 0.842407 box
487941665 0.832031 box
487941765 0.830811 box
487941865 0.824402 box
487941965 0.827454 box
487942065 0.827148 box
487942165 0.828430 box
487942265 0.826782 box
487942365 0.826721 box
487942465 0.827759 box
487942565 0.827454 box
487942665 0.826843 box
487942765 0.799438 box
487942865 0.796814 box
487942965 0.797668 box
487943065 0.798889 box
487943165 0.799316 box
487943265 0.795959 box
487943365 0.799866 box
487943465 0.802795 box
487943565 0.799194 box
487943665 0.796875 box
487943765 0.796082 box
487943865 0.799072 box
487943965 0.799622 box
487944065 0.803650 box
487944165 0.803528 box
487944265 0.803345 box
487944365 0.808167 box
487944465 0.805786 box
487944565 0.802612 box
487944665 0.829834 box
487944765 0.939026 box
487944865 0.982544 box
487944965 0.981201 box
487945065 0.980835 box
487945165 0.980164 box
487945265 0.983093 box
487945365 0.983459 box
487945465 0.981140 box
487945565 0.981750 box
487945665 0.981628 box
487945765 0.982483 box
487945865 0.980408 box
487945965 0.982361 box
487946065 0.982483 box
487946165 0.982666 box
487946265 0.980652 box
487946365 0.982544 box
487946465 0.982361 box
487946565 0.980774 box
487946665 0.982056 box
487946765 0.983154 box
487946865 0.982178 box
487946965 0.982483 box
487947065 0.980530 box
487947165 0.984070 box
487947265 0.980835 box
487947365 0.982422 box
487947465 0.982300 box
487947565 0.981812 box
487947665 0.964233 box
487947765 0.950317 box
487947865 0.944275 box
487947965 0.987732 box
487948065 0.996765 box
487948165 0.998962 box
487948265 0.989441 box
487948365 1.001465 box
487948465 0.990112 box
487948565 0.996460 box
487948665 0.995667 box
487948765 0.963745 box
487948865 0.997192 box
487948965 0.995605 box
487949065 0.996643 box
487949165 0.987732 box
487949265 0.978271 box
487949365 0.996094 box
487949465 0.996582 box
487949565 0.996155 box
487949665 0.976746 box
487949765 0.987427 box
487949865 0.996704 box
487949965 0.996155 box
487950065 0.996826 box
487950165 0.968872 box
487950265 0.996948 box
487950365 0.996399 box
487950465 0.995850 box
487950565 0.995667 box
487950665 0.970032 box
487950765 0.996155 box
487950865 0.995972 box
487950965 0.995972 box
487951065 0.987671 box
487951165 0.974121 box
487951265 0.996582 box
487951365 0.996399 box
487951465 1.001160 box
487951565 0.992920 box
487951665 1.000183 box
487951765 0.999084 box
487951865 0.993347 box
487951965 0.997131 box
487952065 0.965881 box
487952165 0.992004 box
487952265 0.996338 box
487952365 0.996826 box
487952465 0.996277 box
487952565 0.966003 box
487952665 0.998596 box
487952765 0.995911 box
487952865 0.997314 box
487952965 0.994812 box
487953065 0.969238 box
487953165 0.995605 box
487953265 0.997314 box
487953365 0.994629 box
487953465 0.990784 box
487953565 0.974060 box
487953665 0.996094 box
487953765 0.998718 box
487953865 0.996338 box
487953965 0.982910 box
487954065 0.981201 box
487954165 0.996155 box
487954265 0.996460 box
487954365 0.995972 box
487954465 0.979065 box
487954565 0.987549 box
487954665 0.996277 box
487954765 0.996521 box
487954865 0.995483 box
487954965 0.966492 box
487955065 1.004456 box
487955165 0.997070 box
487955265 0.999146 box
487955365 0.992615 box
487955465 0.996948 box
487955565 0.992126 box
487955665 0.996704 box
487955765 0.996338 box
487955865 0.992737 box
487955965 0.974976 box
487956065 0.996094 box
487956165 0.997986 box
487956265 0.995178 box
487956365 0.988342 box
487956465 0.975220 box
487956565 0.995667 box
487956665 0.995972 box
487956765 0.997070 box
487956865 0.979492 box
487956965 0.984802 box
487957065 0.996033 box
487957165 0.996765 box
487957265 0.996521 box
487957365 0.982605 box
487957465 0.987061 box
487957565 0.995850 box
487957665 0.996765 box
487957765 0.996033 box
487957865 0.978394 box
487957965 0.992065 box
487958065 0.996582 box
487958165 0.996033 box
487958265 0.995850 box
487958365 0.964539 box
487958465 0.997925 box
487958565 1.002014 box
487958665 0.995728 box
487958765 0.996887 box
487958865 0.995972 box
487958965 0.996338 box
487959065 0.996460 box
487959165 0.991394 box
487959265 0.995300 box
487959365 0.966003 box
487959465 0.996399 box
487959565 0.996399 box
487959665 0.996887 box
487959765 0.995850 box
487959865 0.966248 box
487959965 0.996460 box
487960065 0.996277 box
487960165 0.996643 box
487960265 0.994751 box
487960365 0.970276 box
487960465 0.996582 box
487960565 0.996277 box
487960665 0.996033 box
487960765 0.994995 box
487960865 0.966797 box
487960965 0.996338 box
487961065 0.995972 box
487961165 0.995972 box
487961265 0.994385 box
487961365 0.970825 box
487961465 0.996094 box
487961565 0.996399 box
487961665 0.997314 box
487961765 0.991272 box
487961865 0.969238 box
487961965 0.996277 box
487962065 0.996399 box
487962165 1.001099 box
487962265 0.992493 box
487962365 1.002258 box
487962465 0.995056 box
487962565 0.996216 box
487962665 0.996521 box
487962765 0.983276 box
487962865 0.974915 box
487962965 0.996826 box
487963065 0.996216 box
487963165 0.996033 box
487963265 0.990601 box
487963365 0.971802 box
487963465 0.996338 box
487963565 0.996216 box
487963665 0.996399 box
487963765 0.989990 box
487963865 0.973206 box
487963965 0.996155 box
487964065 0.997253 box
487964165 0.996460 box
487964265 0.992188 box
487964365 0.970825 box
487964465 0.996765 box
487964565 0.996338 box
487964665 0.997131 box
487964765 0.989014 box
487964865 0.976257 box
487964965 0.996155 box
487965065 0.996704 box
487965165 0.997314 box
487965265 0.989746 box
487965365 0.974060 box
487965465 0.996704 box
487965565 0.995728 box
487965665 0.996582 box
487965765 0.997375 box
487965865 1.000244 box
487965965 0.999084 box
487966065 0.994690 box
487966165 0.995728 box
487966265 0.985413 box
487966365 0.971558 box
487966465 0.996277 box
487966565 0.996521 box
487966665 0.995789 box
487966765 0.990356 box
487966865 0.970886 box
487966965 0.996704 box
487967065 0.995605 box
487967165 0.996521 box
487967265 0.989197 box
487967365 0.971680 box
487967465 0.996582 box
487967565 0.997009 box
487967665 0.995728 box
487967765 0.990417 box
487967865 0.972107 box
487967965 0.996582 box
487968065 0.996216 box
487968165 0.996826 box
487968265 0.989441 box
487968365 0.971436 box
487968465 0.999329 box
487968565 0.995911 box
487968665 0.997498 box
487968765 0.987122 box
487968865 0.975342 box
487968965 0.996094 box
487969065 0.996460 box
487969165 0.997070 box
487969265 0.996582 box
487969365 1.000610 box
487969465 0.998596 box
487969565 0.994324 box
487969665 0.997803 box
487969765 0.986816 box
487969865 0.980347 box
487969965 0.996094 box
487970065 0.996033 box
487970165 0.996643 box
487970265 0.985901 box
487970365 0.977295 box
487970465 0.996521 box
487970565 0.996338 box
487970665 0.996399 box
487970765 0.988647 box
487970865 0.977539 box
487970965 0.995667 box
487971065 0.996704 box
487971165 0.996704 box
487971265 0.988770 box
487971365 0.974426 box
487971465 0.996155 box
487971565 0.996521 box
487971665 0.997253 box
487971765 0.987793 box
487971865 0.976013 box
487971965 0.995911 box
487972065 0.996643 box
487972165 0.996338 box
487972265 0.989319 box
487972365 0.973389 box
487972465 0.996399 box
487972565 0.996826 box
487972665 0.996033 box
487972765 0.997498 box
487972865 0.999878 box
487972965 0.996948 box
487973065 0.998535 box
487973165 0.995056 box
487973265 0.993103 box
487973365 0.981628 box
487973465 0.995972 box
487973565 0.997009 box
487973665 0.995850 box
487973765 0.993591 box
487973865 0.970032 box
487973965 0.996277 box
487974065 0.996155 box
487974165 0.997253 box
487974265 0.995056 box
487974365 0.969055 box
487974465 0.996155 box
487974565 0.996033 box
487974665 0.996643 box
487974765 0.994995 box
487974865 0.968933 box
487974965 0.996216 box
487975065 0.996582 box
487975165 0.995850 box
487975265 0.995056 box
487975365 0.969849 box
487975465 0.995972 box
487975565 0.996338 box
487975665 0.996033 box
487975765 0.994568 box
487975865 0.970215 box
487975965 0.997620 box
487976065 0.995728 box
487976165 0.996216 box
487976265 0.995300 box
487976365 0.990906 box
487976465 0.996460 box
487976565 0.999023 box
487976665 0.994202 box
487976765 0.994568 box
487976865 0.990540 box
487976965 0.996948 box
487977065 0.995667 box
487977165 0.996887 box
487977265 0.995728 box
487977365 0.966248 box
487977465 0.996704 box
487977565 0.996460 box
487977665 0.996582 box
487977765 0.994995 box
487977865 0.968140 box
487977965 0.996216 box
487978065 0.995667 box
487978165 0.996521 box
487978265 0.995850 box
487978365 0.967651 box
487978465 0.997009 box
487978565 0.996338 box
487978665 0.996399 box
487978765 0.996155 box
487978865 0.966980 box
487978965 0.996216 box
487979065 0.996277 box
487979165 0.996277 box
487979265 0.995911 box
487979365 0.968384 box
487979465 0.996338 box
487979565 0.996948 box
487979665 0.996155 box
487979765 0.995911 box
487979865 0.977539 box
487979965 0.997803 box
487980065 0.995972 box
487980165 0.996826 box
487980265 0.996277 box
487980365 0.993652 box
487980465 0.994446 box
487980565 0.996460 box
487980665 0.996887 box
487980765 0.996338 box
487980865 0.965759 box
487980965 0.998047 box
487981065 0.996704 box
487981165 0.995422 box
487981265 0.997253 box
487981365 0.966614 box
487981465 0.996887 box
487981565 0.997375 box
487981665 0.996155 box
487981765 0.996155 box
487981865 0.966980 box
487981965 0.996948 box
487982065 0.996460 box
487982165 0.996582 box
487982265 0.996887 box
487982365 0.965942 box
487982465 0.998108 box
487982565 0.996521 box
487982665 0.996582 box
487982765 0.996155 box
487982865 0.965881 box
487982965 0.996338 box
487983065 0.996216 box
487983165 0.997009 box
487983265 0.999268 box
487983365 0.968689 box
487983465 1.000427 box
487983565 0.996582 box
487983665 0.998535 box
487983765 0.994751 box
487983865 0.991821 box
487983965 0.995544 box
487984065 0.996826 box
487984165 0.996704 box
487984265 0.996033 box
487984365 0.970154 box
487984465 0.993225 box
487984565 0.996765 box
487984665 0.996826 box
487984765 0.995911 box
487984865 0.969727 box
487984965 0.993103 box
487985065 0.995728 box
487985165 0.996765 box
487985265 0.996521 box
487985365 0.971680 box
487985465 0.993774 box
487985565 0.996033 box
487985665 0.997009 box
487985765 0.996887 box
487985865 0.969910 box
487985965 0.993286 box
487986065 0.996948 box
487986165 0.996338 box
487986265 0.996155 box
487986365 0.972595 box
487986465 0.993774 box
487986565 0.996094 box
487986665 0.996826 box
487986765 0.996277 box
487986865 0.973633 box
487986965 0.997009 box
487987065 0.996582 box
487987165 0.999451 box
487987265 0.993774 box
487987365 0.993286 box
487987465 0.997131 box
487987565 0.993042 box
487987665 0.996826 box
487987765 0.996094 box
487987865 0.978821 box
487987965 0.987366 box
487988065 0.996338 box
487988165 0.996765 box
487988265 0.996399 box
487988365 0.977661 box
487988465 0.988159 box
487988565 0.997375 box
487988665 0.996033 box
487988765 0.995911 box
487988865 0.977417 box
487988965 0.988037 box
487989065 0.995972 box
487989165 0.996460 box
487989265 0.996338 box
487989365 0.974792 box
487989465 0.990112 box
487989565 0.996033 box
487989665 0.995850 box
487989765 0.996216 box
487989865 0.975159 box
487989965 0.990601 box
487990065 0.995483 box
487990165 0.997559 box
487990265 0.996033 box
487990365 0.975342 box
487990465 0.990356 box
487990565 0.999329 box
487990665 0.996033 box
487990765 0.999390 box
487990865 0.990356 box
487990965 1.000000 box
487991065 0.991089 box
487991165 0.996582 box
487991265 0.996399 box
487991365 0.976074 box
487991465 0.988342 box
487991565 0.995911 box
487991665 0.996948 box
487991765 0.996338 box
487991865 0.976929 box
487991965 0.986450 box
487992065 0.996765 box
487992165 0.996460 box
487992265 0.996399 box
487992365 0.978455 box
487992465 0.987488 box
487992565 0.996216 box
487992665 0.997314 box
487992765 0.996582 box
487992865 0.977234 box
487992965 0.987793 box
487993065 0.996460 box
487993165 0.995850 box
487993265 0.996155 box
487993365 0.977844 box
487993465 0.986328 box
487993565 0.996399 box
487993665 0.996826 box
487993765 0.997070 box
487993865 0.975952 box
487993965 0.988708 box
487994065 1.001526 box
487994165 0.996704 box
487994265 0.998474 box
487994365 0.990173 box
487994465 1.001221 box
487994565 0.990540 box
487994665 0.996643 box
487994765 0.996643 box
487994865 0.975891 box
487994965 0.988098 box
487995065 0.996399 box
487995165 0.995605 box
487995265 0.996399 box
487995365 0.976501 box
487995465 0.988098 box
487995565 0.996521 box
487995665 0.996826 box
487995765 0.995972 box
487995865 0.976624 box
487995965 0.987854 box
487996065 0.996582 box
487996165 0.995972 box
487996265 0.996826 box
487996365 0.978088 box
487996465 0.987488 box
487996565 0.996643 box
487996665 0.997131 box
487996765 0.996399 box
487996865 0.979187 box
487996965 0.985291 box
487997065 0.996460 box
487997165 0.997192 box
487997265 0.996338 box
487997365 0.979065 box
487997465 0.984619 box
487997565 1.000122 box
487997665 0.996338 box
487997765 0.996765 box
487997865 0.994812 box
487997965 0.998108 box
487998065 0.996216 box
487998165 0.992371 box
487998265 0.996704 box
487998365 0.981506 box
487998465 0.985046 box
487998565 0.996460 box
487998665 0.996826 box
487998765 0.995972 box
487998865 0.982239 box
487998965 0.981812 box
487999065 0.997314 box
487999165 0.995544 box
487999265 0.996521 box
487999365 0.984375 box
487999465 0.981445 box
487999565 0.996277 box
487999665 0.996399 box
487999765 0.997009 box
487999865 0.984436 box
487999965 0.981689 box
488000065 0.996643 box
488000165 0.996826 box
488000265 0.996582 box
488000365 0.985046 box
488000465 0.980225 box
488000565 0.996643 box
488000665 0.996460 box
488000765 0.996460 box
488000865 0.986755 box
488000965 0.978333 box
488001065 0.996704 box
488001165 1.001892 box
488001265 0.996155 box
488001365 0.992737 box
488001465 1.002563 box
488001565 0.994446 box
488001665 0.996216 box
488001765 0.991211 box
488001865 0.988281 box
488001965 0.975708 box
488002065 0.996826 box
488002165 0.996399 box
488002265 0.995667 box
488002365 0.989502 box
488002465 0.976196 box
488002565 0.996216 box
488002665 0.996521 box
488002765 0.996460 box
488002865 0.991089 box
488002965 0.975159 box
488003065 0.996094 box
488003165 0.996521 box
488003265 0.996460 box
488003365 0.993652 box
488003465 0.972900 box
488003565 0.996094 box
488003665 0.996399 box
488003765 0.996460 box
488003865 0.993164 box
488003965 0.972168 box
488004065 0.996094 box
488004165 0.996826 box
488004265 0.996643 box
488004365 0.994446 box
488004465 0.972046 box
488004565 0.995850 box
488004665 0.996582 box
488004765 1.000793 box
488004865 0.995117 box
488004965 1.000854 box
488005065 0.993530 box
488005165 0.996216 box
488005265 0.990906 box
488005365 0.995605 box
488005465 0.969849 box
488005565 0.996460 box
488005665 0.995911 box
488005765 0.996948 box
488005865 0.994873 box
488005965 0.971313 box
488006065 0.996704 box
488006165 0.996277 box
488006265 0.997009 box
488006365 0.994751 box
488006465 0.967346 box
488006565 0.996399 box
488006665 0.996704 box
488006765 0.996033 box
488006865 0.995300 box
488006965 0.969604 box
488007065 0.995972 box
488007165 0.997192 box
488007265 0.995972 box
488007365 0.995789 box
488007465 0.971802 box
488007565 0.996033 box
488007665 0.996521 box
488007765 0.995728 box
488007865 0.997498 box
488007965 0.968689 box
488008065 0.996521 box
488008165 0.995422 box
488008265 1.002014 box
488008365 0.996338 box
488008465 0.996643 box
488008565 0.997986 box
488008665 0.995544 box
488008765 0.996094 box
488008865 0.991211 box
488008965 0.968445 box
488009065 0.997253 box
488009165 0.995972 box
488009265 0.996460 box
488009365 0.996460 box
488009465 0.968201 box
488009565 0.995789 box
488009665 0.996521 box
488009765 0.996277 box
488009865 0.997070 box
488009965 0.968567 box
488010065 0.996521 box
488010165 0.996094 box
488010265 0.996338 box
488010365 0.996643 box
488010465 0.969971 box
488010565 0.998108 box
488010665 0.995850 box
488010765 0.997314 box
488010865 0.995850 box
488010965 0.968811 box
488011065 0.997681 box
488011165 0.996521 box
488011265 0.997192 box
488011365 0.996521 box
488011465 0.969543 box
488011565 0.997192 box
488011665 0.996338 box
488011765 0.995911 box
488011865 1.001343 box
488011965 0.992554 box
488012065 1.003174 box
488012165 0.994690 box
488012265 0.995972 box
488012365 0.992065 box
488012465 0.969727 box
488012565 0.996155 box
488012665 0.995789 box
488012765 0.996582 box
488012865 0.995972 box
488012965 0.973022 box
488013065 0.996460 box
488013165 0.998840 box
488013265 0.996643 box
488013365 0.996216 box
488013465 0.970520 box
488013565 0.994202 box
488013665 0.996521 box
488013765 0.996155 box
488013865 0.996338 box
488013965 0.972900 box
488014065 0.994385 box
488014165 0.996399 box
488014265 0.997314 box
488014365 0.995911 box
488014465 0.972290 box
488014565 0.993164 box
488014665 0.996521 box
488014765 0.995728 box
488014865 0.996399 box
488014965 0.971741 box
488015065 0.994141 box
488015165 0.996155 box
488015265 0.996643 box
488015365 1.001099 box
488015465 0.994385 box
488015565 0.999207 box
488015665 0.996277 box
488015765 0.996399 box
488015865 0.996948 box
488015965 0.974121 box
488016065 0.986145 box
488016165 0.996216 box
488016265 0.996948 box
488016365 0.996277 box
488016465 0.979126 box
488016565 0.987671 box
488016665 0.996338 box
488016765 0.996521 box
488016865 0.996765 box
488016965 0.978027 box
488017065 0.987305 box
488017165 0.995972 box
488017265 0.996399 box
488017365 0.996582 box
488017465 0.977173 box
488017565 0.989075 box
488017665 0.996826 box
488017765 0.996155 box
488017865 0.996216 box
488017965 0.975464 box
488018065 0.992004 box
488018165 0.996155 box
488018265 0.995789 box
488018365 0.996948 box
488018465 0.975220 box
488018565 0.990051 box
488018665 0.996887 box
488018765 0.996704 box
488018865 0.995789 box
488018965 0.997864 box
488019065 0.999878 box
488019165 0.998962 box
488019265 0.993713 box
488019365 0.997375 box
488019465 0.970398 box
488019565 0.989441 box
488019665 0.996460 box
488019765 0.996277 box
488019865 0.996277 box
488019965 0.977417 box
488020065 0.988770 box
488020165 0.995850 box
488020265 0.996033 box
488020365 0.996948 box
488020465 0.979004 box
488020565 0.987366 box
488020665 0.996216 box
488020765 0.996887 box
488020865 0.995850 box
488020965 0.977295 box
488021065 0.987549 box
488021165 0.996521 box
488021265 0.996216 box
488021365 0.996643 box
488021465 0.978882 box
488021565 0.988098 box
488021665 0.996643 box
488021765 0.995850 box
488021865 0.996277 box
488021965 0.980957 box
488022065 0.985718 box
488022165 0.996582 box
488022265 0.995667 box
488022365 0.996155 box
488022465 0.998352 box
488022565 1.000549 box
488022665 0.998962 box
488022765 0.993774 box
488022865 0.996521 box
488022965 0.987610 box
488023065 0.983765 box
488023165 0.995667 box
488023265 0.996826 box
488023365 0.996277 box
488023465 0.982788 box
488023565 0.983276 box
488023665 0.996277 box
488023765 0.996582 box
488023865 0.995728 box
488023965 0.984253 box
488024065 0.982361 box
488024165 0.996826 box
488024265 0.996948 box
488024365 0.996033 box
488024465 0.987000 box
488024565 0.979065 box
488024665 0.996704 box
488024765 0.996338 box
488024865 0.996826 box
488024965 0.987122 box
488025065 0.978699 box
488025165 0.996277 box
488025265 0.997253 box
488025365 0.995667 box
488025465 0.987915 box
488025565 0.981079 box
488025665 0.996216 box
488025765 0.996277 box
488025865 0.996155 box
488025965 0.994202 box
488026065 1.000122 box
488026165 0.997070 box
488026265 0.997864 box
488026365 0.995361 box
488026465 0.992615 box
488026565 0.987732 box
488026665 0.996826 box
488026765 0.996643 box
488026865 0.996460 box
488026965 0.987488 box
488027065 0.977661 box
488027165 0.997253 box
488027265 0.996094 box
488027365 0.996521 box
488027465 0.989075 box
488027565 0.977356 box
488027665 0.996216 box
488027765 0.999084 box
488027865 0.997314 box
488027965 0.989136 box
488028065 0.976501 box
488028165 0.996460 box
488028265 0.996216 box
488028365 0.996338 box
488028465 0.989868 box
488028565 0.976929 box
488028665 0.996399 box
488028765 0.996582 box
488028865 0.996033 box
488028965 0.993286 box
488029065 0.973633 box
488029165 0.996765 box
488029265 0.995422 box
488029365 0.997009 box
488029465 0.993591 box
488029565 0.990845 box
488029665 0.997131 box
488029765 0.998352 box
488029865 0.994629 box
488029965 0.995605 box
488030065 0.992310 box
488030165 0.996643 box
488030265 0.996582 box
488030365 0.996399 box
488030465 0.995605 box
488030565 0.970276 box
488030665 0.996277 box
488030765 0.996155 box
488030865 0.995789 box
488030965 0.995972 box
488031065 0.972229 box
488031165 0.996277 box
488031265 0.996704 box
488031365 0.996521 box
488031465 0.994568 box
488031565 0.970886 box
488031665 0.996582 box
488031765 0.996521 box
488031865 0.996643 box
488031965 0.994812 box
488032065 0.971436 box
488032165 0.997009 box
488032265 0.996643 box
488032365 0.996094 box
488032465 0.994690 box
488032565 0.970764 box
488032665 0.996399 box
488032765 0.996460 box
488032865 0.996338 box
488032965 0.995728 box
488033065 0.980713 box
488033165 0.996582 box
488033265 0.996094 box
488033365 0.996765 box
488033465 0.996887 box
488033565 0.995483 box
488033665 0.992249 box
488033765 0.995972 box
488033865 0.996704 box
488033965 0.996521 box
488034065 0.968750 box
488034165 0.996887 box
488034265 0.996216 box
488034365 0.996277 box
488034465 0.996704 box
488034565 0.969666 box
488034665 0.997070 box
488034765 0.996216 box
488034865 0.996582 box
488034965 0.996826 box
488035065 0.967590 box
488035165 0.997253 box
488035265 0.996094 box
488035365 0.996033 box
488035465 0.997070 box
488035565 0.965027 box
488035665 0.998596 box
488035765 0.997009 box
488035865 0.995850 box
488035965 0.996216 box
488036065 0.970032 box
488036165 0.997681 box
488036265 0.996094 box
488036365 0.996155 box
488036465 0.996216 box
488036565 0.971924 box
488036665 1.000244 box
488036765 0.996338 box
488036865 0.998596 box
488036965 0.994324 box
488037065 0.992554 box
488037165 0.994568 box
488037265 0.997131 box
488037365 0.996216 box
488037465 0.996277 box
488037565 0.971008 box
488037665 0.995178 box
488037765 0.995972 box
488037865 0.996704 box
488037965 0.996826 box
488038065 0.970886 box
488038165 0.994446 box
488038265 0.996582 box
488038365 0.996155 box
488038465 0.996216 box
488038565 0.973572 box
488038665 0.992981 box
488038765 0.996094 box
488038865 0.996765 box
488038965 0.996338 box
488039065 0.974426 box
488039165 0.991455 box
488039265 0.995728 box
488039365 0.996216 box
488039465 0.996094 box
488039565 0.975952 box
488039665 0.992065 box
488039765 0.996521 box
488039865 0.996338 box
488039965 0.996338 box
488040065 0.974243 box
488040165 0.997742 box
488040265 0.995911 box
488040365 0.999146 box
488040465 0.993652 box
488040565 0.996033 box
488040665 0.992554 box
488040765 0.995789 box
488040865 0.996704 box
488040965 0.996643 box
488041065 0.979614 box
488041165 0.992188 box
488041265 0.995483 box
488041365 0.996704 box
488041465 0.996643 box
488041565 0.976379 box
488041665 0.989197 box
488041765 0.996155 box
488041865 0.997009 box
488041965 0.995972 box
488042065 0.978760 box
488042165 0.987427 box
488042265 0.996643 box
488042365 0.995605 box
488042465 0.996094 box
488042565 0.979431 box
488042665 0.989563 box
488042765 0.996582 box
488042865 0.996277 box
488042965 0.996277 box
488043065 0.976807 box
488043165 0.988037 box
488043265 0.995605 box
488043365 0.996948 box
488043465 0.996338 box
488043565 0.974487 box
488043665 0.995361 box
488043765 0.996826 box
488043865 0.997620 box
488043965 0.999207 box
488044065 0.990723 box
488044165 1.000061 box
488044265 0.991760 box
488044365 0.996399 box
488044465 0.995911 box
488044565 0.978394 box
488044665 0.988586 box
488044765 0.996765 box
488044865 0.996094 box
488044965 0.996765 box
488045065 0.978455 box
488045165 0.988037 box
488045265 0.996338 box
488045365 0.996338 box
488045465 0.996582 box
488045565 0.979858 box
488045665 0.987061 box
488045765 0.995483 box
488045865 0.996643 box
488045965 0.996521 box
488046065 0.979126 box
488046165 0.988281 box
488046265 0.996216 box
488046365 0.996765 box
488046465 0.995483 box
488046565 0.982300 box
488046665 0.983459 box
488046765 0.997070 box
488046865 0.996521 box
488046965 0.996643 box
488047065 0.982483 box
488047165 0.984314 box
488047265 1.002136 box
488047365 0.995300 box
488047465 0.999756 box
488047565 0.989929 box
488047665 1.000488 box
488047765 0.991394 box
488047865 0.996582 box
488047965 0.995422 box
488048065 0.983215 box
