------------
Profiler Configuration
output path: /home/tc/pwr2018_data/output_graph500_proc1/cap_14/nowrapper-4
monitoring frequency: 100000000 nano seconds
------------
SCALE:                          20
edgefactor:                     16
NBFS:                           64
graph_generation:               6.44094
num_mpi_processes:              1
construction_time:              1.03719
bfs  min_time:                  0.25466
bfs  firstquartile_time:        0.258914
bfs  median_time:               0.258957
bfs  thirdquartile_time:        0.25901
bfs  max_time:                  0.259089
bfs  mean_time:                 0.258891
bfs  stddev_time:               0.000541873
min_nedge:                      16775818
firstquartile_nedge:            16775818
median_nedge:                   16775818
thirdquartile_nedge:            16775818
max_nedge:                      16775818
mean_nedge:                     16775818
stddev_nedge:                   0
bfs  min_TEPS:                  6.47493e+07
bfs  firstquartile_TEPS:        6.4769e+07
bfs  median_TEPS:               6.47822e+07
bfs  thirdquartile_TEPS:        6.47931e+07
bfs  max_TEPS:                  6.58753e+07
bfs  harmonic_mean_TEPS:     !  6.47988e+07
bfs  harmonic_stddev_TEPS:      17087.4
bfs  min_validate:              1.61738
bfs  firstquartile_validate:    1.62012
bfs  median_validate:           1.62435
bfs  thirdquartile_validate:    1.62868
bfs  max_validate:              1.6335
bfs  mean_validate:             1.62442
bfs  stddev_validate:           0.00434635
