time(ms) energy(J) hostname
521443335 0.000000 box
521443435 0.907349 box
521443535 0.906311 box
521443635 0.883789 box
521443735 0.878479 box
521443835 0.882446 box
521443935 0.879211 box
521444035 0.879456 box
521444135 0.879944 box
521444235 0.881165 box
521444335 0.880188 box
521444435 0.880981 box
521444535 0.881287 box
521444635 0.879700 box
521444735 0.881165 box
521444835 0.880066 box
521444935 0.881958 box
521445035 0.882874 box
521445135 0.880615 box
521445235 0.882629 box
521445335 0.881470 box
521445435 0.883179 box
521445535 0.882080 box
521445635 0.882507 box
521445735 0.881653 box
521445835 0.881226 box
521445935 0.880493 box
521446035 0.881165 box
521446135 0.881348 box
521446235 0.883545 box
521446335 0.880554 box
521446435 0.881165 box
521446535 0.880798 box
521446635 0.881287 box
521446735 0.881226 box
521446835 0.881104 box
521446935 0.882507 box
521447035 0.881348 box
521447135 0.881165 box
521447235 0.881165 box
521447335 0.881775 box
521447435 0.883850 box
521447535 0.880676 box
521447635 0.880920 box
521447735 0.881958 box
521447835 0.882019 box
521447935 0.880432 box
521448035 0.880310 box
521448135 0.880493 box
521448235 0.881653 box
521448335 0.880859 box
521448435 0.882690 box
521448535 0.882629 box
521448635 0.880859 box
521448735 0.883179 box
521448835 0.882080 box
521448935 0.881531 box
521449035 0.882385 box
521449135 0.881958 box
521449235 0.883057 box
521449335 0.881042 box
521449435 0.881958 box
521449535 0.882568 box
521449635 0.880859 box
521449735 0.883240 box
521449835 1.010254 box
521449935 1.032227 box
521450035 0.990112 box
521450135 0.676880 box
521450235 0.616882 box
521450335 0.737915 box
521450435 0.763245 box
521450535 0.764038 box
521450635 0.831848 box
521450735 0.927124 box
521450835 1.024658 box
521450935 1.191711 box
521451035 1.140015 box
521451135 0.969666 box
521451235 0.759521 box
521451335 0.742615 box
521451435 0.719788 box
521451535 0.777405 box
521451635 0.824280 box
521451735 0.758545 box
521451835 0.748962 box
521451935 0.775696 box
521452035 0.817749 box
521452135 0.827881 box
521452235 0.826050 box
521452335 0.824402 box
521452435 0.789185 box
521452535 0.755127 box
521452635 0.735901 box
521452735 0.916321 box
521452835 1.067444 box
521452935 0.934998 box
521453035 0.955811 box
521453135 0.991760 box
521453235 0.773926 box
521453335 0.746033 box
521453435 0.728455 box
521453535 0.746033 box
521453635 0.823669 box
521453735 0.779236 box
521453835 0.747681 box
521453935 0.767090 box
521454035 0.806763 box
521454135 0.827393 box
521454235 0.831177 box
521454335 0.830261 box
521454435 0.803345 box
521454535 0.758301 box
521454635 0.745667 box
521454735 0.820862 box
521454835 1.077759 box
521454935 0.996948 box
521455035 0.909729 box
521455135 1.023560 box
521455235 0.802979 box
521455335 0.738953 box
521455435 0.715820 box
521455535 0.752014 box
521455635 0.824829 box
521455735 0.797668 box
521455835 0.747559 box
521455935 0.757324 box
521456035 0.797852 box
521456135 0.826050 box
521456235 0.830566 box
521456335 0.827087 box
521456435 0.815979 box
521456535 0.771606 box
521456635 0.748962 box
521456735 0.742554 box
521456835 1.079529 box
521456935 1.033264 box
521457035 0.890137 box
521457135 1.016541 box
521457235 0.871765 box
521457335 0.745850 box
521457435 0.725098 box
521457535 0.725586 box
521457635 0.820862 box
521457735 0.815674 box
521457835 0.747559 box
521457935 0.750854 box
521458035 0.787842 box
521458135 0.823425 box
521458235 0.828857 box
521458335 0.827637 box
521458435 0.819946 box
521458535 0.782837 box
521458635 0.749207 box
521458735 0.725464 box
521458835 1.017517 box
521458935 1.054138 box
521459035 0.886292 box
521459135 1.002502 box
521459235 0.933411 box
521459335 0.736694 box
521459435 0.717346 box
521459535 0.811218 box
521459635 0.821960 box
521459735 0.822327 box
521459835 0.753845 box
521459935 0.749573 box
521460035 0.780212 box
521460135 0.820190 box
521460235 0.830017 box
521460335 0.829468 box
521460435 0.827576 box
521460535 0.788208 box
521460635 0.754761 box
521460735 0.730103 box
521460835 0.948242 box
521460935 1.065552 box
521461035 0.910645 box
521461135 0.981384 box
521461235 0.967529 box
521461335 0.744995 box
521461435 0.733704 box
521461535 0.816711 box
521461635 0.819946 box
521461735 0.822083 box
521461835 0.763489 box
521461935 0.749084 box
521462035 0.772888 box
521462135 0.813232 box
521462235 0.827820 box
521462335 0.829102 box
521462435 0.825806 box
521462535 0.799072 box
521462635 0.759277 box
521462735 0.739014 box
521462835 0.893005 box
521462935 1.072388 box
521463035 0.950806 box
521463135 0.943787 box
521463235 1.001343 box
521463335 0.778381 box
521463435 0.741028 box
521463535 0.722839 box
521463635 0.773193 box
521463735 0.823914 box
521463835 0.782593 box
521463935 0.747620 box
521464035 0.767456 box
521464135 0.806274 box
521464235 0.827698 box
521464335 0.829224 box
521464435 0.829407 box
521464535 0.807434 box
521464635 0.768616 box
521464735 0.744202 box
521464835 0.809082 box
521464935 1.082947 box
521465035 1.001953 box
521465135 0.904724 box
521465235 1.025635 box
521465335 0.799683 box
521465435 0.708984 box
521465535 0.782593 box
521465635 0.821167 box
521465735 0.820801 box
521465835 0.793518 box
521465935 0.747559 box
521466035 0.761292 box
521466135 0.799988 box
521466235 0.828552 box
521466335 0.830872 box
521466435 0.827209 box
521466535 0.809692 box
521466635 0.769348 box
521466735 0.748840 box
521466835 0.754211 box
521466935 1.080444 box
521467035 1.027710 box
521467135 0.894409 box
521467235 1.019592 box
521467335 0.851746 box
521467435 0.726074 box
521467535 0.709717 box
521467635 0.784973 box
521467735 0.822510 box
521467835 0.811523 box
521467935 0.747192 box
521468035 0.751465 box
521468135 0.790161 box
521468235 0.827209 box
521468335 0.831482 box
521468435 0.829407 box
521468535 0.812683 box
521468635 0.780823 box
521468735 0.749329 box
521468835 0.723206 box
521468935 1.042480 box
521469035 1.048035 box
521469135 0.884644 box
521469235 1.006348 box
521469335 0.905334 box
521469435 0.770325 box
521469535 0.782043 box
521469635 0.782166 box
521469735 0.780640 box
521469835 0.811279 box
521469935 0.753113 box
521470035 0.750244 box
521470135 0.781860 box
521470235 0.823242 box
521470335 0.830994 box
521470435 0.830994 box
521470535 0.825684 box
521470635 0.786499 box
521470735 0.750732 box
521470835 0.726746 box
521470935 0.980225 box
521471035 1.062561 box
521471135 0.894287 box
521471235 0.993774 box
521471335 0.954468 box
521471435 0.732727 box
521471535 0.773376 box
521471635 0.796753 box
521471735 0.801392 box
521471835 0.801697 box
521471935 0.763245 box
521472035 0.749146 box
521472135 0.775818 box
521472235 0.816223 box
521472335 0.828003 box
521472435 0.828857 box
521472535 0.826355 box
521472635 0.796326 box
521472735 0.757019 box
521472835 0.736633 box
521472935 0.911621 box
521473035 1.070801 box
521473135 0.937561 box
521473235 0.956116 box
521473335 0.992737 box
521473435 0.772888 box
521473535 0.734375 box
521473635 0.714966 box
521473735 0.784546 box
521473835 0.822754 box
521473935 0.779541 box
521474035 0.747742 box
521474135 0.768188 box
521474235 0.805969 box
521474335 0.828674 box
521474435 0.831970 box
521474535 0.825439 box
521474635 0.802002 box
521474735 0.764587 box
521474835 0.742371 box
521474935 0.822388 box
521475035 1.081421 box
521475135 0.995422 box
521475235 0.910339 box
521475335 1.019897 box
521475435 0.797424 box
521475535 0.709900 box
521475635 0.777832 box
521475735 0.818726 box
521475835 0.819458 box
521475935 0.792175 box
521476035 0.746460 box
521476135 0.762939 box
521476235 0.798828 box
521476335 0.825134 box
521476435 0.832275 box
521476535 0.826660 box
521476635 0.813171 box
521476735 0.773743 box
521476835 0.748352 box
521476935 0.758484 box
521477035 1.080750 box
521477135 1.025757 box
521477235 0.894836 box
521477335 1.023132 box
521477435 0.843201 box
521477535 0.736023 box
521477635 0.717163 box
521477735 0.767944 box
521477835 0.821594 box
521477935 0.808289 box
521478035 0.747131 box
521478135 0.754150 box
521478235 0.790466 box
521478335 0.823853 box
521478435 0.827942 box
521478535 0.828247 box
521478635 0.815491 box
521478735 0.781616 box
521478835 0.748718 box
521478935 0.723511 box
521479035 1.051453 box
521479135 1.046753 box
521479235 0.883606 box
521479335 1.005676 box
521479435 0.907776 box
521479535 0.733582 box
521479635 0.783203 box
521479735 0.783203 box
521479835 0.784180 box
521479935 0.806519 box
521480035 0.751343 box
521480135 0.749146 box
521480235 0.782104 box
521480335 0.820618 box
521480435 0.828003 box
521480535 0.827515 box
521480635 0.824829 box
521480735 0.787231 box
521480835 0.750671 box
521480935 0.727844 box
521481035 0.979492 box
521481135 1.060852 box
521481235 0.892761 box
521481335 0.992920 box
521481435 0.954468 box
521481535 0.735718 box
521481635 0.777954 box
521481735 0.784546 box
521481835 0.784058 box
521481935 0.802368 box
521482035 0.762695 box
521482135 0.748718 box
521482235 0.775879 box
521482335 0.815796 box
521482435 0.828064 box
521482535 0.829956 box
521482635 0.826172 box
521482735 0.794434 box
521482835 0.756226 box
521482935 0.736206 box
521483035 0.910889 box
521483135 1.069031 box
521483235 0.938232 box
521483335 0.952332 box
521483435 0.995178 box
521483535 0.777222 box
521483635 0.745422 box
521483735 0.728516 box
521483835 0.750854 box
521483935 0.823242 box
521484035 0.783691 box
521484135 0.747070 box
521484235 0.770264 box
521484335 0.806335 box
521484435 0.827820 box
521484535 0.831909 box
521484635 0.829651 box
521484735 0.805969 box
521484835 0.767029 box
521484935 0.744507 box
521485035 0.813171 box
521485135 1.080200 box
521485235 0.999207 box
521485335 0.907654 box
521485435 1.022583 box
521485535 0.801208 box
521485635 0.711792 box
521485735 0.761963 box
521485835 0.822449 box
521485935 0.822632 box
521486035 0.794006 box
521486135 0.747009 box
521486235 0.759949 box
521486335 0.799316 box
521486435 0.829834 box
521486535 0.833618 box
521486635 0.831055 box
521486735 0.814026 box
521486835 0.775146 box
521486935 0.750244 box
521487035 0.752869 box
521487135 1.081299 box
521487235 1.027771 box
521487335 0.890564 box
521487435 1.023560 box
521487535 0.858398 box
521487635 0.748413 box
521487735 0.745972 box
521487835 0.745911 box
521487935 0.767578 box
521488035 0.821838 box
521488135 0.746826 box
521488235 0.750854 box
521488335 0.787964 box
521488435 0.826416 box
521488535 0.830933 box
521488635 0.828491 box
521488735 0.817261 box
521488835 0.782776 box
521488935 0.749329 box
521489035 0.722839 box
521489135 1.036377 box
521489235 1.053528 box
521489335 0.884766 box
521489435 1.004578 box
521489535 0.925537 box
521489635 0.753296 box
521489735 0.745789 box
521489835 0.723511 box
521489935 0.785156 box
521490035 0.826233 box
521490135 0.755249 box
521490235 0.748718 box
521490335 0.780823 box
521490435 0.818848 box
521490535 0.828857 box
521490635 0.830627 box
521490735 0.825439 box
521490835 0.789917 box
521490935 0.754944 box
521491035 0.733154 box
521491135 0.943481 box
521491235 1.064819 box
521491335 0.915588 box
521491435 0.977417 box
521491535 0.976868 box
521491635 0.776489 box
521491735 0.746277 box
521491835 0.743347 box
521491935 0.741882 box
521492035 0.817017 box
521492135 0.777710 box
521492235 0.746582 box
521492335 0.770569 box
521492435 0.809143 box
521492535 0.831482 box
521492635 0.830811 box
521492735 0.827087 box
521492835 0.798218 box
521492935 0.762268 box
521493035 0.740662 box
521493135 0.851135 box
521493235 1.078796 box
521493335 0.978516 box
521493435 0.922424 box
521493535 1.013489 box
521493635 0.775146 box
521493735 0.735474 box
521493835 0.804871 box
521493935 0.819519 box
521494035 0.817810 box
521494135 0.789917 box
521494235 0.748230 box
521494335 0.762573 box
521494435 0.802551 box
521494535 0.828430 box
521494635 0.833252 box
521494735 0.830139 box
521494835 0.806396 box
521494935 0.770447 box
521495035 0.746521 box
521495135 0.793701 box
521495235 1.082397 box
521495335 1.010254 box
521495435 0.901794 box
521495535 1.028992 box
521495635 0.813171 box
521495735 0.728149 box
521495835 0.709534 box
521495935 0.801575 box
521496035 0.822998 box
521496135 0.801208 box
521496235 0.747009 box
521496335 0.756653 box
521496435 0.796875 box
521496535 0.828125 box
521496635 0.832825 box
521496735 0.830750 box
521496835 0.813293 box
521496935 0.779663 box
521497035 0.748413 box
521497135 0.733032 box
521497235 1.076721 box
521497335 1.037720 box
521497435 0.887207 box
521497535 1.017029 box
521497635 0.876648 box
521497735 0.740112 box
521497835 0.709473 box
521497935 0.736389 box
521498035 0.822815 box
521498135 0.815918 box
521498235 0.746948 box
521498335 0.757324 box
521498435 0.786560 box
521498535 0.825378 box
521498635 0.830017 box
521498735 0.830261 box
521498835 0.824097 box
521498935 0.781799 box
521499035 0.746765 box
521499135 0.724548 box
521499235 1.013794 box
521499335 1.057190 box
521499435 0.888855 box
521499535 1.001465 box
521499635 0.939758 box
521499735 0.754456 box
521499835 0.729919 box
521499935 0.711487 box
521500035 0.811157 box
521500135 0.825378 box
521500235 0.759399 box
521500335 0.748535 box
521500435 0.780151 box
521500535 0.817871 box
521500635 0.826843 box
521500735 0.827332 box
521500835 0.826416 box
521500935 0.792297 box
521501035 0.757324 box
521501135 0.732666 box
521501235 0.922607 box
521501335 1.070007 box
521501435 0.931335 box
521501535 0.961243 box
521501635 0.985901 box
521501735 0.761719 box
521501835 0.709595 box
521501935 0.787781 box
521502035 0.822754 box
521502135 0.822998 box
521502235 0.776123 box
521502335 0.747375 box
521502435 0.770630 box
521502535 0.809448 box
521502635 0.829529 box
521502735 0.829102 box
521502835 0.824951 box
521502935 0.802368 box
521503035 0.760254 box
521503135 0.742126 box
521503235 0.850342 box
521503335 1.077332 box
521503435 0.981628 box
521503535 0.922668 box
521503635 1.016724 box
521503735 0.791260 box
521503835 0.745911 box
521503935 0.736206 box
521504035 0.725037 box
521504135 0.820862 box
521504235 0.794983 box
521504335 0.747437 box
521504435 0.764099 box
521504535 0.800171 box
521504635 0.826782 box
521504735 0.832092 box
521504835 0.827148 box
521504935 0.808228 box
521505035 0.766235 box
521505135 0.749084 box
521505235 0.759094 box
521505335 1.082764 box
521505435 1.026062 box
521505535 0.892090 box
521505635 1.022522 box
521505735 0.855774 box
521505835 0.747253 box
521505935 0.747192 box
521506035 0.742004 box
521506135 0.772766 box
521506235 0.819824 box
521506335 0.747192 box
521506435 0.752380 box
521506535 0.789917 box
521506635 0.824707 box
521506735 0.828186 box
521506835 0.827698 box
521506935 0.819946 box
521507035 0.783569 box
521507135 0.749023 box
521507235 0.724854 box
521507335 1.037964 box
521507435 1.050171 box
521507535 0.883911 box
521507635 1.007812 box
521507735 0.910339 box
521507835 0.771118 box
521507935 0.782654 box
521508035 0.781921 box
521508135 0.781799 box
521508235 0.809875 box
521508335 0.753357 box
521508435 0.749878 box
521508535 0.779724 box
521508635 0.820801 box
521508735 0.830200 box
521508835 0.828552 box
521508935 0.826050 box
521509035 0.786987 box
521509135 0.750549 box
521509235 0.729309 box
521509335 0.973999 box
521509435 1.063660 box
521509535 0.897461 box
521509635 0.991760 box
521509735 0.964111 box
521509835 0.771484 box
521509935 0.746948 box
521510035 0.745972 box
521510135 0.746582 box
521510235 0.816589 box
521510335 0.768188 box
521510435 0.748535 box
521510535 0.773254 box
521510635 0.812805 box
521510735 0.831055 box
521510835 0.831543 box
521510935 0.829346 box
521511035 0.798828 box
521511135 0.759521 box
521511235 0.740845 box
521511335 0.879333 box
521511435 1.074463 box
521511535 0.961914 box
521511635 0.935059 box
521511735 1.007202 box
521511835 0.784973 box
521511935 0.746094 box
521512035 0.729980 box
521512135 0.741089 box
521512235 0.824646 box
521512335 0.791504 box
521512435 0.747070 box
521512535 0.765747 box
521512635 0.801819 box
521512735 0.827942 box
521512835 0.832275 box
521512935 0.828247 box
521513035 0.804932 box
521513135 0.765686 box
521513235 0.748840 box
521513335 0.784485 box
521513435 1.084351 box
521513535 1.015747 box
521513635 0.897766 box
521513735 1.028503 box
521513835 0.833923 box
521513935 0.746643 box
521514035 0.745911 box
521514135 0.742249 box
521514235 0.789856 box
521514335 0.809998 box
521514435 0.747253 box
521514535 0.753601 box
521514635 0.793640 box
521514735 0.823853 box
521514835 0.829773 box
521514935 0.828125 box
521515035 0.814819 box
521515135 0.787292 box
521515235 0.749023 box
521515335 0.719299 box
521515435 1.065308 box
521515535 1.042969 box
521515635 0.887268 box
521515735 1.009521 box
521515835 0.893188 box
521515935 0.729736 box
521516035 0.783264 box
521516135 0.782959 box
521516235 0.785522 box
521516335 0.808472 box
521516435 0.748657 box
521516535 0.750732 box
521516635 0.784729 box
521516735 0.827148 box
521516835 0.831848 box
521516935 0.830750 box
521517035 0.822693 box
521517135 0.786987 box
521517235 0.749939 box
521517335 0.723633 box
521517435 0.999756 box
521517535 1.059021 box
521517635 0.891174 box
521517735 0.999023 box
521517835 0.941711 box
521517935 0.728577 box
521518035 0.776245 box
521518135 0.803711 box
521518235 0.793518 box
521518335 0.802551 box
521518435 0.758728 box
521518535 0.747925 box
521518635 0.779175 box
521518735 0.818909 box
521518835 0.830139 box
521518935 0.829529 box
521519035 0.827576 box
521519135 0.791504 box
521519235 0.754272 box
521519335 0.734436 box
521519435 0.933228 box
521519535 1.065918 box
521519635 0.922485 box
521519735 0.967041 box
521519835 0.980713 box
521519935 0.773071 box
521520035 0.743408 box
521520135 0.718811 box
521520235 0.763245 box
521520335 0.826965 box
521520435 0.775818 box
521520535 0.747803 box
521520635 0.768188 box
521520735 0.811768 box
521520835 0.830750 box
521520935 0.830811 box
521521035 0.826965 box
521521135 0.801697 box
521521235 0.758484 box
521521335 0.740906 box
521521435 0.845154 box
521521535 1.078613 box
521521635 0.982788 box
521521735 0.917114 box
521521835 1.016602 box
521521935 0.772156 box
521522035 0.754211 box
521522135 0.785522 box
521522235 0.786682 box
521522335 0.783325 box
521522435 0.794922 box
521522535 0.746704 box
521522635 0.763000 box
521522735 0.800842 box
521522835 0.826782 box
521522935 0.831116 box
521523035 0.826599 box
521523135 0.807068 box
521523235 0.770813 box
521523335 0.748840 box
521523435 0.777283 box
521523535 1.083557 box
521523635 1.017639 box
521523735 0.893372 box
521523835 1.029602 box
521523935 0.818054 box
521524035 0.711670 box
521524135 0.769653 box
521524235 0.821899 box
521524335 0.821716 box
521524435 0.798889 box
521524535 0.747192 box
521524635 0.756836 box
521524735 0.794861 box
521524835 0.824402 box
521524935 0.830200 box
521525035 0.830505 box
521525135 0.817078 box
521525235 0.775940 box
521525335 0.748535 box
521525435 0.731995 box
521525535 1.075317 box
521525635 1.034668 box
521525735 0.889221 box
521525835 1.011108 box
521525935 0.871704 box
521526035 0.736084 box
521526135 0.783936 box
521526235 0.783386 box
521526335 0.783508 box
521526435 0.807678 box
521526535 0.747131 box
521526635 0.750061 box
521526735 0.787659 box
521526835 0.826965 box
521526935 0.830139 box
521527035 0.827209 box
521527135 0.820862 box
521527235 0.784790 box
521527335 0.749268 box
521527435 0.723877 box
521527535 1.021851 box
521527635 1.052856 box
521527735 0.884705 box
521527835 1.003662 box
521527935 0.931885 box
521528035 0.778198 box
521528135 0.754700 box
521528235 0.748657 box
521528335 0.747864 box
521528435 0.804749 box
521528535 0.759705 box
521528635 0.747986 box
521528735 0.779480 box
521528835 0.816406 box
521528935 0.828674 box
521529035 0.828003 box
521529135 0.823120 box
521529235 0.774292 box
521529335 0.751709 box
521529435 0.730591 box
521529535 0.938965 box
521529635 1.067139 box
521529735 0.917114 box
521529835 0.971924 box
521529935 0.973389 box
521530035 0.750244 box
521530135 0.724304 box
521530235 0.814941 box
521530335 0.819702 box
521530435 0.823669 box
521530535 0.765991 box
521530635 0.748108 box
521530735 0.772034 box
521530835 0.812927 box
521530935 0.827820 box
521531035 0.831970 box
521531135 0.826721 box
521531235 0.799438 box
521531335 0.759338 box
521531435 0.738220 box
521531535 0.880432 box
521531635 1.073914 box
521531735 0.958801 box
521531835 0.937744 box
521531935 1.001953 box
521532035 0.763794 box
521532135 0.754578 box
521532235 0.802795 box
521532335 0.800476 box
521532435 0.791199 box
521532535 0.786438 box
521532635 0.747253 box
521532735 0.765991 box
521532835 0.806335 box
521532935 0.830017 box
521533035 0.831421 box
521533135 0.828796 box
521533235 0.807068 box
521533335 0.767090 box
521533435 0.744324 box
521533535 0.816162 box
521533635 1.082153 box
521533735 0.997314 box
521533835 0.906921 box
521533935 1.021423 box
521534035 0.787292 box
521534135 0.738159 box
521534235 0.803162 box
521534335 0.793030 box
521534435 0.789246 box
521534535 0.798035 box
521534635 0.747253 box
521534735 0.760132 box
521534835 0.800415 box
521534935 0.826538 box
521535035 0.830200 box
521535135 0.827454 box
521535235 0.809021 box
521535335 0.771118 box
521535435 0.749817 box
521535535 0.756348 box
521535635 1.080383 box
521535735 1.025818 box
521535835 0.894409 box
521535935 1.023010 box
521536035 0.855652 box
521536135 0.748108 box
521536235 0.745850 box
521536335 0.743530 box
521536435 0.770203 box
521536535 0.819092 box
521536635 0.746948 box
521536735 0.755554 box
521536835 0.788391 box
521536935 0.828308 box
521537035 0.830261 box
521537135 0.827759 box
521537235 0.818237 box
521537335 0.783325 box
521537435 0.750427 box
521537535 0.722534 box
521537635 1.038025 box
521537735 1.050415 box
521537835 0.882690 box
521537935 1.008118 box
521538035 0.917175 box
521538135 0.728088 box
521538235 0.781433 box
521538335 0.783264 box
521538435 0.785278 box
521538535 0.805847 box
521538635 0.752319 box
521538735 0.748596 box
521538835 0.779541 box
521538935 0.821777 box
521539035 0.830444 box
521539135 0.830200 box
521539235 0.827148 box
521539335 0.790833 box
521539435 0.751648 box
521539535 0.728271 box
521539635 0.967224 box
521539735 1.061340 box
521539835 0.898987 box
521539935 0.991150 box
521540035 0.960754 box
521540135 0.788452 box
521540235 0.775208 box
521540335 0.765869 box
521540435 0.753296 box
521540535 0.791748 box
521540635 0.767273 box
521540735 0.748108 box
521540835 0.772827 box
521540935 0.814209 box
521541035 0.829590 box
521541135 0.830322 box
521541235 0.828552 box
521541335 0.795959 box
521541435 0.757324 box
521541535 0.736023 box
521541635 0.888916 box
521541735 1.073486 box
521541835 0.953979 box
521541935 0.940857 box
521542035 1.005066 box
521542135 0.780518 box
521542235 0.745117 box
521542335 0.728333 box
521542435 0.745300 box
521542535 0.825562 box
521542635 0.784729 box
521542735 0.747375 box
521542835 0.766541 box
521542935 0.805603 box
521543035 0.828918 box
521543135 0.831238 box
521543235 0.828552 box
521543335 0.803101 box
521543435 0.753113 box
521543535 0.745972 box
521543635 0.797363 box
521543735 1.080139 box
521543835 1.007324 box
521543935 0.900940 box
521544035 1.025452 box
521544135 0.810669 box
521544235 0.715820 box
521544335 0.798462 box
521544435 0.822266 box
521544535 0.821716 box
521544635 0.797913 box
521544735 0.747559 box
521544835 0.757690 box
521544935 0.799438 box
521545035 0.829163 box
521545135 0.830933 box
521545235 0.828979 box
521545335 0.811768 box
521545435 0.771545 box
521545535 0.749146 box
521545635 0.744446 box
521545735 1.081055 box
521545835 1.032715 box
521545935 0.890259 box
521546035 1.017151 box
521546135 0.863586 box
521546235 0.740784 box
521546335 0.710266 box
521546435 0.775635 box
521546535 0.823059 box
521546635 0.813721 box
521546735 0.746826 box
521546835 0.751160 box
521546935 0.790405 box
521547035 0.827759 box
521547135 0.831055 box
521547235 0.827026 box
521547335 0.819641 box
521547435 0.783936 box
521547535 0.750854 box
521547635 0.724731 box
521547735 1.031921 box
521547835 1.051758 box
521547935 0.885925 box
521548035 1.006165 box
521548135 0.918091 box
521548235 0.728943 box
521548335 0.783081 box
521548435 0.783691 box
521548535 0.783447 box
521548635 0.806580 box
521548735 0.754944 box
521548835 0.749756 box
521548935 0.780334 box
521549035 0.822876 box
521549135 0.833984 box
521549235 0.831482 box
521549335 0.825806 box
521549435 0.785583 box
521549535 0.751465 box
521549635 0.731445 box
521549735 0.967529 box
521549835 1.064087 box
521549935 0.898621 box
521550035 0.989624 box
521550135 0.964661 box
521550235 0.767578 box
521550335 0.745239 box
521550435 0.729736 box
521550535 0.763672 box
521550635 0.826233 box
521550735 0.766724 box
521550835 0.747925 box
521550935 0.771729 box
521551035 0.813232 box
521551135 0.827209 box
521551235 0.826904 box
521551335 0.824585 box
521551435 0.798706 box
521551535 0.758728 box
521551635 0.741333 box
521551735 0.876038 box
521551835 1.073792 box
521551935 0.963013 box
521552035 0.933838 box
521552135 1.005249 box
521552235 0.761169 box
521552335 0.756348 box
521552435 0.796326 box
521552535 0.791260 box
521552635 0.786072 box
521552735 0.790222 box
521552835 0.747314 box
521552935 0.767456 box
521553035 0.805969 box
521553135 0.829224 box
521553235 0.833252 box
521553335 0.829773 box
521553435 0.804932 box
521553535 0.766785 box
521553635 0.745850 box
521553735 0.803650 box
521553835 1.081665 box
521553935 1.005615 box
521554035 0.903809 box
521554135 1.025574 box
521554235 0.799011 box
521554335 0.727112 box
521554435 0.798157 box
521554535 0.822083 box
521554635 0.818359 box
521554735 0.798767 box
521554835 0.746887 box
521554935 0.763123 box
521555035 0.798096 box
521555135 0.829163 box
521555235 0.831482 box
521555335 0.830811 box
521555435 0.813599 box
521555535 0.771973 box
521555635 0.749390 box
521555735 0.752441 box
521555835 1.080994 box
521555935 1.027100 box
521556035 0.892944 box
521556135 1.023376 box
521556235 0.859436 box
521556335 0.752869 box
521556435 0.747131 box
521556535 0.746460 box
521556635 0.756287 box
521556735 0.821411 box
521556835 0.746826 box
521556935 0.755554 box
521557035 0.789246 box
521557135 0.828125 box
521557235 0.833130 box
521557335 0.831909 box
521557435 0.822876 box
521557535 0.781067 box
521557635 0.748962 box
521557735 0.724365 box
521557835 1.038391 box
521557935 1.051270 box
521558035 0.884827 box
521558135 1.005737 box
521558235 0.924866 box
521558335 0.763611 box
521558435 0.747192 box
521558535 0.746094 box
521558635 0.747986 box
521558735 0.827576 box
521558835 0.757263 box
521558935 0.749268 box
521559035 0.778198 box
521559135 0.821106 box
521559235 0.830566 box
521559335 0.831726 box
521559435 0.828918 box
521559535 0.790527 box
521559635 0.752563 box
521559735 0.733887 box
521559835 0.946045 box
521559935 1.067749 box
521560035 0.914551 box
521560135 0.974792 box
521560235 0.974121 box
521560335 0.750732 box
521560435 0.722656 box
521560535 0.809692 box
521560635 0.820557 box
521560735 0.822449 box
521560835 0.766663 box
521560935 0.748779 box
521561035 0.773987 box
521561135 0.814636 box
521561235 0.829773 box
521561335 0.831238 box
521561435 0.828003 box
521561535 0.797668 box
521561635 0.760132 box
521561735 0.737854 box
521561835 0.879028 box
521561935 1.074097 box
521562035 0.961182 box
521562135 0.935730 box
521562235 1.005066 box
521562335 0.787476 box
521562435 0.743042 box
521562535 0.731506 box
521562635 0.742004 box
521562735 0.827393 box
521562835 0.789551 box
521562935 0.746155 box
521563035 0.759888 box
521563135 0.801697 box
521563235 0.828796 box
521563335 0.834595 box
521563435 0.828430 box
521563535 0.805542 box
521563635 0.765625 box
521563735 0.747681 box
521563835 0.781250 box
521563935 1.083862 box
521564035 1.015198 box
521564135 0.895935 box
521564235 1.031250 box
521564335 0.803894 box
521564435 0.773438 box
521564535 0.783691 box
521564635 0.782654 box
521564735 0.781677 box
521564835 0.804871 box
521564935 0.746521 box
521565035 0.759766 box
521565135 0.794250 box
521565235 0.826599 box
521565335 0.831421 box
521565435 0.829773 box
521565535 0.815430 box
521565635 0.776306 box
521565735 0.748535 box
521565835 0.731689 box
521565935 1.076660 box
521566035 1.035889 box
521566135 0.888489 box
521566235 1.013184 box
521566335 0.867676 box
521566435 0.775330 box
521566535 0.782227 box
521566635 0.782166 box
521566735 0.781738 box
521566835 0.813232 box
521566935 0.747314 box
521567035 0.750854 box
521567135 0.788818 box
521567235 0.828186 box
521567335 0.831055 box
521567435 0.830872 box
521567535 0.823547 box
521567635 0.781433 box
521567735 0.749390 box
521567835 0.726013 box
521567935 1.029053 box
521568035 1.052368 box
521568135 0.884644 box
521568235 1.003784 box
521568335 0.931885 box
521568435 0.757751 box
521568535 0.744873 box
521568635 0.738770 box
521568735 0.768005 box
521568835 0.825867 box
521568935 0.756897 box
521569035 0.749573 box
521569135 0.777771 box
521569235 0.819763 box
521569335 0.831482 box
521569435 0.832092 box
521569535 0.828674 box
521569635 0.795410 box
521569735 0.756165 box
521569835 0.729858 box
521569935 0.934814 box
521570035 1.067688 box
521570135 0.922974 box
521570235 0.969543 box
521570335 0.980225 box
521570435 0.769775 box
521570535 0.741211 box
521570635 0.712158 box
521570735 0.796021 box
521570835 0.824402 box
521570935 0.771790 box
521571035 0.747986 box
521571135 0.769653 box
521571235 0.812866 box
521571335 0.831238 box
521571435 0.831604 box
521571535 0.828735 box
521571635 0.801880 box
521571735 0.764465 box
521571835 0.738647 box
521571935 0.854126 box
521572035 1.075012 box
521572135 0.978088 box
521572235 0.920349 box
521572335 1.014771 box
521572435 0.799561 box
521572535 0.747131 box
521572635 0.746033 box
521572735 0.746277 box
521572835 0.788879 box
521572935 0.797852 box
521573035 0.747131 box
521573135 0.761292 box
521573235 0.800171 box
521573335 0.827637 box
521573435 0.832214 box
521573535 0.828003 box
521573635 0.809631 box
521573735 0.770996 box
521573835 0.748901 box
521573935 0.763733 box
521574035 1.083740 box
521574135 1.024231 box
521574235 0.894226 box
521574335 1.022339 box
521574435 0.828552 box
521574535 0.771484 box
521574635 0.782104 box
521574735 0.782715 box
521574835 0.782349 box
521574935 0.807434 box
521575035 0.748474 box
521575135 0.754578 box
521575235 0.791626 box
521575335 0.827332 box
521575435 0.830200 box
521575535 0.830322 box
521575635 0.816101 box
521575735 0.785217 box
521575835 0.748779 box
521575935 0.718811 box
521576035 1.064636 box
521576135 1.043579 box
521576235 0.888123 box
521576335 1.010681 box
521576435 0.899841 box
521576535 0.744324 box
521576635 0.725281 box
521576735 0.720703 box
521576835 0.824524 box
521576935 0.822998 box
521577035 0.743225 box
521577135 0.749084 box
521577235 0.781006 box
521577335 0.826355 box
521577435 0.833435 box
521577535 0.830872 box
521577635 0.823120 box
521577735 0.782959 box
521577835 0.750305 box
521577935 0.730896 box
521578035 0.980896 box
521578135 1.059998 box
521578235 0.896179 box
521578335 0.991394 box
521578435 0.958740 box
521578535 0.767639 box
521578635 0.745789 box
521578735 0.730164 box
521578835 0.759338 box
521578935 0.826904 box
521579035 0.765320 box
521579135 0.748413 box
521579235 0.772583 box
521579335 0.815369 box
521579435 0.831726 box
521579535 0.834534 box
521579635 0.826233 box
521579735 0.797424 box
521579835 0.759888 box
521579935 0.738708 box
521580035 0.884521 box
521580135 1.073853 box
521580235 0.957153 box
521580335 0.939331 box
521580435 1.002686 box
521580535 0.763123 box
521580635 0.730164 box
521580735 0.815613 box
521580835 0.823059 box
521580935 0.822327 box
521581035 0.781799 box
521581135 0.747314 box
521581235 0.767761 box
521581335 0.807556 box
521581435 0.830017 box
521581535 0.832520 box
521581635 0.830811 box
521581735 0.804199 box
521581835 0.763550 box
521581935 0.742310 box
521582035 0.604614 box
