/dev/cpu/msr_batch: No such file or directory
graph_generation:               3.405705 s
construction_time:              0.899357 s
Running BFS 0
Time for BFS 0 is 0.325572
TEPS for BFS 0 is 5.15271e+07
Validating BFS 0
Validate time for BFS 0 is 1.218842
Running BFS 1
Time for BFS 1 is 0.325362
TEPS for BFS 1 is 5.15605e+07
Validating BFS 1
Validate time for BFS 1 is 1.225314
Running BFS 2
Time for BFS 2 is 0.325388
TEPS for BFS 2 is 5.15563e+07
Validating BFS 2
Validate time for BFS 2 is 1.178812
Running BFS 3
Time for BFS 3 is 0.324379
TEPS for BFS 3 is 5.17167e+07
Validating BFS 3
Validate time for BFS 3 is 1.172019
Running BFS 4
Time for BFS 4 is 0.324211
TEPS for BFS 4 is 5.17435e+07
Validating BFS 4
Validate time for BFS 4 is 1.167156
Running BFS 5
Time for BFS 5 is 0.324409
TEPS for BFS 5 is 5.17119e+07
Validating BFS 5
Validate time for BFS 5 is 1.169923
Running BFS 6
Time for BFS 6 is 0.325491
TEPS for BFS 6 is 5.15401e+07
Validating BFS 6
Validate time for BFS 6 is 1.161921
Running BFS 7
Time for BFS 7 is 0.324211
TEPS for BFS 7 is 5.17435e+07
Validating BFS 7
Validate time for BFS 7 is 1.210496
Running BFS 8
Time for BFS 8 is 0.325348
TEPS for BFS 8 is 5.15627e+07
Validating BFS 8
Validate time for BFS 8 is 1.218811
Running BFS 9
Time for BFS 9 is 0.324951
TEPS for BFS 9 is 5.16257e+07
Validating BFS 9
Validate time for BFS 9 is 1.171614
Running BFS 10
Time for BFS 10 is 0.324451
TEPS for BFS 10 is 5.17052e+07
Validating BFS 10
Validate time for BFS 10 is 1.215589
Running BFS 11
Time for BFS 11 is 0.325950
TEPS for BFS 11 is 5.14674e+07
Validating BFS 11
Validate time for BFS 11 is 1.172365
Running BFS 12
Time for BFS 12 is 0.325117
TEPS for BFS 12 is 5.15994e+07
Validating BFS 12
Validate time for BFS 12 is 1.145438
Running BFS 13
Time for BFS 13 is 0.324748
TEPS for BFS 13 is 5.16579e+07
Validating BFS 13
Validate time for BFS 13 is 1.145034
Running BFS 14
Time for BFS 14 is 0.324218
TEPS for BFS 14 is 5.17424e+07
Validating BFS 14
Validate time for BFS 14 is 1.145535
Running BFS 15
Time for BFS 15 is 0.324266
TEPS for BFS 15 is 5.17348e+07
Validating BFS 15
Validate time for BFS 15 is 1.151572
Running BFS 16
Time for BFS 16 is 0.324591
TEPS for BFS 16 is 5.1683e+07
Validating BFS 16
Validate time for BFS 16 is 1.141114
Running BFS 17
Time for BFS 17 is 0.323964
TEPS for BFS 17 is 5.1783e+07
Validating BFS 17
Validate time for BFS 17 is 1.145965
Running BFS 18
Time for BFS 18 is 0.324979
TEPS for BFS 18 is 5.16212e+07
Validating BFS 18
Validate time for BFS 18 is 1.147874
Running BFS 19
Time for BFS 19 is 0.324378
TEPS for BFS 19 is 5.17169e+07
Validating BFS 19
Validate time for BFS 19 is 1.154390
Running BFS 20
Time for BFS 20 is 0.325110
TEPS for BFS 20 is 5.16004e+07
Validating BFS 20
Validate time for BFS 20 is 1.141129
Running BFS 21
Time for BFS 21 is 0.324081
TEPS for BFS 21 is 5.17643e+07
Validating BFS 21
Validate time for BFS 21 is 1.143268
Running BFS 22
Time for BFS 22 is 0.324489
TEPS for BFS 22 is 5.16993e+07
Validating BFS 22
Validate time for BFS 22 is 1.150475
Running BFS 23
Time for BFS 23 is 0.325635
TEPS for BFS 23 is 5.15172e+07
Validating BFS 23
Validate time for BFS 23 is 1.148896
Running BFS 24
Time for BFS 24 is 0.323979
TEPS for BFS 24 is 5.17806e+07
Validating BFS 24
Validate time for BFS 24 is 1.142773
Running BFS 25
Time for BFS 25 is 0.324481
TEPS for BFS 25 is 5.17004e+07
Validating BFS 25
Validate time for BFS 25 is 1.144649
Running BFS 26
Time for BFS 26 is 0.324325
TEPS for BFS 26 is 5.17253e+07
Validating BFS 26
Validate time for BFS 26 is 1.145279
Running BFS 27
Time for BFS 27 is 0.324268
TEPS for BFS 27 is 5.17345e+07
Validating BFS 27
Validate time for BFS 27 is 1.162617
Running BFS 28
Time for BFS 28 is 0.324326
TEPS for BFS 28 is 5.17252e+07
Validating BFS 28
Validate time for BFS 28 is 1.149296
Running BFS 29
Time for BFS 29 is 0.324181
TEPS for BFS 29 is 5.17483e+07
Validating BFS 29
Validate time for BFS 29 is 1.149844
Running BFS 30
Time for BFS 30 is 0.325288
TEPS for BFS 30 is 5.15722e+07
Validating BFS 30
Validate time for BFS 30 is 1.148020
Running BFS 31
Time for BFS 31 is 0.324109
TEPS for BFS 31 is 5.17598e+07
Validating BFS 31
Validate time for BFS 31 is 1.142808
Running BFS 32
Time for BFS 32 is 0.324123
TEPS for BFS 32 is 5.17576e+07
Validating BFS 32
Validate time for BFS 32 is 1.141286
Running BFS 33
Time for BFS 33 is 0.324623
TEPS for BFS 33 is 5.16779e+07
Validating BFS 33
Validate time for BFS 33 is 1.146845
Running BFS 34
Time for BFS 34 is 0.323976
TEPS for BFS 34 is 5.1781e+07
Validating BFS 34
Validate time for BFS 34 is 1.142534
Running BFS 35
Time for BFS 35 is 0.324019
TEPS for BFS 35 is 5.17742e+07
Validating BFS 35
Validate time for BFS 35 is 1.143670
Running BFS 36
Time for BFS 36 is 0.324792
TEPS for BFS 36 is 5.16509e+07
Validating BFS 36
Validate time for BFS 36 is 1.146027
Running BFS 37
Time for BFS 37 is 0.323931
TEPS for BFS 37 is 5.17883e+07
Validating BFS 37
Validate time for BFS 37 is 1.152531
Running BFS 38
Time for BFS 38 is 0.324426
TEPS for BFS 38 is 5.17093e+07
Validating BFS 38
Validate time for BFS 38 is 1.141393
Running BFS 39
Time for BFS 39 is 0.324747
TEPS for BFS 39 is 5.16581e+07
Validating BFS 39
Validate time for BFS 39 is 1.141085
Running BFS 40
Time for BFS 40 is 0.324125
TEPS for BFS 40 is 5.17572e+07
Validating BFS 40
Validate time for BFS 40 is 1.152739
Running BFS 41
Time for BFS 41 is 0.324744
TEPS for BFS 41 is 5.16586e+07
Validating BFS 41
Validate time for BFS 41 is 1.151662
Running BFS 42
Time for BFS 42 is 0.324277
TEPS for BFS 42 is 5.17329e+07
Validating BFS 42
Validate time for BFS 42 is 1.141142
Running BFS 43
Time for BFS 43 is 0.323672
TEPS for BFS 43 is 5.18296e+07
Validating BFS 43
Validate time for BFS 43 is 1.160221
Running BFS 44
Time for BFS 44 is 0.326049
TEPS for BFS 44 is 5.14519e+07
Validating BFS 44
Validate time for BFS 44 is 1.148498
Running BFS 45
Time for BFS 45 is 0.324448
TEPS for BFS 45 is 5.17057e+07
Validating BFS 45
Validate time for BFS 45 is 1.146650
Running BFS 46
Time for BFS 46 is 0.324822
TEPS for BFS 46 is 5.16462e+07
Validating BFS 46
Validate time for BFS 46 is 1.144363
Running BFS 47
Time for BFS 47 is 0.324644
TEPS for BFS 47 is 5.16746e+07
Validating BFS 47
Validate time for BFS 47 is 1.194177
Running BFS 48
Time for BFS 48 is 0.324563
TEPS for BFS 48 is 5.16874e+07
Validating BFS 48
Validate time for BFS 48 is 1.151860
Running BFS 49
Time for BFS 49 is 0.324707
TEPS for BFS 49 is 5.16645e+07
Validating BFS 49
Validate time for BFS 49 is 1.143390
Running BFS 50
Time for BFS 50 is 0.324608
TEPS for BFS 50 is 5.16802e+07
Validating BFS 50
Validate time for BFS 50 is 1.143384
Running BFS 51
Time for BFS 51 is 0.325484
TEPS for BFS 51 is 5.15411e+07
Validating BFS 51
Validate time for BFS 51 is 1.199444
Running BFS 52
Time for BFS 52 is 0.325009
TEPS for BFS 52 is 5.16164e+07
Validating BFS 52
Validate time for BFS 52 is 1.148522
Running BFS 53
Time for BFS 53 is 0.324246
TEPS for BFS 53 is 5.17379e+07
Validating BFS 53
Validate time for BFS 53 is 1.141291
Running BFS 54
Time for BFS 54 is 0.324748
TEPS for BFS 54 is 5.16579e+07
Validating BFS 54
Validate time for BFS 54 is 1.144126
Running BFS 55
Time for BFS 55 is 0.324330
TEPS for BFS 55 is 5.17245e+07
Validating BFS 55
Validate time for BFS 55 is 1.151666
Running BFS 56
Time for BFS 56 is 0.325934
TEPS for BFS 56 is 5.14699e+07
Validating BFS 56
Validate time for BFS 56 is 1.191678
Running BFS 57
Time for BFS 57 is 0.325646
TEPS for BFS 57 is 5.15155e+07
Validating BFS 57
Validate time for BFS 57 is 1.149844
Running BFS 58
Time for BFS 58 is 0.325057
TEPS for BFS 58 is 5.16089e+07
Validating BFS 58
Validate time for BFS 58 is 1.143855
Running BFS 59
Time for BFS 59 is 0.326770
TEPS for BFS 59 is 5.13383e+07
Validating BFS 59
Validate time for BFS 59 is 1.149027
Running BFS 60
Time for BFS 60 is 0.324161
TEPS for BFS 60 is 5.17515e+07
Validating BFS 60
Validate time for BFS 60 is 1.151539
Running BFS 61
Time for BFS 61 is 0.325117
TEPS for BFS 61 is 5.15994e+07
Validating BFS 61
Validate time for BFS 61 is 1.143780
Running BFS 62
Time for BFS 62 is 0.324174
TEPS for BFS 62 is 5.17494e+07
Validating BFS 62
Validate time for BFS 62 is 1.149867
Running BFS 63
Time for BFS 63 is 0.324292
TEPS for BFS 63 is 5.17307e+07
Validating BFS 63
Validate time for BFS 63 is 1.141050
real	1m 46.25s
user	3m 25.49s
sys	0m 6.90s
