time(ms) energy(J) hostname
429994531 0.000000 box
429994631 1.129333 box
429994731 1.168701 box
429994831 1.194275 box
429994931 1.179626 box
429995031 1.168457 box
429995131 1.173828 box
429995231 1.170593 box
429995331 1.180908 box
429995431 1.164124 box
429995531 1.193909 box
429995631 1.168518 box
429995731 1.165039 box
429995831 1.182861 box
429995931 1.166443 box
429996031 1.176880 box
429996131 1.170471 box
429996231 1.180847 box
429996331 1.176758 box
429996431 1.184753 box
429996531 1.184387 box
429996631 1.166321 box
429996731 1.180298 box
429996831 1.165588 box
429996931 1.176514 box
429997031 1.162231 box
429997131 1.189758 box
429997231 1.171265 box
429997331 1.184387 box
429997431 1.172791 box
429997531 1.165100 box
429997631 1.178223 box
429997731 1.169556 box
429997831 1.190125 box
429997931 1.172852 box
429998031 1.182251 box
429998131 1.177307 box
429998231 1.171692 box
429998331 1.180359 box
429998431 1.178955 box
429998531 1.178528 box
429998631 1.164978 box
429998731 1.191589 box
429998831 1.170532 box
429998931 1.182678 box
429999031 1.180664 box
429999131 1.170105 box
429999231 1.177795 box
429999331 1.161804 box
429999431 1.180176 box
429999531 1.191101 box
429999631 1.172791 box
429999731 1.183350 box
429999831 1.181213 box
429999931 1.159607 box
430000031 1.179993 box
430000131 1.169067 box
430000231 1.180054 box
430000331 1.174683 box
430000431 1.180054 box
430000531 1.182739 box
430000631 1.172607 box
430000731 1.179321 box
430000831 1.166870 box
430000931 1.174377 box
430001031 1.186340 box
430001131 1.173584 box
430001231 1.181885 box
430001331 1.181946 box
430001431 1.171753 box
430001531 1.175354 box
430001631 1.164978 box
430001731 1.177490 box
430001831 1.168884 box
430001931 1.196350 box
430002031 1.172180 box
430002131 1.172302 box
430002231 1.181519 box
430002331 1.167053 box
430002431 1.179504 box
430002531 1.172791 box
430002631 1.185608 box
430002731 1.174744 box
430002831 1.186279 box
430002931 1.181885 box
430003031 1.170898 box
430003131 1.175781 box
430003231 1.171692 box
430003331 1.181702 box
430003431 1.165955 box
430003531 1.189148 box
430003631 1.178467 box
430003731 1.169128 box
430003831 1.176636 box
430003931 1.162170 box
430004031 1.176453 box
430004131 1.170349 box
430004231 1.189331 box
430004331 1.171021 box
430004431 1.175049 box
430004531 1.174988 box
430004631 1.176208 box
430004731 1.161743 box
430004831 1.178528 box
430004931 1.175049 box
430005031 1.169739 box
430005131 1.197815 box
430005231 1.177002 box
430005331 1.170837 box
430005431 1.176270 box
430005531 1.163452 box
430005631 1.179321 box
430005731 1.170410 box
430005831 1.190918 box
430005931 1.173584 box
430006031 1.184448 box
430006131 1.176819 box
430006231 1.165649 box
430006331 1.173462 box
430006431 1.172913 box
430006531 1.174316 box
430006631 1.172058 box
430006731 1.198120 box
430006831 1.172302 box
430006931 1.179993 box
430007031 1.175720 box
430007131 1.161499 box
430007231 1.162781 box
430007331 1.171448 box
430007431 1.182190 box
430007531 1.171753 box
430007631 1.158630 box
430007731 1.169434 box
430007831 1.158081 box
430007931 1.156677 box
430008031 1.148621 box
430008131 1.159546 box
430008231 1.158508 box
430008331 1.160645 box
430008431 1.158813 box
430008531 1.171692 box
430008631 1.162842 box
430008731 1.174438 box
430008831 1.180359 box
430008931 1.148682 box
430009031 1.164368 box
430009131 1.164124 box
430009231 1.176819 box
430009331 1.172302 box
430009431 1.193115 box
430009531 1.181091 box
430009631 1.165588 box
430009731 1.180664 box
430009831 1.153809 box
430009931 1.170166 box
430010031 1.178772 box
430010131 1.166931 box
430010231 1.175598 box
430010331 1.186584 box
430010431 1.176514 box
430010531 1.171265 box
430010631 1.174988 box
430010731 1.156128 box
430010831 1.160583 box
430010931 1.159729 box
430011031 1.163208 box
430011131 1.160095 box
430011231 1.195435 box
430011331 1.177002 box
430011431 1.164490 box
430011531 1.167786 box
430011631 1.179565 box
430011731 1.163208 box
430011831 1.163696 box
430011931 1.168091 box
430012031 1.168762 box
430012131 1.183105 box
430012231 1.160034 box
430012331 1.160889 box
430012431 1.152405 box
430012531 1.159973 box
430012631 1.156799 box
430012731 1.157532 box
430012831 1.164612 box
430012931 1.168823 box
430013031 1.163757 box
430013131 1.158936 box
430013231 1.181274 box
430013331 1.176270 box
430013431 1.153748 box
430013531 1.165771 box
430013631 1.178772 box
430013731 1.164795 box
430013831 1.165771 box
430013931 1.166138 box
430014031 1.162170 box
430014131 1.155640 box
430014231 1.158508 box
430014331 1.154968 box
430014431 1.176697 box
430014531 1.180603 box
430014631 1.166138 box
430014731 1.165161 box
430014831 1.194092 box
430014931 1.178894 box
430015031 1.159485 box
430015131 1.158936 box
430015231 1.157898 box
430015331 1.170593 box
430015431 1.180664 box
430015531 1.168152 box
430015631 1.164856 box
430015731 1.196106 box
430015831 1.179443 box
430015931 1.155945 box
430016031 1.179199 box
430016131 1.155884 box
430016231 1.168640 box
430016331 1.181458 box
430016431 1.158997 box
430016531 1.191223 box
430016631 1.165588 box
430016731 1.156372 box
430016831 1.154480 box
430016931 1.169189 box
430017031 1.174744 box
430017131 1.168457 box
430017231 1.173157 box
430017331 1.163574 box
430017431 1.195496 box
430017531 1.166382 box
430017631 1.165527 box
430017731 1.171021 box
430017831 1.171875 box
430017931 1.171448 box
430018031 1.173523 box
430018131 1.160095 box
430018231 1.155151 box
430018331 1.161682 box
430018431 1.182495 box
430018531 1.167786 box
430018631 1.167847 box
430018731 1.165955 box
430018831 1.147095 box
430018931 1.158081 box
430019031 1.156982 box
430019131 1.165466 box
430019231 1.190247 box
430019331 1.167114 box
430019431 1.158447 box
430019531 1.179993 box
430019631 1.171143 box
430019731 1.154724 box
430019831 1.171082 box
430019931 1.174683 box
430020031 1.160583 box
430020131 1.162231 box
430020231 1.196106 box
430020331 1.156433 box
430020431 1.167175 box
430020531 1.171753 box
430020631 1.177429 box
430020731 1.144165 box
430020831 1.169983 box
430020931 1.156189 box
430021031 1.151855 box
430021131 1.155762 box
430021231 1.165222 box
430021331 1.166992 box
430021431 1.186035 box
430021531 1.173157 box
430021631 1.173584 box
430021731 1.153564 box
430021831 1.156189 box
430021931 1.159668 box
430022031 1.153687 box
430022131 1.153442 box
430022231 1.163391 box
430022331 1.155884 box
430022431 1.181396 box
430022531 1.172363 box
430022631 1.158081 box
430022731 1.155945 box
430022831 1.170898 box
430022931 1.183228 box
430023031 1.161499 box
430023131 1.165405 box
430023231 1.190674 box
430023331 1.180481 box
430023431 1.156006 box
430023531 1.148071 box
430023631 1.149536 box
430023731 1.155518 box
430023831 1.155396 box
430023931 1.158386 box
430024031 1.156799 box
430024131 1.167542 box
430024231 1.184875 box
430024331 1.183105 box
430024431 1.156738 box
430024531 1.157471 box
430024631 1.168701 box
430024731 1.171631 box
430024831 1.162170 box
430024931 1.163086 box
430025031 1.180786 box
430025131 1.168579 box
430025231 1.187500 box
430025331 1.170349 box
430025431 1.148376 box
430025531 1.165649 box
430025631 1.153381 box
430025731 1.155457 box
430025831 1.156494 box
430025931 1.160583 box
430026031 1.197144 box
430026131 1.167419 box
430026231 1.162781 box
430026331 1.172974 box
430026431 1.164917 box
430026531 1.175598 box
430026631 1.160095 box
430026731 1.161865 box
430026831 1.165833 box
430026931 1.195068 box
430027031 1.164673 box
430027131 1.165344 box
430027231 1.153931 box
430027331 1.147888 box
430027431 1.149780 box
430027531 1.154175 box
430027631 1.155884 box
430027731 1.175110 box
430027831 1.161377 box
430027931 1.193481 box
430028031 1.157043 box
430028131 1.183289 box
430028231 1.171021 box
430028331 1.150024 box
430028431 1.167358 box
430028531 1.173218 box
430028631 1.169006 box
430028731 1.182495 box
430028831 1.164185 box
430028931 1.161682 box
430029031 1.184937 box
430029131 1.172241 box
430029231 1.155151 box
430029331 1.173462 box
430029431 1.168823 box
430029531 1.170959 box
430029631 1.182068 box
430029731 1.165588 box
430029831 1.163696 box
430029931 1.183411 box
430030031 1.175903 box
430030131 1.150940 box
430030231 1.169617 box
430030331 1.167847 box
430030431 1.177795 box
430030531 1.166931 box
430030631 1.157654 box
430030731 1.160034 box
430030831 1.155151 box
430030931 1.162170 box
430031031 1.158203 box
430031131 1.157715 box
430031231 1.156433 box
430031331 1.157715 box
430031431 1.160034 box
430031531 1.156555 box
430031631 1.153992 box
430031731 1.162109 box
430031831 1.183838 box
430031931 1.161438 box
430032031 1.156860 box
430032131 1.154968 box
430032231 1.158508 box
430032331 1.181030 box
430032431 1.161926 box
430032531 1.185608 box
430032631 1.163025 box
430032731 1.163940 box
430032831 1.163818 box
430032931 1.181396 box
430033031 1.173706 box
430033131 1.166870 box
430033231 1.172791 box
430033331 1.171631 box
430033431 1.158691 box
430033531 1.157288 box
430033631 1.161499 box
430033731 1.155579 box
430033831 1.159790 box
430033931 1.173218 box
430034031 1.173584 box
430034131 1.144836 box
430034231 1.159851 box
430034331 1.152405 box
430034431 1.163513 box
430034531 1.175354 box
430034631 1.169006 box
430034731 1.159058 box
430034831 1.188232 box
430034931 1.173706 box
430035031 1.152954 box
430035131 1.168091 box
430035231 1.172791 box
430035331 1.158813 box
430035431 1.154480 box
430035531 1.157654 box
430035631 1.157410 box
430035731 1.161804 box
430035831 1.160400 box
430035931 1.169800 box
430036031 1.176453 box
430036131 1.165894 box
430036231 1.167297 box
430036331 1.183411 box
430036431 1.165039 box
430036531 1.169373 box
430036631 1.186646 box
430036731 1.165527 box
430036831 1.166138 box
430036931 1.161743 box
430037031 1.156311 box
430037131 1.165466 box
430037231 1.178467 box
430037331 1.160034 box
430037431 1.200073 box
430037531 1.159790 box
430037631 1.164246 box
430037731 1.171082 box
430037831 1.174072 box
430037931 1.155579 box
430038031 1.165588 box
430038131 1.176514 box
430038231 1.175659 box
430038331 1.166321 box
430038431 1.185181 box
430038531 1.178101 box
430038631 1.154724 box
430038731 1.171814 box
430038831 1.169128 box
430038931 1.159973 box
430039031 1.156677 box
430039131 1.154968 box
430039231 1.155457 box
430039331 1.161316 box
430039431 1.159851 box
430039531 1.163513 box
430039631 1.171936 box
430039731 1.170288 box
430039831 1.156128 box
430039931 1.168335 box
430040031 1.170471 box
430040131 1.161133 box
430040231 1.163086 box
430040331 1.156982 box
430040431 1.160339 box
430040531 1.156128 box
430040631 1.148621 box
430040731 1.173950 box
430040831 1.167358 box
430040931 1.159668 box
430041031 1.160400 box
430041131 1.180847 box
430041231 1.166809 box
430041331 1.157166 box
430041431 1.166016 box
430041531 1.173889 box
430041631 1.176636 box
430041731 1.148804 box
430041831 1.174316 box
430041931 1.178833 box
430042031 1.160278 box
430042131 1.161194 box
430042231 1.191040 box
430042331 1.166870 box
430042431 1.155884 box
430042531 1.170654 box
430042631 1.176331 box
430042731 1.152527 box
430042831 1.159119 box
430042931 1.152527 box
430043031 1.153992 box
430043131 1.162903 box
430043231 1.157776 box
430043331 1.183228 box
430043431 1.172180 box
430043531 1.155457 box
430043631 1.154602 box
430043731 1.155701 box
430043831 1.158813 box
430043931 1.163513 box
430044031 1.187317 box
430044131 1.166687 box
430044231 1.156372 box
430044331 1.184265 box
430044431 1.164429 box
430044531 1.163757 box
430044631 1.173645 box
430044731 1.179504 box
430044831 1.159851 box
430044931 1.152771 box
430045031 1.161621 box
430045131 1.189087 box
430045231 1.172607 box
430045331 1.170288 box
430045431 1.167419 box
430045531 1.147644 box
430045631 1.159058 box
430045731 1.166321 box
430045831 1.176880 box
430045931 1.165039 box
430046031 1.162720 box
430046131 1.184753 box
430046231 1.174133 box
430046331 1.170959 box
430046431 1.172119 box
430046531 1.172607 box
430046631 1.178955 box
430046731 1.161438 box
430046831 1.188843 box
430046931 1.170349 box
430047031 1.161743 box
430047131 1.181580 box
430047231 1.173645 box
430047331 1.152954 box
430047431 1.153381 box
430047531 1.153198 box
430047631 1.155701 box
430047731 1.158020 box
430047831 1.194946 box
430047931 1.162537 box
430048031 1.161438 box
430048131 1.176025 box
430048231 1.179443 box
430048331 1.146606 box
430048431 1.176392 box
430048531 1.178223 box
430048631 1.160950 box
430048731 1.161682 box
430048831 1.162842 box
430048931 1.185608 box
430049031 1.169495 box
430049131 1.158508 box
430049231 1.180725 box
430049331 1.153809 box
430049431 1.157288 box
430049531 1.155029 box
430049631 1.154663 box
430049731 1.158325 box
430049831 1.191162 box
430049931 1.168274 box
430050031 1.151123 box
430050131 1.174866 box
430050231 1.168823 box
430050331 1.158630 box
430050431 1.154724 box
430050531 1.151611 box
430050631 1.154907 box
430050731 1.167419 box
430050831 1.156799 box
430050931 1.168152 box
430051031 1.155396 box
430051131 1.150024 box
430051231 1.144836 box
430051331 1.170532 box
430051431 1.169861 box
430051531 1.178955 box
430051631 1.162537 box
430051731 1.182068 box
430051831 1.160583 box
430051931 1.170898 box
430052031 1.165894 box
430052131 1.154541 box
430052231 1.155884 box
430052331 1.156006 box
430052431 1.160095 box
430052531 1.161316 box
430052631 1.197021 box
430052731 1.163818 box
430052831 1.167786 box
430052931 1.155212 box
430053031 1.165405 box
430053131 1.168152 box
430053231 1.174561 box
430053331 1.157043 box
430053431 1.154480 box
430053531 1.155701 box
430053631 1.158386 box
430053731 1.186218 box
430053831 1.169189 box
430053931 1.151428 box
430054031 1.174072 box
430054131 1.175049 box
430054231 1.177490 box
430054331 1.161804 box
430054431 1.155518 box
430054531 1.196411 box
430054631 1.157043 box
430054731 1.159302 box
430054831 1.158936 box
430054931 1.154968 box
430055031 1.177551 box
430055131 1.171082 box
430055231 1.164062 box
430055331 1.157837 box
430055431 1.161865 box
430055531 1.158020 box
430055631 1.158875 box
430055731 1.156677 box
430055831 1.153137 box
430055931 1.149719 box
430056031 1.171387 box
430056131 1.167419 box
430056231 1.170776 box
430056331 1.182434 box
430056431 1.166443 box
430056531 1.188477 box
430056631 1.169067 box
430056731 1.155212 box
430056831 1.155212 box
430056931 1.168335 box
430057031 1.180420 box
430057131 1.160461 box
430057231 1.157715 box
430057331 1.162720 box
430057431 1.165894 box
430057531 1.155518 box
430057631 1.158569 box
430057731 1.174805 box
430057831 1.174438 box
430057931 1.155334 box
430058031 1.167664 box
430058131 1.182617 box
430058231 1.159546 box
430058331 1.159424 box
430058431 1.191528 box
430058531 1.166382 box
430058631 1.155457 box
430058731 1.156433 box
430058831 1.177734 box
430058931 1.180725 box
430059031 1.161499 box
430059131 1.157959 box
430059231 1.195312 box
430059331 1.167664 box
430059431 1.164185 box
430059531 1.159119 box
430059631 1.168640 box
430059731 1.178772 box
430059831 1.155457 box
430059931 1.171326 box
430060031 1.182007 box
430060131 1.161316 box
430060231 1.165527 box
430060331 1.184875 box
430060431 1.170959 box
430060531 1.150635 box
430060631 1.147461 box
430060731 1.147644 box
430060831 1.155457 box
430060931 1.154480 box
430061031 1.154236 box
430061131 1.155396 box
430061231 1.179932 box
430061331 1.176758 box
430061431 1.163757 box
430061531 1.152649 box
430061631 1.172791 box
430061731 1.170227 box
430061831 1.159119 box
430061931 1.155884 box
430062031 1.153625 box
430062131 1.159058 box
430062231 1.155884 box
430062331 1.162903 box
430062431 1.158569 box
430062531 1.158875 box
430062631 1.176331 box
430062731 1.173279 box
430062831 1.163818 box
430062931 1.178467 box
430063031 1.162170 box
430063131 1.178284 box
430063231 1.170593 box
430063331 1.168457 box
430063431 1.173523 box
430063531 1.170532 box
430063631 1.153503 box
430063731 1.171753 box
430063831 1.170288 box
430063931 1.182251 box
430064031 1.168640 box
430064131 1.154663 box
430064231 1.161926 box
430064331 1.173279 box
430064431 1.169861 box
430064531 1.142944 box
430064631 1.179016 box
430064731 1.178894 box
430064831 1.160217 box
430064931 1.158752 box
430065031 1.195496 box
430065131 1.169678 box
430065231 1.169678 box
430065331 1.164368 box
430065431 1.153687 box
430065531 1.156616 box
430065631 1.156982 box
430065731 1.156921 box
430065831 1.152527 box
430065931 1.167419 box
430066031 1.188904 box
430066131 1.178589 box
430066231 1.169678 box
430066331 1.177856 box
430066431 1.152710 box
430066531 1.172424 box
430066631 1.180725 box
430066731 1.161194 box
430066831 1.164429 box
430066931 1.188965 box
430067031 1.177429 box
430067131 1.155396 box
430067231 1.173462 box
430067331 1.167664 box
430067431 1.156433 box
430067531 1.155334 box
430067631 1.153931 box
430067731 1.158264 box
430067831 1.196716 box
430067931 1.165771 box
430068031 1.154724 box
430068131 1.171204 box
430068231 1.166565 box
430068331 1.153931 box
430068431 1.158142 box
430068531 1.153442 box
430068631 1.158386 box
430068731 1.178711 box
430068831 1.170654 box
430068931 1.169556 box
430069031 1.174316 box
430069131 1.172424 box
430069231 1.150024 box
430069331 1.159119 box
430069431 1.158142 box
430069531 1.162170 box
430069631 1.193115 box
430069731 1.162415 box
430069831 1.159058 box
430069931 1.179443 box
430070031 1.164917 box
430070131 1.166504 box
430070231 1.169250 box
430070331 1.155640 box
430070431 1.152161 box
430070531 1.153931 box
430070631 1.162048 box
430070731 1.154968 box
430070831 1.172058 box
430070931 1.184998 box
430071031 1.155396 box
430071131 1.166809 box
430071231 1.176208 box
430071331 1.167175 box
430071431 1.165588 box
430071531 1.194763 box
430071631 1.162842 box
430071731 1.165955 box
430071831 1.174805 box
430071931 1.179626 box
430072031 1.151184 box
430072131 1.176025 box
430072231 1.172302 box
430072331 1.178467 box
430072431 1.168274 box
430072531 1.171082 box
430072631 1.188232 box
430072731 1.177795 box
430072831 1.151245 box
430072931 1.152588 box
430073031 1.152954 box
430073131 1.154297 box
430073231 1.154358 box
430073331 1.157898 box
430073431 1.161194 box
430073531 1.161804 box
430073631 1.161255 box
430073731 1.162292 box
430073831 1.170105 box
430073931 1.179138 box
430074031 1.157104 box
430074131 1.171936 box
430074231 1.183044 box
430074331 1.163818 box
430074431 1.164001 box
430074531 1.184265 box
430074631 1.169678 box
430074731 1.151978 box
430074831 1.146179 box
430074931 1.149353 box
430075031 1.155029 box
430075131 1.165405 box
430075231 1.179260 box
430075331 1.164917 box
430075431 1.162659 box
430075531 1.164246 box
430075631 1.185486 box
430075731 1.157654 box
430075831 1.168152 box
430075931 1.160095 box
430076031 1.172241 box
430076131 1.156067 box
430076231 1.157104 box
430076331 1.158875 box
430076431 1.189514 box
430076531 1.167969 box
430076631 1.150513 box
430076731 1.172302 box
430076831 1.174011 box
430076931 1.158752 box
430077031 1.165894 box
430077131 1.186401 box
430077231 1.163086 box
430077331 1.158508 box
430077431 1.188049 box
430077531 1.168823 box
430077631 1.151489 box
430077731 1.151733 box
430077831 1.158813 box
430077931 1.157349 box
430078031 1.167419 box
430078131 1.191101 box
430078231 1.172363 box
430078331 1.157410 box
430078431 1.170715 box
430078531 1.155640 box
430078631 1.167908 box
430078731 1.170288 box
430078831 1.173584 box
430078931 1.161438 box
430079031 1.163452 box
430079131 1.193481 box
430079231 1.161499 box
430079331 1.161560 box
430079431 1.176025 box
430079531 1.174194 box
430079631 1.144653 box
430079731 1.172424 box
430079831 1.156860 box
430079931 1.153748 box
430080031 1.158447 box
430080131 1.165955 box
430080231 1.161743 box
430080331 1.169373 box
430080431 1.172913 box
430080531 1.185303 box
430080631 1.154297 box
430080731 1.155701 box
430080831 1.173035 box
430080931 1.179993 box
430081031 1.168823 box
430081131 1.188049 box
430081231 1.179565 box
430081331 1.171814 box
430081431 1.173645 box
430081531 1.172913 box
430081631 1.167480 box
430081731 1.178955 box
430081831 1.158386 box
430081931 1.195435 box
430082031 1.164734 box
430082131 1.170715 box
430082231 1.174683 box
430082331 1.176147 box
430082431 1.169434 box
430082531 1.173767 box
430082631 1.162842 box
430082731 1.172119 box
430082831 1.167114 box
430082931 1.188904 box
430083031 1.178223 box
430083131 1.159302 box
430083231 1.154358 box
430083331 1.164001 box
430083431 1.176025 box
430083531 1.177368 box
430083631 1.160889 box
430083731 1.160706 box
430083831 1.195435 box
430083931 1.171265 box
430084031 1.157288 box
430084131 1.150269 box
430084231 1.151794 box
430084331 1.156189 box
430084431 1.154907 box
430084531 1.160461 box
430084631 1.181030 box
430084731 1.170288 box
430084831 1.160156 box
430084931 1.166199 box
430085031 1.173950 box
430085131 1.183350 box
430085231 1.149048 box
430085331 1.173584 box
430085431 1.180481 box
430085531 1.165100 box
430085631 1.165588 box
430085731 1.191101 box
430085831 1.174316 box
430085931 1.159851 box
430086031 1.155334 box
430086131 1.166077 box
430086231 1.175842 box
430086331 1.175354 box
430086431 1.159241 box
430086531 1.157532 box
430086631 1.160400 box
430086731 1.156189 box
430086831 1.158081 box
430086931 1.153992 box
430087031 1.154968 box
430087131 1.157043 box
430087231 1.172913 box
430087331 1.167542 box
430087431 1.163635 box
430087531 1.162109 box
430087631 1.195129 box
430087731 1.175720 box
430087831 1.160828 box
430087931 1.168091 box
430088031 1.171631 box
430088131 1.173401 box
430088231 1.161560 box
430088331 1.157776 box
430088431 1.154053 box
430088531 1.160950 box
430088631 1.153748 box
430088731 1.164734 box
430088831 1.159241 box
430088931 1.155151 box
430089031 1.166626 box
430089131 1.171936 box
430089231 1.160950 box
430089331 1.157349 box
430089431 1.160583 box
430089531 1.194702 box
430089631 1.176575 box
430089731 1.159607 box
430089831 1.157288 box
430089931 1.155396 box
430090031 1.170410 box
430090131 1.169250 box
430090231 1.179688 box
430090331 1.164185 box
430090431 1.195862 box
430090531 1.162537 box
430090631 1.183472 box
430090731 1.176453 box
430090831 1.154236 box
430090931 1.171082 box
430091031 1.177185 box
430091131 1.159241 box
430091231 1.161865 box
430091331 1.195740 box
430091431 1.160461 box
430091531 1.166809 box
430091631 1.172852 box
430091731 1.177002 box
430091831 1.148499 box
430091931 1.172058 box
430092031 1.182068 box
430092131 1.161865 box
430092231 1.161133 box
430092331 1.189819 box
430092431 1.173584 box
430092531 1.158386 box
430092631 1.149353 box
430092731 1.169556 box
430092831 1.179626 box
430092931 1.161926 box
430093031 1.163635 box
430093131 1.194214 box
430093231 1.159302 box
430093331 1.163086 box
430093431 1.176880 box
430093531 1.175171 box
430093631 1.147827 box
430093731 1.178772 box
430093831 1.175110 box
430093931 1.174683 box
430094031 1.156372 box
430094131 1.197876 box
430094231 1.170532 box
430094331 1.155518 box
430094431 1.149414 box
430094531 1.152588 box
430094631 1.171875 box
430094731 1.180115 box
430094831 1.162659 box
430094931 1.155151 box
430095031 1.198181 box
430095131 1.161377 box
430095231 1.170654 box
430095331 1.180908 box
430095431 1.165833 box
430095531 1.174255 box
430095631 1.178650 box
430095731 1.163025 box
430095831 1.158203 box
430095931 1.197693 box
430096031 1.165222 box
430096131 1.168518 box
430096231 1.155457 box
430096331 1.172729 box
430096431 1.168335 box
430096531 1.159058 box
430096631 1.178101 box
430096731 1.167297 box
430096831 1.165955 box
430096931 1.158630 box
430097031 1.189331 box
430097131 1.171570 box
430097231 1.150146 box
430097331 1.173096 box
430097431 1.176758 box
430097531 1.160461 box
430097631 1.161682 box
430097731 1.187073 box
430097831 1.160339 box
430097931 1.159119 box
430098031 1.187195 box
430098131 1.167358 box
430098231 1.149170 box
430098331 1.172729 box
430098431 1.174500 box
430098531 1.170715 box
430098631 1.171936 box
430098731 1.169006 box
430098831 1.158813 box
430098931 1.183594 box
430099031 1.164551 box
430099131 1.163147 box
430099231 1.177734 box
430099331 1.179626 box
430099431 1.163818 box
430099531 1.152893 box
430099631 1.161072 box
430099731 1.160156 box
430099831 1.167908 box
430099931 1.164124 box
430100031 1.186523 box
430100131 1.168457 box
430100231 1.173279 box
430100331 1.177856 box
430100431 1.172852 box
430100531 1.164917 box
430100631 1.190552 box
430100731 1.179626 box
430100831 1.158447 box
430100931 1.162170 box
430101031 1.179382 box
430101131 1.171082 box
430101231 1.170959 box
430101331 1.166199 box
430101431 1.195129 box
430101531 1.165588 box
430101631 1.163513 box
430101731 1.160522 box
430101831 1.168091 box
430101931 1.171875 box
430102031 1.171814 box
430102131 1.179504 box
430102231 1.162354 box
430102331 1.192017 box
430102431 1.168091 box
430102531 1.164246 box
430102631 1.178833 box
430102731 1.178406 box
430102831 1.152649 box
430102931 1.155884 box
430103031 1.157837 box
430103131 1.157654 box
430103231 1.154358 box
430103331 1.158813 box
430103431 1.157043 box
430103531 1.163208 box
430103631 1.160828 box
430103731 1.155945 box
430103831 1.166138 box
430103931 1.174500 box
430104031 1.175903 box
430104131 1.175049 box
430104231 1.160828 box
430104331 1.195740 box
430104431 1.175964 box
430104531 1.156006 box
430104631 1.170105 box
430104731 1.169373 box
430104831 1.158325 box
430104931 1.161438 box
430105031 1.164795 box
430105131 1.174377 box
430105231 1.170959 box
430105331 1.160400 box
430105431 1.164185 box
430105531 1.152832 box
430105631 1.171814 box
430105731 1.167419 box
430105831 1.156250 box
430105931 1.166748 box
430106031 1.179565 box
430106131 1.161682 box
430106231 1.156982 box
430106331 1.162537 box
430106431 1.170715 box
430106531 1.175903 box
430106631 1.162476 box
430106731 1.176208 box
430106831 1.168152 box
430106931 1.174866 box
430107031 1.172485 box
430107131 1.161133 box
430107231 1.162903 box
430107331 1.159424 box
430107431 1.159485 box
430107531 1.181396 box
430107631 1.175049 box
430107731 1.166077 box
430107831 1.185547 box
430107931 1.164612 box
430108031 1.163635 box
430108131 1.186096 box
430108231 1.179749 box
430108331 1.156067 box
430108431 1.154175 box
430108531 1.170532 box
430108631 1.173645 box
430108731 1.167542 box
430108831 1.173218 box
430108931 1.171204 box
430109031 1.157837 box
430109131 1.169983 box
430109231 1.156677 box
430109331 1.153564 box
430109431 1.148376 box
430109531 1.157227 box
430109631 1.158020 box
430109731 1.159973 box
430109831 1.158630 box
430109931 1.167786 box
430110031 1.156067 box
430110131 1.172058 box
430110231 1.157959 box
430110331 1.158569 box
430110431 1.147705 box
430110531 1.158386 box
430110631 1.171936 box
430110731 1.160950 box
430110831 1.193909 box
430110931 1.161621 box
430111031 1.164307 box
430111131 1.179260 box
430111231 1.174072 box
430111331 1.145691 box
430111431 1.176208 box
430111531 1.175964 box
430111631 1.162659 box
430111731 1.158203 box
430111831 1.194275 box
430111931 1.167297 box
430112031 1.172668 box
430112131 1.174133 box
430112231 1.172913 box
430112331 1.154724 box
430112431 1.157654 box
430112531 1.154419 box
430112631 1.157104 box
430112731 1.198608 box
430112831 1.161560 box
430112931 1.173645 box
430113031 1.164856 box
430113131 1.148804 box
430113231 1.156006 box
430113331 1.155029 box
430113431 1.157043 box
430113531 1.158691 box
430113631 1.167542 box
430113731 1.161072 box
430113831 1.183838 box
430113931 1.177551 box
430114031 1.155945 box
430114131 1.156555 box
430114231 1.172058 box
430114331 1.183411 box
430114431 1.164795 box
430114531 1.167358 box
430114631 1.190613 box
430114731 1.172485 box
430114831 1.158691 box
430114931 1.172607 box
430115031 1.169434 box
430115131 1.161926 box
430115231 1.168518 box
430115331 1.187317 box
430115431 1.168213 box
430115531 1.160522 box
430115631 1.168335 box
430115731 1.162231 box
430115831 1.172302 box
430115931 1.174622 box
430116031 1.172607 box
430116131 1.166504 box
430116231 1.187988 box
430116331 1.166626 box
430116431 1.161560 box
430116531 1.164917 box
430116631 1.177124 box
430116731 1.171326 box
430116831 1.153442 box
430116931 1.153748 box
430117031 1.174805 box
430117131 1.163452 box
430117231 1.186157 box
430117331 1.165710 box
430117431 1.155823 box
430117531 1.162781 box
430117631 1.156250 box
430117731 1.166809 box
430117831 1.171753 box
430117931 1.172729 box
430118031 1.159912 box
430118131 1.160645 box
430118231 1.191711 box
430118331 1.155396 box
430118431 1.178711 box
430118531 1.163025 box
430118631 1.156006 box
430118731 1.152466 box
430118831 1.159607 box
430118931 1.177673 box
430119031 1.160522 box
430119131 1.190063 box
430119231 1.160706 box
430119331 1.165283 box
430119431 1.159485 box
430119531 1.168396 box
430119631 1.172119 box
430119731 1.176453 box
430119831 1.166870 box
430119931 1.173645 box
430120031 1.179688 box
430120131 1.169373 box
430120231 1.160706 box
430120331 1.164856 box
430120431 1.180786 box
430120531 1.161316 box
430120631 1.155701 box
430120731 1.158264 box
430120831 1.161865 box
430120931 1.156616 box
430121031 1.161804 box
430121131 1.160461 box
430121231 1.186523 box
430121331 1.172485 box
430121431 1.154053 box
430121531 1.170105 box
430121631 1.175110 box
430121731 1.164612 box
430121831 1.162292 box
430121931 1.194275 box
430122031 1.158630 box
430122131 1.184082 box
430122231 1.175171 box
430122331 1.172852 box
430122431 1.147095 box
430122531 1.158386 box
430122631 1.175720 box
430122731 1.161682 box
430122831 1.189392 box
430122931 1.159485 box
430123031 1.166809 box
430123131 1.171692 box
430123231 1.173523 box
430123331 1.174011 box
430123431 1.157288 box
430123531 1.158691 box
430123631 1.158997 box
430123731 1.158813 box
430123831 1.159668 box
430123931 1.160828 box
430124031 1.161438 box
430124131 1.155396 box
430124231 1.152344 box
430124331 1.159668 box
430124431 1.156738 box
430124531 1.160767 box
430124631 1.164368 box
430124731 1.195679 box
430124831 1.165161 box
430124931 1.169922 box
430125031 1.159668 box
430125131 1.181091 box
430125231 1.153931 box
430125331 1.174683 box
430125431 1.167175 box
430125531 1.184143 box
430125631 1.171265 box
430125731 1.161743 box
430125831 1.165527 box
430125931 1.156616 box
430126031 1.151611 box
430126131 1.153015 box
430126231 1.156494 box
430126331 1.155151 box
430126431 1.158997 box
430126531 1.156860 box
430126631 1.169922 box
430126731 1.166626 box
430126831 1.185730 box
430126931 1.172913 box
430127031 1.166382 box
430127131 1.169373 box
430127231 1.162170 box
430127331 1.163513 box
430127431 1.164246 box
430127531 1.195679 box
430127631 1.165771 box
430127731 1.169556 box
430127831 1.173523 box
430127931 1.182007 box
430128031 1.150696 box
430128131 1.160339 box
430128231 1.162720 box
430128331 1.166260 box
430128431 1.195129 box
430128531 1.164917 box
430128631 1.165894 box
430128731 1.175842 box
430128831 1.174500 box
430128931 1.158020 box
430129031 1.170776 box
430129131 1.187622 box
430129231 1.162903 box
430129331 1.161255 box
430129431 1.168701 box
430129531 1.185608 box
430129631 1.172852 box
430129731 1.180847 box
430129831 1.152710 box
430129931 1.160339 box
430130031 1.159851 box
430130131 1.168213 box
430130231 1.191406 box
430130331 1.165894 box
430130431 1.167725 box
430130531 1.161499 box
430130631 1.154236 box
430130731 1.164795 box
430130831 1.176147 box
430130931 1.176819 box
430131031 1.162964 box
430131131 1.158508 box
430131231 1.195435 box
430131331 1.170837 box
430131431 1.179749 box
430131531 1.177307 box
430131631 1.153320 box
430131731 1.173828 box
430131831 1.178589 box
430131931 1.163513 box
430132031 1.169312 box
430132131 1.168335 box
430132231 1.187683 box
430132331 1.180847 box
430132431 1.157410 box
430132531 1.171692 box
430132631 1.177795 box
430132731 1.158081 box
430132831 1.167236 box
430132931 1.189819 box
430133031 1.170776 box
430133131 1.162659 box
430133231 1.179749 box
430133331 1.172424 box
430133431 1.161621 box
430133531 1.157043 box
430133631 1.174927 box
430133731 1.165222 box
430133831 1.185181 box
430133931 1.169067 box
430134031 1.162964 box
430134131 1.183838 box
430134231 1.180542 box
430134331 1.156006 box
430134431 1.171509 box
430134531 1.181580 box
430134631 1.161987 box
430134731 1.173157 box
430134831 1.168945 box
430134931 1.188354 box
430135031 1.179932 box
430135131 1.158875 box
430135231 1.169128 box
430135331 1.175537 box
430135431 1.171875 box
430135531 1.173096 box
430135631 1.162720 box
430135731 1.169128 box
430135831 1.157654 box
430135931 1.167969 box
430136031 1.154419 box
430136131 1.152283 box
430136231 1.162109 box
430136331 1.174988 box
430136431 1.180298 box
430136531 1.160278 box
430136631 1.158630 box
430136731 1.160339 box
430136831 1.166199 box
430136931 1.169128 box
430137031 1.164001 box
430137131 1.146912 box
430137231 1.176941 box
430137331 1.181152 box
430137431 1.160522 box
430137531 1.156067 box
430137631 1.197449 box
430137731 1.168518 box
430137831 1.172241 box
430137931 1.166931 box
430138031 1.162354 box
430138131 1.178589 box
430138231 1.176025 box
430138331 1.156860 box
430138431 1.165100 box
430138531 1.184570 box
430138631 1.163391 box
430138731 1.172058 box
430138831 1.172852 box
430138931 1.172241 box
430139031 1.159058 box
430139131 1.156555 box
430139231 1.154419 box
430139331 1.158264 box
430139431 1.162415 box
430139531 1.171753 box
430139631 1.187012 box
430139731 1.154907 box
430139831 1.151489 box
430139931 1.160522 box
430140031 1.158447 box
430140131 1.158752 box
430140231 1.165894 box
430140331 1.195251 box
430140431 1.165161 box
430140531 1.167847 box
430140631 1.171997 box
430140731 1.173645 box
430140831 1.156555 box
430140931 1.158997 box
430141031 1.168701 box
430141131 1.185852 box
430141231 1.171814 box
430141331 1.157349 box
430141431 1.185791 box
430141531 1.170288 box
430141631 1.163086 box
430141731 1.178589 box
430141831 1.161316 box
430141931 1.161804 box
430142031 1.167297 box
430142131 1.195740 box
430142231 1.166199 box
430142331 1.167542 box
430142431 1.176270 box
430142531 1.185486 box
430142631 1.150940 box
430142731 1.174316 box
430142831 1.176819 box
430142931 1.164734 box
430143031 1.165466 box
430143131 1.191101 box
430143231 1.176270 box
430143331 1.158508 box
430143431 1.159790 box
430143531 1.169006 box
430143631 1.180176 box
430143731 1.162048 box
430143831 1.161438 box
430143931 1.194458 box
430144031 1.169434 box
430144131 1.166504 box
430144231 1.161011 box
430144331 1.181091 box
430144431 1.167969 box
430144531 1.180237 box
430144631 1.161072 box
430144731 1.163818 box
430144831 1.190308 box
430144931 1.165222 box
430145031 1.174072 box
430145131 1.182800 box
430145231 1.173584 box
430145331 1.169006 box
430145431 1.159790 box
430145531 1.168091 box
430145631 1.174683 box
430145731 1.168213 box
430145831 1.175293 box
430145931 1.180359 box
430146031 1.162659 box
430146131 1.173035 box
430146231 1.177490 box
430146331 1.158997 box
430146431 1.158691 box
430146531 1.160706 box
430146631 1.162170 box
430146731 1.196777 box
430146831 1.167908 box
430146931 1.164795 box
430147031 1.169373 box
430147131 1.180115 box
430147231 1.158081 box
430147331 1.165771 box
430147431 1.182861 box
430147531 1.164429 box
430147631 1.196289 box
430147731 1.167419 box
430147831 1.176819 box
430147931 1.169861 box
430148031 1.154175 box
430148131 1.158447 box
430148231 1.157349 box
430148331 1.160400 box
430148431 1.162903 box
430148531 1.197266 box
430148631 1.172363 box
430148731 1.162170 box
430148831 1.170349 box
430148931 1.171570 box
430149031 1.182495 box
430149131 1.175964 box
430149231 1.161743 box
430149331 1.169128 box
430149431 1.183411 box
430149531 1.164001 box
430149631 1.178955 box
430149731 1.171326 box
430149831 1.151978 box
430149931 1.161804 box
430150031 1.156738 box
430150131 1.159546 box
430150231 1.161560 box
430150331 1.166077 box
430150431 1.184814 box
430150531 1.180481 box
430150631 1.157227 box
430150731 1.171997 box
430150831 1.176208 box
430150931 1.160095 box
430151031 1.164124 box
430151131 1.186279 box
430151231 1.168335 box
430151331 1.162476 box
430151431 1.164368 box
430151531 1.154114 box
430151631 1.159241 box
430151731 1.157776 box
430151831 1.170349 box
430151931 1.182739 box
430152031 1.161499 box
430152131 1.166199 box
430152231 1.186157 box
430152331 1.180664 box
430152431 1.157654 box
430152531 1.170898 box
430152631 1.167664 box
430152731 1.161865 box
430152831 1.157043 box
430152931 1.164795 box
430153031 1.196838 box
430153131 1.164917 box
430153231 1.164856 box
430153331 1.172180 box
430153431 1.180725 box
430153531 1.157593 box
430153631 1.164917 box
430153731 1.185364 box
430153831 1.164001 box
430153931 1.162292 box
430154031 1.160522 box
430154131 1.170044 box
430154231 1.159912 box
430154331 1.179932 box
430154431 1.154419 box
430154531 1.154297 box
430154631 1.171448 box
430154731 1.192261 box
430154831 1.172546 box
430154931 1.160156 box
430155031 1.173401 box
430155131 1.173096 box
430155231 1.172729 box
430155331 1.156189 box
430155431 1.159058 box
430155531 1.181213 box
430155631 1.180969 box
430155731 1.166382 box
430155831 1.162903 box
430155931 1.185669 box
430156031 1.171936 box
430156131 1.156921 box
430156231 1.171692 box
430156331 1.168518 box
430156431 1.186584 box
430156531 1.163635 box
430156631 1.160645 box
430156731 1.188660 box
430156831 1.166931 box
430156931 1.168640 box
430157031 1.169983 box
430157131 1.154602 box
430157231 1.156311 box
430157331 1.158203 box
430157431 1.162476 box
430157531 1.161316 box
430157631 1.163879 box
430157731 1.165771 box
430157831 1.162354 box
430157931 1.180298 box
430158031 1.154114 box
430158131 1.174622 box
430158231 1.186035 box
430158331 1.165833 box
430158431 1.162476 box
430158531 1.174316 box
430158631 1.185181 box
430158731 1.162720 box
430158831 1.184326 box
430158931 1.157227 box
430159031 1.170959 box
430159131 1.180237 box
430159231 1.166260 box
430159331 1.162903 box
430159431 1.164978 box
430159531 1.165588 box
430159631 1.162659 box
430159731 1.163452 box
430159831 1.173706 box
430159931 1.157593 box
430160031 1.160889 box
430160131 1.173340 box
430160231 1.162842 box
430160331 1.198425 box
430160431 1.180664 box
430160531 1.162964 box
430160631 1.160278 box
430160731 1.159058 box
430160831 1.172668 box
430160931 1.172485 box
430161031 1.184753 box
430161131 1.167358 box
430161231 1.165833 box
430161331 1.185669 box
430161431 1.185486 box
430161531 1.158752 box
430161631 1.162048 box
430161731 1.172302 box
430161831 1.178467 box
430161931 1.164734 box
430162031 1.160950 box
430162131 1.197449 box
430162231 1.175049 box
430162331 1.157654 box
430162431 1.158508 box
430162531 1.180969 box
430162631 1.162292 box
430162731 1.159973 box
430162831 1.167480 box
430162931 1.192139 box
430163031 1.171997 box
430163131 1.162354 box
430163231 1.167847 box
430163331 1.160095 box
430163431 1.172668 box
430163531 1.168884 box
430163631 1.161133 box
430163731 1.166626 box
430163831 1.185364 box
430163931 1.171204 box
430164031 1.160645 box
430164131 1.180908 box
430164231 1.178772 box
430164331 1.156616 box
430164431 1.160217 box
430164531 1.155823 box
430164631 1.161438 box
430164731 1.160950 box
430164831 1.178650 box
430164931 1.171753 box
430165031 1.169006 box
430165131 1.171631 box
430165231 1.171875 box
430165331 1.157593 box
430165431 1.159485 box
430165531 1.179443 box
430165631 1.173950 box
430165731 1.172791 box
430165831 1.159668 box
430165931 1.183838 box
430166031 1.179688 box
430166131 1.150696 box
430166231 1.176636 box
430166331 1.176270 box
430166431 1.166138 box
430166531 1.158020 box
430166631 1.199524 box
430166731 1.167786 box
430166831 1.160828 box
430166931 1.175354 box
430167031 1.177307 box
430167131 1.158875 box
430167231 1.171448 box
430167331 1.182617 box
430167431 1.166748 box
430167531 1.158691 box
430167631 1.183594 box
430167731 1.163513 box
430167831 1.168579 box
430167931 1.167419 box
430168031 1.156921 box
430168131 1.157837 box
430168231 1.154053 box
430168331 1.158325 box
430168431 1.164673 box
430168531 1.159851 box
430168631 1.164124 box
430168731 1.157043 box
430168831 1.155396 box
430168931 1.175659 box
430169031 1.167969 box
430169131 1.164673 box
430169231 1.159058 box
430169331 1.197998 box
430169431 1.168701 box
430169531 1.163269 box
430169631 1.156128 box
430169731 1.157410 box
430169831 1.158569 box
430169931 1.179932 box
430170031 1.170898 box
430170131 1.165222 box
430170231 1.166321 box
430170331 1.164978 box
430170431 1.184509 box
430170531 1.178833 box
430170631 1.156799 box
430170731 1.165588 box
430170831 1.167847 box
430170931 1.167358 box
430171031 1.162170 box
430171131 1.166260 box
430171231 1.190369 box
430171331 1.176758 box
430171431 1.159668 box
430171531 1.173157 box
430171631 1.168579 box
430171731 1.160950 box
430171831 1.164001 box
430171931 1.163574 box
430172031 1.196167 box
430172131 1.171936 box
430172231 1.164246 box
430172331 1.176331 box
430172431 1.170166 box
430172531 1.159668 box
430172631 1.157715 box
430172731 1.162170 box
430172831 1.161255 box
430172931 1.164917 box
430173031 1.163696 box
430173131 1.171143 box
430173231 1.174377 box
430173331 1.183472 box
430173431 1.153503 box
430173531 1.173889 box
430173631 1.172424 box
430173731 1.168457 box
430173831 1.178772 box
430173931 1.191650 box
430174031 1.170715 box
430174131 1.159485 box
430174231 1.160583 box
430174331 1.153931 box
430174431 1.178833 box
430174531 1.170288 box
430174631 1.176697 box
430174731 1.178223 box
430174831 1.166687 box
430174931 1.183289 box
430175031 1.173950 box
430175131 1.154907 box
430175231 1.168945 box
430175331 1.176453 box
430175431 1.168274 box
430175531 1.159119 box
430175631 1.192200 box
430175731 1.165833 box
430175831 1.166321 box
430175931 1.167419 box
430176031 1.183472 box
430176131 1.157471 box
430176231 1.160278 box
430176331 1.161499 box
430176431 1.166016 box
430176531 1.176636 box
430176631 1.173157 box
430176731 1.179077 box
430176831 1.179016 box
430176931 1.171753 box
430177031 1.156250 box
430177131 1.162964 box
430177231 1.160461 box
430177331 1.160217 box
430177431 1.164062 box
430177531 1.196594 box
430177631 1.179688 box
430177731 1.155884 box
430177831 1.163452 box
430177931 1.183228 box
430178031 1.158081 box
430178131 1.161133 box
430178231 1.161011 box
430178331 1.163452 box
430178431 1.199036 box
430178531 1.165710 box
430178631 1.164124 box
430178731 1.175232 box
430178831 1.167969 box
430178931 1.162415 box
430179031 1.157288 box
430179131 1.159180 box
430179231 1.160034 box
430179331 1.198608 box
430179431 1.176514 box
430179531 1.157410 box
430179631 1.174805 box
430179731 1.165344 box
430179831 1.159485 box
430179931 1.176270 box
430180031 1.166992 box
430180131 1.166504 box
430180231 1.169983 box
430180331 1.189026 box
430180431 1.171448 box
430180531 1.167480 box
430180631 1.170776 box
430180731 1.179199 box
430180831 1.165344 box
430180931 1.158997 box
430181031 1.166138 box
430181131 1.160889 box
430181231 1.166504 box
430181331 1.160156 box
430181431 1.152466 box
430181531 1.153564 box
430181631 1.173950 box
430181731 1.171143 box
430181831 1.172241 box
430181931 1.176697 box
430182031 1.160339 box
430182131 1.164978 box
430182231 1.157593 box
430182331 1.153931 box
430182431 1.155212 box
430182531 1.173462 box
430182631 1.170471 box
430182731 1.183411 box
430182831 1.166565 box
430182931 1.161316 box
430183031 1.161926 box
430183131 1.159485 box
430183231 1.153809 box
430183331 1.156372 box
430183431 1.159180 box
430183531 1.156372 box
430183631 1.158508 box
430183731 1.161682 box
430183831 1.199890 box
430183931 1.162476 box
430184031 1.164856 box
430184131 1.172485 box
430184231 1.180115 box
430184331 1.155762 box
430184431 1.170959 box
430184531 1.183411 box
430184631 1.167236 box
430184731 1.162842 box
430184831 1.186035 box
430184931 1.171387 box
430185031 1.151367 box
430185131 1.155518 box
430185231 1.171692 box
430185331 1.171204 box
430185431 1.181702 box
430185531 1.165100 box
430185631 1.163452 box
430185731 1.166138 box
430185831 1.159668 box
430185931 1.151123 box
430186031 1.153931 box
430186131 1.159607 box
430186231 1.162659 box
430186331 1.158508 box
430186431 1.158020 box
430186531 1.198242 box
430186631 1.160461 box
430186731 1.181213 box
430186831 1.168274 box
430186931 1.152588 box
430187031 1.160400 box
430187131 1.161133 box
430187231 1.157166 box
430187331 1.160278 box
430187431 1.184082 box
430187531 1.172363 box
430187631 1.182251 box
430187731 1.170410 box
430187831 1.158142 box
430187931 1.154480 box
430188031 1.159912 box
430188131 1.171265 box
430188231 1.183777 box
430188331 1.168457 box
430188431 1.159851 box
430188531 1.168152 box
430188631 1.166626 box
430188731 1.172974 box
430188831 1.170898 box
430188931 1.177002 box
430189031 1.168396 box
430189131 1.157471 box
430189231 1.166870 box
430189331 1.164307 box
429994394 1.164124 box
