/dev/cpu/msr_batch: No such file or directory
graph_generation:               3.624708 s
construction_time:              0.949451 s
Running BFS 0
Time for BFS 0 is 0.348887
TEPS for BFS 0 is 4.80839e+07
Validating BFS 0
Validate time for BFS 0 is 1.231801
Running BFS 1
Time for BFS 1 is 0.349101
TEPS for BFS 1 is 4.80544e+07
Validating BFS 1
Validate time for BFS 1 is 1.235347
Running BFS 2
Time for BFS 2 is 0.349377
TEPS for BFS 2 is 4.80163e+07
Validating BFS 2
Validate time for BFS 2 is 1.234849
Running BFS 3
Time for BFS 3 is 0.349508
TEPS for BFS 3 is 4.79984e+07
Validating BFS 3
Validate time for BFS 3 is 1.232523
Running BFS 4
Time for BFS 4 is 0.350655
TEPS for BFS 4 is 4.78414e+07
Validating BFS 4
Validate time for BFS 4 is 1.237465
Running BFS 5
Time for BFS 5 is 0.348737
TEPS for BFS 5 is 4.81046e+07
Validating BFS 5
Validate time for BFS 5 is 1.234546
Running BFS 6
Time for BFS 6 is 0.348211
TEPS for BFS 6 is 4.81771e+07
Validating BFS 6
Validate time for BFS 6 is 1.222636
Running BFS 7
Time for BFS 7 is 0.349116
TEPS for BFS 7 is 4.80523e+07
Validating BFS 7
Validate time for BFS 7 is 1.223735
Running BFS 8
Time for BFS 8 is 0.350206
TEPS for BFS 8 is 4.79027e+07
Validating BFS 8
Validate time for BFS 8 is 1.225277
Running BFS 9
Time for BFS 9 is 0.348418
TEPS for BFS 9 is 4.81485e+07
Validating BFS 9
Validate time for BFS 9 is 1.224146
Running BFS 10
Time for BFS 10 is 0.348456
TEPS for BFS 10 is 4.81432e+07
Validating BFS 10
Validate time for BFS 10 is 1.231081
Running BFS 11
Time for BFS 11 is 0.348949
TEPS for BFS 11 is 4.80752e+07
Validating BFS 11
Validate time for BFS 11 is 1.223041
Running BFS 12
Time for BFS 12 is 0.348760
TEPS for BFS 12 is 4.81013e+07
Validating BFS 12
Validate time for BFS 12 is 1.228247
Running BFS 13
Time for BFS 13 is 0.348296
TEPS for BFS 13 is 4.81653e+07
Validating BFS 13
Validate time for BFS 13 is 1.225762
Running BFS 14
Time for BFS 14 is 0.350051
TEPS for BFS 14 is 4.79239e+07
Validating BFS 14
Validate time for BFS 14 is 1.225981
Running BFS 15
Time for BFS 15 is 0.348454
TEPS for BFS 15 is 4.81435e+07
Validating BFS 15
Validate time for BFS 15 is 1.222027
Running BFS 16
Time for BFS 16 is 0.348404
TEPS for BFS 16 is 4.81505e+07
Validating BFS 16
Validate time for BFS 16 is 1.225716
Running BFS 17
Time for BFS 17 is 0.347527
TEPS for BFS 17 is 4.82719e+07
Validating BFS 17
Validate time for BFS 17 is 1.231372
Running BFS 18
Time for BFS 18 is 0.348045
TEPS for BFS 18 is 4.82002e+07
Validating BFS 18
Validate time for BFS 18 is 1.226237
Running BFS 19
Time for BFS 19 is 0.349614
TEPS for BFS 19 is 4.79838e+07
Validating BFS 19
Validate time for BFS 19 is 1.230742
Running BFS 20
Time for BFS 20 is 0.349883
TEPS for BFS 20 is 4.7947e+07
Validating BFS 20
Validate time for BFS 20 is 1.218923
Running BFS 21
Time for BFS 21 is 0.348396
TEPS for BFS 21 is 4.81516e+07
Validating BFS 21
Validate time for BFS 21 is 1.228330
Running BFS 22
Time for BFS 22 is 0.347990
TEPS for BFS 22 is 4.82077e+07
Validating BFS 22
Validate time for BFS 22 is 1.226000
Running BFS 23
Time for BFS 23 is 0.348543
TEPS for BFS 23 is 4.81312e+07
Validating BFS 23
Validate time for BFS 23 is 1.229221
Running BFS 24
Time for BFS 24 is 0.348422
TEPS for BFS 24 is 4.81479e+07
Validating BFS 24
Validate time for BFS 24 is 1.225700
Running BFS 25
Time for BFS 25 is 0.350140
TEPS for BFS 25 is 4.79117e+07
Validating BFS 25
Validate time for BFS 25 is 1.228801
Running BFS 26
Time for BFS 26 is 0.350174
TEPS for BFS 26 is 4.7907e+07
Validating BFS 26
Validate time for BFS 26 is 1.227918
Running BFS 27
Time for BFS 27 is 0.348200
TEPS for BFS 27 is 4.81786e+07
Validating BFS 27
Validate time for BFS 27 is 1.220668
Running BFS 28
Time for BFS 28 is 0.348314
TEPS for BFS 28 is 4.81629e+07
Validating BFS 28
Validate time for BFS 28 is 1.227918
Running BFS 29
Time for BFS 29 is 0.347952
TEPS for BFS 29 is 4.8213e+07
Validating BFS 29
Validate time for BFS 29 is 1.227720
Running BFS 30
Time for BFS 30 is 0.350552
TEPS for BFS 30 is 4.78554e+07
Validating BFS 30
Validate time for BFS 30 is 1.228917
Running BFS 31
Time for BFS 31 is 0.350002
TEPS for BFS 31 is 4.79306e+07
Validating BFS 31
Validate time for BFS 31 is 1.221488
Running BFS 32
Time for BFS 32 is 0.348771
TEPS for BFS 32 is 4.80998e+07
Validating BFS 32
Validate time for BFS 32 is 1.228991
Running BFS 33
Time for BFS 33 is 0.349030
TEPS for BFS 33 is 4.80641e+07
Validating BFS 33
Validate time for BFS 33 is 1.224282
Running BFS 34
Time for BFS 34 is 0.349806
TEPS for BFS 34 is 4.79575e+07
Validating BFS 34
Validate time for BFS 34 is 1.226985
Running BFS 35
Time for BFS 35 is 0.348257
TEPS for BFS 35 is 4.81707e+07
Validating BFS 35
Validate time for BFS 35 is 1.223828
Running BFS 36
Time for BFS 36 is 0.348749
TEPS for BFS 36 is 4.81029e+07
Validating BFS 36
Validate time for BFS 36 is 1.227249
Running BFS 37
Time for BFS 37 is 0.348933
TEPS for BFS 37 is 4.80775e+07
Validating BFS 37
Validate time for BFS 37 is 1.226290
Running BFS 38
Time for BFS 38 is 0.348228
TEPS for BFS 38 is 4.81749e+07
Validating BFS 38
Validate time for BFS 38 is 1.227565
Running BFS 39
Time for BFS 39 is 0.348527
TEPS for BFS 39 is 4.81334e+07
Validating BFS 39
Validate time for BFS 39 is 1.221537
Running BFS 40
Time for BFS 40 is 0.349978
TEPS for BFS 40 is 4.79339e+07
Validating BFS 40
Validate time for BFS 40 is 1.226435
Running BFS 41
Time for BFS 41 is 0.350352
TEPS for BFS 41 is 4.78828e+07
Validating BFS 41
Validate time for BFS 41 is 1.230087
Running BFS 42
Time for BFS 42 is 0.348106
TEPS for BFS 42 is 4.81917e+07
Validating BFS 42
Validate time for BFS 42 is 1.227099
Running BFS 43
Time for BFS 43 is 0.349766
TEPS for BFS 43 is 4.79629e+07
Validating BFS 43
Validate time for BFS 43 is 1.225490
Running BFS 44
Time for BFS 44 is 0.350055
TEPS for BFS 44 is 4.79234e+07
Validating BFS 44
Validate time for BFS 44 is 1.226869
Running BFS 45
Time for BFS 45 is 0.350589
TEPS for BFS 45 is 4.78504e+07
Validating BFS 45
Validate time for BFS 45 is 1.228974
Running BFS 46
Time for BFS 46 is 0.347861
TEPS for BFS 46 is 4.82256e+07
Validating BFS 46
Validate time for BFS 46 is 1.228633
Running BFS 47
Time for BFS 47 is 0.350361
TEPS for BFS 47 is 4.78815e+07
Validating BFS 47
Validate time for BFS 47 is 1.225366
Running BFS 48
Time for BFS 48 is 0.349144
TEPS for BFS 48 is 4.80484e+07
Validating BFS 48
Validate time for BFS 48 is 1.227127
Running BFS 49
Time for BFS 49 is 0.349729
TEPS for BFS 49 is 4.7968e+07
Validating BFS 49
Validate time for BFS 49 is 1.222387
Running BFS 50
Time for BFS 50 is 0.348240
TEPS for BFS 50 is 4.81731e+07
Validating BFS 50
Validate time for BFS 50 is 1.224365
Running BFS 51
Time for BFS 51 is 0.351209
TEPS for BFS 51 is 4.77658e+07
Validating BFS 51
Validate time for BFS 51 is 1.227781
Running BFS 52
Time for BFS 52 is 0.349459
TEPS for BFS 52 is 4.80051e+07
Validating BFS 52
Validate time for BFS 52 is 1.225944
Running BFS 53
Time for BFS 53 is 0.348076
TEPS for BFS 53 is 4.81959e+07
Validating BFS 53
Validate time for BFS 53 is 1.225381
Running BFS 54
Time for BFS 54 is 0.348124
TEPS for BFS 54 is 4.81892e+07
Validating BFS 54
Validate time for BFS 54 is 1.229321
Running BFS 55
Time for BFS 55 is 0.349949
TEPS for BFS 55 is 4.79378e+07
Validating BFS 55
Validate time for BFS 55 is 1.225146
Running BFS 56
Time for BFS 56 is 0.349667
TEPS for BFS 56 is 4.79766e+07
Validating BFS 56
Validate time for BFS 56 is 1.225534
Running BFS 57
Time for BFS 57 is 0.349451
TEPS for BFS 57 is 4.80062e+07
Validating BFS 57
Validate time for BFS 57 is 1.230419
Running BFS 58
Time for BFS 58 is 0.348199
TEPS for BFS 58 is 4.81789e+07
Validating BFS 58
Validate time for BFS 58 is 1.226496
Running BFS 59
Time for BFS 59 is 0.352267
TEPS for BFS 59 is 4.76225e+07
Validating BFS 59
Validate time for BFS 59 is 1.225988
Running BFS 60
Time for BFS 60 is 0.347959
TEPS for BFS 60 is 4.8212e+07
Validating BFS 60
Validate time for BFS 60 is 1.228294
Running BFS 61
Time for BFS 61 is 0.348545
TEPS for BFS 61 is 4.81311e+07
Validating BFS 61
Validate time for BFS 61 is 1.226530
Running BFS 62
Time for BFS 62 is 0.348434
TEPS for BFS 62 is 4.81463e+07
Validating BFS 62
Validate time for BFS 62 is 1.229240
Running BFS 63
Time for BFS 63 is 0.350028
TEPS for BFS 63 is 4.79271e+07
Validating BFS 63
Validate time for BFS 63 is 1.225495
real	1m 52.98s
user	3m 38.17s
sys	0m 7.68s
