/dev/cpu/msr_batch: No such file or directory
terminate called after throwing an instance of 'std::bad_alloc'
  what():  std::bad_alloc
[box:06124] *** Process received signal ***
[box:06124] Signal: Aborted (6)
[box:06124] Signal code:  (-6)
[box:06124] [ 0] /lib/libpthread.so.0(+0x10030)[0x7f59d76ae030]
[box:06124] [ 1] /lib/libc.so.6(gsignal+0xbb)[0x7f59d735485e]
[box:06124] [ 2] /lib/libc.so.6(abort+0x139)[0x7f59d735599d]
[box:06124] [ 3] /usr/lib/libstdc++.so.6(_ZN9__gnu_cxx27__verbose_terminate_handlerEv+0xbc)[0x7f59d7e8f9ad]
[box:06124] [ 4] /usr/lib/libstdc++.so.6(+0x94081)[0x7f59d7e8e081]
[box:06124] [ 5] /usr/lib/libstdc++.so.6(+0x940ba)[0x7f59d7e8e0ba]
[box:06124] [ 6] /usr/lib/libstdc++.so.6(__cxa_rethrow+0x0)[0x7f59d7e8e29c]
[box:06124] [ 7] /usr/lib/libstdc++.so.6(_Znwm+0x53)[0x7f59d7e8e63a]
[box:06124] [ 8] /mnt/sda1/miniFE/src/miniFE.x[0x412849]
[box:06124] [ 9] /mnt/sda1/miniFE/src/miniFE.x[0x419c53]
[box:06124] [10] /mnt/sda1/miniFE/src/miniFE.x[0x404d2a]
[box:06124] [11] /lib/libc.so.6(__libc_start_main+0x15a)[0x7f59d734509d]
[box:06124] [12] /mnt/sda1/miniFE/src/miniFE.x[0x406b6a]
[box:06124] *** End of error message ***
--------------------------------------------------------------------------
mpirun noticed that process rank 0 with PID 0 on node box exited on signal 6 (Aborted).
--------------------------------------------------------------------------
Command exited with non-zero status 134
real	0m 57.40s
user	1m 34.73s
sys	0m 6.46s
