------------
Profiler Configuration
output path: /home/tc/pwr2018/output_miniFE_proc1//cap_13/profiler-3
monitoring frequency: 100000000 nano seconds
------------
MiniFE Mini-App, OpenMP Peer Implementation
Creating OpenMP Thread Pool...
Counted: 2 threads.
Running MiniFE Mini-App...
      creating/filling mesh...0.152529s, total time: 0.152529
generating matrix structure...7.6219s, total time: 7.77443
         assembling FE data...29.1524s, total time: 36.9268
      imposing Dirichlet BC...13.9209s, total time: 50.8478
      imposing Dirichlet BC...3.83695s, total time: 54.6847
making matrix indices local...0.00674415s, total time: 54.6915
Starting CG solver ... 
-------------------------------------------------------
Primary job  terminated normally, but 1 process returned
a non-zero exit code. Per user-direction, the job has been aborted.
-------------------------------------------------------
