------------
Profiler Configuration
output path: /home/tc/pwr2018/output_miniFE_proc1//cap_15/nowrapper-3
monitoring frequency: 100000000 nano seconds
------------
MiniFE Mini-App, OpenMP Peer Implementation
Creating OpenMP Thread Pool...
Counted: 2 threads.
Running MiniFE Mini-App...
      creating/filling mesh...0.151824s, total time: 0.151824
generating matrix structure...7.31346s, total time: 7.46528
         assembling FE data...28.7794s, total time: 36.2446
      imposing Dirichlet BC...13.9051s, total time: 50.1497
      imposing Dirichlet BC...3.83255s, total time: 53.9823
making matrix indices local...0.00671697s, total time: 53.989
Starting CG solver ... 
-------------------------------------------------------
Primary job  terminated normally, but 1 process returned
a non-zero exit code. Per user-direction, the job has been aborted.
-------------------------------------------------------
