/dev/cpu/msr_batch: No such file or directory
terminate called after throwing an instance of 'std::bad_alloc'
  what():  std::bad_alloc
[box:06039] *** Process received signal ***
[box:06039] Signal: Aborted (6)
[box:06039] Signal code:  (-6)
[box:06039] [ 0] /lib/libpthread.so.0(+0x10030)[0x7f4c44bc5030]
[box:06039] [ 1] /lib/libc.so.6(gsignal+0xbb)[0x7f4c4486b85e]
[box:06039] [ 2] /lib/libc.so.6(abort+0x139)[0x7f4c4486c99d]
[box:06039] [ 3] /usr/lib/libstdc++.so.6(_ZN9__gnu_cxx27__verbose_terminate_handlerEv+0xbc)[0x7f4c453a69ad]
[box:06039] [ 4] /usr/lib/libstdc++.so.6(+0x94081)[0x7f4c453a5081]
[box:06039] [ 5] /usr/lib/libstdc++.so.6(+0x940ba)[0x7f4c453a50ba]
[box:06039] [ 6] /usr/lib/libstdc++.so.6(__cxa_rethrow+0x0)[0x7f4c453a529c]
[box:06039] [ 7] /usr/lib/libstdc++.so.6(_Znwm+0x53)[0x7f4c453a563a]
[box:06039] [ 8] /mnt/sda1/miniFE/src/miniFE.x[0x412849]
[box:06039] [ 9] /mnt/sda1/miniFE/src/miniFE.x[0x419c53]
[box:06039] [10] /mnt/sda1/miniFE/src/miniFE.x[0x404d2a]
[box:06039] [11] /lib/libc.so.6(__libc_start_main+0x15a)[0x7f4c4485c09d]
[box:06039] [12] /mnt/sda1/miniFE/src/miniFE.x[0x406b6a]
[box:06039] *** End of error message ***
--------------------------------------------------------------------------
mpirun noticed that process rank 0 with PID 0 on node box exited on signal 6 (Aborted).
--------------------------------------------------------------------------
Command exited with non-zero status 134
real	0m 57.37s
user	1m 34.67s
sys	0m 6.80s
