time(ms) energy(J) hostname
395108938 0.000000 box
395109038 0.899414 box
395109138 1.046021 box
395109238 1.047119 box
395109338 1.046753 box
395109438 1.046570 box
395109538 1.045959 box
395109638 1.045837 box
395109738 1.046387 box
395109838 1.047424 box
395109938 1.045105 box
395110038 1.046570 box
395110138 1.046204 box
395110238 1.046936 box
395110338 1.044861 box
395110438 1.049011 box
395110538 1.046204 box
395110638 1.046875 box
395110738 1.045837 box
395110838 1.046265 box
395110938 1.046326 box
395111038 1.046631 box
395111138 1.046692 box
395111238 1.046753 box
395111338 1.047668 box
395111438 1.044067 box
395111538 1.047607 box
395111638 1.046875 box
395111738 1.046143 box
395111838 1.045776 box
395111938 1.047302 box
395112038 1.045532 box
395112138 1.046326 box
395112238 1.046631 box
395112338 1.046021 box
395112438 1.045532 box
395112538 1.046387 box
395112638 1.049988 box
395112738 1.046387 box
395112838 1.045776 box
395112938 1.046631 box
395113038 1.048889 box
395113138 1.045715 box
395113238 1.047668 box
395113338 1.049988 box
395113438 1.045715 box
395113538 1.046387 box
395113638 1.045166 box
395113738 1.046692 box
395113838 1.045715 box
395113938 1.041504 box
395114038 1.046814 box
395114138 1.046448 box
395114238 1.045776 box
395114338 1.046570 box
395114438 1.047546 box
395114538 1.049316 box
395114638 1.046143 box
395114738 1.048401 box
395114838 1.046387 box
395114938 1.046143 box
395115038 1.045959 box
395115138 1.046509 box
395115238 1.046509 box
395115338 1.045898 box
395115438 1.045959 box
395115538 1.041687 box
395115638 1.046753 box
395115738 1.046143 box
395115838 1.046387 box
395115938 1.047241 box
395116038 1.046448 box
395116138 1.046204 box
395116238 1.050049 box
395116338 1.046326 box
395116438 1.047791 box
395116538 1.046509 box
395116638 1.046143 box
395116738 1.046387 box
395116838 1.046082 box
395116938 1.046875 box
395117038 1.045776 box
395117138 1.045105 box
395117238 1.043030 box
395117338 1.045715 box
395117438 1.046143 box
395117538 1.046570 box
395117638 1.046509 box
395117738 1.046936 box
395117838 1.046204 box
395117938 1.049866 box
395118038 1.046936 box
395118138 1.046204 box
395118238 1.048340 box
395118338 1.046143 box
395118438 1.046082 box
395118538 1.046448 box
395118638 1.046875 box
395118738 1.046021 box
395118838 1.046143 box
395118938 1.042236 box
395119038 1.046082 box
395119138 1.046936 box
395119238 1.046692 box
395119338 1.046448 box
395119438 1.046692 box
395119538 1.046082 box
395119638 1.050293 box
395119738 1.046387 box
395119838 1.046204 box
395119938 1.047913 box
395120038 1.046753 box
395120138 1.046082 box
395120238 1.046509 box
395120338 1.047180 box
395120438 1.045959 box
395120538 1.046326 box
395120638 1.042297 box
395120738 1.045288 box
395120838 1.046509 box
395120938 1.045898 box
395121038 1.047363 box
395121138 1.045715 box
395121238 1.046692 box
395121338 1.049683 box
395121438 1.046326 box
395121538 1.046265 box
395121638 1.048828 box
395121738 1.046021 box
395121838 1.045959 box
395121938 1.046814 box
395122038 1.046875 box
395122138 1.046143 box
395122238 1.046265 box
395122338 1.042908 box
395122438 1.045471 box
395122538 1.046448 box
395122638 1.046021 box
395122738 1.046570 box
395122838 1.046509 box
395122938 1.046509 box
395123038 1.049805 box
395123138 1.045898 box
395123238 1.046387 box
395123338 1.048584 box
395123438 1.046204 box
395123538 1.046326 box
395123638 1.046326 box
395123738 1.047791 box
395123838 1.045227 box
395123938 1.046265 box
395124038 1.043091 box
395124138 1.045837 box
395124238 1.046082 box
395124338 1.046021 box
395124438 1.046448 box
395124538 1.046082 box
395124638 1.046997 box
395124738 1.049377 box
395124838 1.046692 box
395124938 1.046509 box
395125038 1.050049 box
395125138 1.046509 box
395125238 1.046753 box
395125338 1.045776 box
395125438 1.046936 box
395125538 1.046143 box
395125638 1.046570 box
395125738 1.042603 box
395125838 1.046570 box
395125938 1.045227 box
395126038 1.046570 box
395126138 1.046936 box
395126238 1.046204 box
395126338 1.047119 box
395126438 1.048950 box
395126538 1.046448 box
395126638 1.046570 box
395126738 1.048401 box
395126838 1.046448 box
395126938 1.046692 box
395127038 1.045471 box
395127138 1.047363 box
395127238 1.046082 box
395127338 1.046326 box
395127438 1.042236 box
395127538 1.046021 box
395127638 1.046631 box
395127738 1.045898 box
395127838 1.046753 box
395127938 1.046326 box
395128038 1.046570 box
395128138 1.050293 box
395128238 1.045776 box
395128338 1.047852 box
395128438 1.046753 box
395128538 1.046814 box
395128638 1.045837 box
395128738 1.046692 box
395128838 1.047302 box
395128938 1.045532 box
395129038 1.046326 box
395129138 1.041199 box
395129238 1.046753 box
395129338 1.046082 box
395129438 1.046692 box
395129538 1.046448 box
395129638 1.046265 box
395129738 1.046326 box
395129838 1.050537 box
395129938 1.046692 box
395130038 1.048401 box
395130138 1.046631 box
395130238 1.046265 box
395130338 1.046509 box
395130438 1.046082 box
395130538 1.046448 box
395130638 1.046448 box
395130738 1.045959 box
395130838 1.041687 box
395130938 1.046692 box
395131038 1.045532 box
395131138 1.047058 box
395131238 1.046326 box
395131338 1.046448 box
395131438 1.046265 box
395131538 1.050537 box
395131638 1.045898 box
395131738 1.048767 box
395131838 1.046570 box
395131938 1.045959 box
395132038 1.046265 box
395132138 1.046265 box
395132238 1.046326 box
395132338 1.045959 box
395132438 1.046265 box
395132538 1.041138 box
395132638 1.048828 box
395132738 1.045105 box
395132838 1.047058 box
395132938 1.045959 box
395133038 1.046570 box
395133138 1.045898 box
395133238 1.051208 box
395133338 1.046692 box
395133438 1.048096 box
395133538 1.046814 box
395133638 1.046082 box
395133738 1.046265 box
395133838 1.046204 box
395133938 1.046753 box
395134038 1.046021 box
395134138 1.046387 box
395134238 1.040771 box
395134338 1.048523 box
395134438 1.044189 box
395134538 1.046692 box
395134638 1.046326 box
395134738 1.046387 box
395134838 1.046021 box
395134938 1.050049 box
395135038 1.046570 box
395135138 1.048340 box
395135238 1.045898 box
395135338 1.046204 box
395135438 1.046265 box
395135538 1.046204 box
395135638 1.046936 box
395135738 1.045776 box
395135838 1.046204 box
395135938 1.040405 box
395136038 1.049805 box
395136138 1.044495 box
395136238 1.046631 box
395136338 1.046204 box
395136438 1.046448 box
395136538 1.046631 box
395136638 1.049438 box
395136738 1.047546 box
395136838 1.047485 box
395136938 1.046082 box
395137038 1.046265 box
395137138 1.045898 box
395137238 1.046692 box
395137338 1.046509 box
395137438 1.045959 box
395137538 1.046265 box
395137638 1.039429 box
395137738 1.048401 box
395137838 1.047363 box
395137938 1.045776 box
395138038 1.047058 box
395138138 1.045959 box
395138238 1.046875 box
395138338 1.049377 box
395138438 1.046509 box
395138538 1.048157 box
395138638 1.046570 box
395138738 1.046021 box
395138838 1.046082 box
395138938 1.046631 box
395139038 1.046387 box
395139138 1.046448 box
395139238 1.046326 box
395139338 1.043457 box
395139438 1.045410 box
395139538 1.045715 box
395139638 1.047302 box
395139738 1.048035 box
395139838 1.046875 box
395139938 1.045959 box
395140038 1.049683 box
395140138 1.046326 box
395140238 1.047607 box
395140338 1.046143 box
395140438 1.046448 box
395140538 1.046082 box
395140638 1.046387 box
395140738 1.047180 box
395140838 1.046265 box
395140938 1.047058 box
395141038 1.042175 box
395141138 1.044983 box
395141238 1.047546 box
395141338 1.045898 box
395141438 1.046570 box
395141538 1.046997 box
395141638 1.046692 box
395141738 1.049011 box
395141838 1.046753 box
395141938 1.048584 box
395142038 1.046570 box
395142138 1.046082 box
395142238 1.046814 box
395142338 1.046387 box
395142438 1.046143 box
395142538 1.046570 box
395142638 1.045776 box
395142738 1.042542 box
395142838 1.045532 box
395142938 1.046753 box
395143038 1.046387 box
395143138 1.046021 box
395143238 1.047424 box
395143338 1.046692 box
395143438 1.049927 box
395143538 1.046021 box
395143638 1.048645 box
395143738 1.046570 box
395143838 1.046631 box
395143938 1.045776 box
395144038 1.046509 box
395144138 1.046204 box
395144238 1.046265 box
395144338 1.045959 box
395144438 1.042358 box
395144538 1.045776 box
395144638 1.046936 box
395144738 1.045471 box
395144838 1.047363 box
395144938 1.045715 box
395145038 1.046448 box
395145138 1.050720 box
395145238 1.046936 box
395145338 1.048218 box
395145438 1.046875 box
395145538 1.046082 box
395145638 1.045166 box
395145738 1.046753 box
395145838 1.047058 box
395145938 1.045288 box
395146038 1.044312 box
395146138 1.044189 box
395146238 1.045471 box
395146338 1.046997 box
395146438 1.046326 box
395146538 1.046631 box
395146638 1.046082 box
395146738 1.047180 box
395146838 1.049805 box
395146938 1.046326 box
395147038 1.048279 box
395147138 1.046326 box
395147238 1.046204 box
395147338 1.046143 box
395147438 1.045898 box
395147538 1.047424 box
395147638 1.045776 box
395147738 1.042847 box
395147838 1.045593 box
395147938 1.046265 box
395148038 1.046631 box
395148138 1.046631 box
395148238 1.046021 box
395148338 1.045837 box
395148438 1.049500 box
395148538 1.046875 box
395148638 1.046753 box
395148738 1.048401 box
395148838 1.046753 box
395148938 1.045837 box
395149038 1.046631 box
395149138 1.046326 box
395149238 1.047241 box
395149338 1.045837 box
395149438 1.042969 box
395149538 1.045410 box
395149638 1.045471 box
395149738 1.046692 box
395149838 1.047058 box
395149938 1.045593 box
395150038 1.047607 box
395150138 1.049683 box
395150238 1.046204 box
395150338 1.046448 box
395150438 1.047913 box
395150538 1.046509 box
395150638 1.046082 box
395150738 1.046204 box
395150838 1.045715 box
395150938 1.047546 box
395151038 1.046143 box
395151138 1.042236 box
395151238 1.045288 box
395151338 1.046814 box
395151438 1.045715 box
395151538 1.046143 box
395151638 1.047241 box
395151738 1.046631 box
395151838 1.049316 box
395151938 1.046021 box
395152038 1.046631 box
395152138 1.048767 box
395152238 1.045959 box
395152338 1.045837 box
395152438 1.046265 box
395152538 1.045227 box
395152638 1.048035 box
395152738 1.046387 box
395152838 1.042664 box
395152938 1.046143 box
395153038 1.046570 box
395153138 1.046082 box
395153238 1.046692 box
395153338 1.046631 box
395153438 1.046875 box
395153538 1.048828 box
395153638 1.047180 box
395153738 1.046509 box
395153838 1.048096 box
395153938 1.046326 box
395154038 1.045776 box
395154138 1.046204 box
395154238 1.047668 box
395154338 1.045654 box
395154438 1.046509 box
395154538 1.045044 box
395154638 1.045410 box
395154738 1.046143 box
395154838 1.046692 box
395154938 1.046509 box
395155038 1.047119 box
395155138 1.045837 box
395155238 1.048706 box
395155338 1.047791 box
395155438 1.046082 box
395155538 1.047485 box
395155638 1.046509 box
395155738 1.047974 box
395155838 1.045898 box
395155938 1.046997 box
395156038 1.045593 box
395156138 1.046082 box
395156238 1.042786 box
395156338 1.046387 box
395156438 1.046143 box
395156538 1.046509 box
395156638 1.046570 box
395156738 1.046692 box
395156838 1.046692 box
395156938 1.049194 box
395157038 1.046570 box
395157138 1.047668 box
395157238 1.046814 box
395157338 1.046387 box
395157438 1.046997 box
395157538 1.046021 box
395157638 1.046570 box
395157738 1.046143 box
395157838 1.046204 box
395157938 1.041870 box
395158038 1.046143 box
395158138 1.046631 box
395158238 1.045593 box
395158338 1.046509 box
395158438 1.047058 box
395158538 1.046143 box
395158638 1.050842 box
395158738 1.046082 box
395158838 1.047607 box
395158938 1.047241 box
395159038 1.046387 box
395159138 1.045776 box
395159238 1.046631 box
395159338 1.046753 box
395159438 1.046326 box
395159538 1.046143 box
395159638 1.041199 box
395159738 1.046387 box
395159838 1.045959 box
395159938 1.046997 box
395160038 1.045776 box
395160138 1.046875 box
395160238 1.046143 box
395160338 1.049622 box
395160438 1.047241 box
395160538 1.047485 box
395160638 1.047485 box
395160738 1.046021 box
395160838 1.046692 box
395160938 1.046509 box
395161038 1.046265 box
395161138 1.046082 box
395161238 1.046509 box
395161338 1.041443 box
395161438 1.046814 box
395161538 1.045898 box
395161638 1.046265 box
395161738 1.047363 box
395161838 1.046082 box
395161938 1.046875 box
395162038 1.048950 box
395162138 1.046631 box
395162238 1.048584 box
395162338 1.046631 box
395162438 1.046082 box
395162538 1.046143 box
395162638 1.046814 box
395162738 1.046387 box
395162838 1.045715 box
395162938 1.046143 box
395163038 1.041443 box
395163138 1.048157 box
395163238 1.044434 box
395163338 1.046448 box
395163438 1.046326 box
395163538 1.046387 box
395163638 1.044922 box
395163738 1.051575 box
395163838 1.045715 box
395163938 1.048767 box
395164038 1.045959 box
395164138 1.046570 box
395164238 1.045776 box
395164338 1.046570 box
395164438 1.046875 box
395164538 1.045593 box
395164638 1.046265 box
395164738 1.041077 box
395164838 1.047607 box
395164938 1.045166 box
395165038 1.046509 box
395165138 1.046326 box
395165238 1.046570 box
395165338 1.047363 box
395165438 1.049011 box
395165538 1.046814 box
395165638 1.047913 box
395165738 1.046509 box
395165838 1.046326 box
395165938 1.046326 box
395166038 1.046021 box
395166138 1.046570 box
395166238 1.046143 box
395166338 1.045898 box
395166438 1.041748 box
395166538 1.047241 box
395166638 1.045471 box
395166738 1.046570 box
395166838 1.046143 box
395166938 1.046753 box
395167038 1.046143 box
395167138 1.049316 box
395167238 1.046936 box
395167338 1.048218 box
395167438 1.046448 box
395167538 1.046570 box
395167638 1.046082 box
395167738 1.046570 box
395167838 1.046814 box
395167938 1.045837 box
395168038 1.046204 box
395168138 1.041992 box
395168238 1.047363 box
395168338 1.044006 box
395168438 1.047241 box
395168538 1.046204 box
395168638 1.045715 box
395168738 1.046570 box
395168838 1.049561 box
395168938 1.046387 box
395169038 1.048584 box
395169138 1.045959 box
395169238 1.046326 box
395169338 1.046631 box
395169438 1.045776 box
395169538 1.046448 box
395169638 1.045959 box
395169738 1.046875 box
395169838 1.041626 box
395169938 1.047913 box
395170038 1.047729 box
395170138 1.046143 box
395170238 1.046814 box
395170338 1.046509 box
395170438 1.045837 box
395170538 1.050415 box
395170638 1.045776 box
395170738 1.048279 box
395170838 1.046509 box
395170938 1.046936 box
395171038 1.046204 box
395171138 1.045959 box
395171238 1.047974 box
395171338 1.046204 box
395171438 1.045410 box
395171538 1.043030 box
395171638 1.047546 box
395171738 1.046204 box
395171838 1.046082 box
395171938 1.046753 box
395172038 1.046631 box
395172138 1.045532 box
395172238 1.050110 box
395172338 1.046204 box
395172438 1.048279 box
395172538 1.046814 box
395172638 1.046265 box
395172738 1.046631 box
395172838 1.046143 box
395172938 1.048035 box
395173038 1.045227 box
395173138 1.046448 box
395173238 1.040771 box
395173338 1.048401 box
395173438 1.045593 box
395173538 1.046082 box
395173638 1.046204 box
395173738 1.046204 box
395173838 1.046448 box
395173938 1.050842 box
395174038 1.046509 box
395174138 1.048279 box
395174238 1.046326 box
395174338 1.046570 box
395174438 1.047119 box
395174538 1.045288 box
395174638 1.046631 box
395174738 1.046326 box
395174838 1.046082 box
395174938 1.040466 box
395175038 1.049377 box
395175138 1.044678 box
395175238 1.046387 box
395175338 1.046021 box
395175438 1.046509 box
395175538 1.046265 box
395175638 1.049866 box
395175738 1.046631 box
395175838 1.048279 box
395175938 1.046631 box
395176038 1.046326 box
395176138 1.046082 box
395176238 1.046631 box
395176338 1.046753 box
395176438 1.046875 box
395176538 1.046021 box
395176638 1.041870 box
395176738 1.046204 box
395176838 1.046204 box
395176938 1.046997 box
395177038 1.046204 box
395177138 1.046143 box
395177238 1.047302 box
395177338 1.049805 box
395177438 1.046143 box
395177538 1.048767 box
395177638 1.046265 box
395177738 1.046082 box
395177838 1.046326 box
395177938 1.046326 box
395178038 1.046631 box
395178138 1.045349 box
395178238 1.046143 box
395178338 1.042542 box
395178438 1.045471 box
395178538 1.046143 box
395178638 1.046570 box
395178738 1.046082 box
395178838 1.046326 box
395178938 1.046509 box
395179038 1.050171 box
395179138 1.046509 box
395179238 1.048218 box
395179338 1.046753 box
395179438 1.045654 box
395179538 1.046204 box
395179638 1.046753 box
395179738 1.046204 box
395179838 1.045593 box
395179938 1.045837 box
395180038 1.042847 box
395180138 1.045959 box
395180238 1.046326 box
395180338 1.046936 box
395180438 1.046082 box
395180538 1.046448 box
395180638 1.050049 box
395180738 1.045898 box
395180838 1.046936 box
395180938 1.047974 box
395181038 1.046204 box
395181138 1.046265 box
395181238 1.046265 box
395181338 1.046265 box
395181438 1.046997 box
395181538 1.046082 box
395181638 1.042725 box
395181738 1.045532 box
395181838 1.045959 box
395181938 1.045776 box
395182038 1.046631 box
395182138 1.046265 box
395182238 1.046143 box
395182338 1.050171 box
395182438 1.046387 box
395182538 1.046692 box
395182638 1.048218 box
395182738 1.046082 box
395182838 1.046387 box
395182938 1.046143 box
395183038 1.045776 box
395183138 1.047363 box
395183238 1.046936 box
395183338 1.042358 box
395183438 1.045044 box
395183538 1.047668 box
395183638 1.046509 box
395183738 1.046326 box
395183838 1.046265 box
395183938 1.045776 box
395184038 1.049622 box
395184138 1.046753 box
395184238 1.046387 box
395184338 1.048096 box
395184438 1.046387 box
395184538 1.046021 box
395184638 1.046387 box
395184738 1.045410 box
395184838 1.047485 box
395184938 1.046570 box
395185038 1.045776 box
395185138 1.045105 box
395185238 1.046326 box
395185338 1.046631 box
395185438 1.046387 box
395185538 1.046509 box
395185638 1.046326 box
395185738 1.048340 box
395185838 1.046326 box
395185938 1.046570 box
395186038 1.047974 box
395186138 1.046143 box
395186238 1.047485 box
395186338 1.046570 box
395186438 1.044922 box
395186538 1.048096 box
395186638 1.046326 box
395186738 1.042480 box
395186838 1.045410 box
395186938 1.045959 box
395187038 1.046448 box
395187138 1.046326 box
395187238 1.046509 box
395187338 1.045898 box
395187438 1.050476 box
395187538 1.045959 box
395187638 1.047302 box
395187738 1.047424 box
395187838 1.046204 box
395187938 1.046448 box
395188038 1.045837 box
395188138 1.047119 box
395188238 1.046143 box
395188338 1.046265 box
395188438 1.041992 box
395188538 1.045837 box
395188638 1.046692 box
395188738 1.045959 box
395188838 1.046570 box
395188938 1.046692 box
395189038 1.046570 box
395189138 1.049866 box
395189238 1.046875 box
395189338 1.046570 box
395189438 1.048401 box
395189538 1.045898 box
395189638 1.046204 box
395189738 1.046692 box
395189838 1.047119 box
395189938 1.045410 box
395190038 1.045715 box
395190138 1.042053 box
395190238 1.045898 box
395190338 1.047424 box
395190438 1.045532 box
395190538 1.046936 box
395190638 1.046326 box
395190738 1.046387 box
395190838 1.050049 box
395190938 1.045837 box
395191038 1.047974 box
395191138 1.046936 box
395191238 1.046509 box
395191338 1.045959 box
395191438 1.045654 box
395191538 1.046936 box
395191638 1.046082 box
395191738 1.046631 box
395191838 1.041321 box
395191938 1.046814 box
395192038 1.046021 box
395192138 1.046143 box
395192238 1.046326 box
395192338 1.046631 box
395192438 1.047058 box
395192538 1.049500 box
395192638 1.046021 box
395192738 1.048523 box
395192838 1.047180 box
395192938 1.046204 box
395193038 1.046021 box
395193138 1.045898 box
395193238 1.046875 box
395193338 1.046143 box
395193438 1.046570 box
395193538 1.041870 box
395193638 1.046814 box
395193738 1.045532 box
395193838 1.046692 box
395193938 1.046692 box
395194038 1.046387 box
395194138 1.045532 box
395194238 1.050476 box
395194338 1.046326 box
395194438 1.048157 box
395194538 1.046509 box
395194638 1.046692 box
395194738 1.046143 box
395194838 1.046265 box
395194938 1.046692 box
395195038 1.046021 box
395195138 1.046082 box
395195238 1.041321 box
395195338 1.047424 box
395195438 1.044983 box
395195538 1.046448 box
395195638 1.046570 box
395195738 1.046082 box
395195838 1.047485 box
395195938 1.048950 box
395196038 1.046448 box
395196138 1.048035 box
395196238 1.046631 box
395196338 1.045715 box
395196438 1.046265 box
395196538 1.046204 box
395196638 1.046326 box
395196738 1.046326 box
395196838 1.046326 box
395196938 1.041687 box
395197038 1.048401 box
395197138 1.044678 box
395197238 1.046570 box
395197338 1.046326 box
395197438 1.046509 box
395197538 1.046204 box
395197638 1.049500 box
395197738 1.046570 box
395197838 1.047119 box
395197938 1.046509 box
395198038 1.046875 box
395198138 1.046448 box
395198238 1.046448 box
395198338 1.047119 box
395198438 1.045532 box
395198538 1.046509 box
395198638 1.041382 box
395198738 1.048218 box
395198838 1.044983 box
395198938 1.047302 box
395199038 1.045166 box
395199138 1.046448 box
395199238 1.046753 box
395199338 1.049500 box
395199438 1.046082 box
395199538 1.048157 box
395199638 1.049133 box
395199738 1.045959 box
395199838 1.046326 box
395199938 1.046082 box
395200038 1.046631 box
395200138 1.045898 box
395200238 1.046143 box
395200338 1.041260 box
395200438 1.048706 box
395200538 1.044922 box
395200638 1.046753 box
395200738 1.046631 box
395200838 1.046814 box
395200938 1.045898 box
395201038 1.049316 box
395201138 1.047180 box
395201238 1.048157 box
395201338 1.046021 box
395201438 1.046448 box
395201538 1.045410 box
395201638 1.046326 box
395201738 1.046692 box
395201838 1.046814 box
395201938 1.046143 box
395202038 1.040527 box
395202138 1.048767 box
395202238 1.044128 box
395202338 1.046753 box
395202438 1.046814 box
395202538 1.046692 box
395202638 1.045105 box
395202738 1.050964 box
395202838 1.046204 box
395202938 1.047974 box
395203038 1.047180 box
395203138 1.046326 box
395203238 1.046570 box
395203338 1.045593 box
395203438 1.046448 box
395203538 1.046387 box
395203638 1.046631 box
395203738 1.039307 box
395203838 1.048828 box
395203938 1.047058 box
395204038 1.046143 box
395204138 1.046326 box
395204238 1.046387 box
395204338 1.046570 box
395204438 1.050293 box
395204538 1.046814 box
395204638 1.048218 box
395204738 1.046631 box
395204838 1.045166 box
395204938 1.046570 box
395205038 1.046448 box
395205138 1.046448 box
395205238 1.046936 box
395205338 1.046143 box
395205438 1.041687 box
395205538 1.045898 box
395205638 1.046997 box
395205738 1.045776 box
395205838 1.046753 box
395205938 1.045959 box
395206038 1.046631 box
395206138 1.050659 box
395206238 1.046143 box
395206338 1.048462 box
395206438 1.046448 box
395206538 1.046204 box
395206638 1.045959 box
395206738 1.046387 box
395206838 1.046021 box
395206938 1.045654 box
395207038 1.046265 box
395207138 1.043091 box
395207238 1.044067 box
395207338 1.046997 box
395207438 1.046204 box
395207538 1.046570 box
395207638 1.046692 box
395207738 1.046448 box
395207838 1.050415 box
395207938 1.045654 box
395208038 1.048950 box
395208138 1.046387 box
395208238 1.046509 box
395208338 1.046204 box
395208438 1.046082 box
395208538 1.046570 box
395208638 1.045959 box
395208738 1.045959 box
395208838 1.042847 box
395208938 1.045532 box
395209038 1.046448 box
395209138 1.046875 box
395209238 1.045898 box
395209338 1.046143 box
395209438 1.046204 box
395209538 1.049988 box
395209638 1.046692 box
395209738 1.048157 box
395209838 1.046265 box
395209938 1.046143 box
395210038 1.046692 box
395210138 1.046265 box
395210238 1.046631 box
395210338 1.046082 box
395210438 1.046143 box
395210538 1.042664 box
395210638 1.045593 box
395210738 1.046936 box
395210838 1.046143 box
395210938 1.045898 box
395211038 1.046326 box
395211138 1.049622 box
395211238 1.046692 box
395211338 1.047058 box
395211438 1.048706 box
395211538 1.045776 box
395211638 1.046448 box
395211738 1.046631 box
395211838 1.046143 box
395211938 1.046936 box
395212038 1.046082 box
395212138 1.045898 box
395212238 1.042847 box
395212338 1.046021 box
395212438 1.045959 box
395212538 1.046814 box
395212638 1.046570 box
395212738 1.046631 box
395212838 1.046936 box
395212938 1.050232 box
395213038 1.046875 box
395213138 1.047363 box
395213238 1.046875 box
395213338 1.046814 box
395213438 1.046082 box
395213538 1.046387 box
395213638 1.046143 box
395213738 1.046326 box
395213838 1.046509 box
395213938 1.042725 box
395214038 1.045959 box
395214138 1.045837 box
395214238 1.047363 box
395214338 1.046204 box
395214438 1.045898 box
395214538 1.046692 box
395214638 1.049011 box
395214738 1.047241 box
395214838 1.049744 box
395214938 1.046143 box
395215038 1.046082 box
395215138 1.046631 box
395215238 1.046387 box
395215338 1.046326 box
395215438 1.046570 box
395215538 1.045898 box
395215638 1.043640 box
395215738 1.044495 box
395215838 1.047424 box
395215938 1.046936 box
395216038 1.046692 box
395216138 1.046814 box
395216238 1.046021 box
395216338 1.049805 box
395216438 1.046692 box
395216538 1.047729 box
395216638 1.046631 box
395216738 1.046265 box
395216838 1.046265 box
395216938 1.046265 box
395217038 1.047119 box
395217138 1.046387 box
395217238 1.046387 box
395217338 1.042908 box
395217438 1.045044 box
395217538 1.046875 box
395217638 1.046326 box
395217738 1.046753 box
395217838 1.047058 box
395217938 1.045959 box
395218038 1.050232 box
395218138 1.046570 box
395218238 1.047119 box
395218338 1.046936 box
395218438 1.046265 box
395218538 1.046387 box
395218638 1.046265 box
395218738 1.047058 box
395218838 1.046204 box
395218938 1.043030 box
395219038 1.044739 box
395219138 1.046448 box
395219238 1.046753 box
395219338 1.045898 box
395219438 1.046814 box
395219538 1.045654 box
395219638 1.047668 box
395219738 1.049072 box
395219838 1.046814 box
395219938 1.048340 box
395220038 1.046143 box
395220138 1.046448 box
395220238 1.046082 box
395220338 1.045898 box
395220438 1.046814 box
395220538 1.046570 box
395220638 1.041870 box
395220738 1.046021 box
395220838 1.045593 box
395220938 1.046143 box
395221038 1.046570 box
395221138 1.046509 box
395221238 1.046448 box
395221338 1.046326 box
395221438 1.050293 box
395221538 1.046631 box
395221638 1.047974 box
395221738 1.047119 box
395221838 1.045593 box
395221938 1.046021 box
395222038 1.046204 box
395222138 1.046326 box
395222238 1.046082 box
395222338 1.043640 box
395222438 1.045105 box
395222538 1.045715 box
395222638 1.045837 box
395222738 1.046692 box
395222838 1.046692 box
395222938 1.046326 box
395223038 1.050354 box
395223138 1.046265 box
395223238 1.046021 box
395223338 1.048584 box
395223438 1.046448 box
395223538 1.046082 box
395223638 1.046753 box
395223738 1.044983 box
395107927 1.046204 box
395108027 1.046082 box
395108127 1.049744 box
395108227 1.046387 box
395108327 1.048523 box
395108427 1.046448 box
395108527 1.046326 box
395108627 1.046387 box
395108727 1.046387 box
