------------
Profiler Configuration
output path: /home/tc/pwr2018_data/output_fixed/graph500_proc1/cap_13-5/nowrapper-4
monitoring frequency: 100000000 nano seconds
------------
SCALE:                          20
edgefactor:                     16
NBFS:                           64
graph_generation:               6.44354
num_mpi_processes:              1
construction_time:              1.03947
bfs  min_time:                  0.260133
bfs  firstquartile_time:        0.260216
bfs  median_time:               0.260257
bfs  thirdquartile_time:        0.260311
bfs  max_time:                  0.260459
bfs  mean_time:                 0.260262
bfs  stddev_time:               7.08498e-05
min_nedge:                      16775818
firstquartile_nedge:            16775818
median_nedge:                   16775818
thirdquartile_nedge:            16775818
max_nedge:                      16775818
mean_nedge:                     16775818
stddev_nedge:                   0
bfs  min_TEPS:                  6.44087e+07
bfs  firstquartile_TEPS:        6.44452e+07
bfs  median_TEPS:               6.44587e+07
bfs  thirdquartile_TEPS:        6.44688e+07
bfs  max_TEPS:                  6.44894e+07
bfs  harmonic_mean_TEPS:     !  6.44574e+07
bfs  harmonic_stddev_TEPS:      2210.7
bfs  min_validate:              1.59687
bfs  firstquartile_validate:    1.59973
bfs  median_validate:           1.60361
bfs  thirdquartile_validate:    1.6065
bfs  max_validate:              1.60828
bfs  mean_validate:             1.60298
bfs  stddev_validate:           0.0035051
