/dev/cpu/msr_batch: No such file or directory
graph_generation:               6.445120 s
construction_time:              1.039286 s
Running BFS 0
Time for BFS 0 is 0.259490
TEPS for BFS 0 is 6.46491e+07
Validating BFS 0
Validate time for BFS 0 is 1.606506
Running BFS 1
Time for BFS 1 is 0.259584
TEPS for BFS 1 is 6.46257e+07
Validating BFS 1
Validate time for BFS 1 is 1.605560
Running BFS 2
Time for BFS 2 is 0.259520
TEPS for BFS 2 is 6.46418e+07
Validating BFS 2
Validate time for BFS 2 is 1.606169
Running BFS 3
Time for BFS 3 is 0.259427
TEPS for BFS 3 is 6.46648e+07
Validating BFS 3
Validate time for BFS 3 is 1.600603
Running BFS 4
Time for BFS 4 is 0.259479
TEPS for BFS 4 is 6.46518e+07
Validating BFS 4
Validate time for BFS 4 is 1.599131
Running BFS 5
Time for BFS 5 is 0.259540
TEPS for BFS 5 is 6.46368e+07
Validating BFS 5
Validate time for BFS 5 is 1.604423
Running BFS 6
Time for BFS 6 is 0.259461
TEPS for BFS 6 is 6.46563e+07
Validating BFS 6
Validate time for BFS 6 is 1.599627
Running BFS 7
Time for BFS 7 is 0.259415
TEPS for BFS 7 is 6.4668e+07
Validating BFS 7
Validate time for BFS 7 is 1.603037
Running BFS 8
Time for BFS 8 is 0.259474
TEPS for BFS 8 is 6.46531e+07
Validating BFS 8
Validate time for BFS 8 is 1.599116
Running BFS 9
Time for BFS 9 is 0.259668
TEPS for BFS 9 is 6.46049e+07
Validating BFS 9
Validate time for BFS 9 is 1.597770
Running BFS 10
Time for BFS 10 is 0.259596
TEPS for BFS 10 is 6.46228e+07
Validating BFS 10
Validate time for BFS 10 is 1.605250
Running BFS 11
Time for BFS 11 is 0.259591
TEPS for BFS 11 is 6.4624e+07
Validating BFS 11
Validate time for BFS 11 is 1.599147
Running BFS 12
Time for BFS 12 is 0.259544
TEPS for BFS 12 is 6.46356e+07
Validating BFS 12
Validate time for BFS 12 is 1.603636
Running BFS 13
Time for BFS 13 is 0.259477
TEPS for BFS 13 is 6.46523e+07
Validating BFS 13
Validate time for BFS 13 is 1.599780
Running BFS 14
Time for BFS 14 is 0.259603
TEPS for BFS 14 is 6.4621e+07
Validating BFS 14
Validate time for BFS 14 is 1.599618
Running BFS 15
Time for BFS 15 is 0.259537
TEPS for BFS 15 is 6.46375e+07
Validating BFS 15
Validate time for BFS 15 is 1.607526
Running BFS 16
Time for BFS 16 is 0.259517
TEPS for BFS 16 is 6.46425e+07
Validating BFS 16
Validate time for BFS 16 is 1.600509
Running BFS 17
Time for BFS 17 is 0.259389
TEPS for BFS 17 is 6.46745e+07
Validating BFS 17
Validate time for BFS 17 is 1.606460
Running BFS 18
Time for BFS 18 is 0.259589
TEPS for BFS 18 is 6.46245e+07
Validating BFS 18
Validate time for BFS 18 is 1.606225
Running BFS 19
Time for BFS 19 is 0.259473
TEPS for BFS 19 is 6.46535e+07
Validating BFS 19
Validate time for BFS 19 is 1.607528
Running BFS 20
Time for BFS 20 is 0.259511
TEPS for BFS 20 is 6.46438e+07
Validating BFS 20
Validate time for BFS 20 is 1.597596
Running BFS 21
Time for BFS 21 is 0.259447
TEPS for BFS 21 is 6.466e+07
Validating BFS 21
Validate time for BFS 21 is 1.602688
Running BFS 22
Time for BFS 22 is 0.259481
TEPS for BFS 22 is 6.46513e+07
Validating BFS 22
Validate time for BFS 22 is 1.603420
Running BFS 23
Time for BFS 23 is 0.259480
TEPS for BFS 23 is 6.46517e+07
Validating BFS 23
Validate time for BFS 23 is 1.605779
Running BFS 24
Time for BFS 24 is 0.259444
TEPS for BFS 24 is 6.46607e+07
Validating BFS 24
Validate time for BFS 24 is 1.600769
Running BFS 25
Time for BFS 25 is 0.259522
TEPS for BFS 25 is 6.46411e+07
Validating BFS 25
Validate time for BFS 25 is 1.607284
Running BFS 26
Time for BFS 26 is 0.259456
TEPS for BFS 26 is 6.46577e+07
Validating BFS 26
Validate time for BFS 26 is 1.607030
Running BFS 27
Time for BFS 27 is 0.259536
TEPS for BFS 27 is 6.46378e+07
Validating BFS 27
Validate time for BFS 27 is 1.600069
Running BFS 28
Time for BFS 28 is 0.259585
TEPS for BFS 28 is 6.46256e+07
Validating BFS 28
Validate time for BFS 28 is 1.607933
Running BFS 29
Time for BFS 29 is 0.259437
TEPS for BFS 29 is 6.46624e+07
Validating BFS 29
Validate time for BFS 29 is 1.606728
Running BFS 30
Time for BFS 30 is 0.259545
TEPS for BFS 30 is 6.46356e+07
Validating BFS 30
Validate time for BFS 30 is 1.606617
Running BFS 31
Time for BFS 31 is 0.259453
TEPS for BFS 31 is 6.46584e+07
Validating BFS 31
Validate time for BFS 31 is 1.597522
Running BFS 32
Time for BFS 32 is 0.259496
TEPS for BFS 32 is 6.46478e+07
Validating BFS 32
Validate time for BFS 32 is 1.596920
Running BFS 33
Time for BFS 33 is 0.259575
TEPS for BFS 33 is 6.4628e+07
Validating BFS 33
Validate time for BFS 33 is 1.605997
Running BFS 34
Time for BFS 34 is 0.259478
TEPS for BFS 34 is 6.46521e+07
Validating BFS 34
Validate time for BFS 34 is 1.599468
Running BFS 35
Time for BFS 35 is 0.259469
TEPS for BFS 35 is 6.46543e+07
Validating BFS 35
Validate time for BFS 35 is 1.598605
Running BFS 36
Time for BFS 36 is 0.259533
TEPS for BFS 36 is 6.46386e+07
Validating BFS 36
Validate time for BFS 36 is 1.599150
Running BFS 37
Time for BFS 37 is 0.259440
TEPS for BFS 37 is 6.46617e+07
Validating BFS 37
Validate time for BFS 37 is 1.603721
Running BFS 38
Time for BFS 38 is 0.259501
TEPS for BFS 38 is 6.46464e+07
Validating BFS 38
Validate time for BFS 38 is 1.598701
Running BFS 39
Time for BFS 39 is 0.259528
TEPS for BFS 39 is 6.46398e+07
Validating BFS 39
Validate time for BFS 39 is 1.597431
Running BFS 40
Time for BFS 40 is 0.259519
TEPS for BFS 40 is 6.46419e+07
Validating BFS 40
Validate time for BFS 40 is 1.596365
Running BFS 41
Time for BFS 41 is 0.259577
TEPS for BFS 41 is 6.46275e+07
Validating BFS 41
Validate time for BFS 41 is 1.606335
Running BFS 42
Time for BFS 42 is 0.259511
TEPS for BFS 42 is 6.46439e+07
Validating BFS 42
Validate time for BFS 42 is 1.597850
Running BFS 43
Time for BFS 43 is 0.259410
TEPS for BFS 43 is 6.46692e+07
Validating BFS 43
Validate time for BFS 43 is 1.600385
Running BFS 44
Time for BFS 44 is 0.259482
TEPS for BFS 44 is 6.46513e+07
Validating BFS 44
Validate time for BFS 44 is 1.605637
Running BFS 45
Time for BFS 45 is 0.259504
TEPS for BFS 45 is 6.46457e+07
Validating BFS 45
Validate time for BFS 45 is 1.597598
Running BFS 46
Time for BFS 46 is 0.259628
TEPS for BFS 46 is 6.46147e+07
Validating BFS 46
Validate time for BFS 46 is 1.604020
Running BFS 47
Time for BFS 47 is 0.259408
TEPS for BFS 47 is 6.46697e+07
Validating BFS 47
Validate time for BFS 47 is 1.599448
Running BFS 48
Time for BFS 48 is 0.259539
TEPS for BFS 48 is 6.46369e+07
Validating BFS 48
Validate time for BFS 48 is 1.605772
Running BFS 49
Time for BFS 49 is 0.259443
TEPS for BFS 49 is 6.46609e+07
Validating BFS 49
Validate time for BFS 49 is 1.598608
Running BFS 50
Time for BFS 50 is 0.259478
TEPS for BFS 50 is 6.46521e+07
Validating BFS 50
Validate time for BFS 50 is 1.596690
Running BFS 51
Time for BFS 51 is 0.259595
TEPS for BFS 51 is 6.4623e+07
Validating BFS 51
Validate time for BFS 51 is 1.606302
Running BFS 52
Time for BFS 52 is 0.259602
TEPS for BFS 52 is 6.46213e+07
Validating BFS 52
Validate time for BFS 52 is 1.606544
Running BFS 53
Time for BFS 53 is 0.259503
TEPS for BFS 53 is 6.46459e+07
Validating BFS 53
Validate time for BFS 53 is 1.599356
Running BFS 54
Time for BFS 54 is 0.259545
TEPS for BFS 54 is 6.46356e+07
Validating BFS 54
Validate time for BFS 54 is 1.606096
Running BFS 55
Time for BFS 55 is 0.259662
TEPS for BFS 55 is 6.46063e+07
Validating BFS 55
Validate time for BFS 55 is 1.599784
Running BFS 56
Time for BFS 56 is 0.259414
TEPS for BFS 56 is 6.46682e+07
Validating BFS 56
Validate time for BFS 56 is 1.599423
Running BFS 57
Time for BFS 57 is 0.259605
TEPS for BFS 57 is 6.46206e+07
Validating BFS 57
Validate time for BFS 57 is 1.606497
Running BFS 58
Time for BFS 58 is 0.259582
TEPS for BFS 58 is 6.46262e+07
Validating BFS 58
Validate time for BFS 58 is 1.603629
Running BFS 59
Time for BFS 59 is 0.259620
TEPS for BFS 59 is 6.46168e+07
Validating BFS 59
Validate time for BFS 59 is 1.606698
Running BFS 60
Time for BFS 60 is 0.259547
TEPS for BFS 60 is 6.4635e+07
Validating BFS 60
Validate time for BFS 60 is 1.599794
Running BFS 61
Time for BFS 61 is 0.259405
TEPS for BFS 61 is 6.46703e+07
Validating BFS 61
Validate time for BFS 61 is 1.605672
Running BFS 62
Time for BFS 62 is 0.259317
TEPS for BFS 62 is 6.46924e+07
Validating BFS 62
Validate time for BFS 62 is 1.605832
Running BFS 63
Time for BFS 63 is 0.259385
TEPS for BFS 63 is 6.46754e+07
Validating BFS 63
Validate time for BFS 63 is 1.598225
real	2m 18.16s
user	2m 18.08s
sys	0m 0.06s
