------------
Profiler Configuration
output path: /home/tc/pwr2018_data/output_graph500_proc1/cap_10-5/nowrapper-1
monitoring frequency: 100000000 nano seconds
------------
SCALE:                          20
edgefactor:                     16
NBFS:                           64
graph_generation:               6.43883
num_mpi_processes:              1
construction_time:              1.03807
bfs  min_time:                  0.262265
bfs  firstquartile_time:        0.262405
bfs  median_time:               0.26246
bfs  thirdquartile_time:        0.262514
bfs  max_time:                  0.262688
bfs  mean_time:                 0.262472
bfs  stddev_time:               9.58338e-05
min_nedge:                      16775818
firstquartile_nedge:            16775818
median_nedge:                   16775818
thirdquartile_nedge:            16775818
max_nedge:                      16775818
mean_nedge:                     16775818
stddev_nedge:                   0
bfs  min_TEPS:                  6.38622e+07
bfs  firstquartile_TEPS:        6.39045e+07
bfs  median_TEPS:               6.39175e+07
bfs  thirdquartile_TEPS:        6.39309e+07
bfs  max_TEPS:                  6.39652e+07
bfs  harmonic_mean_TEPS:     !  6.39148e+07
bfs  harmonic_stddev_TEPS:      2940.13
bfs  min_validate:              1.5996
bfs  firstquartile_validate:    1.6026
bfs  median_validate:           1.60624
bfs  thirdquartile_validate:    1.6093
bfs  max_validate:              1.61087
bfs  mean_validate:             1.60569
bfs  stddev_validate:           0.00358493
