time(ms) function_name moment
279732764 MPI_Barrier 0
279732764 MPI_Barrier 1
279732880 MPI_Allreduce 0
279732880 MPI_Allreduce 1
279732993 MPI_Allreduce 0
279732993 MPI_Allreduce 1
279733106 MPI_Allreduce 0
279733106 MPI_Allreduce 1
279733218 MPI_Allreduce 0
279733218 MPI_Allreduce 1
279733330 MPI_Allreduce 0
279733330 MPI_Allreduce 1
279733442 MPI_Allreduce 0
279733442 MPI_Allreduce 1
279733559 MPI_Allreduce 0
279733559 MPI_Allreduce 1
279733672 MPI_Allreduce 0
279733672 MPI_Allreduce 1
279733788 MPI_Allreduce 0
279733788 MPI_Allreduce 1
279733904 MPI_Allreduce 0
279733904 MPI_Allreduce 1
279734021 MPI_Allreduce 0
279734021 MPI_Allreduce 1
279734134 MPI_Allreduce 0
279734134 MPI_Allreduce 1
279734250 MPI_Allreduce 0
279734250 MPI_Allreduce 1
279734364 MPI_Allreduce 0
279734364 MPI_Allreduce 1
279734480 MPI_Allreduce 0
279734480 MPI_Allreduce 1
279734596 MPI_Allreduce 0
279734596 MPI_Allreduce 1
279734710 MPI_Allreduce 0
279734710 MPI_Allreduce 1
279734824 MPI_Allreduce 0
279734824 MPI_Allreduce 1
279734939 MPI_Allreduce 0
279734939 MPI_Allreduce 1
279735053 MPI_Allreduce 0
279735053 MPI_Allreduce 1
279735170 MPI_Allreduce 0
279735170 MPI_Allreduce 1
279735283 MPI_Allreduce 0
279735283 MPI_Allreduce 1
279735399 MPI_Allreduce 0
279735399 MPI_Allreduce 1
279735513 MPI_Allreduce 0
279735513 MPI_Allreduce 1
279735627 MPI_Allreduce 0
279735627 MPI_Allreduce 1
279735742 MPI_Allreduce 0
279735742 MPI_Allreduce 1
279735856 MPI_Allreduce 0
279735856 MPI_Allreduce 1
279735970 MPI_Allreduce 0
279735970 MPI_Allreduce 1
279736087 MPI_Allreduce 0
279736087 MPI_Allreduce 1
279736200 MPI_Allreduce 0
279736200 MPI_Allreduce 1
279736317 MPI_Allreduce 0
279736317 MPI_Allreduce 1
279736432 MPI_Allreduce 0
279736432 MPI_Allreduce 1
279736547 MPI_Allreduce 0
279736547 MPI_Allreduce 1
279736661 MPI_Allreduce 0
279736661 MPI_Allreduce 1
279736778 MPI_Allreduce 0
279736778 MPI_Allreduce 1
279736893 MPI_Allreduce 0
279736893 MPI_Allreduce 1
279737008 MPI_Allreduce 0
279737008 MPI_Allreduce 1
279737122 MPI_Allreduce 0
279737122 MPI_Allreduce 1
279737237 MPI_Allreduce 0
279737237 MPI_Allreduce 1
279737351 MPI_Allreduce 0
279737351 MPI_Allreduce 1
279737466 MPI_Allreduce 0
279737466 MPI_Allreduce 1
279737580 MPI_Allreduce 0
279737580 MPI_Allreduce 1
279737694 MPI_Allreduce 0
279737694 MPI_Allreduce 1
279737809 MPI_Allreduce 0
279737809 MPI_Allreduce 1
279737923 MPI_Allreduce 0
279737923 MPI_Allreduce 1
279738038 MPI_Allreduce 0
279738038 MPI_Allreduce 1
279738152 MPI_Allreduce 0
279738152 MPI_Allreduce 1
279738266 MPI_Allreduce 0
279738266 MPI_Allreduce 1
279738381 MPI_Allreduce 0
279738381 MPI_Allreduce 1
279738495 MPI_Allreduce 0
279738495 MPI_Allreduce 1
279738610 MPI_Allreduce 0
279738610 MPI_Allreduce 1
279738724 MPI_Allreduce 0
279738724 MPI_Allreduce 1
279738839 MPI_Allreduce 0
279738839 MPI_Allreduce 1
279738956 MPI_Allreduce 0
279738956 MPI_Allreduce 1
279739069 MPI_Allreduce 0
279739069 MPI_Allreduce 1
279739185 MPI_Allreduce 0
279739185 MPI_Allreduce 1
279739300 MPI_Allreduce 0
279739300 MPI_Allreduce 1
279739415 MPI_Allreduce 0
279739415 MPI_Allreduce 1
279739529 MPI_Allreduce 0
279739529 MPI_Allreduce 1
279739646 MPI_Allreduce 0
279739646 MPI_Allreduce 1
279739759 MPI_Allreduce 0
279739759 MPI_Allreduce 1
279739875 MPI_Allreduce 0
279739875 MPI_Allreduce 1
279739991 MPI_Allreduce 0
279739991 MPI_Allreduce 1
279740105 MPI_Allreduce 0
279740105 MPI_Allreduce 1
279740220 MPI_Allreduce 0
279740220 MPI_Allreduce 1
279740334 MPI_Allreduce 0
279740334 MPI_Allreduce 1
279740451 MPI_Allreduce 0
279740451 MPI_Allreduce 1
279740566 MPI_Allreduce 0
279740566 MPI_Allreduce 1
279740681 MPI_Allreduce 0
279740681 MPI_Allreduce 1
279740795 MPI_Allreduce 0
279740795 MPI_Allreduce 1
279740912 MPI_Allreduce 0
279740912 MPI_Allreduce 1
279741027 MPI_Allreduce 0
279741027 MPI_Allreduce 1
279741142 MPI_Allreduce 0
279741142 MPI_Allreduce 1
279741256 MPI_Allreduce 0
279741256 MPI_Allreduce 1
279741370 MPI_Allreduce 0
279741370 MPI_Allreduce 1
279741485 MPI_Allreduce 0
279741485 MPI_Allreduce 1
279741602 MPI_Allreduce 0
279741602 MPI_Allreduce 1
279741715 MPI_Allreduce 0
279741715 MPI_Allreduce 1
279741831 MPI_Allreduce 0
279741831 MPI_Allreduce 1
279741945 MPI_Allreduce 0
279741945 MPI_Allreduce 1
279742060 MPI_Allreduce 0
279742060 MPI_Allreduce 1
279742174 MPI_Allreduce 0
279742174 MPI_Allreduce 1
279742290 MPI_Allreduce 0
279742290 MPI_Allreduce 1
279742403 MPI_Allreduce 0
279742403 MPI_Allreduce 1
279742520 MPI_Allreduce 0
279742520 MPI_Allreduce 1
279742634 MPI_Allreduce 0
279742634 MPI_Allreduce 1
279742750 MPI_Allreduce 0
279742750 MPI_Allreduce 1
279742865 MPI_Allreduce 0
279742865 MPI_Allreduce 1
279742980 MPI_Allreduce 0
279742980 MPI_Allreduce 1
279743097 MPI_Allreduce 0
279743097 MPI_Allreduce 1
279743212 MPI_Allreduce 0
279743212 MPI_Allreduce 1
279743326 MPI_Allreduce 0
279743326 MPI_Allreduce 1
279743441 MPI_Allreduce 0
279743441 MPI_Allreduce 1
279743556 MPI_Allreduce 0
279743556 MPI_Allreduce 1
279743670 MPI_Allreduce 0
279743670 MPI_Allreduce 1
279743784 MPI_Allreduce 0
279743784 MPI_Allreduce 1
279743899 MPI_Allreduce 0
279743899 MPI_Allreduce 1
279744013 MPI_Allreduce 0
279744013 MPI_Allreduce 1
279744127 MPI_Allreduce 0
279744127 MPI_Allreduce 1
279744245 MPI_Allreduce 0
279744245 MPI_Allreduce 1
279744358 MPI_Allreduce 0
279744358 MPI_Allreduce 1
279744474 MPI_Allreduce 0
279744474 MPI_Allreduce 1
279744587 MPI_Allreduce 0
279744587 MPI_Allreduce 1
279744703 MPI_Allreduce 0
279744703 MPI_Allreduce 1
279744817 MPI_Allreduce 0
279744817 MPI_Allreduce 1
279744932 MPI_Allreduce 0
279744932 MPI_Allreduce 1
279745046 MPI_Allreduce 0
279745046 MPI_Allreduce 1
279745161 MPI_Allreduce 0
279745161 MPI_Allreduce 1
279745277 MPI_Allreduce 0
279745277 MPI_Allreduce 1
279745390 MPI_Allreduce 0
279745390 MPI_Allreduce 1
279745505 MPI_Allreduce 0
279745505 MPI_Allreduce 1
279745619 MPI_Allreduce 0
279745619 MPI_Allreduce 1
279745735 MPI_Allreduce 0
279745735 MPI_Allreduce 1
279745850 MPI_Allreduce 0
279745850 MPI_Allreduce 1
279745964 MPI_Allreduce 0
279745964 MPI_Allreduce 1
279746078 MPI_Allreduce 0
279746078 MPI_Allreduce 1
279746194 MPI_Allreduce 0
279746194 MPI_Allreduce 1
279746310 MPI_Allreduce 0
279746310 MPI_Allreduce 1
279746426 MPI_Allreduce 0
279746426 MPI_Allreduce 1
279746539 MPI_Allreduce 0
279746539 MPI_Allreduce 1
279746655 MPI_Allreduce 0
279746655 MPI_Allreduce 1
279746770 MPI_Allreduce 0
279746770 MPI_Allreduce 1
279746886 MPI_Allreduce 0
279746886 MPI_Allreduce 1
279746999 MPI_Allreduce 0
279746999 MPI_Allreduce 1
279747115 MPI_Allreduce 0
279747115 MPI_Allreduce 1
279747232 MPI_Allreduce 0
279747232 MPI_Allreduce 1
279747348 MPI_Allreduce 0
279747348 MPI_Allreduce 1
279747462 MPI_Allreduce 0
279747462 MPI_Allreduce 1
279747576 MPI_Allreduce 0
279747576 MPI_Allreduce 1
279747690 MPI_Allreduce 0
279747690 MPI_Allreduce 1
279747804 MPI_Allreduce 0
279747804 MPI_Allreduce 1
279747918 MPI_Allreduce 0
279747918 MPI_Allreduce 1
279748032 MPI_Allreduce 0
279748032 MPI_Allreduce 1
279748146 MPI_Allreduce 0
279748146 MPI_Allreduce 1
279748261 MPI_Allreduce 0
279748261 MPI_Allreduce 1
279748375 MPI_Allreduce 0
279748375 MPI_Allreduce 1
279748489 MPI_Allreduce 0
279748489 MPI_Allreduce 1
279748605 MPI_Allreduce 0
279748605 MPI_Allreduce 1
279748720 MPI_Allreduce 0
279748720 MPI_Allreduce 1
279748837 MPI_Allreduce 0
279748837 MPI_Allreduce 1
279748950 MPI_Allreduce 0
279748950 MPI_Allreduce 1
279749066 MPI_Allreduce 0
279749066 MPI_Allreduce 1
279749183 MPI_Allreduce 0
279749183 MPI_Allreduce 1
279749296 MPI_Allreduce 0
279749296 MPI_Allreduce 1
279749412 MPI_Allreduce 0
279749412 MPI_Allreduce 1
279749524 MPI_Allreduce 0
279749524 MPI_Allreduce 1
279749641 MPI_Allreduce 0
279749641 MPI_Allreduce 1
279749755 MPI_Allreduce 0
279749755 MPI_Allreduce 1
279749870 MPI_Allreduce 0
279749870 MPI_Allreduce 1
279749984 MPI_Allreduce 0
279749984 MPI_Allreduce 1
279750100 MPI_Allreduce 0
279750100 MPI_Allreduce 1
279750212 MPI_Allreduce 0
279750212 MPI_Allreduce 1
279750327 MPI_Allreduce 0
279750327 MPI_Allreduce 1
279750441 MPI_Allreduce 0
279750441 MPI_Allreduce 1
279750557 MPI_Allreduce 0
279750557 MPI_Allreduce 1
279750670 MPI_Allreduce 0
279750670 MPI_Allreduce 1
279750786 MPI_Allreduce 0
279750786 MPI_Allreduce 1
279750898 MPI_Allreduce 0
279750898 MPI_Allreduce 1
279751013 MPI_Allreduce 0
279751013 MPI_Allreduce 1
279751127 MPI_Allreduce 0
279751127 MPI_Allreduce 1
279751243 MPI_Allreduce 0
279751243 MPI_Allreduce 1
279751356 MPI_Allreduce 0
279751356 MPI_Allreduce 1
279751472 MPI_Allreduce 0
279751472 MPI_Allreduce 1
279751585 MPI_Allreduce 0
279751585 MPI_Allreduce 1
279751700 MPI_Allreduce 0
279751700 MPI_Allreduce 1
279751814 MPI_Allreduce 0
279751814 MPI_Allreduce 1
279751930 MPI_Allreduce 0
279751930 MPI_Allreduce 1
279752043 MPI_Allreduce 0
279752043 MPI_Allreduce 1
279752159 MPI_Allreduce 0
279752159 MPI_Allreduce 1
279752271 MPI_Allreduce 0
279752271 MPI_Allreduce 1
279752388 MPI_Allreduce 0
279752388 MPI_Allreduce 1
279752503 MPI_Allreduce 0
279752503 MPI_Allreduce 1
279752617 MPI_Allreduce 0
279752617 MPI_Allreduce 1
279752733 MPI_Allreduce 0
279752733 MPI_Allreduce 1
279752846 MPI_Allreduce 0
279752846 MPI_Allreduce 1
279752962 MPI_Allreduce 0
279752962 MPI_Allreduce 1
279753077 MPI_Allreduce 0
279753077 MPI_Allreduce 1
279753191 MPI_Allreduce 0
279753191 MPI_Allreduce 1
279753305 MPI_Allreduce 0
279753305 MPI_Allreduce 1
279753420 MPI_Allreduce 0
279753420 MPI_Allreduce 1
279753534 MPI_Allreduce 0
279753534 MPI_Allreduce 1
279753648 MPI_Allreduce 0
279753648 MPI_Allreduce 1
279753762 MPI_Allreduce 0
279753762 MPI_Allreduce 1
279753876 MPI_Allreduce 0
279753876 MPI_Allreduce 1
279753990 MPI_Allreduce 0
279753990 MPI_Allreduce 1
279754104 MPI_Allreduce 0
279754104 MPI_Allreduce 1
279754219 MPI_Allreduce 0
279754219 MPI_Allreduce 1
279754335 MPI_Allreduce 0
279754335 MPI_Allreduce 1
279754451 MPI_Allreduce 0
279754451 MPI_Allreduce 1
279754565 MPI_Allreduce 0
279754565 MPI_Allreduce 1
279754681 MPI_Allreduce 0
279754681 MPI_Allreduce 1
279754794 MPI_Allreduce 0
279754794 MPI_Allreduce 1
279754910 MPI_Allreduce 0
279754910 MPI_Allreduce 1
279755025 MPI_Allreduce 0
279755025 MPI_Allreduce 1
279755141 MPI_Allreduce 0
279755141 MPI_Allreduce 1
279755254 MPI_Allreduce 0
279755254 MPI_Allreduce 1
279755369 MPI_Allreduce 0
279755369 MPI_Allreduce 1
279755483 MPI_Allreduce 0
279755483 MPI_Allreduce 1
279755598 MPI_Allreduce 0
279755598 MPI_Allreduce 1
279755711 MPI_Allreduce 0
279755711 MPI_Allreduce 1
279755825 MPI_Allreduce 0
279755825 MPI_Allreduce 1
279755940 MPI_Allreduce 0
279755940 MPI_Allreduce 1
279756052 MPI_Allreduce 0
279756052 MPI_Allreduce 1
279756166 MPI_Allreduce 0
279756166 MPI_Allreduce 1
279756279 MPI_Allreduce 0
279756279 MPI_Allreduce 1
279756394 MPI_Allreduce 0
279756394 MPI_Allreduce 1
279756506 MPI_Allreduce 0
279756506 MPI_Allreduce 1
279756617 MPI_Allreduce 0
279756617 MPI_Allreduce 1
279756728 MPI_Allreduce 0
279756728 MPI_Allreduce 1
279756840 MPI_Allreduce 0
279756840 MPI_Allreduce 1
279756951 MPI_Allreduce 0
279756951 MPI_Allreduce 1
279757062 MPI_Allreduce 0
279757062 MPI_Allreduce 1
279757173 MPI_Allreduce 0
279757173 MPI_Allreduce 1
279757284 MPI_Allreduce 0
279757284 MPI_Allreduce 1
279757395 MPI_Allreduce 0
279757395 MPI_Allreduce 1
279757506 MPI_Allreduce 0
279757506 MPI_Allreduce 1
279757618 MPI_Allreduce 0
279757618 MPI_Allreduce 1
279757729 MPI_Allreduce 0
279757729 MPI_Allreduce 1
279757840 MPI_Allreduce 0
279757840 MPI_Allreduce 1
279757951 MPI_Allreduce 0
279757951 MPI_Allreduce 1
279758063 MPI_Allreduce 0
279758063 MPI_Allreduce 1
279758174 MPI_Allreduce 0
279758174 MPI_Allreduce 1
279758285 MPI_Allreduce 0
279758285 MPI_Allreduce 1
279758396 MPI_Allreduce 0
279758396 MPI_Allreduce 1
279758507 MPI_Allreduce 0
279758507 MPI_Allreduce 1
279758618 MPI_Allreduce 0
279758618 MPI_Allreduce 1
279758732 MPI_Allreduce 0
279758732 MPI_Allreduce 1
279758846 MPI_Allreduce 0
279758846 MPI_Allreduce 1
279758961 MPI_Allreduce 0
279758961 MPI_Allreduce 1
279759075 MPI_Allreduce 0
279759075 MPI_Allreduce 1
279759189 MPI_Allreduce 0
279759189 MPI_Allreduce 1
279759302 MPI_Allreduce 0
279759302 MPI_Allreduce 1
279759416 MPI_Allreduce 0
279759416 MPI_Allreduce 1
279759531 MPI_Allreduce 0
279759531 MPI_Allreduce 1
279759645 MPI_Allreduce 0
279759645 MPI_Allreduce 1
279759760 MPI_Allreduce 0
279759760 MPI_Allreduce 1
279759872 MPI_Allreduce 0
279759872 MPI_Allreduce 1
279759986 MPI_Allreduce 0
279759986 MPI_Allreduce 1
279760100 MPI_Allreduce 0
279760100 MPI_Allreduce 1
279760213 MPI_Allreduce 0
279760213 MPI_Allreduce 1
279760328 MPI_Allreduce 0
279760328 MPI_Allreduce 1
279760440 MPI_Allreduce 0
279760440 MPI_Allreduce 1
279760551 MPI_Allreduce 0
279760551 MPI_Allreduce 1
279760662 MPI_Allreduce 0
279760662 MPI_Allreduce 1
279760774 MPI_Allreduce 0
279760774 MPI_Allreduce 1
279760885 MPI_Allreduce 0
279760885 MPI_Allreduce 1
279760996 MPI_Allreduce 0
279760996 MPI_Allreduce 1
279761107 MPI_Allreduce 0
279761107 MPI_Allreduce 1
279761218 MPI_Allreduce 0
279761218 MPI_Allreduce 1
279761330 MPI_Allreduce 0
279761330 MPI_Allreduce 1
279761440 MPI_Allreduce 0
279761440 MPI_Allreduce 1
279761551 MPI_Allreduce 0
279761551 MPI_Allreduce 1
279761662 MPI_Allreduce 0
279761662 MPI_Allreduce 1
279761773 MPI_Allreduce 0
279761773 MPI_Allreduce 1
279761884 MPI_Allreduce 0
279761884 MPI_Allreduce 1
279761996 MPI_Allreduce 0
279761996 MPI_Allreduce 1
279762107 MPI_Allreduce 0
279762107 MPI_Allreduce 1
279762218 MPI_Allreduce 0
279762218 MPI_Allreduce 1
279762329 MPI_Allreduce 0
279762329 MPI_Allreduce 1
279762441 MPI_Allreduce 0
279762441 MPI_Allreduce 1
279762552 MPI_Allreduce 0
279762552 MPI_Allreduce 1
279762663 MPI_Allreduce 0
279762663 MPI_Allreduce 1
279762774 MPI_Allreduce 0
279762774 MPI_Allreduce 1
279762888 MPI_Allreduce 0
279762888 MPI_Allreduce 1
279763002 MPI_Allreduce 0
279763002 MPI_Allreduce 1
279763115 MPI_Allreduce 0
279763115 MPI_Allreduce 1
279763228 MPI_Allreduce 0
279763228 MPI_Allreduce 1
279763342 MPI_Allreduce 0
279763342 MPI_Allreduce 1
279763455 MPI_Allreduce 0
279763455 MPI_Allreduce 1
279763569 MPI_Allreduce 0
279763569 MPI_Allreduce 1
279763684 MPI_Allreduce 0
279763684 MPI_Allreduce 1
279763796 MPI_Allreduce 0
279763796 MPI_Allreduce 1
279763907 MPI_Allreduce 0
279763907 MPI_Allreduce 1
279764018 MPI_Allreduce 0
279764018 MPI_Allreduce 1
279764129 MPI_Allreduce 0
279764129 MPI_Allreduce 1
279764241 MPI_Allreduce 0
279764241 MPI_Allreduce 1
279764352 MPI_Allreduce 0
279764352 MPI_Allreduce 1
279764463 MPI_Allreduce 0
279764463 MPI_Allreduce 1
279764575 MPI_Allreduce 0
279764575 MPI_Allreduce 1
279764686 MPI_Allreduce 0
279764686 MPI_Allreduce 1
279764797 MPI_Allreduce 0
279764797 MPI_Allreduce 1
279764908 MPI_Allreduce 0
279764908 MPI_Allreduce 1
279765020 MPI_Allreduce 0
279765020 MPI_Allreduce 1
279765131 MPI_Allreduce 0
279765131 MPI_Allreduce 1
279765242 MPI_Allreduce 0
279765243 MPI_Allreduce 1
279765354 MPI_Allreduce 0
279765354 MPI_Allreduce 1
279765465 MPI_Allreduce 0
279765465 MPI_Allreduce 1
279765576 MPI_Allreduce 0
279765576 MPI_Allreduce 1
279765687 MPI_Allreduce 0
279765687 MPI_Allreduce 1
279765798 MPI_Allreduce 0
279765798 MPI_Allreduce 1
279765910 MPI_Allreduce 0
279765910 MPI_Allreduce 1
279766021 MPI_Allreduce 0
279766021 MPI_Allreduce 1
279766132 MPI_Allreduce 0
279766132 MPI_Allreduce 1
279766243 MPI_Allreduce 0
279766243 MPI_Allreduce 1
279766355 MPI_Allreduce 0
279766355 MPI_Allreduce 1
279766466 MPI_Allreduce 0
279766466 MPI_Allreduce 1
279766577 MPI_Allreduce 0
279766577 MPI_Allreduce 1
279766688 MPI_Allreduce 0
279766688 MPI_Allreduce 1
279766799 MPI_Allreduce 0
279766799 MPI_Allreduce 1
279766911 MPI_Allreduce 0
279766911 MPI_Allreduce 1
279767022 MPI_Allreduce 0
279767022 MPI_Allreduce 1
279767133 MPI_Allreduce 0
279767133 MPI_Allreduce 1
279767244 MPI_Allreduce 0
279767244 MPI_Allreduce 1
279767356 MPI_Allreduce 0
279767356 MPI_Allreduce 1
279767467 MPI_Allreduce 0
279767467 MPI_Allreduce 1
279767578 MPI_Allreduce 0
279767578 MPI_Allreduce 1
279767689 MPI_Allreduce 0
279767689 MPI_Allreduce 1
279767799 MPI_Allreduce 0
279767799 MPI_Allreduce 1
279767911 MPI_Allreduce 0
279767911 MPI_Allreduce 1
279768022 MPI_Allreduce 0
279768022 MPI_Allreduce 1
279768133 MPI_Allreduce 0
279768133 MPI_Allreduce 1
279768245 MPI_Allreduce 0
279768245 MPI_Allreduce 1
279768356 MPI_Allreduce 0
279768356 MPI_Allreduce 1
279768469 MPI_Allreduce 0
279768469 MPI_Allreduce 1
279768583 MPI_Allreduce 0
279768583 MPI_Allreduce 1
279768698 MPI_Allreduce 0
279768698 MPI_Allreduce 1
279768812 MPI_Allreduce 0
279768812 MPI_Allreduce 1
279768926 MPI_Allreduce 0
279768926 MPI_Allreduce 1
279769039 MPI_Allreduce 0
279769039 MPI_Allreduce 1
279769153 MPI_Allreduce 0
279769153 MPI_Allreduce 1
279769266 MPI_Allreduce 0
279769266 MPI_Allreduce 1
279769379 MPI_Allreduce 0
279769379 MPI_Allreduce 1
279769494 MPI_Allreduce 0
279769494 MPI_Allreduce 1
279769606 MPI_Allreduce 0
279769606 MPI_Allreduce 1
279769721 MPI_Allreduce 0
279769721 MPI_Allreduce 1
279769834 MPI_Allreduce 0
279769834 MPI_Allreduce 1
279769947 MPI_Allreduce 0
279769947 MPI_Allreduce 1
279770061 MPI_Allreduce 0
279770061 MPI_Allreduce 1
279770174 MPI_Allreduce 0
279770174 MPI_Allreduce 1
279770289 MPI_Allreduce 0
279770289 MPI_Allreduce 1
279770401 MPI_Allreduce 0
279770401 MPI_Allreduce 1
279770515 MPI_Allreduce 0
279770515 MPI_Allreduce 1
279770629 MPI_Allreduce 0
279770629 MPI_Allreduce 1
279770742 MPI_Allreduce 0
279770742 MPI_Allreduce 1
279770857 MPI_Allreduce 0
279770857 MPI_Allreduce 1
279770969 MPI_Allreduce 0
279770969 MPI_Allreduce 1
279771084 MPI_Allreduce 0
279771084 MPI_Allreduce 1
279771197 MPI_Allreduce 0
279771197 MPI_Allreduce 1
279771310 MPI_Allreduce 0
279771310 MPI_Allreduce 1
279771426 MPI_Allreduce 0
279771426 MPI_Allreduce 1
279771538 MPI_Allreduce 0
279771538 MPI_Allreduce 1
279771649 MPI_Allreduce 0
279771649 MPI_Allreduce 1
279771760 MPI_Allreduce 0
279771760 MPI_Allreduce 1
279771871 MPI_Allreduce 0
279771871 MPI_Allreduce 1
279771983 MPI_Allreduce 0
279771983 MPI_Allreduce 1
279772094 MPI_Allreduce 0
279772094 MPI_Allreduce 1
279772208 MPI_Allreduce 0
279772208 MPI_Allreduce 1
279772321 MPI_Allreduce 0
279772321 MPI_Allreduce 1
279772436 MPI_Allreduce 0
279772436 MPI_Allreduce 1
279772549 MPI_Allreduce 0
279772549 MPI_Allreduce 1
279772660 MPI_Allreduce 0
279772660 MPI_Allreduce 1
279772771 MPI_Allreduce 0
279772771 MPI_Allreduce 1
279772882 MPI_Allreduce 0
279772882 MPI_Allreduce 1
279772995 MPI_Allreduce 0
279772995 MPI_Allreduce 1
279773111 MPI_Allreduce 0
279773111 MPI_Allreduce 1
279773226 MPI_Allreduce 0
279773226 MPI_Allreduce 1
279773338 MPI_Allreduce 0
279773338 MPI_Allreduce 1
279773449 MPI_Allreduce 0
279773449 MPI_Allreduce 1
279773560 MPI_Allreduce 0
279773560 MPI_Allreduce 1
279773672 MPI_Allreduce 0
279773672 MPI_Allreduce 1
279773783 MPI_Allreduce 0
279773783 MPI_Allreduce 1
279773894 MPI_Allreduce 0
279773894 MPI_Allreduce 1
279774005 MPI_Allreduce 0
279774005 MPI_Allreduce 1
279774116 MPI_Allreduce 0
279774116 MPI_Allreduce 1
279774228 MPI_Allreduce 0
279774228 MPI_Allreduce 1
279774339 MPI_Allreduce 0
279774339 MPI_Allreduce 1
279774450 MPI_Allreduce 0
279774450 MPI_Allreduce 1
279774561 MPI_Allreduce 0
279774561 MPI_Allreduce 1
279774673 MPI_Allreduce 0
279774673 MPI_Allreduce 1
279774784 MPI_Allreduce 0
279774784 MPI_Allreduce 1
279774895 MPI_Allreduce 0
279774895 MPI_Allreduce 1
279775006 MPI_Allreduce 0
279775006 MPI_Allreduce 1
279775118 MPI_Allreduce 0
279775118 MPI_Allreduce 1
279775230 MPI_Allreduce 0
279775230 MPI_Allreduce 1
279775344 MPI_Allreduce 0
279775344 MPI_Allreduce 1
279775457 MPI_Allreduce 0
279775457 MPI_Allreduce 1
279775571 MPI_Allreduce 0
279775571 MPI_Allreduce 1
279775684 MPI_Allreduce 0
279775684 MPI_Allreduce 1
279775800 MPI_Allreduce 0
279775800 MPI_Allreduce 1
279775913 MPI_Allreduce 0
279775913 MPI_Allreduce 1
279776027 MPI_Allreduce 0
279776027 MPI_Allreduce 1
279776142 MPI_Allreduce 0
279776142 MPI_Allreduce 1
279776257 MPI_Allreduce 0
279776257 MPI_Allreduce 1
279776370 MPI_Allreduce 0
279776370 MPI_Allreduce 1
279776486 MPI_Allreduce 0
279776486 MPI_Allreduce 1
279776598 MPI_Allreduce 0
279776598 MPI_Allreduce 1
279776712 MPI_Allreduce 0
279776712 MPI_Allreduce 1
279776826 MPI_Allreduce 0
279776826 MPI_Allreduce 1
279776939 MPI_Allreduce 0
279776939 MPI_Allreduce 1
279777053 MPI_Allreduce 0
279777053 MPI_Allreduce 1
279777166 MPI_Allreduce 0
279777166 MPI_Allreduce 1
279777279 MPI_Allreduce 0
279777279 MPI_Allreduce 1
279777393 MPI_Allreduce 0
279777393 MPI_Allreduce 1
279777507 MPI_Allreduce 0
279777507 MPI_Allreduce 1
279777620 MPI_Allreduce 0
279777620 MPI_Allreduce 1
279777734 MPI_Allreduce 0
279777734 MPI_Allreduce 1
279777847 MPI_Allreduce 0
279777847 MPI_Allreduce 1
279777961 MPI_Allreduce 0
279777961 MPI_Allreduce 1
279778074 MPI_Allreduce 0
279778074 MPI_Allreduce 1
279778188 MPI_Allreduce 0
279778188 MPI_Allreduce 1
279778301 MPI_Allreduce 0
279778301 MPI_Allreduce 1
279778415 MPI_Allreduce 0
279778415 MPI_Allreduce 1
279778528 MPI_Allreduce 0
279778528 MPI_Allreduce 1
279778642 MPI_Allreduce 0
279778642 MPI_Allreduce 1
279778756 MPI_Allreduce 0
279778756 MPI_Allreduce 1
279778869 MPI_Allreduce 0
279778869 MPI_Allreduce 1
279778984 MPI_Allreduce 0
279778984 MPI_Allreduce 1
279779096 MPI_Allreduce 0
279779096 MPI_Allreduce 1
279779210 MPI_Allreduce 0
279779210 MPI_Allreduce 1
279779323 MPI_Allreduce 0
279779323 MPI_Allreduce 1
279779437 MPI_Allreduce 0
279779437 MPI_Allreduce 1
279779551 MPI_Allreduce 0
279779551 MPI_Allreduce 1
279779664 MPI_Allreduce 0
279779664 MPI_Allreduce 1
279779777 MPI_Allreduce 0
279779777 MPI_Allreduce 1
279779893 MPI_Allreduce 0
279779893 MPI_Allreduce 1
279780007 MPI_Allreduce 0
279780007 MPI_Allreduce 1
279780121 MPI_Allreduce 0
279780121 MPI_Allreduce 1
279780235 MPI_Allreduce 0
279780235 MPI_Allreduce 1
279780348 MPI_Allreduce 0
279780348 MPI_Allreduce 1
279780462 MPI_Allreduce 0
279780462 MPI_Allreduce 1
279780576 MPI_Allreduce 0
279780576 MPI_Allreduce 1
279780689 MPI_Allreduce 0
279780689 MPI_Allreduce 1
279780803 MPI_Allreduce 0
279780803 MPI_Allreduce 1
279780916 MPI_Allreduce 0
279780916 MPI_Allreduce 1
279781030 MPI_Allreduce 0
279781030 MPI_Allreduce 1
279781143 MPI_Allreduce 0
279781143 MPI_Allreduce 1
279781256 MPI_Allreduce 0
279781256 MPI_Allreduce 1
279781370 MPI_Allreduce 0
279781370 MPI_Allreduce 1
279781485 MPI_Allreduce 0
279781485 MPI_Allreduce 1
279781597 MPI_Allreduce 0
279781597 MPI_Allreduce 1
279781712 MPI_Allreduce 0
279781712 MPI_Allreduce 1
279781827 MPI_Allreduce 0
279781827 MPI_Allreduce 1
279781942 MPI_Allreduce 0
279781942 MPI_Allreduce 1
279782055 MPI_Allreduce 0
279782055 MPI_Allreduce 1
279782169 MPI_Allreduce 0
279782169 MPI_Allreduce 1
279782282 MPI_Allreduce 0
279782282 MPI_Allreduce 1
279782396 MPI_Allreduce 0
279782396 MPI_Allreduce 1
279782511 MPI_Allreduce 0
279782511 MPI_Allreduce 1
279782626 MPI_Allreduce 0
279782626 MPI_Allreduce 1
279782741 MPI_Allreduce 0
279782741 MPI_Allreduce 1
279782857 MPI_Allreduce 0
279782857 MPI_Allreduce 1
279782972 MPI_Allreduce 0
279782972 MPI_Allreduce 1
279783084 MPI_Allreduce 0
279783084 MPI_Allreduce 1
279783199 MPI_Allreduce 0
279783199 MPI_Allreduce 1
279783312 MPI_Allreduce 0
279783312 MPI_Allreduce 1
279783425 MPI_Allreduce 0
279783425 MPI_Allreduce 1
279783539 MPI_Allreduce 0
279783539 MPI_Allreduce 1
279783653 MPI_Allreduce 0
279783653 MPI_Allreduce 1
279783766 MPI_Allreduce 0
279783766 MPI_Allreduce 1
279783880 MPI_Allreduce 0
279783880 MPI_Allreduce 1
279783993 MPI_Allreduce 0
279783993 MPI_Allreduce 1
279784108 MPI_Allreduce 0
279784108 MPI_Allreduce 1
279784222 MPI_Allreduce 0
279784222 MPI_Allreduce 1
279784337 MPI_Allreduce 0
279784337 MPI_Allreduce 1
279784453 MPI_Allreduce 0
279784453 MPI_Allreduce 1
279784565 MPI_Allreduce 0
279784565 MPI_Allreduce 1
279784679 MPI_Allreduce 0
279784679 MPI_Allreduce 1
279784792 MPI_Allreduce 0
279784792 MPI_Allreduce 1
279784906 MPI_Allreduce 0
279784906 MPI_Allreduce 1
279785021 MPI_Allreduce 0
279785021 MPI_Allreduce 1
279785133 MPI_Allreduce 0
279785133 MPI_Allreduce 1
279785248 MPI_Allreduce 0
279785248 MPI_Allreduce 1
279785361 MPI_Allreduce 0
279785361 MPI_Allreduce 1
279785475 MPI_Allreduce 0
279785475 MPI_Allreduce 1
279785590 MPI_Allreduce 0
279785590 MPI_Allreduce 1
279785702 MPI_Allreduce 0
279785702 MPI_Allreduce 1
279785814 MPI_Allreduce 0
279785814 MPI_Allreduce 1
279785925 MPI_Allreduce 0
279785925 MPI_Allreduce 1
279786036 MPI_Allreduce 0
279786036 MPI_Allreduce 1
279786148 MPI_Allreduce 0
279786148 MPI_Allreduce 1
279786259 MPI_Allreduce 0
279786259 MPI_Allreduce 1
279786370 MPI_Allreduce 0
279786370 MPI_Allreduce 1
279786484 MPI_Allreduce 0
279786484 MPI_Allreduce 1
279786599 MPI_Allreduce 0
279786599 MPI_Allreduce 1
279786715 MPI_Allreduce 0
279786715 MPI_Allreduce 1
279786827 MPI_Allreduce 0
279786827 MPI_Allreduce 1
279786941 MPI_Allreduce 0
279786941 MPI_Allreduce 1
279787055 MPI_Allreduce 0
279787055 MPI_Allreduce 1
279787168 MPI_Allreduce 0
279787168 MPI_Allreduce 1
279787282 MPI_Allreduce 0
279787282 MPI_Allreduce 1
279787395 MPI_Allreduce 0
279787395 MPI_Allreduce 1
279787509 MPI_Allreduce 0
279787509 MPI_Allreduce 1
279787622 MPI_Allreduce 0
279787622 MPI_Allreduce 1
279787736 MPI_Allreduce 0
279787736 MPI_Allreduce 1
279787849 MPI_Allreduce 0
279787849 MPI_Allreduce 1
279787965 MPI_Allreduce 0
279787965 MPI_Allreduce 1
279788077 MPI_Allreduce 0
279788077 MPI_Allreduce 1
279788188 MPI_Allreduce 0
279788188 MPI_Allreduce 1
279788299 MPI_Allreduce 0
279788300 MPI_Allreduce 1
279788411 MPI_Allreduce 0
279788411 MPI_Allreduce 1
279788522 MPI_Allreduce 0
279788522 MPI_Allreduce 1
279788634 MPI_Allreduce 0
279788634 MPI_Allreduce 1
279788745 MPI_Allreduce 0
279788745 MPI_Allreduce 1
279788856 MPI_Allreduce 0
279788856 MPI_Allreduce 1
279788968 MPI_Allreduce 0
279788968 MPI_Allreduce 1
279789079 MPI_Allreduce 0
279789079 MPI_Allreduce 1
279789190 MPI_Allreduce 0
279789190 MPI_Allreduce 1
279789304 MPI_Allreduce 0
279789304 MPI_Allreduce 1
279789418 MPI_Allreduce 0
279789418 MPI_Allreduce 1
279789531 MPI_Allreduce 0
279789531 MPI_Allreduce 1
279789645 MPI_Allreduce 0
279789645 MPI_Allreduce 1
279789758 MPI_Allreduce 0
279789758 MPI_Allreduce 1
279789871 MPI_Allreduce 0
279789871 MPI_Allreduce 1
279789985 MPI_Allreduce 0
279789985 MPI_Allreduce 1
279790098 MPI_Allreduce 0
279790098 MPI_Allreduce 1
279790213 MPI_Allreduce 0
279790213 MPI_Allreduce 1
279790326 MPI_Allreduce 0
279790326 MPI_Allreduce 1
279790440 MPI_Allreduce 0
279790440 MPI_Allreduce 1
279790555 MPI_Allreduce 0
279790555 MPI_Allreduce 1
279790669 MPI_Allreduce 0
279790669 MPI_Allreduce 1
279790782 MPI_Allreduce 0
279790782 MPI_Allreduce 1
279790896 MPI_Allreduce 0
279790896 MPI_Allreduce 1
279791009 MPI_Allreduce 0
279791009 MPI_Allreduce 1
279791123 MPI_Allreduce 0
279791123 MPI_Allreduce 1
279791237 MPI_Allreduce 0
279791237 MPI_Allreduce 1
279791350 MPI_Allreduce 0
279791350 MPI_Allreduce 1
279791465 MPI_Allreduce 0
279791465 MPI_Allreduce 1
279791577 MPI_Allreduce 0
279791577 MPI_Allreduce 1
279791693 MPI_Allreduce 0
279791693 MPI_Allreduce 1
279791807 MPI_Allreduce 0
279791807 MPI_Allreduce 1
279791921 MPI_Allreduce 0
279791921 MPI_Allreduce 1
279792034 MPI_Allreduce 0
279792034 MPI_Allreduce 1
279792148 MPI_Allreduce 0
279792148 MPI_Allreduce 1
279792262 MPI_Allreduce 0
279792262 MPI_Allreduce 1
279792375 MPI_Allreduce 0
279792375 MPI_Allreduce 1
279792490 MPI_Allreduce 0
279792490 MPI_Allreduce 1
279792604 MPI_Allreduce 0
279792604 MPI_Allreduce 1
279792720 MPI_Allreduce 0
279792720 MPI_Allreduce 1
279792833 MPI_Allreduce 0
279792833 MPI_Allreduce 1
279792948 MPI_Allreduce 0
279792948 MPI_Allreduce 1
279793060 MPI_Allreduce 0
279793060 MPI_Allreduce 1
279793172 MPI_Allreduce 0
279793172 MPI_Allreduce 1
279793283 MPI_Allreduce 0
279793283 MPI_Allreduce 1
279793395 MPI_Allreduce 0
279793395 MPI_Allreduce 1
279793506 MPI_Allreduce 0
279793506 MPI_Allreduce 1
279793616 MPI_Allreduce 0
279793616 MPI_Allreduce 1
279793727 MPI_Allreduce 0
279793727 MPI_Allreduce 1
279793839 MPI_Allreduce 0
279793839 MPI_Allreduce 1
279793950 MPI_Allreduce 0
279793950 MPI_Allreduce 1
279794064 MPI_Allreduce 0
279794064 MPI_Allreduce 1
279794178 MPI_Allreduce 0
279794178 MPI_Allreduce 1
279794291 MPI_Allreduce 0
279794291 MPI_Allreduce 1
279794407 MPI_Allreduce 0
279794407 MPI_Allreduce 1
279794519 MPI_Allreduce 0
279794519 MPI_Allreduce 1
279794633 MPI_Allreduce 0
279794633 MPI_Allreduce 1
279794746 MPI_Allreduce 0
279794746 MPI_Allreduce 1
279794862 MPI_Allreduce 0
279794862 MPI_Allreduce 1
279794974 MPI_Allreduce 0
279794974 MPI_Allreduce 1
279795088 MPI_Allreduce 0
279795088 MPI_Allreduce 1
279795201 MPI_Allreduce 0
279795201 MPI_Allreduce 1
279795321 MPI_Allreduce 0
279795321 MPI_Allreduce 1
279795436 MPI_Allreduce 0
279795436 MPI_Allreduce 1
279795548 MPI_Allreduce 0
279795548 MPI_Allreduce 1
279795663 MPI_Allreduce 0
279795663 MPI_Allreduce 1
279795777 MPI_Allreduce 0
279795777 MPI_Allreduce 1
279795890 MPI_Allreduce 0
279795890 MPI_Allreduce 1
279796004 MPI_Allreduce 0
279796004 MPI_Allreduce 1
279796120 MPI_Allreduce 0
279796120 MPI_Allreduce 1
279796232 MPI_Allreduce 0
279796232 MPI_Allreduce 1
279796344 MPI_Allreduce 0
279796344 MPI_Allreduce 1
279796455 MPI_Allreduce 0
279796455 MPI_Allreduce 1
279796567 MPI_Allreduce 0
279796567 MPI_Allreduce 1
279796678 MPI_Allreduce 0
279796678 MPI_Allreduce 1
279796790 MPI_Allreduce 0
279796790 MPI_Allreduce 1
279796901 MPI_Allreduce 0
279796901 MPI_Allreduce 1
279797013 MPI_Allreduce 0
279797013 MPI_Allreduce 1
279797124 MPI_Allreduce 0
279797124 MPI_Allreduce 1
279797236 MPI_Allreduce 0
279797236 MPI_Allreduce 1
279797347 MPI_Allreduce 0
279797347 MPI_Allreduce 1
279797459 MPI_Allreduce 0
279797459 MPI_Allreduce 1
279797571 MPI_Allreduce 0
279797571 MPI_Allreduce 1
279797682 MPI_Allreduce 0
279797682 MPI_Allreduce 1
279797794 MPI_Allreduce 0
279797794 MPI_Allreduce 1
279797905 MPI_Allreduce 0
279797905 MPI_Allreduce 1
279798017 MPI_Allreduce 0
279798017 MPI_Allreduce 1
279798129 MPI_Allreduce 0
279798129 MPI_Allreduce 1
279798240 MPI_Allreduce 0
279798240 MPI_Allreduce 1
279798352 MPI_Allreduce 0
279798352 MPI_Allreduce 1
279798463 MPI_Allreduce 0
279798463 MPI_Allreduce 1
279798575 MPI_Allreduce 0
279798575 MPI_Allreduce 1
279798687 MPI_Allreduce 0
279798687 MPI_Allreduce 1
279798798 MPI_Allreduce 0
279798798 MPI_Allreduce 1
279798910 MPI_Allreduce 0
279798910 MPI_Allreduce 1
279799021 MPI_Allreduce 0
279799021 MPI_Allreduce 1
279799136 MPI_Allreduce 0
279799136 MPI_Allreduce 1
279799249 MPI_Allreduce 0
279799249 MPI_Allreduce 1
279799365 MPI_Allreduce 0
279799365 MPI_Allreduce 1
279799479 MPI_Allreduce 0
279799479 MPI_Allreduce 1
279799595 MPI_Allreduce 0
279799595 MPI_Allreduce 1
279799707 MPI_Allreduce 0
279799707 MPI_Allreduce 1
279799819 MPI_Allreduce 0
279799819 MPI_Allreduce 1
279799930 MPI_Allreduce 0
279799930 MPI_Allreduce 1
279800042 MPI_Allreduce 0
279800042 MPI_Allreduce 1
279800154 MPI_Allreduce 0
279800154 MPI_Allreduce 1
279800265 MPI_Allreduce 0
279800265 MPI_Allreduce 1
279800376 MPI_Allreduce 0
279800376 MPI_Allreduce 1
279800488 MPI_Allreduce 0
279800488 MPI_Allreduce 1
279800599 MPI_Allreduce 0
279800599 MPI_Allreduce 1
279800711 MPI_Allreduce 0
279800711 MPI_Allreduce 1
279800822 MPI_Allreduce 0
279800822 MPI_Allreduce 1
279800934 MPI_Allreduce 0
279800934 MPI_Allreduce 1
279801046 MPI_Allreduce 0
279801046 MPI_Allreduce 1
279801157 MPI_Allreduce 0
279801157 MPI_Allreduce 1
279801269 MPI_Allreduce 0
279801269 MPI_Allreduce 1
279801383 MPI_Allreduce 0
279801383 MPI_Allreduce 1
279801497 MPI_Allreduce 0
279801497 MPI_Allreduce 1
279801610 MPI_Allreduce 0
279801610 MPI_Allreduce 1
279801724 MPI_Allreduce 0
279801724 MPI_Allreduce 1
279801838 MPI_Allreduce 0
279801838 MPI_Allreduce 1
279801952 MPI_Allreduce 0
279801952 MPI_Allreduce 1
279802067 MPI_Allreduce 0
279802067 MPI_Allreduce 1
279802180 MPI_Allreduce 0
279802180 MPI_Allreduce 1
279802291 MPI_Allreduce 0
279802291 MPI_Allreduce 1
279802403 MPI_Allreduce 0
279802403 MPI_Allreduce 1
279802514 MPI_Allreduce 0
279802514 MPI_Allreduce 1
279802626 MPI_Allreduce 0
279802626 MPI_Allreduce 1
279802737 MPI_Allreduce 0
279802737 MPI_Allreduce 1
279802849 MPI_Allreduce 0
279802849 MPI_Allreduce 1
279802960 MPI_Allreduce 0
279802960 MPI_Allreduce 1
279803072 MPI_Allreduce 0
279803072 MPI_Allreduce 1
279803183 MPI_Allreduce 0
279803183 MPI_Allreduce 1
279803295 MPI_Allreduce 0
279803295 MPI_Allreduce 1
279803407 MPI_Allreduce 0
279803407 MPI_Allreduce 1
279803518 MPI_Allreduce 0
279803518 MPI_Allreduce 1
279803630 MPI_Allreduce 0
279803630 MPI_Allreduce 1
279803742 MPI_Allreduce 0
279803742 MPI_Allreduce 1
279803853 MPI_Allreduce 0
279803853 MPI_Allreduce 1
279803965 MPI_Allreduce 0
279803965 MPI_Allreduce 1
279804076 MPI_Allreduce 0
279804076 MPI_Allreduce 1
279804188 MPI_Allreduce 0
279804188 MPI_Allreduce 1
279804299 MPI_Allreduce 0
279804299 MPI_Allreduce 1
279804411 MPI_Allreduce 0
279804411 MPI_Allreduce 1
279804523 MPI_Allreduce 0
279804523 MPI_Allreduce 1
279804634 MPI_Allreduce 0
279804634 MPI_Allreduce 1
279804746 MPI_Allreduce 0
279804746 MPI_Allreduce 1
279804857 MPI_Allreduce 0
279804857 MPI_Allreduce 1
279804969 MPI_Allreduce 0
279804969 MPI_Allreduce 1
279805081 MPI_Allreduce 0
279805081 MPI_Allreduce 1
279805192 MPI_Allreduce 0
279805192 MPI_Allreduce 1
279805305 MPI_Allreduce 0
279805305 MPI_Allreduce 1
279805419 MPI_Allreduce 0
279805419 MPI_Allreduce 1
279805535 MPI_Allreduce 0
279805535 MPI_Allreduce 1
279805651 MPI_Allreduce 0
279805651 MPI_Allreduce 1
279805765 MPI_Allreduce 0
279805765 MPI_Allreduce 1
279805879 MPI_Allreduce 0
279805879 MPI_Allreduce 1
279805993 MPI_Allreduce 0
279805993 MPI_Allreduce 1
279806108 MPI_Allreduce 0
279806108 MPI_Allreduce 1
279806222 MPI_Allreduce 0
279806222 MPI_Allreduce 1
279806338 MPI_Allreduce 0
279806338 MPI_Allreduce 1
279806451 MPI_Allreduce 0
279806451 MPI_Allreduce 1
279806565 MPI_Allreduce 0
279806565 MPI_Allreduce 1
279806679 MPI_Allreduce 0
279806679 MPI_Allreduce 1
279806793 MPI_Allreduce 0
279806793 MPI_Allreduce 1
279806906 MPI_Allreduce 0
279806906 MPI_Allreduce 1
279807020 MPI_Allreduce 0
279807020 MPI_Allreduce 1
279807134 MPI_Allreduce 0
279807134 MPI_Allreduce 1
279807250 MPI_Allreduce 0
279807250 MPI_Allreduce 1
279807362 MPI_Allreduce 0
279807362 MPI_Allreduce 1
279807476 MPI_Allreduce 0
279807476 MPI_Allreduce 1
279807590 MPI_Allreduce 0
279807590 MPI_Allreduce 1
279807704 MPI_Allreduce 0
279807704 MPI_Allreduce 1
279807818 MPI_Allreduce 0
279807818 MPI_Allreduce 1
279807933 MPI_Allreduce 0
279807933 MPI_Allreduce 1
279808050 MPI_Allreduce 0
279808050 MPI_Allreduce 1
279808166 MPI_Allreduce 0
279808166 MPI_Allreduce 1
279808278 MPI_Allreduce 0
279808278 MPI_Allreduce 1
279808393 MPI_Allreduce 0
279808393 MPI_Allreduce 1
279808507 MPI_Allreduce 0
279808507 MPI_Allreduce 1
279808622 MPI_Allreduce 0
279808622 MPI_Allreduce 1
279808736 MPI_Allreduce 0
279808736 MPI_Allreduce 1
279808850 MPI_Allreduce 0
279808850 MPI_Allreduce 1
279808966 MPI_Allreduce 0
279808966 MPI_Allreduce 1
279809078 MPI_Allreduce 0
279809078 MPI_Allreduce 1
279809193 MPI_Allreduce 0
279809193 MPI_Allreduce 1
279809308 MPI_Allreduce 0
279809308 MPI_Allreduce 1
279809424 MPI_Allreduce 0
279809424 MPI_Allreduce 1
279809537 MPI_Allreduce 0
279809537 MPI_Allreduce 1
279809648 MPI_Allreduce 0
279809648 MPI_Allreduce 1
279809760 MPI_Allreduce 0
279809760 MPI_Allreduce 1
279809871 MPI_Allreduce 0
279809871 MPI_Allreduce 1
279809983 MPI_Allreduce 0
279809983 MPI_Allreduce 1
279810095 MPI_Allreduce 0
279810095 MPI_Allreduce 1
279810206 MPI_Allreduce 0
279810206 MPI_Allreduce 1
279810318 MPI_Allreduce 0
279810318 MPI_Allreduce 1
279810428 MPI_Allreduce 0
279810428 MPI_Allreduce 1
279810540 MPI_Allreduce 0
279810540 MPI_Allreduce 1
279810652 MPI_Allreduce 0
279810652 MPI_Allreduce 1
279810764 MPI_Allreduce 0
279810764 MPI_Allreduce 1
279810875 MPI_Allreduce 0
279810875 MPI_Allreduce 1
279810987 MPI_Allreduce 0
279810987 MPI_Allreduce 1
279811099 MPI_Allreduce 0
279811099 MPI_Allreduce 1
279811211 MPI_Allreduce 0
279811211 MPI_Allreduce 1
279811322 MPI_Allreduce 0
279811322 MPI_Allreduce 1
279811434 MPI_Allreduce 0
279811434 MPI_Allreduce 1
279811546 MPI_Allreduce 0
279811546 MPI_Allreduce 1
279811657 MPI_Allreduce 0
279811657 MPI_Allreduce 1
279811769 MPI_Allreduce 0
279811769 MPI_Allreduce 1
279811881 MPI_Allreduce 0
279811881 MPI_Allreduce 1
279811992 MPI_Allreduce 0
279811992 MPI_Allreduce 1
279812104 MPI_Allreduce 0
279812104 MPI_Allreduce 1
279812216 MPI_Allreduce 0
279812216 MPI_Allreduce 1
279812327 MPI_Allreduce 0
279812327 MPI_Allreduce 1
279812439 MPI_Allreduce 0
279812439 MPI_Allreduce 1
279812551 MPI_Allreduce 0
279812551 MPI_Allreduce 1
279812662 MPI_Allreduce 0
279812662 MPI_Allreduce 1
279812774 MPI_Allreduce 0
279812774 MPI_Allreduce 1
279812886 MPI_Allreduce 0
279812886 MPI_Allreduce 1
279812997 MPI_Allreduce 0
279812997 MPI_Allreduce 1
279813112 MPI_Allreduce 0
279813112 MPI_Allreduce 1
279813226 MPI_Allreduce 0
279813226 MPI_Allreduce 1
279813340 MPI_Allreduce 0
279813340 MPI_Allreduce 1
279813454 MPI_Allreduce 0
279813454 MPI_Allreduce 1
279813567 MPI_Allreduce 0
279813567 MPI_Allreduce 1
279813681 MPI_Allreduce 0
279813681 MPI_Allreduce 1
279813795 MPI_Allreduce 0
279813795 MPI_Allreduce 1
279813911 MPI_Allreduce 0
279813911 MPI_Allreduce 1
279814023 MPI_Allreduce 0
279814023 MPI_Allreduce 1
279814139 MPI_Allreduce 0
279814139 MPI_Allreduce 1
279814254 MPI_Allreduce 0
279814254 MPI_Allreduce 1
279814370 MPI_Allreduce 0
279814370 MPI_Allreduce 1
279814482 MPI_Allreduce 0
279814482 MPI_Allreduce 1
279814597 MPI_Allreduce 0
279814597 MPI_Allreduce 1
279814713 MPI_Allreduce 0
279814713 MPI_Allreduce 1
279814829 MPI_Allreduce 0
279814829 MPI_Allreduce 1
279814941 MPI_Allreduce 0
279814941 MPI_Allreduce 1
279815053 MPI_Allreduce 0
279815053 MPI_Allreduce 1
279815164 MPI_Allreduce 0
279815164 MPI_Allreduce 1
279815276 MPI_Allreduce 0
279815276 MPI_Allreduce 1
279815388 MPI_Allreduce 0
279815388 MPI_Allreduce 1
279815499 MPI_Allreduce 0
279815499 MPI_Allreduce 1
279815611 MPI_Allreduce 0
279815611 MPI_Allreduce 1
279815722 MPI_Allreduce 0
279815722 MPI_Allreduce 1
279815834 MPI_Allreduce 0
279815834 MPI_Allreduce 1
279815946 MPI_Allreduce 0
279815946 MPI_Allreduce 1
279816057 MPI_Allreduce 0
279816057 MPI_Allreduce 1
279816169 MPI_Allreduce 0
279816169 MPI_Allreduce 1
279816281 MPI_Allreduce 0
279816281 MPI_Allreduce 1
279816395 MPI_Allreduce 0
279816395 MPI_Allreduce 1
279816511 MPI_Allreduce 0
279816511 MPI_Allreduce 1
279816626 MPI_Allreduce 0
279816626 MPI_Allreduce 1
279816739 MPI_Allreduce 0
279816739 MPI_Allreduce 1
279816851 MPI_Allreduce 0
279816851 MPI_Allreduce 1
279816962 MPI_Allreduce 0
279816962 MPI_Allreduce 1
279817074 MPI_Allreduce 0
279817074 MPI_Allreduce 1
279817185 MPI_Allreduce 0
279817185 MPI_Allreduce 1
279817297 MPI_Allreduce 0
279817297 MPI_Allreduce 1
279817409 MPI_Allreduce 0
279817409 MPI_Allreduce 1
279817520 MPI_Allreduce 0
279817520 MPI_Allreduce 1
279817632 MPI_Allreduce 0
279817632 MPI_Allreduce 1
279817744 MPI_Allreduce 0
279817744 MPI_Allreduce 1
279817856 MPI_Allreduce 0
279817856 MPI_Allreduce 1
279817967 MPI_Allreduce 0
279817967 MPI_Allreduce 1
279818079 MPI_Allreduce 0
279818079 MPI_Allreduce 1
279818191 MPI_Allreduce 0
279818191 MPI_Allreduce 1
279818302 MPI_Allreduce 0
279818302 MPI_Allreduce 1
279818414 MPI_Allreduce 0
279818414 MPI_Allreduce 1
279818526 MPI_Allreduce 0
279818526 MPI_Allreduce 1
279818637 MPI_Allreduce 0
279818637 MPI_Allreduce 1
279818749 MPI_Allreduce 0
279818749 MPI_Allreduce 1
279818861 MPI_Allreduce 0
279818861 MPI_Allreduce 1
279818972 MPI_Allreduce 0
279818972 MPI_Allreduce 1
279819084 MPI_Allreduce 0
279819084 MPI_Allreduce 1
279819196 MPI_Allreduce 0
279819196 MPI_Allreduce 1
279819307 MPI_Allreduce 0
279819307 MPI_Allreduce 1
279819419 MPI_Allreduce 0
279819419 MPI_Allreduce 1
279819531 MPI_Allreduce 0
279819531 MPI_Allreduce 1
279819642 MPI_Allreduce 0
279819642 MPI_Allreduce 1
279819754 MPI_Allreduce 0
279819754 MPI_Allreduce 1
279819866 MPI_Allreduce 0
279819866 MPI_Allreduce 1
279819977 MPI_Allreduce 0
279819977 MPI_Allreduce 1
279820092 MPI_Allreduce 0
279820092 MPI_Allreduce 1
279820206 MPI_Allreduce 0
279820206 MPI_Allreduce 1
279820320 MPI_Allreduce 0
279820320 MPI_Allreduce 1
279820433 MPI_Allreduce 0
279820433 MPI_Allreduce 1
279820547 MPI_Allreduce 0
279820547 MPI_Allreduce 1
279820663 MPI_Allreduce 0
279820663 MPI_Allreduce 1
279820775 MPI_Allreduce 0
279820775 MPI_Allreduce 1
279820887 MPI_Allreduce 0
279820887 MPI_Allreduce 1
279820999 MPI_Allreduce 0
279820999 MPI_Allreduce 1
279821110 MPI_Allreduce 0
279821110 MPI_Allreduce 1
279821222 MPI_Allreduce 0
279821222 MPI_Allreduce 1
279821334 MPI_Allreduce 0
279821334 MPI_Allreduce 1
279821446 MPI_Allreduce 0
279821446 MPI_Allreduce 1
279821557 MPI_Allreduce 0
279821557 MPI_Allreduce 1
279821669 MPI_Allreduce 0
279821669 MPI_Allreduce 1
279821783 MPI_Allreduce 0
279821783 MPI_Allreduce 1
279821897 MPI_Allreduce 0
279821897 MPI_Allreduce 1
279822012 MPI_Allreduce 0
279822012 MPI_Allreduce 1
279822125 MPI_Allreduce 0
279822125 MPI_Allreduce 1
279822237 MPI_Allreduce 0
279822237 MPI_Allreduce 1
279822348 MPI_Allreduce 0
279822348 MPI_Allreduce 1
279822460 MPI_Allreduce 0
279822460 MPI_Allreduce 1
279822572 MPI_Allreduce 0
279822572 MPI_Allreduce 1
279822683 MPI_Allreduce 0
279822683 MPI_Allreduce 1
279822795 MPI_Allreduce 0
279822795 MPI_Allreduce 1
279822906 MPI_Allreduce 0
279822906 MPI_Allreduce 1
279823018 MPI_Allreduce 0
279823018 MPI_Allreduce 1
279823130 MPI_Allreduce 0
279823130 MPI_Allreduce 1
279823241 MPI_Allreduce 0
279823241 MPI_Allreduce 1
279823353 MPI_Allreduce 0
279823353 MPI_Allreduce 1
279823465 MPI_Allreduce 0
279823465 MPI_Allreduce 1
279823576 MPI_Allreduce 0
279823576 MPI_Allreduce 1
279823688 MPI_Allreduce 0
279823688 MPI_Allreduce 1
279823800 MPI_Allreduce 0
279823800 MPI_Allreduce 1
279823911 MPI_Allreduce 0
279823911 MPI_Allreduce 1
279824023 MPI_Allreduce 0
279824023 MPI_Allreduce 1
279824134 MPI_Allreduce 0
279824134 MPI_Allreduce 1
279824246 MPI_Allreduce 0
279824246 MPI_Allreduce 1
279824358 MPI_Allreduce 0
279824358 MPI_Allreduce 1
279824470 MPI_Allreduce 0
279824470 MPI_Allreduce 1
279824581 MPI_Allreduce 0
279824581 MPI_Allreduce 1
279824693 MPI_Allreduce 0
279824693 MPI_Allreduce 1
279824805 MPI_Allreduce 0
279824805 MPI_Allreduce 1
279824916 MPI_Allreduce 0
279824916 MPI_Allreduce 1
279825027 MPI_Allreduce 0
279825027 MPI_Allreduce 1
279825139 MPI_Allreduce 0
279825139 MPI_Allreduce 1
279825251 MPI_Allreduce 0
279825251 MPI_Allreduce 1
279825362 MPI_Allreduce 0
279825362 MPI_Allreduce 1
279825474 MPI_Allreduce 0
279825474 MPI_Allreduce 1
279825586 MPI_Allreduce 0
279825586 MPI_Allreduce 1
279825697 MPI_Allreduce 0
279825697 MPI_Allreduce 1
279825809 MPI_Allreduce 0
279825809 MPI_Allreduce 1
279825921 MPI_Allreduce 0
279825921 MPI_Allreduce 1
279826033 MPI_Allreduce 0
279826033 MPI_Allreduce 1
279826144 MPI_Allreduce 0
279826144 MPI_Allreduce 1
279826256 MPI_Allreduce 0
279826256 MPI_Allreduce 1
279826368 MPI_Allreduce 0
279826368 MPI_Allreduce 1
279826480 MPI_Allreduce 0
279826480 MPI_Allreduce 1
279826591 MPI_Allreduce 0
279826591 MPI_Allreduce 1
279826703 MPI_Allreduce 0
279826703 MPI_Allreduce 1
279826814 MPI_Allreduce 0
279826814 MPI_Allreduce 1
279826926 MPI_Allreduce 0
279826926 MPI_Allreduce 1
279827038 MPI_Allreduce 0
279827038 MPI_Allreduce 1
279827150 MPI_Allreduce 0
279827150 MPI_Allreduce 1
279827262 MPI_Allreduce 0
279827262 MPI_Allreduce 1
279827374 MPI_Allreduce 0
279827374 MPI_Allreduce 1
279827485 MPI_Allreduce 0
279827485 MPI_Allreduce 1
279827597 MPI_Allreduce 0
279827597 MPI_Allreduce 1
279827709 MPI_Allreduce 0
279827709 MPI_Allreduce 1
279827820 MPI_Allreduce 0
279827820 MPI_Allreduce 1
279827932 MPI_Allreduce 0
279827932 MPI_Allreduce 1
279828044 MPI_Allreduce 0
279828044 MPI_Allreduce 1
279828156 MPI_Allreduce 0
279828156 MPI_Allreduce 1
279828267 MPI_Allreduce 0
279828267 MPI_Allreduce 1
279828379 MPI_Allreduce 0
279828379 MPI_Allreduce 1
279828491 MPI_Allreduce 0
279828491 MPI_Allreduce 1
279828602 MPI_Allreduce 0
279828602 MPI_Allreduce 1
279828714 MPI_Allreduce 0
279828714 MPI_Allreduce 1
279828826 MPI_Allreduce 0
279828826 MPI_Allreduce 1
279828938 MPI_Allreduce 0
279828938 MPI_Allreduce 1
279829050 MPI_Allreduce 0
279829050 MPI_Allreduce 1
279829161 MPI_Allreduce 0
279829161 MPI_Allreduce 1
279829275 MPI_Allreduce 0
279829275 MPI_Allreduce 1
279829389 MPI_Allreduce 0
279829389 MPI_Allreduce 1
279829503 MPI_Allreduce 0
279829503 MPI_Allreduce 1
279829617 MPI_Allreduce 0
279829617 MPI_Allreduce 1
279829731 MPI_Allreduce 0
279829731 MPI_Allreduce 1
279829845 MPI_Allreduce 0
279829845 MPI_Allreduce 1
279829959 MPI_Allreduce 0
279829959 MPI_Allreduce 1
279830075 MPI_Allreduce 0
279830075 MPI_Allreduce 1
279830191 MPI_Allreduce 0
279830191 MPI_Allreduce 1
279830307 MPI_Allreduce 0
279830307 MPI_Allreduce 1
279830420 MPI_Allreduce 0
279830420 MPI_Allreduce 1
279830531 MPI_Allreduce 0
279830531 MPI_Allreduce 1
279830643 MPI_Allreduce 0
279830643 MPI_Allreduce 1
279830755 MPI_Allreduce 0
279830755 MPI_Allreduce 1
279830866 MPI_Allreduce 0
279830866 MPI_Allreduce 1
279830978 MPI_Allreduce 0
279830978 MPI_Allreduce 1
279831090 MPI_Allreduce 0
279831090 MPI_Allreduce 1
279831201 MPI_Allreduce 0
279831201 MPI_Allreduce 1
279831313 MPI_Allreduce 0
279831313 MPI_Allreduce 1
279831424 MPI_Allreduce 0
279831424 MPI_Allreduce 1
279831536 MPI_Allreduce 0
279831536 MPI_Allreduce 1
279831648 MPI_Allreduce 0
279831648 MPI_Allreduce 1
279831758 MPI_Allreduce 0
279831758 MPI_Allreduce 1
279831870 MPI_Allreduce 0
279831870 MPI_Allreduce 1
279831982 MPI_Allreduce 0
279831982 MPI_Allreduce 1
279832094 MPI_Allreduce 0
279832094 MPI_Allreduce 1
279832205 MPI_Allreduce 0
279832205 MPI_Allreduce 1
279832317 MPI_Allreduce 0
279832317 MPI_Allreduce 1
279832429 MPI_Allreduce 0
279832429 MPI_Allreduce 1
279832541 MPI_Allreduce 0
279832541 MPI_Allreduce 1
279832653 MPI_Allreduce 0
279832653 MPI_Allreduce 1
279832764 MPI_Allreduce 0
279832764 MPI_Allreduce 1
279832876 MPI_Allreduce 0
279832876 MPI_Allreduce 1
279832987 MPI_Allreduce 0
279832987 MPI_Allreduce 1
279833099 MPI_Allreduce 0
279833099 MPI_Allreduce 1
279833211 MPI_Allreduce 0
279833211 MPI_Allreduce 1
279833323 MPI_Allreduce 0
279833323 MPI_Allreduce 1
279833434 MPI_Allreduce 0
279833434 MPI_Allreduce 1
279833546 MPI_Allreduce 0
279833546 MPI_Allreduce 1
279833658 MPI_Allreduce 0
279833658 MPI_Allreduce 1
279833770 MPI_Allreduce 0
279833770 MPI_Allreduce 1
279833881 MPI_Allreduce 0
279833881 MPI_Allreduce 1
279833993 MPI_Allreduce 0
279833993 MPI_Allreduce 1
279834105 MPI_Allreduce 0
279834105 MPI_Allreduce 1
279834216 MPI_Allreduce 0
279834216 MPI_Allreduce 1
279834328 MPI_Allreduce 0
279834328 MPI_Allreduce 1
279834443 MPI_Allreduce 0
279834443 MPI_Allreduce 1
279834558 MPI_Allreduce 0
279834558 MPI_Allreduce 1
279834672 MPI_Allreduce 0
279834672 MPI_Allreduce 1
279834786 MPI_Allreduce 0
279834786 MPI_Allreduce 1
279834902 MPI_Allreduce 0
279834902 MPI_Allreduce 1
279835014 MPI_Allreduce 0
279835014 MPI_Allreduce 1
279835126 MPI_Allreduce 0
279835126 MPI_Allreduce 1
279835238 MPI_Allreduce 0
279835238 MPI_Allreduce 1
279835350 MPI_Allreduce 0
279835350 MPI_Allreduce 1
279835461 MPI_Allreduce 0
279835461 MPI_Allreduce 1
279835573 MPI_Allreduce 0
279835573 MPI_Allreduce 1
279835685 MPI_Allreduce 0
279835685 MPI_Allreduce 1
279835796 MPI_Allreduce 0
279835796 MPI_Allreduce 1
279835908 MPI_Allreduce 0
279835908 MPI_Allreduce 1
279836020 MPI_Allreduce 0
279836020 MPI_Allreduce 1
279836132 MPI_Allreduce 0
279836132 MPI_Allreduce 1
279836244 MPI_Allreduce 0
279836244 MPI_Allreduce 1
279836355 MPI_Allreduce 0
279836355 MPI_Allreduce 1
279836467 MPI_Allreduce 0
279836467 MPI_Allreduce 1
279836579 MPI_Allreduce 0
279836579 MPI_Allreduce 1
279836691 MPI_Allreduce 0
279836691 MPI_Allreduce 1
279836803 MPI_Allreduce 0
279836803 MPI_Allreduce 1
279836914 MPI_Allreduce 0
279836914 MPI_Allreduce 1
279837026 MPI_Allreduce 0
279837026 MPI_Allreduce 1
279837138 MPI_Allreduce 0
279837138 MPI_Allreduce 1
279837250 MPI_Allreduce 0
279837250 MPI_Allreduce 1
279837361 MPI_Allreduce 0
279837361 MPI_Allreduce 1
279837473 MPI_Allreduce 0
279837473 MPI_Allreduce 1
279837585 MPI_Allreduce 0
279837585 MPI_Allreduce 1
279837697 MPI_Allreduce 0
279837697 MPI_Allreduce 1
279837809 MPI_Allreduce 0
279837809 MPI_Allreduce 1
279837920 MPI_Allreduce 0
279837920 MPI_Allreduce 1
279838032 MPI_Allreduce 0
279838032 MPI_Allreduce 1
279838144 MPI_Allreduce 0
279838144 MPI_Allreduce 1
279838256 MPI_Allreduce 0
279838256 MPI_Allreduce 1
279838367 MPI_Allreduce 0
279838367 MPI_Allreduce 1
279838479 MPI_Allreduce 0
279838479 MPI_Allreduce 1
279838591 MPI_Allreduce 0
279838591 MPI_Allreduce 1
279838703 MPI_Allreduce 0
279838703 MPI_Allreduce 1
279838814 MPI_Allreduce 0
279838814 MPI_Allreduce 1
279838926 MPI_Allreduce 0
279838926 MPI_Allreduce 1
279839038 MPI_Allreduce 0
279839038 MPI_Allreduce 1
279839150 MPI_Allreduce 0
279839150 MPI_Allreduce 1
279839261 MPI_Allreduce 0
279839261 MPI_Allreduce 1
279839373 MPI_Allreduce 0
279839373 MPI_Allreduce 1
279839485 MPI_Allreduce 0
279839485 MPI_Allreduce 1
279839597 MPI_Allreduce 0
279839597 MPI_Allreduce 1
279839708 MPI_Allreduce 0
279839708 MPI_Allreduce 1
279839820 MPI_Allreduce 0
279839820 MPI_Allreduce 1
279839932 MPI_Allreduce 0
279839932 MPI_Allreduce 1
279840044 MPI_Allreduce 0
279840044 MPI_Allreduce 1
279840156 MPI_Allreduce 0
279840156 MPI_Allreduce 1
279840267 MPI_Allreduce 0
279840267 MPI_Allreduce 1
279840379 MPI_Allreduce 0
279840379 MPI_Allreduce 1
279840491 MPI_Allreduce 0
279840491 MPI_Allreduce 1
279840603 MPI_Allreduce 0
279840603 MPI_Allreduce 1
279840715 MPI_Allreduce 0
279840715 MPI_Allreduce 1
279840826 MPI_Allreduce 0
279840826 MPI_Allreduce 1
279840938 MPI_Allreduce 0
279840938 MPI_Allreduce 1
279841049 MPI_Allreduce 0
279841049 MPI_Allreduce 1
279841161 MPI_Allreduce 0
279841161 MPI_Allreduce 1
279841273 MPI_Allreduce 0
279841273 MPI_Allreduce 1
279841385 MPI_Allreduce 0
279841385 MPI_Allreduce 1
279841496 MPI_Allreduce 0
279841496 MPI_Allreduce 1
279841608 MPI_Allreduce 0
279841608 MPI_Allreduce 1
279841720 MPI_Allreduce 0
279841720 MPI_Allreduce 1
279841832 MPI_Allreduce 0
279841832 MPI_Allreduce 1
279841943 MPI_Allreduce 0
279841943 MPI_Allreduce 1
279842055 MPI_Allreduce 0
279842055 MPI_Allreduce 1
279842167 MPI_Allreduce 0
279842167 MPI_Allreduce 1
279842279 MPI_Allreduce 0
279842279 MPI_Allreduce 1
279842391 MPI_Allreduce 0
279842391 MPI_Allreduce 1
279842503 MPI_Allreduce 0
279842503 MPI_Allreduce 1
279842614 MPI_Allreduce 0
279842614 MPI_Allreduce 1
279842726 MPI_Allreduce 0
279842726 MPI_Allreduce 1
279842838 MPI_Allreduce 0
279842838 MPI_Allreduce 1
279842950 MPI_Allreduce 0
279842950 MPI_Allreduce 1
279843061 MPI_Allreduce 0
279843061 MPI_Allreduce 1
279843173 MPI_Allreduce 0
279843173 MPI_Allreduce 1
279843285 MPI_Allreduce 0
279843285 MPI_Allreduce 1
279843399 MPI_Allreduce 0
279843399 MPI_Allreduce 1
279843514 MPI_Allreduce 0
279843514 MPI_Allreduce 1
279843629 MPI_Allreduce 0
279843629 MPI_Allreduce 1
279843743 MPI_Allreduce 0
279843743 MPI_Allreduce 1
279843857 MPI_Allreduce 0
279843857 MPI_Allreduce 1
279843971 MPI_Allreduce 0
279843971 MPI_Allreduce 1
279844085 MPI_Allreduce 0
279844085 MPI_Allreduce 1
279844199 MPI_Allreduce 0
279844199 MPI_Allreduce 1
279844314 MPI_Allreduce 0
279844314 MPI_Allreduce 1
279844430 MPI_Allreduce 0
279844430 MPI_Allreduce 1
279844544 MPI_Allreduce 0
279844544 MPI_Allreduce 1
279844658 MPI_Allreduce 0
279844658 MPI_Allreduce 1
279844772 MPI_Allreduce 0
279844772 MPI_Allreduce 1
279844888 MPI_Allreduce 0
279844888 MPI_Allreduce 1
279845000 MPI_Allreduce 0
279845000 MPI_Allreduce 1
279845112 MPI_Allreduce 0
279845112 MPI_Allreduce 1
279845224 MPI_Allreduce 0
279845224 MPI_Allreduce 1
279845336 MPI_Allreduce 0
279845336 MPI_Allreduce 1
279845448 MPI_Allreduce 0
279845448 MPI_Allreduce 1
279845560 MPI_Allreduce 0
279845560 MPI_Allreduce 1
279845672 MPI_Allreduce 0
279845672 MPI_Allreduce 1
279845784 MPI_Allreduce 0
279845784 MPI_Allreduce 1
279845896 MPI_Allreduce 0
279845896 MPI_Allreduce 1
279846008 MPI_Allreduce 0
279846008 MPI_Allreduce 1
279846119 MPI_Allreduce 0
279846119 MPI_Allreduce 1
279846231 MPI_Allreduce 0
279846231 MPI_Allreduce 1
279846343 MPI_Allreduce 0
279846343 MPI_Allreduce 1
279846455 MPI_Allreduce 0
279846455 MPI_Allreduce 1
279846567 MPI_Allreduce 0
279846567 MPI_Allreduce 1
279846679 MPI_Allreduce 0
279846679 MPI_Allreduce 1
279846791 MPI_Allreduce 0
279846791 MPI_Allreduce 1
279846902 MPI_Allreduce 0
279846902 MPI_Allreduce 1
279847014 MPI_Allreduce 0
279847014 MPI_Allreduce 1
279847126 MPI_Allreduce 0
279847126 MPI_Allreduce 1
279847238 MPI_Allreduce 0
279847238 MPI_Allreduce 1
279847350 MPI_Allreduce 0
279847350 MPI_Allreduce 1
279847462 MPI_Allreduce 0
279847462 MPI_Allreduce 1
279847574 MPI_Allreduce 0
279847574 MPI_Allreduce 1
279847685 MPI_Allreduce 0
279847685 MPI_Allreduce 1
279847797 MPI_Allreduce 0
279847797 MPI_Allreduce 1
279847909 MPI_Allreduce 0
279847909 MPI_Allreduce 1
279848021 MPI_Allreduce 0
279848021 MPI_Allreduce 1
279848136 MPI_Allreduce 0
279848136 MPI_Allreduce 1
279848250 MPI_Allreduce 0
279848250 MPI_Allreduce 1
279848366 MPI_Allreduce 0
279848366 MPI_Allreduce 1
279848478 MPI_Allreduce 0
279848478 MPI_Allreduce 1
279848590 MPI_Allreduce 0
279848590 MPI_Allreduce 1
279848702 MPI_Allreduce 0
279848702 MPI_Allreduce 1
279848814 MPI_Allreduce 0
279848814 MPI_Allreduce 1
279848926 MPI_Allreduce 0
279848926 MPI_Allreduce 1
279849038 MPI_Allreduce 0
279849038 MPI_Allreduce 1
279849150 MPI_Allreduce 0
279849150 MPI_Allreduce 1
279849261 MPI_Allreduce 0
279849261 MPI_Allreduce 1
279849373 MPI_Allreduce 0
279849373 MPI_Allreduce 1
279849485 MPI_Allreduce 0
279849485 MPI_Allreduce 1
279849597 MPI_Allreduce 0
279849597 MPI_Allreduce 1
279849709 MPI_Allreduce 0
279849709 MPI_Allreduce 1
279849821 MPI_Allreduce 0
279849821 MPI_Allreduce 1
279849933 MPI_Allreduce 0
279849933 MPI_Allreduce 1
279850045 MPI_Allreduce 0
279850045 MPI_Allreduce 1
279850157 MPI_Allreduce 0
279850157 MPI_Allreduce 1
279850269 MPI_Allreduce 0
279850269 MPI_Allreduce 1
279850383 MPI_Allreduce 0
279850383 MPI_Allreduce 1
279850497 MPI_Allreduce 0
279850497 MPI_Allreduce 1
279850611 MPI_Allreduce 0
279850611 MPI_Allreduce 1
279850725 MPI_Allreduce 0
279850725 MPI_Allreduce 1
279850839 MPI_Allreduce 0
279850839 MPI_Allreduce 1
279850955 MPI_Allreduce 0
279850955 MPI_Allreduce 1
279851068 MPI_Allreduce 0
279851068 MPI_Allreduce 1
279851179 MPI_Allreduce 0
279851179 MPI_Allreduce 1
279851291 MPI_Allreduce 0
279851291 MPI_Allreduce 1
279851403 MPI_Allreduce 0
279851403 MPI_Allreduce 1
279851515 MPI_Allreduce 0
279851515 MPI_Allreduce 1
279851627 MPI_Allreduce 0
279851627 MPI_Allreduce 1
279851739 MPI_Allreduce 0
279851739 MPI_Allreduce 1
279851851 MPI_Allreduce 0
279851851 MPI_Allreduce 1
279851963 MPI_Allreduce 0
279851963 MPI_Allreduce 1
279852074 MPI_Allreduce 0
279852074 MPI_Allreduce 1
279852186 MPI_Allreduce 0
279852186 MPI_Allreduce 1
279852298 MPI_Allreduce 0
279852298 MPI_Allreduce 1
279852410 MPI_Allreduce 0
279852410 MPI_Allreduce 1
279852522 MPI_Allreduce 0
279852522 MPI_Allreduce 1
279852634 MPI_Allreduce 0
279852634 MPI_Allreduce 1
279852746 MPI_Allreduce 0
279852746 MPI_Allreduce 1
279852858 MPI_Allreduce 0
279852858 MPI_Allreduce 1
279852970 MPI_Allreduce 0
279852970 MPI_Allreduce 1
279853082 MPI_Allreduce 0
279853082 MPI_Allreduce 1
279853194 MPI_Allreduce 0
279853194 MPI_Allreduce 1
279853305 MPI_Allreduce 0
279853305 MPI_Allreduce 1
279853417 MPI_Allreduce 0
279853417 MPI_Allreduce 1
279853529 MPI_Allreduce 0
279853529 MPI_Allreduce 1
279853641 MPI_Allreduce 0
279853641 MPI_Allreduce 1
279853753 MPI_Allreduce 0
279853753 MPI_Allreduce 1
279853865 MPI_Allreduce 0
279853865 MPI_Allreduce 1
279853977 MPI_Allreduce 0
279853977 MPI_Allreduce 1
279854089 MPI_Allreduce 0
279854089 MPI_Allreduce 1
279854200 MPI_Allreduce 0
279854200 MPI_Allreduce 1
279854312 MPI_Allreduce 0
279854312 MPI_Allreduce 1
279854424 MPI_Allreduce 0
279854424 MPI_Allreduce 1
279854536 MPI_Allreduce 0
279854536 MPI_Allreduce 1
279854648 MPI_Allreduce 0
279854648 MPI_Allreduce 1
279854760 MPI_Allreduce 0
279854760 MPI_Allreduce 1
279854871 MPI_Allreduce 0
279854871 MPI_Allreduce 1
279854983 MPI_Allreduce 0
279854983 MPI_Allreduce 1
279855095 MPI_Allreduce 0
279855095 MPI_Allreduce 1
279855207 MPI_Allreduce 0
279855207 MPI_Allreduce 1
279855319 MPI_Allreduce 0
279855319 MPI_Allreduce 1
279855431 MPI_Allreduce 0
279855431 MPI_Allreduce 1
279855543 MPI_Allreduce 0
279855543 MPI_Allreduce 1
279855655 MPI_Allreduce 0
279855655 MPI_Allreduce 1
279855767 MPI_Allreduce 0
279855767 MPI_Allreduce 1
279855879 MPI_Allreduce 0
279855879 MPI_Allreduce 1
279855991 MPI_Allreduce 0
279855991 MPI_Allreduce 1
279856102 MPI_Allreduce 0
279856102 MPI_Allreduce 1
279856214 MPI_Allreduce 0
279856215 MPI_Allreduce 1
279856327 MPI_Allreduce 0
279856327 MPI_Allreduce 1
279856438 MPI_Allreduce 0
279856438 MPI_Allreduce 1
279856550 MPI_Allreduce 0
279856551 MPI_Allreduce 1
279856662 MPI_Allreduce 0
279856662 MPI_Allreduce 1
279856777 MPI_Allreduce 0
279856777 MPI_Allreduce 1
279856893 MPI_Allreduce 0
279856893 MPI_Allreduce 1
279857009 MPI_Allreduce 0
279857009 MPI_Allreduce 1
279857124 MPI_Allreduce 0
279857124 MPI_Allreduce 1
279857240 MPI_Allreduce 0
279857240 MPI_Allreduce 1
279857352 MPI_Allreduce 0
279857352 MPI_Allreduce 1
279857464 MPI_Allreduce 0
279857464 MPI_Allreduce 1
279857578 MPI_Allreduce 0
279857578 MPI_Allreduce 1
279857692 MPI_Allreduce 0
279857692 MPI_Allreduce 1
279857806 MPI_Allreduce 0
279857806 MPI_Allreduce 1
279857921 MPI_Allreduce 0
279857921 MPI_Allreduce 1
279858035 MPI_Allreduce 0
279858035 MPI_Allreduce 1
279858151 MPI_Allreduce 0
279858151 MPI_Allreduce 1
279858264 MPI_Allreduce 0
279858264 MPI_Allreduce 1
279858380 MPI_Allreduce 0
279858380 MPI_Allreduce 1
279858495 MPI_Allreduce 0
279858495 MPI_Allreduce 1
279858609 MPI_Allreduce 0
279858609 MPI_Allreduce 1
279858725 MPI_Allreduce 0
279858725 MPI_Allreduce 1
279858841 MPI_Allreduce 0
279858841 MPI_Allreduce 1
279858955 MPI_Allreduce 0
279858955 MPI_Allreduce 1
279859069 MPI_Allreduce 0
279859069 MPI_Allreduce 1
279859183 MPI_Allreduce 0
279859183 MPI_Allreduce 1
279859297 MPI_Allreduce 0
279859297 MPI_Allreduce 1
279859413 MPI_Allreduce 0
279859413 MPI_Allreduce 1
279859525 MPI_Allreduce 0
279859525 MPI_Allreduce 1
279859640 MPI_Allreduce 0
279859640 MPI_Allreduce 1
279859754 MPI_Allreduce 0
279859754 MPI_Allreduce 1
279859869 MPI_Allreduce 0
279859869 MPI_Allreduce 1
279859985 MPI_Allreduce 0
279859985 MPI_Allreduce 1
279860097 MPI_Allreduce 0
279860097 MPI_Allreduce 1
279860209 MPI_Allreduce 0
279860209 MPI_Allreduce 1
279860321 MPI_Allreduce 0
279860321 MPI_Allreduce 1
279860436 MPI_Allreduce 0
279860436 MPI_Allreduce 1
279860550 MPI_Allreduce 0
279860550 MPI_Allreduce 1
279860664 MPI_Allreduce 0
279860664 MPI_Allreduce 1
279860778 MPI_Allreduce 0
279860778 MPI_Allreduce 1
279860893 MPI_Allreduce 0
279860893 MPI_Allreduce 1
279861009 MPI_Allreduce 0
279861009 MPI_Allreduce 1
279861121 MPI_Allreduce 0
279861121 MPI_Allreduce 1
279861236 MPI_Allreduce 0
279861236 MPI_Allreduce 1
279861350 MPI_Allreduce 0
279861350 MPI_Allreduce 1
279861464 MPI_Allreduce 0
279861464 MPI_Allreduce 1
279861578 MPI_Allreduce 0
279861578 MPI_Allreduce 1
279861694 MPI_Allreduce 0
279861694 MPI_Allreduce 1
279861807 MPI_Allreduce 0
279861807 MPI_Allreduce 1
279861922 MPI_Allreduce 0
279861922 MPI_Allreduce 1
279862036 MPI_Allreduce 0
279862036 MPI_Allreduce 1
279862150 MPI_Allreduce 0
279862150 MPI_Allreduce 1
279862266 MPI_Allreduce 0
279862266 MPI_Allreduce 1
279862379 MPI_Allreduce 0
279862379 MPI_Allreduce 1
279862491 MPI_Allreduce 0
279862491 MPI_Allreduce 1
279862603 MPI_Allreduce 0
279862603 MPI_Allreduce 1
279862715 MPI_Allreduce 0
279862715 MPI_Allreduce 1
279862827 MPI_Allreduce 0
279862827 MPI_Allreduce 1
279862939 MPI_Allreduce 0
279862939 MPI_Allreduce 1
279863051 MPI_Allreduce 0
279863051 MPI_Allreduce 1
279863163 MPI_Allreduce 0
279863163 MPI_Allreduce 1
279863275 MPI_Allreduce 0
279863275 MPI_Allreduce 1
279863387 MPI_Allreduce 0
279863387 MPI_Allreduce 1
279863499 MPI_Allreduce 0
279863499 MPI_Allreduce 1
279863611 MPI_Allreduce 0
279863611 MPI_Allreduce 1
279863723 MPI_Allreduce 0
279863723 MPI_Allreduce 1
279863835 MPI_Allreduce 0
279863835 MPI_Allreduce 1
279863947 MPI_Allreduce 0
279863947 MPI_Allreduce 1
279864059 MPI_Allreduce 0
279864059 MPI_Allreduce 1
279864171 MPI_Allreduce 0
279864171 MPI_Allreduce 1
279864283 MPI_Allreduce 0
279864283 MPI_Allreduce 1
279864395 MPI_Allreduce 0
279864395 MPI_Allreduce 1
279864507 MPI_Allreduce 0
279864507 MPI_Allreduce 1
279864619 MPI_Allreduce 0
279864619 MPI_Allreduce 1
279864731 MPI_Allreduce 0
279864731 MPI_Allreduce 1
279864843 MPI_Allreduce 0
279864843 MPI_Allreduce 1
279864955 MPI_Allreduce 0
279864955 MPI_Allreduce 1
279865067 MPI_Allreduce 0
279865067 MPI_Allreduce 1
279865179 MPI_Allreduce 0
279865179 MPI_Allreduce 1
279865291 MPI_Allreduce 0
279865291 MPI_Allreduce 1
279865403 MPI_Allreduce 0
279865403 MPI_Allreduce 1
279865515 MPI_Allreduce 0
279865515 MPI_Allreduce 1
279865627 MPI_Allreduce 0
279865627 MPI_Allreduce 1
279865739 MPI_Allreduce 0
279865739 MPI_Allreduce 1
279865851 MPI_Allreduce 0
279865851 MPI_Allreduce 1
279865963 MPI_Allreduce 0
279865963 MPI_Allreduce 1
279866075 MPI_Allreduce 0
279866075 MPI_Allreduce 1
279866187 MPI_Allreduce 0
279866187 MPI_Allreduce 1
279866299 MPI_Allreduce 0
279866299 MPI_Allreduce 1
279866411 MPI_Allreduce 0
279866411 MPI_Allreduce 1
279866523 MPI_Allreduce 0
279866523 MPI_Allreduce 1
279866635 MPI_Allreduce 0
279866635 MPI_Allreduce 1
279866747 MPI_Allreduce 0
279866747 MPI_Allreduce 1
279866859 MPI_Allreduce 0
279866859 MPI_Allreduce 1
279866971 MPI_Allreduce 0
279866971 MPI_Allreduce 1
279867083 MPI_Allreduce 0
279867083 MPI_Allreduce 1
279867197 MPI_Allreduce 0
279867197 MPI_Allreduce 1
279867313 MPI_Allreduce 0
279867313 MPI_Allreduce 1
279867428 MPI_Allreduce 0
279867428 MPI_Allreduce 1
279867542 MPI_Allreduce 0
279867542 MPI_Allreduce 1
279867656 MPI_Allreduce 0
279867656 MPI_Allreduce 1
279867772 MPI_Allreduce 0
279867772 MPI_Allreduce 1
279867888 MPI_Allreduce 0
279867888 MPI_Allreduce 1
279868001 MPI_Allreduce 0
279868001 MPI_Allreduce 1
279868113 MPI_Allreduce 0
279868113 MPI_Allreduce 1
279868225 MPI_Allreduce 0
279868225 MPI_Allreduce 1
279868337 MPI_Allreduce 0
279868337 MPI_Allreduce 1
279868449 MPI_Allreduce 0
279868449 MPI_Allreduce 1
279868561 MPI_Allreduce 0
279868561 MPI_Allreduce 1
279868673 MPI_Allreduce 0
279868673 MPI_Allreduce 1
279868785 MPI_Allreduce 0
279868785 MPI_Allreduce 1
279868897 MPI_Allreduce 0
279868897 MPI_Allreduce 1
279869009 MPI_Allreduce 0
279869009 MPI_Allreduce 1
279869121 MPI_Allreduce 0
279869121 MPI_Allreduce 1
279869233 MPI_Allreduce 0
279869233 MPI_Allreduce 1
279869345 MPI_Allreduce 0
279869345 MPI_Allreduce 1
279869457 MPI_Allreduce 0
279869457 MPI_Allreduce 1
279869569 MPI_Allreduce 0
279869569 MPI_Allreduce 1
279869681 MPI_Allreduce 0
279869681 MPI_Allreduce 1
279869793 MPI_Allreduce 0
279869793 MPI_Allreduce 1
279869905 MPI_Allreduce 0
279869905 MPI_Allreduce 1
279870017 MPI_Allreduce 0
279870017 MPI_Allreduce 1
279870129 MPI_Allreduce 0
279870129 MPI_Allreduce 1
279870241 MPI_Allreduce 0
279870241 MPI_Allreduce 1
279870353 MPI_Allreduce 0
279870353 MPI_Allreduce 1
279870465 MPI_Allreduce 0
279870465 MPI_Allreduce 1
279870577 MPI_Allreduce 0
279870577 MPI_Allreduce 1
279870689 MPI_Allreduce 0
279870689 MPI_Allreduce 1
279870801 MPI_Allreduce 0
279870801 MPI_Allreduce 1
279870913 MPI_Allreduce 0
279870913 MPI_Allreduce 1
279871025 MPI_Allreduce 0
279871025 MPI_Allreduce 1
279871137 MPI_Allreduce 0
279871137 MPI_Allreduce 1
279871249 MPI_Allreduce 0
279871249 MPI_Allreduce 1
279871361 MPI_Allreduce 0
279871361 MPI_Allreduce 1
279871473 MPI_Allreduce 0
279871473 MPI_Allreduce 1
279871585 MPI_Allreduce 0
279871585 MPI_Allreduce 1
279871697 MPI_Allreduce 0
279871697 MPI_Allreduce 1
279871809 MPI_Allreduce 0
279871809 MPI_Allreduce 1
279871921 MPI_Allreduce 0
279871921 MPI_Allreduce 1
279872033 MPI_Allreduce 0
279872033 MPI_Allreduce 1
279872145 MPI_Allreduce 0
279872145 MPI_Allreduce 1
279872257 MPI_Allreduce 0
279872257 MPI_Allreduce 1
279872369 MPI_Allreduce 0
279872369 MPI_Allreduce 1
279872481 MPI_Allreduce 0
279872481 MPI_Allreduce 1
279872593 MPI_Allreduce 0
279872593 MPI_Allreduce 1
279872705 MPI_Allreduce 0
279872705 MPI_Allreduce 1
279872817 MPI_Allreduce 0
279872817 MPI_Allreduce 1
279872929 MPI_Allreduce 0
279872929 MPI_Allreduce 1
279873041 MPI_Allreduce 0
279873041 MPI_Allreduce 1
279873153 MPI_Allreduce 0
279873153 MPI_Allreduce 1
279873265 MPI_Allreduce 0
279873265 MPI_Allreduce 1
279873377 MPI_Allreduce 0
279873377 MPI_Allreduce 1
279873489 MPI_Allreduce 0
279873489 MPI_Allreduce 1
279873601 MPI_Allreduce 0
279873601 MPI_Allreduce 1
279873713 MPI_Allreduce 0
279873713 MPI_Allreduce 1
279873825 MPI_Allreduce 0
279873825 MPI_Allreduce 1
279873938 MPI_Allreduce 0
279873938 MPI_Allreduce 1
279874050 MPI_Allreduce 0
279874050 MPI_Allreduce 1
279874162 MPI_Allreduce 0
279874162 MPI_Allreduce 1
279874274 MPI_Allreduce 0
279874274 MPI_Allreduce 1
279874386 MPI_Allreduce 0
279874386 MPI_Allreduce 1
279874500 MPI_Allreduce 0
279874500 MPI_Allreduce 1
279874614 MPI_Allreduce 0
279874614 MPI_Allreduce 1
279874729 MPI_Allreduce 0
279874729 MPI_Allreduce 1
279874843 MPI_Allreduce 0
279874843 MPI_Allreduce 1
279874957 MPI_Allreduce 0
279874957 MPI_Allreduce 1
279875072 MPI_Allreduce 0
279875072 MPI_Allreduce 1
279875188 MPI_Allreduce 0
279875188 MPI_Allreduce 1
279875301 MPI_Allreduce 0
279875301 MPI_Allreduce 1
279875417 MPI_Allreduce 0
279875417 MPI_Allreduce 1
279875530 MPI_Allreduce 0
279875530 MPI_Allreduce 1
279875642 MPI_Allreduce 0
279875642 MPI_Allreduce 1
279875754 MPI_Allreduce 0
279875754 MPI_Allreduce 1
279875865 MPI_Allreduce 0
279875865 MPI_Allreduce 1
279875977 MPI_Allreduce 0
279875977 MPI_Allreduce 1
279876089 MPI_Allreduce 0
279876089 MPI_Allreduce 1
279876201 MPI_Allreduce 0
279876201 MPI_Allreduce 1
279876313 MPI_Allreduce 0
279876313 MPI_Allreduce 1
279876425 MPI_Allreduce 0
279876425 MPI_Allreduce 1
279876537 MPI_Allreduce 0
279876537 MPI_Allreduce 1
279876649 MPI_Allreduce 0
279876649 MPI_Allreduce 1
279876761 MPI_Allreduce 0
279876761 MPI_Allreduce 1
279876873 MPI_Allreduce 0
279876873 MPI_Allreduce 1
279876986 MPI_Allreduce 0
279876986 MPI_Allreduce 1
279877098 MPI_Allreduce 0
279877098 MPI_Allreduce 1
279877210 MPI_Allreduce 0
279877210 MPI_Allreduce 1
279877325 MPI_Allreduce 0
279877325 MPI_Allreduce 1
279877441 MPI_Allreduce 0
279877441 MPI_Allreduce 1
279877555 MPI_Allreduce 0
279877555 MPI_Allreduce 1
279877669 MPI_Allreduce 0
279877669 MPI_Allreduce 1
279877785 MPI_Allreduce 0
279877785 MPI_Allreduce 1
279877897 MPI_Allreduce 0
279877897 MPI_Allreduce 1
279878009 MPI_Allreduce 0
279878009 MPI_Allreduce 1
279878121 MPI_Allreduce 0
279878121 MPI_Allreduce 1
279878233 MPI_Allreduce 0
279878233 MPI_Allreduce 1
279878345 MPI_Allreduce 0
279878345 MPI_Allreduce 1
279878458 MPI_Allreduce 0
279878458 MPI_Allreduce 1
279878570 MPI_Allreduce 0
279878570 MPI_Allreduce 1
279878682 MPI_Allreduce 0
279878682 MPI_Allreduce 1
279878794 MPI_Allreduce 0
279878794 MPI_Allreduce 1
279878905 MPI_Allreduce 0
279878905 MPI_Allreduce 1
279879018 MPI_Allreduce 0
279879018 MPI_Allreduce 1
279879130 MPI_Allreduce 0
279879130 MPI_Allreduce 1
279879242 MPI_Allreduce 0
279879242 MPI_Allreduce 1
279879354 MPI_Allreduce 0
279879354 MPI_Allreduce 1
279879466 MPI_Allreduce 0
279879466 MPI_Allreduce 1
279879578 MPI_Allreduce 0
279879578 MPI_Allreduce 1
279879690 MPI_Allreduce 0
279879690 MPI_Allreduce 1
279879802 MPI_Allreduce 0
279879802 MPI_Allreduce 1
279879914 MPI_Allreduce 0
279879914 MPI_Allreduce 1
279880026 MPI_Allreduce 0
279880026 MPI_Allreduce 1
279880138 MPI_Allreduce 0
279880138 MPI_Allreduce 1
279880250 MPI_Allreduce 0
279880250 MPI_Allreduce 1
279880362 MPI_Allreduce 0
279880362 MPI_Allreduce 1
279880474 MPI_Allreduce 0
279880474 MPI_Allreduce 1
279880586 MPI_Allreduce 0
279880586 MPI_Allreduce 1
279880698 MPI_Allreduce 0
279880698 MPI_Allreduce 1
279880810 MPI_Allreduce 0
279880810 MPI_Allreduce 1
279880922 MPI_Allreduce 0
279880922 MPI_Allreduce 1
279881034 MPI_Allreduce 0
279881034 MPI_Allreduce 1
279881146 MPI_Allreduce 0
279881146 MPI_Allreduce 1
279881258 MPI_Allreduce 0
279881258 MPI_Allreduce 1
279881370 MPI_Allreduce 0
279881370 MPI_Allreduce 1
279881485 MPI_Allreduce 0
279881485 MPI_Allreduce 1
279881599 MPI_Allreduce 0
279881599 MPI_Allreduce 1
279881713 MPI_Allreduce 0
279881713 MPI_Allreduce 1
279881827 MPI_Allreduce 0
279881827 MPI_Allreduce 1
279881941 MPI_Allreduce 0
279881941 MPI_Allreduce 1
279882056 MPI_Allreduce 0
279882056 MPI_Allreduce 1
279882170 MPI_Allreduce 0
279882170 MPI_Allreduce 1
279882284 MPI_Allreduce 0
279882284 MPI_Allreduce 1
279882398 MPI_Allreduce 0
279882398 MPI_Allreduce 1
279882513 MPI_Allreduce 0
279882513 MPI_Allreduce 1
279882627 MPI_Allreduce 0
279882627 MPI_Allreduce 1
279882741 MPI_Allreduce 0
279882741 MPI_Allreduce 1
279882858 MPI_Allreduce 0
279882858 MPI_Allreduce 1
279882972 MPI_Allreduce 0
279882972 MPI_Allreduce 1
279883086 MPI_Allreduce 0
279883086 MPI_Allreduce 1
279883200 MPI_Allreduce 0
279883200 MPI_Allreduce 1
279883316 MPI_Allreduce 0
279883316 MPI_Allreduce 1
279883429 MPI_Allreduce 0
279883429 MPI_Allreduce 1
279883544 MPI_Allreduce 0
279883544 MPI_Allreduce 1
279883658 MPI_Allreduce 0
279883658 MPI_Allreduce 1
279883772 MPI_Allreduce 0
279883772 MPI_Allreduce 1
279883887 MPI_Allreduce 0
279883887 MPI_Allreduce 1
279884001 MPI_Allreduce 0
279884001 MPI_Allreduce 1
279884115 MPI_Allreduce 0
279884115 MPI_Allreduce 1
279884230 MPI_Allreduce 0
279884230 MPI_Allreduce 1
279884344 MPI_Allreduce 0
279884344 MPI_Allreduce 1
279884458 MPI_Allreduce 0
279884458 MPI_Allreduce 1
279884572 MPI_Allreduce 0
279884572 MPI_Allreduce 1
279884687 MPI_Allreduce 0
279884687 MPI_Allreduce 1
279884801 MPI_Allreduce 0
279884801 MPI_Allreduce 1
279884915 MPI_Allreduce 0
279884915 MPI_Allreduce 1
279885030 MPI_Allreduce 0
279885030 MPI_Allreduce 1
279885144 MPI_Allreduce 0
279885144 MPI_Allreduce 1
279885258 MPI_Allreduce 0
279885258 MPI_Allreduce 1
279885372 MPI_Allreduce 0
279885372 MPI_Allreduce 1
279885487 MPI_Allreduce 0
279885487 MPI_Allreduce 1
279885601 MPI_Allreduce 0
279885601 MPI_Allreduce 1
279885716 MPI_Allreduce 0
279885716 MPI_Allreduce 1
279885832 MPI_Allreduce 0
279885832 MPI_Allreduce 1
279885949 MPI_Allreduce 0
279885949 MPI_Allreduce 1
279886063 MPI_Allreduce 0
279886063 MPI_Allreduce 1
279886178 MPI_Allreduce 0
279886178 MPI_Allreduce 1
279886292 MPI_Allreduce 0
279886292 MPI_Allreduce 1
279886406 MPI_Allreduce 0
279886406 MPI_Allreduce 1
279886521 MPI_Allreduce 0
279886521 MPI_Allreduce 1
279886635 MPI_Allreduce 0
279886635 MPI_Allreduce 1
279886749 MPI_Allreduce 0
279886749 MPI_Allreduce 1
279886864 MPI_Allreduce 0
279886864 MPI_Allreduce 1
279886980 MPI_Allreduce 0
279886980 MPI_Allreduce 1
279887095 MPI_Allreduce 0
279887095 MPI_Allreduce 1
279887209 MPI_Allreduce 0
279887209 MPI_Allreduce 1
279887326 MPI_Allreduce 0
279887326 MPI_Allreduce 1
279887439 MPI_Allreduce 0
279887439 MPI_Allreduce 1
279887551 MPI_Allreduce 0
279887551 MPI_Allreduce 1
279887663 MPI_Allreduce 0
279887663 MPI_Allreduce 1
279887775 MPI_Allreduce 0
279887775 MPI_Allreduce 1
279887887 MPI_Allreduce 0
279887887 MPI_Allreduce 1
279887999 MPI_Allreduce 0
279887999 MPI_Allreduce 1
279888111 MPI_Allreduce 0
279888111 MPI_Allreduce 1
279888223 MPI_Allreduce 0
279888223 MPI_Allreduce 1
279888336 MPI_Allreduce 0
279888336 MPI_Allreduce 1
279888448 MPI_Allreduce 0
279888448 MPI_Allreduce 1
279888560 MPI_Allreduce 0
279888560 MPI_Allreduce 1
279888672 MPI_Allreduce 0
279888672 MPI_Allreduce 1
279888784 MPI_Allreduce 0
279888784 MPI_Allreduce 1
279888897 MPI_Allreduce 0
279888897 MPI_Allreduce 1
279889009 MPI_Allreduce 0
279889009 MPI_Allreduce 1
279889121 MPI_Allreduce 0
279889121 MPI_Allreduce 1
279889233 MPI_Allreduce 0
279889233 MPI_Allreduce 1
279889346 MPI_Allreduce 0
279889346 MPI_Allreduce 1
279889458 MPI_Allreduce 0
279889458 MPI_Allreduce 1
279889570 MPI_Allreduce 0
279889570 MPI_Allreduce 1
279889682 MPI_Allreduce 0
279889682 MPI_Allreduce 1
279889794 MPI_Allreduce 0
279889794 MPI_Allreduce 1
279889906 MPI_Allreduce 0
279889906 MPI_Allreduce 1
279890018 MPI_Allreduce 0
279890018 MPI_Allreduce 1
279890130 MPI_Allreduce 0
279890130 MPI_Allreduce 1
279890242 MPI_Allreduce 0
279890242 MPI_Allreduce 1
279890355 MPI_Allreduce 0
279890355 MPI_Allreduce 1
279890467 MPI_Allreduce 0
279890467 MPI_Allreduce 1
279890579 MPI_Allreduce 0
279890579 MPI_Allreduce 1
279890691 MPI_Allreduce 0
279890691 MPI_Allreduce 1
279890803 MPI_Allreduce 0
279890803 MPI_Allreduce 1
279890916 MPI_Allreduce 0
279890916 MPI_Allreduce 1
279891028 MPI_Allreduce 0
279891028 MPI_Allreduce 1
279891140 MPI_Allreduce 0
279891140 MPI_Allreduce 1
279891253 MPI_Allreduce 0
279891253 MPI_Allreduce 1
279891365 MPI_Allreduce 0
279891365 MPI_Allreduce 1
279891477 MPI_Allreduce 0
279891477 MPI_Allreduce 1
279891591 MPI_Allreduce 0
279891591 MPI_Allreduce 1
279891707 MPI_Allreduce 0
279891707 MPI_Allreduce 1
279891822 MPI_Allreduce 0
279891822 MPI_Allreduce 1
279891938 MPI_Allreduce 0
279891938 MPI_Allreduce 1
279892051 MPI_Allreduce 0
279892051 MPI_Allreduce 1
279892166 MPI_Allreduce 0
279892166 MPI_Allreduce 1
279892282 MPI_Allreduce 0
279892282 MPI_Allreduce 1
279892398 MPI_Allreduce 0
279892398 MPI_Allreduce 1
279892511 MPI_Allreduce 0
279892511 MPI_Allreduce 1
279892626 MPI_Allreduce 0
279892626 MPI_Allreduce 1
279892740 MPI_Allreduce 0
279892740 MPI_Allreduce 1
279892857 MPI_Allreduce 0
279892857 MPI_Allreduce 1
279892970 MPI_Allreduce 0
279892970 MPI_Allreduce 1
279893082 MPI_Allreduce 0
279893082 MPI_Allreduce 1
279893196 MPI_Allreduce 0
279893196 MPI_Allreduce 1
279893311 MPI_Allreduce 0
279893311 MPI_Allreduce 1
279893425 MPI_Allreduce 0
279893425 MPI_Allreduce 1
279893540 MPI_Allreduce 0
279893540 MPI_Allreduce 1
279893654 MPI_Allreduce 0
279893654 MPI_Allreduce 1
279893769 MPI_Allreduce 0
279893769 MPI_Allreduce 1
279893885 MPI_Allreduce 0
279893885 MPI_Allreduce 1
279894003 MPI_Allreduce 0
279894003 MPI_Allreduce 1
279894117 MPI_Allreduce 0
279894117 MPI_Allreduce 1
279894232 MPI_Allreduce 0
279894232 MPI_Allreduce 1
279894348 MPI_Allreduce 0
279894348 MPI_Allreduce 1
279894464 MPI_Allreduce 0
279894464 MPI_Allreduce 1
279894578 MPI_Allreduce 0
279894578 MPI_Allreduce 1
279894693 MPI_Allreduce 0
279894693 MPI_Allreduce 1
279894809 MPI_Allreduce 0
279894809 MPI_Allreduce 1
279894922 MPI_Allreduce 0
279894922 MPI_Allreduce 1
279895034 MPI_Allreduce 0
279895034 MPI_Allreduce 1
279895146 MPI_Allreduce 0
279895146 MPI_Allreduce 1
279895258 MPI_Allreduce 0
279895258 MPI_Allreduce 1
279895371 MPI_Allreduce 0
279895371 MPI_Allreduce 1
279895483 MPI_Allreduce 0
279895483 MPI_Allreduce 1
279895595 MPI_Allreduce 0
279895595 MPI_Allreduce 1
279895710 MPI_Allreduce 0
279895710 MPI_Allreduce 1
279895824 MPI_Allreduce 0
279895824 MPI_Allreduce 1
279895939 MPI_Allreduce 0
279895939 MPI_Allreduce 1
279896054 MPI_Allreduce 0
279896054 MPI_Allreduce 1
279896170 MPI_Allreduce 0
279896170 MPI_Allreduce 1
279896285 MPI_Allreduce 0
279896285 MPI_Allreduce 1
279896399 MPI_Allreduce 0
279896399 MPI_Allreduce 1
279896513 MPI_Allreduce 0
279896513 MPI_Allreduce 1
279896627 MPI_Allreduce 0
279896627 MPI_Allreduce 1
279896744 MPI_Allreduce 0
279896744 MPI_Allreduce 1
279896857 MPI_Allreduce 0
279896857 MPI_Allreduce 1
279896969 MPI_Allreduce 0
279896969 MPI_Allreduce 1
279897081 MPI_Allreduce 0
279897081 MPI_Allreduce 1
279897194 MPI_Allreduce 0
279897194 MPI_Allreduce 1
279897306 MPI_Allreduce 0
279897306 MPI_Allreduce 1
279897421 MPI_Allreduce 0
279897421 MPI_Allreduce 1
279897537 MPI_Allreduce 0
279897537 MPI_Allreduce 1
279897652 MPI_Allreduce 0
279897652 MPI_Allreduce 1
279897768 MPI_Allreduce 0
279897768 MPI_Allreduce 1
279897881 MPI_Allreduce 0
279897881 MPI_Allreduce 1
279897997 MPI_Allreduce 0
279897997 MPI_Allreduce 1
279898111 MPI_Allreduce 0
279898111 MPI_Allreduce 1
279898227 MPI_Allreduce 0
279898227 MPI_Allreduce 1
279898340 MPI_Allreduce 0
279898340 MPI_Allreduce 1
279898455 MPI_Allreduce 0
279898455 MPI_Allreduce 1
279898570 MPI_Allreduce 0
279898570 MPI_Allreduce 1
279898684 MPI_Allreduce 0
279898684 MPI_Allreduce 1
279898799 MPI_Allreduce 0
279898799 MPI_Allreduce 1
279898913 MPI_Allreduce 0
279898913 MPI_Allreduce 1
279899028 MPI_Allreduce 0
279899028 MPI_Allreduce 1
279899144 MPI_Allreduce 0
279899144 MPI_Allreduce 1
279899258 MPI_Allreduce 0
279899258 MPI_Allreduce 1
279899370 MPI_Allreduce 0
279899370 MPI_Allreduce 1
279899482 MPI_Allreduce 0
279899482 MPI_Allreduce 1
279899597 MPI_Allreduce 0
279899597 MPI_Allreduce 1
279899711 MPI_Allreduce 0
279899711 MPI_Allreduce 1
279899825 MPI_Allreduce 0
279899825 MPI_Allreduce 1
279899940 MPI_Allreduce 0
279899940 MPI_Allreduce 1
279900055 MPI_Allreduce 0
279900055 MPI_Allreduce 1
279900169 MPI_Allreduce 0
279900169 MPI_Allreduce 1
279900283 MPI_Allreduce 0
279900283 MPI_Allreduce 1
279900400 MPI_Allreduce 0
279900400 MPI_Allreduce 1
279900514 MPI_Allreduce 0
279900514 MPI_Allreduce 1
279900629 MPI_Allreduce 0
279900629 MPI_Allreduce 1
279900744 MPI_Allreduce 0
279900744 MPI_Allreduce 1
279900858 MPI_Allreduce 0
279900858 MPI_Allreduce 1
279900974 MPI_Allreduce 0
279900974 MPI_Allreduce 1
279901089 MPI_Allreduce 0
279901089 MPI_Allreduce 1
279901206 MPI_Allreduce 0
279901206 MPI_Allreduce 1
279901319 MPI_Allreduce 0
279901319 MPI_Allreduce 1
279901434 MPI_Allreduce 0
279901434 MPI_Allreduce 1
279901549 MPI_Allreduce 0
279901549 MPI_Allreduce 1
279901665 MPI_Allreduce 0
279901665 MPI_Allreduce 1
279901780 MPI_Allreduce 0
279901780 MPI_Allreduce 1
279901894 MPI_Allreduce 0
279901894 MPI_Allreduce 1
279902009 MPI_Allreduce 0
279902009 MPI_Allreduce 1
279902123 MPI_Allreduce 0
279902123 MPI_Allreduce 1
279902238 MPI_Allreduce 0
279902238 MPI_Allreduce 1
279902353 MPI_Allreduce 0
279902353 MPI_Allreduce 1
279902467 MPI_Allreduce 0
279902467 MPI_Allreduce 1
279902582 MPI_Allreduce 0
279902582 MPI_Allreduce 1
279902696 MPI_Allreduce 0
279902696 MPI_Allreduce 1
279902810 MPI_Allreduce 0
279902810 MPI_Allreduce 1
279902925 MPI_Allreduce 0
279902925 MPI_Allreduce 1
279903040 MPI_Allreduce 0
279903040 MPI_Allreduce 1
279903154 MPI_Allreduce 0
279903154 MPI_Allreduce 1
279903269 MPI_Allreduce 0
279903269 MPI_Allreduce 1
279903385 MPI_Allreduce 0
279903385 MPI_Allreduce 1
279903502 MPI_Allreduce 0
279903502 MPI_Allreduce 1
279903617 MPI_Allreduce 0
279903617 MPI_Allreduce 1
279903732 MPI_Allreduce 0
279903732 MPI_Allreduce 1
279903846 MPI_Allreduce 0
279903846 MPI_Allreduce 1
279903962 MPI_Allreduce 0
279903962 MPI_Allreduce 1
279904076 MPI_Allreduce 0
279904076 MPI_Allreduce 1
279904188 MPI_Allreduce 0
279904188 MPI_Allreduce 1
279904302 MPI_Allreduce 0
279904302 MPI_Allreduce 1
279904419 MPI_Allreduce 0
279904419 MPI_Allreduce 1
279904533 MPI_Allreduce 0
279904533 MPI_Allreduce 1
279904648 MPI_Allreduce 0
279904648 MPI_Allreduce 1
279904762 MPI_Allreduce 0
279904762 MPI_Allreduce 1
279904877 MPI_Allreduce 0
279904877 MPI_Allreduce 1
279904991 MPI_Allreduce 0
279904991 MPI_Allreduce 1
279905106 MPI_Allreduce 0
279905106 MPI_Allreduce 1
279905222 MPI_Allreduce 0
279905222 MPI_Allreduce 1
279905335 MPI_Allreduce 0
279905335 MPI_Allreduce 1
279905447 MPI_Allreduce 0
279905447 MPI_Allreduce 1
279905560 MPI_Allreduce 0
279905560 MPI_Allreduce 1
279905672 MPI_Allreduce 0
279905672 MPI_Allreduce 1
279905784 MPI_Allreduce 0
279905784 MPI_Allreduce 1
279905897 MPI_Allreduce 0
279905897 MPI_Allreduce 1
279906009 MPI_Allreduce 0
279906009 MPI_Allreduce 1
279906121 MPI_Allreduce 0
279906121 MPI_Allreduce 1
279906233 MPI_Allreduce 0
279906233 MPI_Allreduce 1
279906346 MPI_Allreduce 0
279906346 MPI_Allreduce 1
279906458 MPI_Allreduce 0
279906458 MPI_Allreduce 1
279906570 MPI_Allreduce 0
279906570 MPI_Allreduce 1
279906683 MPI_Allreduce 0
279906683 MPI_Allreduce 1
279906795 MPI_Allreduce 0
279906795 MPI_Allreduce 1
279906907 MPI_Allreduce 0
279906907 MPI_Allreduce 1
279907020 MPI_Allreduce 0
279907020 MPI_Allreduce 1
279907132 MPI_Allreduce 0
279907132 MPI_Allreduce 1
279907244 MPI_Allreduce 0
279907244 MPI_Allreduce 1
279907356 MPI_Allreduce 0
279907356 MPI_Allreduce 1
279907469 MPI_Allreduce 0
279907469 MPI_Allreduce 1
279907581 MPI_Allreduce 0
279907581 MPI_Allreduce 1
279907693 MPI_Allreduce 0
279907693 MPI_Allreduce 1
279907805 MPI_Allreduce 0
279907805 MPI_Allreduce 1
279907917 MPI_Allreduce 0
279907917 MPI_Allreduce 1
279908030 MPI_Allreduce 0
279908030 MPI_Allreduce 1
279908142 MPI_Allreduce 0
279908142 MPI_Allreduce 1
279908254 MPI_Allreduce 0
279908254 MPI_Allreduce 1
279908366 MPI_Allreduce 0
279908366 MPI_Allreduce 1
279908478 MPI_Allreduce 0
279908479 MPI_Allreduce 1
279908591 MPI_Allreduce 0
279908591 MPI_Allreduce 1
279908703 MPI_Allreduce 0
279908703 MPI_Allreduce 1
279908815 MPI_Allreduce 0
279908815 MPI_Allreduce 1
279908928 MPI_Allreduce 0
279908928 MPI_Allreduce 1
279909040 MPI_Allreduce 0
279909040 MPI_Allreduce 1
279909152 MPI_Allreduce 0
279909152 MPI_Allreduce 1
279909265 MPI_Allreduce 0
279909265 MPI_Allreduce 1
279909377 MPI_Allreduce 0
279909377 MPI_Allreduce 1
279909489 MPI_Allreduce 0
279909489 MPI_Allreduce 1
279909602 MPI_Allreduce 0
279909602 MPI_Allreduce 1
279909714 MPI_Allreduce 0
279909714 MPI_Allreduce 1
279909826 MPI_Allreduce 0
279909826 MPI_Allreduce 1
279909939 MPI_Allreduce 0
279909939 MPI_Allreduce 1
279910051 MPI_Allreduce 0
279910051 MPI_Allreduce 1
279910163 MPI_Allreduce 0
279910163 MPI_Allreduce 1
279910275 MPI_Allreduce 0
279910275 MPI_Allreduce 1
279910388 MPI_Allreduce 0
279910388 MPI_Allreduce 1
279910500 MPI_Allreduce 0
279910500 MPI_Allreduce 1
279910612 MPI_Allreduce 0
279910612 MPI_Allreduce 1
279910724 MPI_Allreduce 0
279910724 MPI_Allreduce 1
279910836 MPI_Allreduce 0
279910836 MPI_Allreduce 1
279910949 MPI_Allreduce 0
279910949 MPI_Allreduce 1
279911061 MPI_Allreduce 0
279911061 MPI_Allreduce 1
279911173 MPI_Allreduce 0
279911173 MPI_Allreduce 1
279911286 MPI_Allreduce 0
279911286 MPI_Allreduce 1
279911398 MPI_Allreduce 0
279911398 MPI_Allreduce 1
279911513 MPI_Allreduce 0
279911513 MPI_Allreduce 1
279911627 MPI_Allreduce 0
279911627 MPI_Allreduce 1
279911741 MPI_Allreduce 0
279911741 MPI_Allreduce 1
279911856 MPI_Allreduce 0
279911856 MPI_Allreduce 1
279911970 MPI_Allreduce 0
279911971 MPI_Allreduce 1
279912085 MPI_Allreduce 0
279912085 MPI_Allreduce 1
279912199 MPI_Allreduce 0
279912199 MPI_Allreduce 1
279912316 MPI_Allreduce 0
279912316 MPI_Allreduce 1
279912429 MPI_Allreduce 0
279912429 MPI_Allreduce 1
279912544 MPI_Allreduce 0
279912544 MPI_Allreduce 1
279912661 MPI_Allreduce 0
279912661 MPI_Allreduce 1
279912775 MPI_Allreduce 0
279912775 MPI_Allreduce 1
279912890 MPI_Allreduce 0
279912890 MPI_Allreduce 1
279913006 MPI_Allreduce 0
279913006 MPI_Allreduce 1
279913119 MPI_Allreduce 0
279913119 MPI_Allreduce 1
279913234 MPI_Allreduce 0
279913234 MPI_Allreduce 1
279913348 MPI_Allreduce 0
279913348 MPI_Allreduce 1
279913463 MPI_Allreduce 0
279913463 MPI_Allreduce 1
279913578 MPI_Allreduce 0
279913578 MPI_Allreduce 1
279913694 MPI_Allreduce 0
279913694 MPI_Allreduce 1
279913807 MPI_Allreduce 0
279913807 MPI_Allreduce 1
279913920 MPI_Allreduce 0
279913920 MPI_Allreduce 1
279914032 MPI_Allreduce 0
279914032 MPI_Allreduce 1
279914144 MPI_Allreduce 0
279914144 MPI_Allreduce 1
279914256 MPI_Allreduce 0
279914256 MPI_Allreduce 1
279914368 MPI_Allreduce 0
279914368 MPI_Allreduce 1
279914481 MPI_Allreduce 0
279914481 MPI_Allreduce 1
279914593 MPI_Allreduce 0
279914593 MPI_Allreduce 1
279914705 MPI_Allreduce 0
279914705 MPI_Allreduce 1
279914818 MPI_Allreduce 0
279914818 MPI_Allreduce 1
279914930 MPI_Allreduce 0
279914930 MPI_Allreduce 1
279915042 MPI_Allreduce 0
279915042 MPI_Allreduce 1
279915155 MPI_Allreduce 0
279915155 MPI_Allreduce 1
279915267 MPI_Allreduce 0
279915267 MPI_Allreduce 1
279915379 MPI_Allreduce 0
279915379 MPI_Allreduce 1
279915491 MPI_Allreduce 0
279915491 MPI_Allreduce 1
279915603 MPI_Allreduce 0
279915603 MPI_Allreduce 1
279915718 MPI_Allreduce 0
279915718 MPI_Allreduce 1
279915832 MPI_Allreduce 0
279915832 MPI_Allreduce 1
279915949 MPI_Allreduce 0
279915949 MPI_Allreduce 1
279916063 MPI_Allreduce 0
279916063 MPI_Allreduce 1
279916178 MPI_Allreduce 0
279916178 MPI_Allreduce 1
279916294 MPI_Allreduce 0
279916294 MPI_Allreduce 1
279916410 MPI_Allreduce 0
279916410 MPI_Allreduce 1
279916524 MPI_Allreduce 0
279916524 MPI_Allreduce 1
279916641 MPI_Allreduce 0
279916641 MPI_Allreduce 1
279916755 MPI_Allreduce 0
279916755 MPI_Allreduce 1
279916872 MPI_Allreduce 0
279916872 MPI_Allreduce 1
279916986 MPI_Allreduce 0
279916986 MPI_Allreduce 1
279917101 MPI_Allreduce 0
279917101 MPI_Allreduce 1
279917217 MPI_Allreduce 0
279917217 MPI_Allreduce 1
279917330 MPI_Allreduce 0
279917330 MPI_Allreduce 1
279917447 MPI_Allreduce 0
279917447 MPI_Allreduce 1
279917562 MPI_Allreduce 0
279917562 MPI_Allreduce 1
279917676 MPI_Allreduce 0
279917676 MPI_Allreduce 1
279917791 MPI_Allreduce 0
279917791 MPI_Allreduce 1
279917906 MPI_Allreduce 0
279917906 MPI_Allreduce 1
279918020 MPI_Allreduce 0
279918020 MPI_Allreduce 1
279918135 MPI_Allreduce 0
279918135 MPI_Allreduce 1
279918249 MPI_Allreduce 0
279918249 MPI_Allreduce 1
279918364 MPI_Allreduce 0
279918364 MPI_Allreduce 1
279918478 MPI_Allreduce 0
279918478 MPI_Allreduce 1
279918595 MPI_Allreduce 0
279918595 MPI_Allreduce 1
279918710 MPI_Allreduce 0
279918710 MPI_Allreduce 1
279918824 MPI_Allreduce 0
279918824 MPI_Allreduce 1
279918939 MPI_Allreduce 0
279918939 MPI_Allreduce 1
279919053 MPI_Allreduce 0
279919053 MPI_Allreduce 1
279919168 MPI_Allreduce 0
279919168 MPI_Allreduce 1
279919282 MPI_Allreduce 0
279919282 MPI_Allreduce 1
279919397 MPI_Allreduce 0
279919397 MPI_Allreduce 1
279919511 MPI_Allreduce 0
279919511 MPI_Allreduce 1
279919626 MPI_Allreduce 0
279919626 MPI_Allreduce 1
279919742 MPI_Allreduce 0
279919742 MPI_Allreduce 1
279919855 MPI_Allreduce 0
279919855 MPI_Allreduce 1
279919970 MPI_Allreduce 0
279919970 MPI_Allreduce 1
279920084 MPI_Allreduce 0
279920084 MPI_Allreduce 1
279920199 MPI_Allreduce 0
279920199 MPI_Allreduce 1
279920313 MPI_Allreduce 0
279920313 MPI_Allreduce 1
279920428 MPI_Allreduce 0
279920428 MPI_Allreduce 1
279920543 MPI_Allreduce 0
279920543 MPI_Allreduce 1
279920657 MPI_Allreduce 0
279920657 MPI_Allreduce 1
279920773 MPI_Allreduce 0
279920773 MPI_Allreduce 1
279920888 MPI_Allreduce 0
279920888 MPI_Allreduce 1
279921003 MPI_Allreduce 0
279921003 MPI_Allreduce 1
279921117 MPI_Allreduce 0
279921117 MPI_Allreduce 1
279921232 MPI_Allreduce 0
279921232 MPI_Allreduce 1
279921348 MPI_Allreduce 0
279921348 MPI_Allreduce 1
279921461 MPI_Allreduce 0
279921461 MPI_Allreduce 1
279921576 MPI_Allreduce 0
279921576 MPI_Allreduce 1
279921690 MPI_Allreduce 0
279921690 MPI_Allreduce 1
279921805 MPI_Allreduce 0
279921805 MPI_Allreduce 1
279921919 MPI_Allreduce 0
279921919 MPI_Allreduce 1
279922034 MPI_Allreduce 0
279922034 MPI_Allreduce 1
279922148 MPI_Allreduce 0
279922148 MPI_Allreduce 1
279922263 MPI_Allreduce 0
279922263 MPI_Allreduce 1
279922379 MPI_Allreduce 0
279922379 MPI_Allreduce 1
279922495 MPI_Allreduce 0
279922495 MPI_Allreduce 1
279922610 MPI_Allreduce 0
279922610 MPI_Allreduce 1
279922726 MPI_Allreduce 0
279922726 MPI_Allreduce 1
279922844 MPI_Allreduce 0
279922844 MPI_Allreduce 1
279922958 MPI_Allreduce 0
279922958 MPI_Allreduce 1
279923072 MPI_Allreduce 0
279923072 MPI_Allreduce 1
279923187 MPI_Allreduce 0
279923187 MPI_Allreduce 1
279923302 MPI_Allreduce 0
279923302 MPI_Allreduce 1
279923416 MPI_Allreduce 0
279923416 MPI_Allreduce 1
279923532 MPI_Allreduce 0
279923532 MPI_Allreduce 1
279923647 MPI_Allreduce 0
279923647 MPI_Allreduce 1
279923761 MPI_Allreduce 0
279923761 MPI_Allreduce 1
279923876 MPI_Allreduce 0
279923876 MPI_Allreduce 1
279923990 MPI_Allreduce 0
279923990 MPI_Allreduce 1
279924105 MPI_Allreduce 0
279924105 MPI_Allreduce 1
279924221 MPI_Allreduce 0
279924221 MPI_Allreduce 1
279924335 MPI_Allreduce 0
279924335 MPI_Allreduce 1
279924447 MPI_Allreduce 0
279924447 MPI_Allreduce 1
279924559 MPI_Allreduce 0
279924559 MPI_Allreduce 1
279924671 MPI_Allreduce 0
279924671 MPI_Allreduce 1
279924784 MPI_Allreduce 0
279924784 MPI_Allreduce 1
279924896 MPI_Allreduce 0
279924896 MPI_Allreduce 1
279925008 MPI_Allreduce 0
279925008 MPI_Allreduce 1
279925121 MPI_Allreduce 0
279925121 MPI_Allreduce 1
279925233 MPI_Allreduce 0
279925233 MPI_Allreduce 1
279925345 MPI_Allreduce 0
279925345 MPI_Allreduce 1
279925458 MPI_Allreduce 0
279925458 MPI_Allreduce 1
279925570 MPI_Allreduce 0
279925570 MPI_Allreduce 1
279925682 MPI_Allreduce 0
279925682 MPI_Allreduce 1
279925794 MPI_Allreduce 0
279925794 MPI_Allreduce 1
279925907 MPI_Allreduce 0
279925907 MPI_Allreduce 1
279926019 MPI_Allreduce 0
279926019 MPI_Allreduce 1
279926131 MPI_Allreduce 0
279926131 MPI_Allreduce 1
279926244 MPI_Allreduce 0
279926244 MPI_Allreduce 1
279926356 MPI_Allreduce 0
279926356 MPI_Allreduce 1
279926468 MPI_Allreduce 0
279926468 MPI_Allreduce 1
279926580 MPI_Allreduce 0
279926580 MPI_Allreduce 1
279926692 MPI_Allreduce 0
279926692 MPI_Allreduce 1
279926805 MPI_Allreduce 0
279926805 MPI_Allreduce 1
279926917 MPI_Allreduce 0
279926917 MPI_Allreduce 1
279927029 MPI_Allreduce 0
279927029 MPI_Allreduce 1
279927141 MPI_Allreduce 0
279927141 MPI_Allreduce 1
279927254 MPI_Allreduce 0
279927254 MPI_Allreduce 1
279927366 MPI_Allreduce 0
279927366 MPI_Allreduce 1
279927478 MPI_Allreduce 0
279927478 MPI_Allreduce 1
279927590 MPI_Allreduce 0
279927590 MPI_Allreduce 1
279927703 MPI_Allreduce 0
279927703 MPI_Allreduce 1
279927815 MPI_Allreduce 0
279927815 MPI_Allreduce 1
279927927 MPI_Allreduce 0
279927927 MPI_Allreduce 1
279928040 MPI_Allreduce 0
279928040 MPI_Allreduce 1
279928152 MPI_Allreduce 0
279928152 MPI_Allreduce 1
279928265 MPI_Allreduce 0
279928265 MPI_Allreduce 1
279928377 MPI_Allreduce 0
279928377 MPI_Allreduce 1
279928492 MPI_Allreduce 0
279928492 MPI_Allreduce 1
279928606 MPI_Allreduce 0
279928606 MPI_Allreduce 1
279928721 MPI_Allreduce 0
279928721 MPI_Allreduce 1
279928836 MPI_Allreduce 0
279928836 MPI_Allreduce 1
279928950 MPI_Allreduce 0
279928950 MPI_Allreduce 1
279929064 MPI_Allreduce 0
279929064 MPI_Allreduce 1
279929181 MPI_Reduce 0
279929181 MPI_Reduce 1
