------------
Profiler Configuration
output path: /home/tc/pwr2018_data/output_graph500_proc1/cap_13/profiler-3
monitoring frequency: 100000000 nano seconds
------------
SCALE:                          19
edgefactor:                     16
NBFS:                           64
graph_generation:               3.10377
num_mpi_processes:              1
construction_time:              0.386977
bfs  min_time:                  0.125386
bfs  firstquartile_time:        0.125452
bfs  median_time:               0.125484
bfs  thirdquartile_time:        0.125508
bfs  max_time:                  0.125693
bfs  mean_time:                 0.125489
bfs  stddev_time:               5.13153e-05
min_nedge:                      8387584
firstquartile_nedge:            8387584
median_nedge:                   8387584
thirdquartile_nedge:            8387584
max_nedge:                      8387584
mean_nedge:                     8387584
stddev_nedge:                   0
bfs  min_TEPS:                  6.67306e+07
bfs  firstquartile_TEPS:        6.6829e+07
bfs  median_TEPS:               6.68418e+07
bfs  thirdquartile_TEPS:        6.68591e+07
bfs  max_TEPS:                  6.68943e+07
bfs  harmonic_mean_TEPS:     !  6.68394e+07
bfs  harmonic_stddev_TEPS:      3443.54
bfs  min_validate:              0.568123
bfs  firstquartile_validate:    0.568984
bfs  median_validate:           0.570394
bfs  thirdquartile_validate:    0.572462
bfs  max_validate:              0.574053
bfs  mean_validate:             0.570793
bfs  stddev_validate:           0.00187401
