time(ms) energy(J) hostname
513529102 0.000000 box
513529202 0.907227 box
513529302 0.908386 box
513529402 0.889221 box
513529502 0.881165 box
513529602 0.882812 box
513529702 0.882996 box
513529802 0.883179 box
513529902 0.881470 box
513530002 0.885193 box
513530102 0.882141 box
513530202 0.884949 box
513530302 0.882507 box
513530402 0.883972 box
513530502 0.883606 box
513530602 0.883240 box
513530702 0.882812 box
513530802 0.883240 box
513530902 0.883301 box
513531002 0.884216 box
513531102 0.883179 box
513531202 0.883545 box
513531302 0.883423 box
513531402 0.883057 box
513531502 0.883545 box
513531602 0.883423 box
513531702 0.882996 box
513531802 0.884033 box
513531902 0.883667 box
513532002 0.883911 box
513532102 0.883362 box
513532202 0.882874 box
513532302 0.884644 box
513532402 0.883789 box
513532502 0.883057 box
513532602 0.882629 box
513532702 0.884583 box
513532802 0.883667 box
513532902 0.882812 box
513533002 0.883667 box
513533102 0.882324 box
513533202 0.884338 box
513533302 0.883667 box
513533402 0.883240 box
513533502 0.881470 box
513533602 0.882141 box
513533702 0.884338 box
513533802 0.882568 box
513533902 0.884277 box
513534002 0.883301 box
513534102 0.884277 box
513534202 0.882751 box
513534302 0.884644 box
513534402 0.882935 box
513534502 0.882996 box
513534602 0.883118 box
513534702 0.883667 box
513534802 0.883179 box
513534902 0.883789 box
513535002 0.883423 box
513535102 0.884338 box
513535202 0.883423 box
513535302 0.883606 box
513535402 0.884399 box
513535502 0.883179 box
513535602 0.964233 box
513535702 0.981934 box
513535802 0.979675 box
513535902 0.770630 box
513536002 0.617371 box
513536102 0.688049 box
513536202 0.761902 box
513536302 0.761963 box
513536402 0.763000 box
513536502 0.917297 box
513536602 0.936462 box
513536702 0.992249 box
513536802 0.990051 box
513536902 0.855103 box
513537002 0.765686 box
513537102 0.744568 box
513537202 0.736694 box
513537302 0.734741 box
513537402 0.823059 box
513537502 0.793152 box
513537602 0.746521 box
513537702 0.756775 box
513537802 0.798157 box
513537902 0.824280 box
513538002 0.828125 box
513538102 0.828552 box
513538202 0.809509 box
513538302 0.768860 box
513538402 0.747986 box
513538502 0.760193 box
513538602 0.996460 box
513538702 0.983643 box
513538802 0.885010 box
513538902 0.981079 box
513539002 0.868347 box
513539102 0.746399 box
513539202 0.744690 box
513539302 0.722656 box
513539402 0.801392 box
513539502 0.820801 box
513539602 0.747009 box
513539702 0.748840 box
513539802 0.782532 box
513539902 0.823914 box
513540002 0.831238 box
513540102 0.830383 box
513540202 0.824463 box
513540302 0.781555 box
513540402 0.749939 box
513540502 0.726440 box
513540602 0.948486 box
513540702 0.993958 box
513540802 0.882385 box
513540902 0.971252 box
513541002 0.929077 box
513541102 0.765625 box
513541202 0.740601 box
513541302 0.713806 box
513541402 0.799927 box
513541502 0.828247 box
513541602 0.766602 box
513541702 0.748047 box
513541802 0.770386 box
513541902 0.813293 box
513542002 0.829834 box
513542102 0.833252 box
513542202 0.827759 box
513542302 0.796204 box
513542402 0.753967 box
513542502 0.741516 box
513542602 0.853821 box
513542702 0.994629 box
513542802 0.949829 box
513542902 0.907959 box
513543002 0.977722 box
513543102 0.795837 box
513543202 0.741272 box
513543302 0.719055 box
513543402 0.768921 box
513543502 0.825073 box
513543602 0.795593 box
513543702 0.746399 box
513543802 0.758850 box
513543902 0.797424 box
513544002 0.827576 box
513544102 0.828735 box
513544202 0.827393 box
513544302 0.806946 box
513544402 0.771362 box
513544502 0.749573 box
513544602 0.759216 box
513544702 0.995972 box
513544802 0.984131 box
513544902 0.882629 box
513545002 0.981140 box
513545102 0.860596 box
513545202 0.725220 box
513545302 0.731934 box
513545402 0.819519 box
513545502 0.821838 box
513545602 0.816406 box
513545702 0.746643 box
513545802 0.749939 box
513545902 0.786743 box
513546002 0.825562 box
513546102 0.831299 box
513546202 0.829956 box
513546302 0.819458 box
513546402 0.785034 box
513546502 0.750183 box
513546602 0.719971 box
513546702 0.964478 box
513546802 0.992432 box
513546902 0.882446 box
513547002 0.974426 box
513547102 0.917969 box
513547202 0.740662 box
513547302 0.742065 box
513547402 0.820679 box
513547502 0.822388 box
513547602 0.822510 box
513547702 0.756775 box
513547802 0.747620 box
513547902 0.776672 box
513548002 0.817017 box
513548102 0.828064 box
513548202 0.827148 box
513548302 0.823792 box
513548402 0.793030 box
513548502 0.753906 box
513548602 0.735168 box
513548702 0.892761 box
513548802 0.994324 box
513548902 0.922546 box
513549002 0.934570 box
513549102 0.963379 box
513549202 0.777405 box
513549302 0.744995 box
513549402 0.721436 box
513549502 0.777222 box
513549602 0.826843 box
513549702 0.779846 box
513549802 0.747070 box
513549902 0.764221 box
513550002 0.802490 box
513550102 0.829163 box
513550202 0.833313 box
513550302 0.827148 box
513550402 0.807617 box
513550502 0.766968 box
513550602 0.744568 box
513550702 0.800354 box
513550802 0.995789 box
513550902 0.975891 box
513551002 0.887695 box
513551102 0.984924 box
513551202 0.818054 box
513551302 0.713257 box
513551402 0.774109 box
513551502 0.821716 box
513551602 0.820557 box
513551702 0.798767 box
513551802 0.746399 box
513551902 0.755554 box
513552002 0.792480 box
513552102 0.826782 box
513552202 0.829834 box
513552302 0.828796 box
513552402 0.816833 box
513552502 0.775208 box
513552602 0.748108 box
513552702 0.734924 box
513552802 0.994568 box
513552902 0.989868 box
513553002 0.882568 box
513553102 0.978394 box
513553202 0.887085 box
513553302 0.742798 box
513553402 0.710632 box
513553502 0.765686 box
513553602 0.823914 box
513553702 0.820496 box
513553802 0.749390 box
513553902 0.748718 box
513554002 0.778931 box
513554102 0.821472 box
513554202 0.830994 box
513554302 0.828857 box
513554402 0.818298 box
513554502 0.785095 box
513554602 0.749023 box
513554702 0.728394 box
513554802 0.927246 box
513554902 0.994751 box
513555002 0.895020 box
513555102 0.959717 box
513555202 0.935669 box
513555302 0.773438 box
513555402 0.782227 box
513555502 0.782166 box
513555602 0.781067 box
513555702 0.804199 box
513555802 0.769104 box
513555902 0.746704 box
513556002 0.770447 box
513556102 0.810242 box
513556202 0.829590 box
513556302 0.832153 box
513556402 0.827393 box
513556502 0.797058 box
513556602 0.759094 box
513556702 0.736572 box
513556802 0.852539 box
513556902 0.997498 box
513557002 0.950684 box
513557102 0.908813 box
513557202 0.974060 box
513557302 0.775818 box
513557402 0.749634 box
513557502 0.799683 box
513557602 0.818176 box
513557702 0.809265 box
513557802 0.792603 box
513557902 0.746948 box
513558002 0.761475 box
513558102 0.800049 box
513558202 0.825989 box
513558302 0.829285 box
513558402 0.826233 box
513558502 0.806091 box
513558602 0.771240 box
513558702 0.748108 box
513558802 0.779053 box
513558902 0.995728 box
513559002 0.979492 box
513559102 0.885986 box
513559202 0.983521 box
513559302 0.844360 box
513559402 0.745422 box
513559502 0.726440 box
513559602 0.742981 box
513559702 0.826355 box
513559802 0.814026 box
513559902 0.746399 box
513560002 0.750732 box
513560102 0.788452 box
513560202 0.827271 box
513560302 0.828796 box
513560402 0.830750 box
513560502 0.819580 box
513560602 0.782349 box
513560702 0.748779 box
513560802 0.721497 box
513560902 0.970337 box
513561002 0.992371 box
513561102 0.879639 box
513561202 0.975647 box
513561302 0.913452 box
513561402 0.740356 box
513561502 0.726074 box
513561602 0.816040 box
513561702 0.823181 box
513561802 0.822693 box
513561902 0.757080 box
513562002 0.747925 box
513562102 0.775879 box
513562202 0.817383 box
513562302 0.829468 box
513562402 0.830261 box
513562502 0.826538 box
513562602 0.789978 box
513562702 0.756836 box
513562802 0.730225 box
513562902 0.891235 box
513563002 0.994446 box
513563102 0.923218 box
513563202 0.934143 box
513563302 0.960754 box
513563402 0.776367 box
513563502 0.741150 box
513563602 0.711914 box
513563702 0.811462 box
513563802 0.822510 box
513563902 0.780151 box
513564002 0.746582 box
513564102 0.765320 box
513564202 0.804810 box
513564302 0.825745 box
513564402 0.828613 box
513564502 0.825439 box
513564602 0.801697 box
513564702 0.765808 box
513564802 0.742920 box
513564902 0.803406 box
513565002 0.995605 box
513565102 0.975037 box
513565202 0.889709 box
513565302 0.982849 box
513565402 0.807739 box
513565502 0.748352 box
513565602 0.786255 box
513565702 0.788513 box
513565802 0.791199 box
513565902 0.801453 box
513566002 0.747437 box
513566102 0.755615 box
513566202 0.792847 box
513566302 0.824097 box
513566402 0.826904 box
513566502 0.826355 box
513566602 0.813171 box
513566702 0.779602 box
513566802 0.747681 box
513566902 0.731323 box
513567002 0.994568 box
513567102 0.989136 box
513567202 0.880066 box
513567302 0.979065 box
513567402 0.883240 box
513567502 0.730713 box
513567602 0.789856 box
513567702 0.788940 box
513567802 0.798157 box
513567902 0.808044 box
513568002 0.748779 box
513568102 0.748962 box
513568202 0.781311 box
513568302 0.823303 box
513568402 0.826477 box
513568502 0.828491 box
513568602 0.823853 box
513568702 0.785156 box
513568802 0.749207 box
513568902 0.729614 box
513569002 0.937866 box
513569102 0.993835 box
513569202 0.886963 box
513569302 0.968079 box
513569402 0.936218 box
513569502 0.771057 box
513569602 0.745056 box
513569702 0.724182 box
513569802 0.768555 box
513569902 0.828857 box
513570002 0.769836 box
513570102 0.747009 box
513570202 0.772949 box
513570302 0.809753 box
513570402 0.826904 box
513570502 0.826172 box
513570602 0.825012 box
513570702 0.799072 box
513570802 0.762268 box
513570902 0.740540 box
513571002 0.840515 box
513571102 0.995972 box
513571202 0.955994 box
513571302 0.903320 box
513571402 0.978943 box
513571502 0.794312 box
513571602 0.711121 box
513571702 0.770142 box
513571802 0.819275 box
513571902 0.820312 box
513572002 0.788513 box
513572102 0.748901 box
513572202 0.758362 box
513572302 0.798462 box
513572402 0.825256 box
513572502 0.830017 box
513572602 0.827026 box
513572702 0.810913 box
513572802 0.771484 box
513572902 0.747009 box
513573002 0.770569 box
513573102 0.996033 box
513573202 0.983459 box
513573302 0.883423 box
513573402 0.981689 box
513573502 0.862305 box
513573602 0.752380 box
513573702 0.746094 box
513573802 0.746216 box
513573902 0.761047 box
513574002 0.818542 box
513574102 0.747559 box
513574202 0.748718 box
513574302 0.782104 box
513574402 0.824402 box
513574502 0.825012 box
513574602 0.825439 box
513574702 0.820557 box
513574802 0.786133 box
513574902 0.750183 box
513575002 0.724304 box
513575102 0.955933 box
513575202 0.991943 box
513575302 0.883423 box
513575402 0.973633 box
513575502 0.924866 box
513575602 0.766785 box
513575702 0.745178 box
513575802 0.723999 box
513575902 0.774658 box
513576002 0.826965 box
513576102 0.763794 box
513576202 0.747192 box
513576302 0.771484 box
513576402 0.811523 box
513576502 0.825928 box
513576602 0.828186 box
513576702 0.827698 box
513576802 0.794495 box
513576902 0.761230 box
513577002 0.737976 box
513577102 0.860657 box
513577202 0.994202 box
513577302 0.945740 box
513577402 0.913391 box
513577502 0.976501 box
513577602 0.801758 box
513577702 0.746277 box
513577802 0.745605 box
513577902 0.742310 box
513578002 0.792847 box
513578102 0.797729 box
513578202 0.746155 box
513578302 0.759521 box
513578402 0.797546 box
513578502 0.825012 box
513578602 0.826660 box
513578702 0.824829 box
513578802 0.807861 box
513578902 0.770935 box
513579002 0.747986 box
513579102 0.762817 box
513579202 0.996582 box
513579302 0.984924 box
513579402 0.882751 box
513579502 0.980408 box
513579602 0.855835 box
513579702 0.721741 box
513579802 0.798096 box
513579902 0.820557 box
513580002 0.820190 box
513580102 0.816101 box
513580202 0.747192 box
513580302 0.750610 box
513580402 0.785400 box
513580502 0.823975 box
513580602 0.829224 box
513580702 0.826660 box
513580802 0.816284 box
513580902 0.781433 box
513581002 0.749329 box
513581102 0.723816 box
513581202 0.975830 box
513581302 0.992493 box
513581402 0.883423 box
513581502 0.977173 box
513581602 0.909607 box
513581702 0.752258 box
513581802 0.711121 box
513581902 0.756470 box
513582002 0.823608 box
513582102 0.820496 box
513582202 0.756165 box
513582302 0.747314 box
513582402 0.775940 box
513582502 0.815552 box
513582602 0.828003 box
513582702 0.827942 box
513582802 0.826355 box
513582902 0.789124 box
513583002 0.755249 box
513583102 0.731018 box
513583202 0.897705 box
513583302 0.994446 box
513583402 0.920349 box
513583502 0.938965 box
513583602 0.959290 box
513583702 0.775085 box
513583802 0.731445 box
513583902 0.714172 box
513584002 0.795166 box
513584102 0.824890 box
513584202 0.778076 box
513584302 0.746155 box
513584402 0.772461 box
513584502 0.805298 box
513584602 0.828552 box
513584702 0.830200 box
513584802 0.829468 box
513584902 0.802917 box
513585002 0.762207 box
513585102 0.743347 box
513585202 0.809387 box
513585302 0.997009 box
513585402 0.972351 box
513585502 0.893066 box
513585602 0.986694 box
513585702 0.820679 box
513585802 0.745239 box
513585902 0.725159 box
513586002 0.755493 box
513586102 0.825073 box
513586202 0.805725 box
513586302 0.746704 box
513586402 0.756775 box
513586502 0.793030 box
513586602 0.827637 box
513586702 0.832275 box
513586802 0.830750 box
513586902 0.816223 box
513587002 0.780334 box
513587102 0.748169 box
513587202 0.724487 box
513587302 0.998901 box
513587402 0.988220 box
513587502 0.880676 box
513587602 0.979614 box
513587702 0.889893 box
513587802 0.733154 box
513587902 0.719971 box
513588002 0.817200 box
513588102 0.822937 box
513588202 0.820862 box
513588302 0.750122 box
513588402 0.749084 box
513588502 0.779907 box
513588602 0.822021 box
513588702 0.830688 box
513588802 0.831116 box
513588902 0.825989 box
513589002 0.787170 box
513589102 0.750427 box
513589202 0.729675 box
513589302 0.924988 box
513589402 0.994324 box
513589502 0.896484 box
513589602 0.960449 box
513589702 0.943237 box
513589802 0.772644 box
513589902 0.745239 box
513590002 0.727905 box
513590102 0.758057 box
513590202 0.829163 box
513590302 0.776489 box
513590402 0.747559 box
513590502 0.771362 box
513590602 0.808167 box
513590702 0.829590 box
513590802 0.832092 box
513590902 0.827759 box
513591002 0.800110 box
513591102 0.760132 box
513591202 0.742676 box
513591302 0.829346 box
513591402 0.995361 box
513591502 0.964233 box
513591602 0.898560 box
513591702 0.980713 box
513591802 0.819397 box
513591902 0.746521 box
513592002 0.745544 box
513592102 0.745544 box
513592202 0.788452 box
513592302 0.804260 box
513592402 0.746826 box
513592502 0.756836 box
513592602 0.794861 box
513592702 0.827026 box
513592802 0.831726 box
513592902 0.832397 box
513593002 0.812927 box
513593102 0.776855 box
513593202 0.748474 box
513593302 0.740845 box
513593402 0.996155 box
513593502 0.988342 box
513593602 0.881470 box
513593702 0.978516 box
513593802 0.870850 box
513593902 0.774170 box
513594002 0.781982 box
513594102 0.783142 box
513594202 0.781494 box
513594302 0.813843 box
513594402 0.749817 box
513594502 0.748291 box
513594602 0.781067 box
513594702 0.825378 box
513594802 0.830200 box
513594902 0.831421 box
513595002 0.824585 box
513595102 0.786804 box
513595202 0.748962 box
513595302 0.724731 box
513595402 0.940552 box
513595502 0.994446 box
513595602 0.887634 box
513595702 0.969604 box
513595802 0.938416 box
513595902 0.776855 box
513596002 0.746094 box
513596102 0.745361 box
513596202 0.744934 box
513596302 0.818237 box
513596402 0.769653 box
513596502 0.746826 box
513596602 0.770447 box
513596702 0.810364 box
513596802 0.827087 box
513596902 0.829041 box
513597002 0.826782 box
513597102 0.798828 box
513597202 0.762085 box
513597302 0.738403 box
513597402 0.843567 box
513597502 0.995605 box
513597602 0.958130 box
513597702 0.904724 box
513597802 0.978943 box
513597902 0.801575 box
513598002 0.746338 box
513598102 0.733582 box
513598202 0.732849 box
513598302 0.823792 box
513598402 0.799255 box
513598502 0.746887 box
513598602 0.756592 box
513598702 0.797974 box
513598802 0.825989 box
513598902 0.830200 box
513599002 0.828125 box
513599102 0.811523 box
513599202 0.774658 box
513599302 0.748169 box
513599402 0.755920 box
513599502 0.995667 box
513599602 0.986206 box
513599702 0.882446 box
513599802 0.981567 box
513599902 0.876404 box
513600002 0.750977 box
513600102 0.746094 box
513600202 0.743958 box
513600302 0.775146 box
513600402 0.823425 box
513600502 0.748352 box
513600602 0.749146 box
513600702 0.781799 box
513600802 0.823425 box
513600902 0.831177 box
513601002 0.828613 box
513601102 0.822510 box
513601202 0.792603 box
513601302 0.751221 box
513601402 0.725891 box
513601502 0.939697 box
513601602 0.994263 box
513601702 0.884827 box
513601802 0.970947 box
513601902 0.929321 box
513602002 0.739624 box
513602102 0.778809 box
513602202 0.796265 box
513602302 0.801392 box
513602402 0.802551 box
513602502 0.764465 box
513602602 0.747559 box
513602702 0.772217 box
513602802 0.814453 box
513602902 0.828918 box
513603002 0.828369 box
513603102 0.827087 box
513603202 0.795288 box
513603302 0.761536 box
513603402 0.733765 box
513603502 0.865540 box
513603602 0.994446 box
513603702 0.941833 box
513603802 0.914368 box
513603902 0.968384 box
513604002 0.768066 box
513604102 0.751038 box
513604202 0.815796 box
513604302 0.814880 box
513604402 0.803040 box
513604502 0.786133 box
513604602 0.748840 box
513604702 0.763000 box
513604802 0.801941 box
513604902 0.827576 box
513605002 0.830017 box
513605102 0.826721 box
513605202 0.803223 box
513605302 0.766357 box
513605402 0.746216 box
513605502 0.799438 box
513605602 0.995361 box
513605702 0.974854 box
513605802 0.888245 box
513605902 0.984497 box
513606002 0.829590 box
513606102 0.745239 box
513606202 0.735107 box
513606302 0.724731 box
513606402 0.820312 box
513606502 0.807251 box
513606602 0.747131 box
513606702 0.749878 box
513606802 0.792419 box
513606902 0.825928 box
513607002 0.828003 box
513607102 0.828186 box
513607202 0.815063 box
513607302 0.774841 box
513607402 0.748718 box
513607502 0.720093 box
513607602 0.989746 box
513607702 0.990540 box
513607802 0.879333 box
513607902 0.977905 box
513608002 0.894775 box
513608102 0.727966 box
513608202 0.784851 box
513608302 0.810730 box
513608402 0.796326 box
513608502 0.806641 box
513608602 0.752686 box
513608702 0.748474 box
513608802 0.777649 box
513608902 0.820312 box
513609002 0.827026 box
513609102 0.826782 box
513609202 0.825684 box
513609302 0.786743 box
513609402 0.752136 box
513609502 0.731750 box
513609602 0.919312 box
513609702 0.995239 box
513609802 0.901001 box
513609902 0.953735 box
513610002 0.942322 box
513610102 0.754395 box
513610202 0.718140 box
513610302 0.810608 box
513610402 0.821716 box
513610502 0.824158 box
513610602 0.767883 box
513610702 0.747864 box
513610802 0.770203 box
513610902 0.811157 box
513611002 0.828491 box
513611102 0.828308 box
513611202 0.826660 box
513611302 0.797485 box
513611402 0.758789 box
513611502 0.741333 box
513611602 0.847290 box
513611702 0.995117 box
513611802 0.954407 box
513611902 0.907898 box
513612002 0.975403 box
513612102 0.775513 box
513612202 0.758789 box
513612302 0.791687 box
513612402 0.791443 box
513612502 0.788269 box
513612602 0.795044 box
513612702 0.746582 box
513612802 0.760193 box
513612902 0.799072 box
513613002 0.828552 box
513613102 0.830383 box
513613202 0.825806 box
513613302 0.805908 box
513613402 0.771118 box
513613502 0.747070 box
513613602 0.770203 box
513613702 0.996399 box
513613802 0.981873 box
513613902 0.883606 box
513614002 0.981201 box
513614102 0.863770 box
513614202 0.777832 box
513614302 0.755981 box
513614402 0.751282 box
513614502 0.747192 box
513614602 0.818481 box
513614702 0.746887 box
513614802 0.749512 box
513614902 0.787292 box
513615002 0.827698 box
513615102 0.830750 box
513615202 0.830444 box
513615302 0.821167 box
513615402 0.768005 box
513615502 0.748352 box
513615602 0.719116 box
513615702 0.967651 box
513615802 0.992188 box
513615902 0.879944 box
513616002 0.975891 box
513616102 0.911804 box
513616202 0.736572 box
513616302 0.735535 box
513616402 0.821594 box
513616502 0.821533 box
513616602 0.824036 box
513616702 0.757812 box
513616802 0.747375 box
513616902 0.776672 box
513617002 0.816772 box
513617102 0.830139 box
513617202 0.834045 box
513617302 0.827942 box
513617402 0.791565 box
513617502 0.753967 box
513617602 0.733521 box
513617702 0.895935 box
513617802 0.994141 box
513617902 0.918884 box
513618002 0.936951 box
513618102 0.956360 box
513618202 0.759399 box
513618302 0.759644 box
513618402 0.821167 box
513618502 0.823181 box
513618602 0.816772 box
513618702 0.776550 box
513618802 0.746826 box
513618902 0.767090 box
513619002 0.808472 box
513619102 0.829529 box
513619202 0.830200 box
513619302 0.826843 box
513619402 0.802490 box
513619502 0.763550 box
513619602 0.739319 box
513619702 0.828491 box
513619802 0.996033 box
513619902 0.964783 box
513620002 0.895813 box
513620102 0.979614 box
513620202 0.794739 box
513620302 0.737488 box
513620402 0.813049 box
513620502 0.820312 box
513620602 0.819763 box
513620702 0.799744 box
513620802 0.746582 box
513620902 0.760193 box
513621002 0.798889 box
513621102 0.825684 box
513621202 0.829712 box
513621302 0.829041 box
513621402 0.809204 box
513621502 0.770264 box
513621602 0.747681 box
513621702 0.758484 box
513621802 0.996460 box
513621902 0.984436 box
513622002 0.883850 box
513622102 0.983582 box
513622202 0.870056 box
513622302 0.752502 box
513622402 0.746643 box
513622502 0.746094 box
513622602 0.763062 box
513622702 0.824036 box
513622802 0.747925 box
513622902 0.750977 box
513623002 0.783203 box
513623102 0.825195 box
513623202 0.828369 box
513623302 0.827393 box
513623402 0.822937 box
513623502 0.785461 box
513623602 0.750610 box
513623702 0.724243 box
513623802 0.947144 box
513623902 0.993591 box
513624002 0.885498 box
513624102 0.972351 box
513624202 0.923706 box
513624302 0.735474 box
513624402 0.779175 box
513624502 0.809204 box
513624602 0.809998 box
513624702 0.802368 box
513624802 0.761963 box
513624902 0.748108 box
513625002 0.771790 box
513625102 0.812927 box
513625202 0.829468 box
513625302 0.830872 box
513625402 0.828186 box
513625502 0.794312 box
513625602 0.761230 box
513625702 0.733948 box
513625802 0.872131 box
513625902 0.995972 box
513626002 0.935974 box
513626102 0.921753 box
513626202 0.968689 box
513626302 0.802612 box
513626402 0.781982 box
513626502 0.779114 box
513626602 0.770264 box
513626702 0.776611 box
513626802 0.791565 box
513626902 0.746704 box
513627002 0.763184 box
513627102 0.802063 box
513627202 0.829224 box
513627302 0.831360 box
513627402 0.827759 box
513627502 0.805298 box
513627602 0.769592 box
513627702 0.742188 box
513627802 0.794312 box
513627902 0.996277 box
513628002 0.978210 box
513628102 0.886658 box
513628202 0.983704 box
513628302 0.835693 box
513628402 0.745728 box
513628502 0.739868 box
513628602 0.719482 box
513628702 0.818054 box
513628802 0.809875 box
513628902 0.746643 box
513629002 0.750427 box
513629102 0.790710 box
513629202 0.827087 box
513629302 0.830872 box
513629402 0.828003 box
513629502 0.819031 box
513629602 0.760681 box
513629702 0.748596 box
513629802 0.720337 box
513629902 0.986877 box
513630002 0.989685 box
513630102 0.880005 box
513630202 0.977478 box
513630302 0.901794 box
513630402 0.729004 box
513630502 0.763306 box
513630602 0.821350 box
513630702 0.821594 box
513630802 0.822327 box
513630902 0.751892 box
513631002 0.747620 box
513631102 0.778687 box
513631202 0.821716 box
513631302 0.830750 box
513631402 0.830078 box
513631502 0.826111 box
513631602 0.788147 box
513631702 0.749390 box
513631802 0.731140 box
513631902 0.919556 box
513632002 0.996338 box
513632102 0.901917 box
513632202 0.955994 box
513632302 0.942017 box
513632402 0.766174 box
513632502 0.717468 box
513632602 0.722961 box
513632702 0.821472 box
513632802 0.825195 box
513632902 0.770935 box
513633002 0.747253 box
513633102 0.769104 box
513633202 0.806824 box
513633302 0.831604 box
513633402 0.830383 box
513633502 0.826660 box
513633602 0.798950 box
513633702 0.761780 box
513633802 0.740601 box
513633902 0.836304 box
513634002 0.995178 box
513634102 0.960144 box
513634202 0.902466 box
513634302 0.977356 box
513634402 0.784119 box
513634502 0.755981 box
513634602 0.794739 box
513634702 0.789490 box
513634802 0.792480 box
513634902 0.796875 box
513635002 0.747253 box
513635102 0.759460 box
513635202 0.798401 box
513635302 0.826660 box
513635402 0.832275 box
513635502 0.827209 box
513635602 0.807190 box
513635702 0.773132 box
513635802 0.748108 box
513635902 0.765015 box
513636002 0.996277 box
513636102 0.984314 box
513636202 0.883301 box
513636302 0.981628 box
513636402 0.863586 box
513636502 0.746399 box
513636602 0.745667 box
513636702 0.730408 box
513636802 0.797180 box
513636902 0.817688 box
513637002 0.747375 box
513637102 0.747864 box
513637202 0.782654 box
513637302 0.823059 box
513637402 0.826599 box
513637502 0.824890 box
513637602 0.819946 box
513637702 0.785767 box
513637802 0.748169 box
513637902 0.727356 box
513638002 0.953735 box
513638102 0.993042 box
513638202 0.886230 box
513638302 0.972107 box
513638402 0.922302 box
513638502 0.734680 box
513638602 0.783081 box
513638702 0.809387 box
513638802 0.809937 box
513638902 0.806519 box
513639002 0.761047 box
513639102 0.749146 box
513639202 0.774353 box
513639302 0.814819 box
513639402 0.828308 box
513639502 0.827698 box
513639602 0.825928 box
513639702 0.792847 box
513639802 0.754761 box
513639902 0.732544 box
513640002 0.880981 box
513640102 0.995178 box
513640202 0.932251 box
513640302 0.927917 box
513640402 0.964355 box
513640502 0.762939 box
513640602 0.742737 box
513640702 0.817444 box
513640802 0.819946 box
513640902 0.820862 box
513641002 0.779541 box
513641102 0.747009 box
513641202 0.767700 box
513641302 0.805786 box
513641402 0.827515 box
513641502 0.829346 box
513641602 0.826355 box
513641702 0.802246 box
513641802 0.764771 box
513641902 0.742188 box
513642002 0.814514 box
513642102 0.995483 box
513642202 0.971558 box
513642302 0.890869 box
513642402 0.984070 box
513642502 0.827576 box
513642602 0.749878 box
513642702 0.746582 box
513642802 0.746155 box
513642902 0.767700 box
513643002 0.810059 box
513643102 0.746765 box
513643202 0.757935 box
513643302 0.792175 box
513643402 0.823975 box
513643502 0.826904 box
513643602 0.825928 box
513643702 0.812439 box
513643802 0.776794 box
513643902 0.748840 box
513644002 0.729431 box
513644102 0.994812 box
513644202 0.989929 box
513644302 0.880371 box
513644402 0.978882 box
513644502 0.890747 box
513644602 0.761292 box
513644702 0.747070 box
513644802 0.745972 box
513644902 0.747864 box
513645002 0.824219 box
513645102 0.754456 box
513645202 0.748901 box
513645302 0.777039 box
513645402 0.818542 box
513645502 0.826294 box
513645602 0.827576 box
513645702 0.823425 box
513645802 0.789062 box
513645902 0.751282 box
513646002 0.731018 box
513646102 0.912842 box
513646202 0.994690 box
513646302 0.907166 box
513646402 0.950928 box
513646502 0.945251 box
513646602 0.755005 box
513646702 0.718750 box
513646802 0.810913 box
513646902 0.820984 box
513647002 0.824280 box
513647102 0.768433 box
513647202 0.748474 box
513647302 0.767700 box
513647402 0.806763 box
513647502 0.828125 box
513647602 0.828064 box
513647702 0.826233 box
513647802 0.797852 box
513647902 0.761841 box
513648002 0.741882 box
513648102 0.841248 box
513648202 0.995117 box
513648302 0.958313 box
513648402 0.903198 box
513648502 0.980286 box
513648602 0.804260 box
513648702 0.745728 box
513648802 0.736511 box
513648902 0.733032 box
513649002 0.818176 box
513649102 0.794495 box
513649202 0.746826 box
513649302 0.755005 box
513649402 0.794434 box
513649502 0.822754 box
513649602 0.824524 box
513649702 0.823547 box
513649802 0.810669 box
513649902 0.774170 box
513650002 0.748474 box
513650102 0.747620 box
513650202 0.996338 box
513650302 0.986877 box
513650402 0.882141 box
513650502 0.980591 box
513650602 0.859802 box
513650702 0.766968 box
513650802 0.782959 box
513650902 0.783020 box
513651002 0.782715 box
513651102 0.809387 box
513651202 0.747986 box
513651302 0.750244 box
513651402 0.783752 box
513651502 0.822754 box
513651602 0.828796 box
513651702 0.826721 box
513651802 0.819824 box
513651902 0.788452 box
513652002 0.748535 box
513652102 0.723877 box
513652202 0.953918 box
513652302 0.992920 box
513652402 0.883606 box
513652502 0.972961 box
513652602 0.921875 box
513652702 0.770142 box
513652802 0.782532 box
513652902 0.781921 box
513653002 0.782959 box
513653102 0.806519 box
513653202 0.763611 box
513653302 0.748413 box
513653402 0.775269 box
513653502 0.814514 box
513653602 0.827698 box
513653702 0.824585 box
513653802 0.823608 box
513653902 0.791931 box
513654002 0.754517 box
513654102 0.737122 box
513654202 0.878601 box
513654302 0.994629 box
513654402 0.932861 box
513654502 0.924866 box
513654602 0.969116 box
513654702 0.787109 box
513654802 0.746155 box
513654902 0.743896 box
513655002 0.741150 box
513655102 0.815857 box
513655202 0.785889 box
513655302 0.747375 box
513655402 0.762512 box
513655502 0.800537 box
513655602 0.824829 box
513655702 0.826111 box
513655802 0.823364 box
513655902 0.809387 box
513656002 0.772095 box
513656102 0.742981 box
513656202 0.780457 box
513656302 0.996521 box
513656402 0.981873 box
513656502 0.886108 box
513656602 0.983826 box
513656702 0.840149 box
513656802 0.746521 box
513656902 0.727478 box
513657002 0.740234 box
513657102 0.821045 box
513657202 0.805725 box
513657302 0.747314 box
513657402 0.750061 box
513657502 0.789490 box
513657602 0.823303 box
513657702 0.825073 box
513657802 0.824829 box
513657902 0.815186 box
513658002 0.781677 box
513658102 0.748596 box
513658202 0.719604 box
513658302 0.977051 box
513658402 0.990906 box
513658502 0.882568 box
513658602 0.976196 box
513658702 0.911194 box
513658802 0.767944 box
513658902 0.746094 box
513659002 0.746033 box
513659102 0.745544 box
513659202 0.819641 box
513659302 0.760803 box
513659402 0.747559 box
513659502 0.774231 box
513659602 0.813843 box
513659702 0.825073 box
513659802 0.825562 box
513659902 0.824158 box
513660002 0.793823 box
513660102 0.755554 box
513660202 0.734375 box
513660302 0.880554 box
513660402 0.994690 box
513660502 0.931763 box
513660602 0.926819 box
513660702 0.963989 box
513660802 0.768494 box
513660902 0.782593 box
513661002 0.782532 box
513661102 0.782593 box
513661202 0.790466 box
513661302 0.784973 box
513661402 0.746582 box
513661502 0.765625 box
513661602 0.804077 box
513661702 0.824951 box
513661802 0.825562 box
513661902 0.823792 box
513662002 0.804993 box
513662102 0.769714 box
513662202 0.745972 box
513662302 0.808838 box
513662402 0.995483 box
513662502 0.971497 box
513662602 0.890747 box
513662702 0.984192 box
513662802 0.819214 box
513662902 0.745056 box
513663002 0.724365 box
513663102 0.748962 box
513663202 0.822449 box
513663302 0.803162 box
513663402 0.742615 box
513663502 0.753418 box
513663602 0.793030 box
513663702 0.822937 box
513663802 0.825317 box
513663902 0.824646 box
513664002 0.812439 box
513664102 0.776550 box
513664202 0.749512 box
513664302 0.728943 box
513664402 0.999207 box
513664502 0.989014 box
513664602 0.880188 box
513664702 0.976746 box
513664802 0.894897 box
513664902 0.756592 box
513665002 0.745056 box
513665102 0.734436 box
513665202 0.774475 box
513665302 0.821838 box
513665402 0.755554 box
513665502 0.748169 box
513665602 0.776306 box
513665702 0.819336 box
513665802 0.825745 box
513665902 0.826416 box
513666002 0.822754 box
513666102 0.790833 box
513666202 0.753479 box
513666302 0.730286 box
513666402 0.906372 box
513666502 0.994751 box
513666602 0.911133 box
513666702 0.943298 box
513666802 0.946838 box
513666902 0.753784 box
513667002 0.736328 box
513667102 0.817200 box
513667202 0.818909 box
513667302 0.824951 box
513667402 0.770508 box
513667502 0.746887 box
513667602 0.769104 box
513667702 0.808838 box
513667802 0.823975 box
513667902 0.826599 box
513668002 0.823975 box
513668102 0.798706 box
513668202 0.759827 box
513668302 0.737305 box
513668402 0.648865 box
