time(ms) function_name moment
355863885 MPI_Allreduce 0
355863891 MPI_Allreduce 1
355863891 MPI_Bcast 0
355863891 MPI_Bcast 1
355863891 MPI_Bcast 0
355863891 MPI_Bcast 1
355863891 MPI_Allreduce 0
355863891 MPI_Allreduce 1
355863891 MPI_Allreduce 0
355863891 MPI_Allreduce 1
355863891 MPI_Allgather 0
355863891 MPI_Allgather 1
355863919 MPI_Allgather 0
355863920 MPI_Allgather 1
355863920 MPI_Allgather 0
355863920 MPI_Allgather 1
355867573 MPI_Allreduce 0
355867936 MPI_Allreduce 1
355888704 MPI_Allreduce 0
355888897 MPI_Allreduce 1
355889117 MPI_Allreduce 0
355889117 MPI_Allreduce 1
355889117 MPI_Send 0
355889117 MPI_Send 1
355889117 MPI_Wait 0
355889117 MPI_Wait 1
355889118 MPI_Send 0
355889118 MPI_Send 1
355889118 MPI_Wait 0
355889118 MPI_Wait 1
355889118 MPI_Send 0
355889118 MPI_Send 1
355889118 MPI_Wait 0
355889118 MPI_Wait 1
355889121 MPI_Allreduce 0
355889121 MPI_Allreduce 1
355889121 MPI_Allreduce 0
355889121 MPI_Allreduce 1
355889121 MPI_Allreduce 0
355889121 MPI_Allreduce 1
355889201 MPI_Send 0
355889201 MPI_Send 1
355889201 MPI_Wait 0
355889201 MPI_Wait 1
355889645 MPI_Allreduce 0
355889645 MPI_Allreduce 1
355889668 MPI_Send 0
355889668 MPI_Send 1
355889668 MPI_Wait 0
355889668 MPI_Wait 1
355890089 MPI_Allreduce 0
355890089 MPI_Allreduce 1
355890142 MPI_Allreduce 0
355890142 MPI_Allreduce 1
355890165 MPI_Send 0
355890165 MPI_Send 1
355890165 MPI_Wait 0
355890165 MPI_Wait 1
355890586 MPI_Allreduce 0
355890586 MPI_Allreduce 1
355890639 MPI_Allreduce 0
355890639 MPI_Allreduce 1
355890662 MPI_Send 0
355890662 MPI_Send 1
355890662 MPI_Wait 0
355890662 MPI_Wait 1
355891083 MPI_Allreduce 0
355891083 MPI_Allreduce 1
355891136 MPI_Allreduce 0
355891137 MPI_Allreduce 1
355891160 MPI_Send 0
355891160 MPI_Send 1
355891160 MPI_Wait 0
355891160 MPI_Wait 1
355891581 MPI_Allreduce 0
355891581 MPI_Allreduce 1
355891634 MPI_Allreduce 0
355891634 MPI_Allreduce 1
355891657 MPI_Send 0
355891657 MPI_Send 1
355891657 MPI_Wait 0
355891657 MPI_Wait 1
355892079 MPI_Allreduce 0
355892079 MPI_Allreduce 1
355892132 MPI_Allreduce 0
355892132 MPI_Allreduce 1
355892155 MPI_Send 0
355892155 MPI_Send 1
355892155 MPI_Wait 0
355892155 MPI_Wait 1
355892572 MPI_Allreduce 0
355892572 MPI_Allreduce 1
355892625 MPI_Allreduce 0
355892625 MPI_Allreduce 1
355892647 MPI_Send 0
355892647 MPI_Send 1
355892647 MPI_Wait 0
355892647 MPI_Wait 1
355893068 MPI_Allreduce 0
355893068 MPI_Allreduce 1
355893121 MPI_Allreduce 0
355893121 MPI_Allreduce 1
355893144 MPI_Send 0
355893144 MPI_Send 1
355893144 MPI_Wait 0
355893144 MPI_Wait 1
355893566 MPI_Allreduce 0
355893566 MPI_Allreduce 1
355893618 MPI_Allreduce 0
355893618 MPI_Allreduce 1
355893642 MPI_Send 0
355893642 MPI_Send 1
355893642 MPI_Wait 0
355893642 MPI_Wait 1
355894063 MPI_Allreduce 0
355894063 MPI_Allreduce 1
355894116 MPI_Allreduce 0
355894116 MPI_Allreduce 1
355894139 MPI_Send 0
355894139 MPI_Send 1
355894139 MPI_Wait 0
355894139 MPI_Wait 1
355894560 MPI_Allreduce 0
355894560 MPI_Allreduce 1
355894613 MPI_Allreduce 0
355894613 MPI_Allreduce 1
355894636 MPI_Send 0
355894637 MPI_Send 1
355894637 MPI_Wait 0
355894637 MPI_Wait 1
355895058 MPI_Allreduce 0
355895058 MPI_Allreduce 1
355895111 MPI_Allreduce 0
355895111 MPI_Allreduce 1
355895134 MPI_Send 0
355895134 MPI_Send 1
355895134 MPI_Wait 0
355895134 MPI_Wait 1
355895556 MPI_Allreduce 0
355895556 MPI_Allreduce 1
355895609 MPI_Allreduce 0
355895609 MPI_Allreduce 1
355895632 MPI_Send 0
355895632 MPI_Send 1
355895632 MPI_Wait 0
355895632 MPI_Wait 1
355896050 MPI_Allreduce 0
355896050 MPI_Allreduce 1
355896102 MPI_Allreduce 0
355896102 MPI_Allreduce 1
355896124 MPI_Send 0
355896124 MPI_Send 1
355896124 MPI_Wait 0
355896124 MPI_Wait 1
355896544 MPI_Allreduce 0
355896544 MPI_Allreduce 1
355896598 MPI_Allreduce 0
355896598 MPI_Allreduce 1
355896621 MPI_Send 0
355896621 MPI_Send 1
355896621 MPI_Wait 0
355896621 MPI_Wait 1
355897042 MPI_Allreduce 0
355897042 MPI_Allreduce 1
355897095 MPI_Allreduce 0
355897095 MPI_Allreduce 1
355897118 MPI_Send 0
355897118 MPI_Send 1
355897118 MPI_Wait 0
355897118 MPI_Wait 1
355897539 MPI_Allreduce 0
355897539 MPI_Allreduce 1
355897592 MPI_Allreduce 0
355897592 MPI_Allreduce 1
355897615 MPI_Send 0
355897616 MPI_Send 1
355897616 MPI_Wait 0
355897616 MPI_Wait 1
355898037 MPI_Allreduce 0
355898037 MPI_Allreduce 1
355898090 MPI_Allreduce 0
355898090 MPI_Allreduce 1
355898113 MPI_Send 0
355898113 MPI_Send 1
355898113 MPI_Wait 0
355898113 MPI_Wait 1
355898535 MPI_Allreduce 0
355898535 MPI_Allreduce 1
355898587 MPI_Allreduce 0
355898587 MPI_Allreduce 1
355898611 MPI_Send 0
355898611 MPI_Send 1
355898611 MPI_Wait 0
355898611 MPI_Wait 1
355899031 MPI_Allreduce 0
355899032 MPI_Allreduce 1
355899085 MPI_Allreduce 0
355899085 MPI_Allreduce 1
355899108 MPI_Send 0
355899108 MPI_Send 1
355899108 MPI_Wait 0
355899108 MPI_Wait 1
355899528 MPI_Allreduce 0
355899528 MPI_Allreduce 1
355899581 MPI_Allreduce 0
355899581 MPI_Allreduce 1
355899603 MPI_Send 0
355899603 MPI_Send 1
355899603 MPI_Wait 0
355899603 MPI_Wait 1
355900016 MPI_Allreduce 0
355900016 MPI_Allreduce 1
355900069 MPI_Allreduce 0
355900069 MPI_Allreduce 1
355900092 MPI_Send 0
355900092 MPI_Send 1
355900092 MPI_Wait 0
355900092 MPI_Wait 1
355900513 MPI_Allreduce 0
355900513 MPI_Allreduce 1
355900566 MPI_Allreduce 0
355900566 MPI_Allreduce 1
355900589 MPI_Send 0
355900590 MPI_Send 1
355900590 MPI_Wait 0
355900590 MPI_Wait 1
355901011 MPI_Allreduce 0
355901011 MPI_Allreduce 1
355901064 MPI_Allreduce 0
355901064 MPI_Allreduce 1
355901087 MPI_Send 0
355901087 MPI_Send 1
355901087 MPI_Wait 0
355901087 MPI_Wait 1
355901508 MPI_Allreduce 0
355901508 MPI_Allreduce 1
355901561 MPI_Allreduce 0
355901561 MPI_Allreduce 1
355901584 MPI_Send 0
355901585 MPI_Send 1
355901585 MPI_Wait 0
355901585 MPI_Wait 1
355902006 MPI_Allreduce 0
355902006 MPI_Allreduce 1
355902059 MPI_Allreduce 0
355902059 MPI_Allreduce 1
355902082 MPI_Send 0
355902082 MPI_Send 1
355902082 MPI_Wait 0
355902082 MPI_Wait 1
355902503 MPI_Allreduce 0
355902503 MPI_Allreduce 1
355902556 MPI_Allreduce 0
355902556 MPI_Allreduce 1
355902579 MPI_Send 0
355902579 MPI_Send 1
355902579 MPI_Wait 0
355902579 MPI_Wait 1
355903001 MPI_Allreduce 0
355903001 MPI_Allreduce 1
355903053 MPI_Allreduce 0
355903053 MPI_Allreduce 1
355903073 MPI_Send 0
355903073 MPI_Send 1
355903073 MPI_Wait 0
355903073 MPI_Wait 1
355903493 MPI_Allreduce 0
355903493 MPI_Allreduce 1
355903546 MPI_Allreduce 0
355903546 MPI_Allreduce 1
355903569 MPI_Send 0
355903569 MPI_Send 1
355903569 MPI_Wait 0
355903569 MPI_Wait 1
355903991 MPI_Allreduce 0
355903991 MPI_Allreduce 1
355904044 MPI_Allreduce 0
355904044 MPI_Allreduce 1
355904067 MPI_Send 0
355904067 MPI_Send 1
355904067 MPI_Wait 0
355904067 MPI_Wait 1
355904488 MPI_Allreduce 0
355904488 MPI_Allreduce 1
355904541 MPI_Allreduce 0
355904541 MPI_Allreduce 1
355904564 MPI_Send 0
355904564 MPI_Send 1
355904564 MPI_Wait 0
355904564 MPI_Wait 1
355904986 MPI_Allreduce 0
355904986 MPI_Allreduce 1
355905039 MPI_Allreduce 0
355905039 MPI_Allreduce 1
355905062 MPI_Send 0
355905062 MPI_Send 1
355905062 MPI_Wait 0
355905062 MPI_Wait 1
355905483 MPI_Allreduce 0
355905483 MPI_Allreduce 1
355905536 MPI_Allreduce 0
355905536 MPI_Allreduce 1
355905559 MPI_Send 0
355905560 MPI_Send 1
355905560 MPI_Wait 0
355905560 MPI_Wait 1
355905980 MPI_Allreduce 0
355905980 MPI_Allreduce 1
355906033 MPI_Allreduce 0
355906033 MPI_Allreduce 1
355906056 MPI_Send 0
355906056 MPI_Send 1
355906056 MPI_Wait 0
355906056 MPI_Wait 1
355906477 MPI_Allreduce 0
355906477 MPI_Allreduce 1
355906530 MPI_Allreduce 0
355906531 MPI_Allreduce 1
355906553 MPI_Send 0
355906554 MPI_Send 1
355906554 MPI_Wait 0
355906554 MPI_Wait 1
355906970 MPI_Allreduce 0
355906970 MPI_Allreduce 1
355907023 MPI_Allreduce 0
355907023 MPI_Allreduce 1
355907046 MPI_Send 0
355907047 MPI_Send 1
355907047 MPI_Wait 0
355907047 MPI_Wait 1
355907468 MPI_Allreduce 0
355907468 MPI_Allreduce 1
355907521 MPI_Allreduce 0
355907521 MPI_Allreduce 1
355907544 MPI_Send 0
355907544 MPI_Send 1
355907544 MPI_Wait 0
355907544 MPI_Wait 1
355907965 MPI_Allreduce 0
355907965 MPI_Allreduce 1
355908019 MPI_Allreduce 0
355908019 MPI_Allreduce 1
355908042 MPI_Send 0
355908042 MPI_Send 1
355908042 MPI_Wait 0
355908042 MPI_Wait 1
355908463 MPI_Allreduce 0
355908463 MPI_Allreduce 1
355908516 MPI_Allreduce 0
355908516 MPI_Allreduce 1
355908539 MPI_Send 0
355908539 MPI_Send 1
355908539 MPI_Wait 0
355908539 MPI_Wait 1
355908960 MPI_Allreduce 0
355908960 MPI_Allreduce 1
355909013 MPI_Allreduce 0
355909013 MPI_Allreduce 1
355909036 MPI_Send 0
355909036 MPI_Send 1
355909036 MPI_Wait 0
355909036 MPI_Wait 1
355909457 MPI_Allreduce 0
355909457 MPI_Allreduce 1
355909510 MPI_Allreduce 0
355909510 MPI_Allreduce 1
355909533 MPI_Send 0
355909534 MPI_Send 1
355909534 MPI_Wait 0
355909534 MPI_Wait 1
355909955 MPI_Allreduce 0
355909955 MPI_Allreduce 1
355910008 MPI_Allreduce 0
355910008 MPI_Allreduce 1
355910031 MPI_Send 0
355910031 MPI_Send 1
355910031 MPI_Wait 0
355910031 MPI_Wait 1
355910448 MPI_Allreduce 0
355910448 MPI_Allreduce 1
355910501 MPI_Allreduce 0
355910501 MPI_Allreduce 1
355910524 MPI_Send 0
355910524 MPI_Send 1
355910524 MPI_Wait 0
355910524 MPI_Wait 1
355910945 MPI_Allreduce 0
355910945 MPI_Allreduce 1
355910998 MPI_Allreduce 0
355910998 MPI_Allreduce 1
355911021 MPI_Send 0
355911021 MPI_Send 1
355911021 MPI_Wait 0
355911021 MPI_Wait 1
355911442 MPI_Allreduce 0
355911442 MPI_Allreduce 1
355911495 MPI_Allreduce 0
355911495 MPI_Allreduce 1
355911518 MPI_Send 0
355911519 MPI_Send 1
355911519 MPI_Wait 0
355911519 MPI_Wait 1
355911940 MPI_Allreduce 0
355911940 MPI_Allreduce 1
355911993 MPI_Allreduce 0
355911993 MPI_Allreduce 1
355912016 MPI_Send 0
355912016 MPI_Send 1
355912016 MPI_Wait 0
355912016 MPI_Wait 1
355912437 MPI_Allreduce 0
355912437 MPI_Allreduce 1
355912490 MPI_Allreduce 0
355912490 MPI_Allreduce 1
355912513 MPI_Send 0
355912513 MPI_Send 1
355912513 MPI_Wait 0
355912513 MPI_Wait 1
355912934 MPI_Allreduce 0
355912934 MPI_Allreduce 1
355912987 MPI_Allreduce 0
355912987 MPI_Allreduce 1
355913010 MPI_Send 0
355913010 MPI_Send 1
355913010 MPI_Wait 0
355913010 MPI_Wait 1
355913431 MPI_Allreduce 0
355913431 MPI_Allreduce 1
355913485 MPI_Allreduce 0
355913485 MPI_Allreduce 1
355913508 MPI_Send 0
355913508 MPI_Send 1
355913508 MPI_Wait 0
355913508 MPI_Wait 1
355913925 MPI_Allreduce 0
355913925 MPI_Allreduce 1
355913978 MPI_Allreduce 0
355913978 MPI_Allreduce 1
355914000 MPI_Send 0
355914000 MPI_Send 1
355914000 MPI_Wait 0
355914000 MPI_Wait 1
355914421 MPI_Allreduce 0
355914421 MPI_Allreduce 1
355914474 MPI_Allreduce 0
355914474 MPI_Allreduce 1
355914497 MPI_Send 0
355914497 MPI_Send 1
355914497 MPI_Wait 0
355914497 MPI_Wait 1
355914918 MPI_Allreduce 0
355914918 MPI_Allreduce 1
355914972 MPI_Allreduce 0
355914972 MPI_Allreduce 1
355914995 MPI_Send 0
355914995 MPI_Send 1
355914995 MPI_Wait 0
355914995 MPI_Wait 1
355915416 MPI_Allreduce 0
355915416 MPI_Allreduce 1
355915469 MPI_Allreduce 0
355915469 MPI_Allreduce 1
355915492 MPI_Send 0
355915492 MPI_Send 1
355915492 MPI_Wait 0
355915492 MPI_Wait 1
355915913 MPI_Allreduce 0
355915913 MPI_Allreduce 1
355915966 MPI_Allreduce 0
355915966 MPI_Allreduce 1
355915989 MPI_Send 0
355915989 MPI_Send 1
355915989 MPI_Wait 0
355915989 MPI_Wait 1
355916410 MPI_Allreduce 0
355916410 MPI_Allreduce 1
355916463 MPI_Allreduce 0
355916463 MPI_Allreduce 1
355916486 MPI_Send 0
355916486 MPI_Send 1
355916486 MPI_Wait 0
355916486 MPI_Wait 1
355916907 MPI_Allreduce 0
355916907 MPI_Allreduce 1
355916960 MPI_Allreduce 0
355916960 MPI_Allreduce 1
355916983 MPI_Send 0
355916984 MPI_Send 1
355916984 MPI_Wait 0
355916984 MPI_Wait 1
355917402 MPI_Allreduce 0
355917402 MPI_Allreduce 1
355917454 MPI_Allreduce 0
355917454 MPI_Allreduce 1
355917477 MPI_Send 0
355917477 MPI_Send 1
355917477 MPI_Wait 0
355917477 MPI_Wait 1
355917897 MPI_Allreduce 0
355917897 MPI_Allreduce 1
355917950 MPI_Allreduce 0
355917950 MPI_Allreduce 1
355917973 MPI_Send 0
355917973 MPI_Send 1
355917973 MPI_Wait 0
355917973 MPI_Wait 1
355918395 MPI_Allreduce 0
355918395 MPI_Allreduce 1
355918448 MPI_Allreduce 0
355918448 MPI_Allreduce 1
355918471 MPI_Send 0
355918471 MPI_Send 1
355918471 MPI_Wait 0
355918471 MPI_Wait 1
355918892 MPI_Allreduce 0
355918892 MPI_Allreduce 1
355918945 MPI_Allreduce 0
355918945 MPI_Allreduce 1
355918968 MPI_Send 0
355918968 MPI_Send 1
355918968 MPI_Wait 0
355918968 MPI_Wait 1
355919390 MPI_Allreduce 0
355919390 MPI_Allreduce 1
355919443 MPI_Allreduce 0
355919443 MPI_Allreduce 1
355919466 MPI_Send 0
355919466 MPI_Send 1
355919466 MPI_Wait 0
355919466 MPI_Wait 1
355919888 MPI_Allreduce 0
355919888 MPI_Allreduce 1
355919941 MPI_Allreduce 0
355919941 MPI_Allreduce 1
355919964 MPI_Send 0
355919964 MPI_Send 1
355919964 MPI_Wait 0
355919964 MPI_Wait 1
355920385 MPI_Allreduce 0
355920385 MPI_Allreduce 1
355920438 MPI_Allreduce 0
355920438 MPI_Allreduce 1
355920461 MPI_Send 0
355920461 MPI_Send 1
355920461 MPI_Wait 0
355920461 MPI_Wait 1
355920881 MPI_Allreduce 0
355920881 MPI_Allreduce 1
355920933 MPI_Allreduce 0
355920933 MPI_Allreduce 1
355920953 MPI_Send 0
355920953 MPI_Send 1
355920953 MPI_Wait 0
355920953 MPI_Wait 1
355921375 MPI_Allreduce 0
355921375 MPI_Allreduce 1
355921428 MPI_Allreduce 0
355921428 MPI_Allreduce 1
355921451 MPI_Send 0
355921451 MPI_Send 1
355921451 MPI_Wait 0
355921451 MPI_Wait 1
355921873 MPI_Allreduce 0
355921873 MPI_Allreduce 1
355921926 MPI_Allreduce 0
355921926 MPI_Allreduce 1
355921949 MPI_Send 0
355921949 MPI_Send 1
355921949 MPI_Wait 0
355921949 MPI_Wait 1
355922370 MPI_Allreduce 0
355922370 MPI_Allreduce 1
355922423 MPI_Allreduce 0
355922423 MPI_Allreduce 1
355922446 MPI_Send 0
355922447 MPI_Send 1
355922447 MPI_Wait 0
355922447 MPI_Wait 1
355922868 MPI_Allreduce 0
355922868 MPI_Allreduce 1
355922921 MPI_Allreduce 0
355922921 MPI_Allreduce 1
355922944 MPI_Send 0
355922944 MPI_Send 1
355922944 MPI_Wait 0
355922944 MPI_Wait 1
355923365 MPI_Allreduce 0
355923365 MPI_Allreduce 1
355923418 MPI_Allreduce 0
355923418 MPI_Allreduce 1
355923441 MPI_Send 0
355923441 MPI_Send 1
355923441 MPI_Wait 0
355923441 MPI_Wait 1
355923862 MPI_Allreduce 0
355923862 MPI_Allreduce 1
355923916 MPI_Allreduce 0
355923916 MPI_Allreduce 1
355923939 MPI_Send 0
355923939 MPI_Send 1
355923939 MPI_Wait 0
355923939 MPI_Wait 1
355924360 MPI_Allreduce 0
355924360 MPI_Allreduce 1
355924413 MPI_Allreduce 0
355924413 MPI_Allreduce 1
355924436 MPI_Send 0
355924436 MPI_Send 1
355924436 MPI_Wait 0
355924436 MPI_Wait 1
355924852 MPI_Allreduce 0
355924852 MPI_Allreduce 1
355924905 MPI_Allreduce 0
355924905 MPI_Allreduce 1
355924928 MPI_Send 0
355924928 MPI_Send 1
355924928 MPI_Wait 0
355924928 MPI_Wait 1
355925349 MPI_Allreduce 0
355925349 MPI_Allreduce 1
355925402 MPI_Allreduce 0
355925402 MPI_Allreduce 1
355925425 MPI_Send 0
355925425 MPI_Send 1
355925425 MPI_Wait 0
355925425 MPI_Wait 1
355925846 MPI_Allreduce 0
355925846 MPI_Allreduce 1
355925900 MPI_Allreduce 0
355925900 MPI_Allreduce 1
355925923 MPI_Send 0
355925923 MPI_Send 1
355925923 MPI_Wait 0
355925923 MPI_Wait 1
355926344 MPI_Allreduce 0
355926344 MPI_Allreduce 1
355926397 MPI_Allreduce 0
355926397 MPI_Allreduce 1
355926420 MPI_Send 0
355926420 MPI_Send 1
355926420 MPI_Wait 0
355926420 MPI_Wait 1
355926842 MPI_Allreduce 0
355926842 MPI_Allreduce 1
355926895 MPI_Allreduce 0
355926895 MPI_Allreduce 1
355926918 MPI_Send 0
355926918 MPI_Send 1
355926918 MPI_Wait 0
355926918 MPI_Wait 1
355927340 MPI_Allreduce 0
355927340 MPI_Allreduce 1
355927393 MPI_Allreduce 0
355927393 MPI_Allreduce 1
355927416 MPI_Send 0
355927416 MPI_Send 1
355927416 MPI_Wait 0
355927416 MPI_Wait 1
355927837 MPI_Allreduce 0
355927837 MPI_Allreduce 1
355927890 MPI_Allreduce 0
355927890 MPI_Allreduce 1
355927913 MPI_Send 0
355927913 MPI_Send 1
355927913 MPI_Wait 0
355927913 MPI_Wait 1
355928330 MPI_Allreduce 0
355928330 MPI_Allreduce 1
355928383 MPI_Allreduce 0
355928383 MPI_Allreduce 1
355928406 MPI_Send 0
355928406 MPI_Send 1
355928406 MPI_Wait 0
355928406 MPI_Wait 1
355928827 MPI_Allreduce 0
355928827 MPI_Allreduce 1
355928881 MPI_Allreduce 0
355928881 MPI_Allreduce 1
355928903 MPI_Send 0
355928904 MPI_Send 1
355928904 MPI_Wait 0
355928904 MPI_Wait 1
355929325 MPI_Allreduce 0
355929325 MPI_Allreduce 1
355929378 MPI_Allreduce 0
355929378 MPI_Allreduce 1
355929401 MPI_Send 0
355929401 MPI_Send 1
355929401 MPI_Wait 0
355929401 MPI_Wait 1
355929823 MPI_Allreduce 0
355929823 MPI_Allreduce 1
355929876 MPI_Allreduce 0
355929876 MPI_Allreduce 1
355929899 MPI_Send 0
355929899 MPI_Send 1
355929899 MPI_Wait 0
355929899 MPI_Wait 1
355930320 MPI_Allreduce 0
355930320 MPI_Allreduce 1
355930373 MPI_Allreduce 0
355930373 MPI_Allreduce 1
355930397 MPI_Send 0
355930397 MPI_Send 1
355930397 MPI_Wait 0
355930397 MPI_Wait 1
355930818 MPI_Allreduce 0
355930818 MPI_Allreduce 1
355930871 MPI_Allreduce 0
355930871 MPI_Allreduce 1
355930894 MPI_Send 0
355930895 MPI_Send 1
355930895 MPI_Wait 0
355930895 MPI_Wait 1
355931316 MPI_Allreduce 0
355931316 MPI_Allreduce 1
355931369 MPI_Allreduce 0
355931369 MPI_Allreduce 1
355931392 MPI_Send 0
355931392 MPI_Send 1
355931392 MPI_Wait 0
355931392 MPI_Wait 1
355931809 MPI_Allreduce 0
355931809 MPI_Allreduce 1
355931861 MPI_Allreduce 0
355931861 MPI_Allreduce 1
355931884 MPI_Send 0
355931884 MPI_Send 1
355931884 MPI_Wait 0
355931884 MPI_Wait 1
355932305 MPI_Allreduce 0
355932305 MPI_Allreduce 1
355932358 MPI_Allreduce 0
355932358 MPI_Allreduce 1
355932381 MPI_Send 0
355932381 MPI_Send 1
355932381 MPI_Wait 0
355932381 MPI_Wait 1
355932802 MPI_Allreduce 0
355932802 MPI_Allreduce 1
355932855 MPI_Allreduce 0
355932855 MPI_Allreduce 1
355932878 MPI_Send 0
355932879 MPI_Send 1
355932879 MPI_Wait 0
355932879 MPI_Wait 1
355933300 MPI_Allreduce 0
355933300 MPI_Allreduce 1
355933353 MPI_Allreduce 0
355933353 MPI_Allreduce 1
355933376 MPI_Send 0
355933376 MPI_Send 1
355933376 MPI_Wait 0
355933376 MPI_Wait 1
355933797 MPI_Allreduce 0
355933797 MPI_Allreduce 1
355933850 MPI_Allreduce 0
355933850 MPI_Allreduce 1
355933873 MPI_Send 0
355933873 MPI_Send 1
355933873 MPI_Wait 0
355933873 MPI_Wait 1
355934294 MPI_Allreduce 0
355934294 MPI_Allreduce 1
355934347 MPI_Allreduce 0
355934347 MPI_Allreduce 1
355934370 MPI_Send 0
355934371 MPI_Send 1
355934371 MPI_Wait 0
355934371 MPI_Wait 1
355934791 MPI_Allreduce 0
355934791 MPI_Allreduce 1
355934844 MPI_Allreduce 0
355934844 MPI_Allreduce 1
355934867 MPI_Send 0
355934868 MPI_Send 1
355934868 MPI_Wait 0
355934868 MPI_Wait 1
355935285 MPI_Allreduce 0
355935285 MPI_Allreduce 1
355935338 MPI_Allreduce 0
355935338 MPI_Allreduce 1
355935360 MPI_Send 0
355935360 MPI_Send 1
355935360 MPI_Wait 0
355935360 MPI_Wait 1
355935782 MPI_Allreduce 0
355935782 MPI_Allreduce 1
355935835 MPI_Allreduce 0
355935835 MPI_Allreduce 1
355935858 MPI_Send 0
355935858 MPI_Send 1
355935858 MPI_Wait 0
355935858 MPI_Wait 1
355936279 MPI_Allreduce 0
355936279 MPI_Allreduce 1
355936332 MPI_Allreduce 0
355936332 MPI_Allreduce 1
355936355 MPI_Send 0
355936355 MPI_Send 1
355936355 MPI_Wait 0
355936355 MPI_Wait 1
355936777 MPI_Allreduce 0
355936777 MPI_Allreduce 1
355936830 MPI_Allreduce 0
355936830 MPI_Allreduce 1
355936853 MPI_Send 0
355936853 MPI_Send 1
355936853 MPI_Wait 0
355936853 MPI_Wait 1
355937274 MPI_Allreduce 0
355937274 MPI_Allreduce 1
355937327 MPI_Allreduce 0
355937327 MPI_Allreduce 1
355937350 MPI_Send 0
355937350 MPI_Send 1
355937350 MPI_Wait 0
355937350 MPI_Wait 1
355937771 MPI_Allreduce 0
355937771 MPI_Allreduce 1
355937824 MPI_Allreduce 0
355937824 MPI_Allreduce 1
355937847 MPI_Send 0
355937848 MPI_Send 1
355937848 MPI_Wait 0
355937848 MPI_Wait 1
355938268 MPI_Allreduce 0
355938268 MPI_Allreduce 1
355938321 MPI_Allreduce 0
355938321 MPI_Allreduce 1
355938344 MPI_Send 0
355938345 MPI_Send 1
355938345 MPI_Wait 0
355938345 MPI_Wait 1
355938763 MPI_Allreduce 0
355938763 MPI_Allreduce 1
355938816 MPI_Allreduce 0
355938816 MPI_Allreduce 1
355938838 MPI_Send 0
355938839 MPI_Send 1
355938839 MPI_Wait 0
355938839 MPI_Wait 1
355939259 MPI_Allreduce 0
355939259 MPI_Allreduce 1
355939312 MPI_Allreduce 0
355939312 MPI_Allreduce 1
355939335 MPI_Send 0
355939335 MPI_Send 1
355939335 MPI_Wait 0
355939335 MPI_Wait 1
355939756 MPI_Allreduce 0
355939756 MPI_Allreduce 1
355939809 MPI_Allreduce 0
355939809 MPI_Allreduce 1
355939832 MPI_Send 0
355939832 MPI_Send 1
355939832 MPI_Wait 0
355939832 MPI_Wait 1
355940254 MPI_Allreduce 0
355940254 MPI_Allreduce 1
355940307 MPI_Allreduce 0
355940307 MPI_Allreduce 1
355940330 MPI_Send 0
355940330 MPI_Send 1
355940330 MPI_Wait 0
355940330 MPI_Wait 1
355940751 MPI_Allreduce 0
355940751 MPI_Allreduce 1
355940804 MPI_Allreduce 0
355940804 MPI_Allreduce 1
355940827 MPI_Send 0
355940827 MPI_Send 1
355940827 MPI_Wait 0
355940827 MPI_Wait 1
355941248 MPI_Allreduce 0
355941248 MPI_Allreduce 1
355941301 MPI_Allreduce 0
355941301 MPI_Allreduce 1
355941324 MPI_Send 0
355941324 MPI_Send 1
355941324 MPI_Wait 0
355941324 MPI_Wait 1
355941746 MPI_Allreduce 0
355941746 MPI_Allreduce 1
355941799 MPI_Allreduce 0
355941799 MPI_Allreduce 1
355941822 MPI_Send 0
355941822 MPI_Send 1
355941822 MPI_Wait 0
355941822 MPI_Wait 1
355942243 MPI_Allreduce 0
355942243 MPI_Allreduce 1
355942296 MPI_Allreduce 0
355942296 MPI_Allreduce 1
355942316 MPI_Send 0
355942316 MPI_Send 1
355942316 MPI_Wait 0
355942316 MPI_Wait 1
355942737 MPI_Allreduce 0
355942737 MPI_Allreduce 1
355942790 MPI_Allreduce 0
355942790 MPI_Allreduce 1
355942813 MPI_Send 0
355942813 MPI_Send 1
355942813 MPI_Wait 0
355942813 MPI_Wait 1
355943235 MPI_Allreduce 0
355943235 MPI_Allreduce 1
355943288 MPI_Allreduce 0
355943288 MPI_Allreduce 1
355943311 MPI_Send 0
355943311 MPI_Send 1
355943311 MPI_Wait 0
355943311 MPI_Wait 1
355943732 MPI_Allreduce 0
355943732 MPI_Allreduce 1
355943785 MPI_Allreduce 0
355943785 MPI_Allreduce 1
355943808 MPI_Send 0
355943809 MPI_Send 1
355943809 MPI_Wait 0
355943809 MPI_Wait 1
355944229 MPI_Allreduce 0
355944229 MPI_Allreduce 1
355944282 MPI_Allreduce 0
355944282 MPI_Allreduce 1
355944305 MPI_Send 0
355944306 MPI_Send 1
355944306 MPI_Wait 0
355944306 MPI_Wait 1
355944727 MPI_Allreduce 0
355944727 MPI_Allreduce 1
355944780 MPI_Allreduce 0
355944780 MPI_Allreduce 1
355944803 MPI_Send 0
355944803 MPI_Send 1
355944803 MPI_Wait 0
355944803 MPI_Wait 1
355945224 MPI_Allreduce 0
355945224 MPI_Allreduce 1
355945277 MPI_Allreduce 0
355945277 MPI_Allreduce 1
355945300 MPI_Send 0
355945300 MPI_Send 1
355945300 MPI_Wait 0
355945300 MPI_Wait 1
355945722 MPI_Allreduce 0
355945722 MPI_Allreduce 1
355945775 MPI_Allreduce 0
355945775 MPI_Allreduce 1
355945798 MPI_Send 0
355945798 MPI_Send 1
355945798 MPI_Wait 0
355945798 MPI_Wait 1
355946215 MPI_Allreduce 0
355946215 MPI_Allreduce 1
355946268 MPI_Allreduce 0
355946268 MPI_Allreduce 1
355946291 MPI_Send 0
355946291 MPI_Send 1
355946291 MPI_Wait 0
355946291 MPI_Wait 1
355946712 MPI_Allreduce 0
355946712 MPI_Allreduce 1
355946765 MPI_Allreduce 0
355946765 MPI_Allreduce 1
355946788 MPI_Send 0
355946788 MPI_Send 1
355946788 MPI_Wait 0
355946788 MPI_Wait 1
355947209 MPI_Allreduce 0
355947209 MPI_Allreduce 1
355947262 MPI_Allreduce 0
355947262 MPI_Allreduce 1
355947285 MPI_Send 0
355947285 MPI_Send 1
355947285 MPI_Wait 0
355947285 MPI_Wait 1
355947707 MPI_Allreduce 0
355947707 MPI_Allreduce 1
355947760 MPI_Allreduce 0
355947760 MPI_Allreduce 1
355947783 MPI_Send 0
355947783 MPI_Send 1
355947783 MPI_Wait 0
355947783 MPI_Wait 1
355948204 MPI_Allreduce 0
355948204 MPI_Allreduce 1
355948257 MPI_Allreduce 0
355948257 MPI_Allreduce 1
355948280 MPI_Send 0
355948281 MPI_Send 1
355948281 MPI_Wait 0
355948281 MPI_Wait 1
355948702 MPI_Allreduce 0
355948702 MPI_Allreduce 1
355948755 MPI_Allreduce 0
355948755 MPI_Allreduce 1
355948778 MPI_Send 0
355948778 MPI_Send 1
355948778 MPI_Wait 0
355948778 MPI_Wait 1
355949200 MPI_Allreduce 0
355949200 MPI_Allreduce 1
355949253 MPI_Allreduce 0
355949253 MPI_Allreduce 1
355949276 MPI_Send 0
355949276 MPI_Send 1
355949276 MPI_Wait 0
355949276 MPI_Wait 1
355949692 MPI_Allreduce 0
355949692 MPI_Allreduce 1
355949745 MPI_Allreduce 0
355949745 MPI_Allreduce 1
355949768 MPI_Send 0
355949768 MPI_Send 1
355949768 MPI_Wait 0
355949768 MPI_Wait 1
355950190 MPI_Allreduce 0
355950190 MPI_Allreduce 1
355950243 MPI_Allreduce 0
355950243 MPI_Allreduce 1
355950266 MPI_Send 0
355950266 MPI_Send 1
355950266 MPI_Wait 0
355950266 MPI_Wait 1
355950687 MPI_Allreduce 0
355950687 MPI_Allreduce 1
355950741 MPI_Allreduce 0
355950741 MPI_Allreduce 1
355950764 MPI_Send 0
355950764 MPI_Send 1
355950764 MPI_Wait 0
355950764 MPI_Wait 1
355951185 MPI_Allreduce 0
355951185 MPI_Allreduce 1
355951238 MPI_Allreduce 0
355951238 MPI_Allreduce 1
355951261 MPI_Send 0
355951261 MPI_Send 1
355951261 MPI_Wait 0
355951261 MPI_Wait 1
355951682 MPI_Allreduce 0
355951682 MPI_Allreduce 1
355951735 MPI_Allreduce 0
355951735 MPI_Allreduce 1
355951758 MPI_Send 0
355951758 MPI_Send 1
355951758 MPI_Wait 0
355951758 MPI_Wait 1
355952179 MPI_Allreduce 0
355952179 MPI_Allreduce 1
355952232 MPI_Allreduce 0
355952233 MPI_Allreduce 1
355952255 MPI_Send 0
355952256 MPI_Send 1
355952256 MPI_Wait 0
355952256 MPI_Wait 1
355952677 MPI_Allreduce 0
355952677 MPI_Allreduce 1
355952730 MPI_Allreduce 0
355952730 MPI_Allreduce 1
355952753 MPI_Send 0
355952753 MPI_Send 1
355952753 MPI_Wait 0
355952753 MPI_Wait 1
355953170 MPI_Allreduce 0
355953170 MPI_Allreduce 1
355953223 MPI_Allreduce 0
355953223 MPI_Allreduce 1
355953245 MPI_Send 0
355953245 MPI_Send 1
355953245 MPI_Wait 0
355953245 MPI_Wait 1
355953667 MPI_Allreduce 0
355953667 MPI_Allreduce 1
355953720 MPI_Allreduce 0
355953720 MPI_Allreduce 1
355953743 MPI_Send 0
355953743 MPI_Send 1
355953743 MPI_Wait 0
355953743 MPI_Wait 1
355954164 MPI_Allreduce 0
355954164 MPI_Allreduce 1
355954217 MPI_Allreduce 0
355954217 MPI_Allreduce 1
355954240 MPI_Send 0
355954240 MPI_Send 1
355954240 MPI_Wait 0
355954240 MPI_Wait 1
355954662 MPI_Allreduce 0
355954662 MPI_Allreduce 1
355954715 MPI_Allreduce 0
355954715 MPI_Allreduce 1
355954738 MPI_Send 0
355954738 MPI_Send 1
355954738 MPI_Wait 0
355954738 MPI_Wait 1
355955159 MPI_Allreduce 0
355955159 MPI_Allreduce 1
355955212 MPI_Allreduce 0
355955212 MPI_Allreduce 1
355955235 MPI_Send 0
355955235 MPI_Send 1
355955235 MPI_Wait 0
355955235 MPI_Wait 1
355955656 MPI_Allreduce 0
355955656 MPI_Allreduce 1
355955710 MPI_Allreduce 0
355955710 MPI_Allreduce 1
355955733 MPI_Send 0
355955733 MPI_Send 1
355955733 MPI_Wait 0
355955733 MPI_Wait 1
355956154 MPI_Allreduce 0
355956154 MPI_Allreduce 1
355956207 MPI_Allreduce 0
355956207 MPI_Allreduce 1
355956230 MPI_Send 0
355956230 MPI_Send 1
355956230 MPI_Wait 0
355956230 MPI_Wait 1
355956648 MPI_Allreduce 0
355956648 MPI_Allreduce 1
355956700 MPI_Allreduce 0
355956700 MPI_Allreduce 1
355956723 MPI_Send 0
355956723 MPI_Send 1
355956723 MPI_Wait 0
355956723 MPI_Wait 1
355957144 MPI_Allreduce 0
355957144 MPI_Allreduce 1
355957197 MPI_Allreduce 0
355957197 MPI_Allreduce 1
355957220 MPI_Send 0
355957220 MPI_Send 1
355957220 MPI_Wait 0
355957220 MPI_Wait 1
355957641 MPI_Allreduce 0
355957641 MPI_Allreduce 1
355957694 MPI_Allreduce 0
355957694 MPI_Allreduce 1
355957717 MPI_Send 0
355957717 MPI_Send 1
355957717 MPI_Wait 0
355957717 MPI_Wait 1
355958138 MPI_Allreduce 0
355958138 MPI_Allreduce 1
355958191 MPI_Allreduce 0
355958191 MPI_Allreduce 1
355958215 MPI_Send 0
355958215 MPI_Send 1
355958215 MPI_Wait 0
355958215 MPI_Wait 1
355958636 MPI_Allreduce 0
355958636 MPI_Allreduce 1
355958689 MPI_Allreduce 0
355958689 MPI_Allreduce 1
355958712 MPI_Send 0
355958712 MPI_Send 1
355958712 MPI_Wait 0
355958712 MPI_Wait 1
355959134 MPI_Allreduce 0
355959134 MPI_Allreduce 1
355959187 MPI_Allreduce 0
355959187 MPI_Allreduce 1
355959210 MPI_Send 0
355959210 MPI_Send 1
355959210 MPI_Wait 0
355959210 MPI_Wait 1
355959631 MPI_Allreduce 0
355959631 MPI_Allreduce 1
355959685 MPI_Allreduce 0
355959685 MPI_Allreduce 1
355959707 MPI_Send 0
355959708 MPI_Send 1
355959708 MPI_Wait 0
355959708 MPI_Wait 1
355960127 MPI_Allreduce 0
355960127 MPI_Allreduce 1
355960178 MPI_Allreduce 0
355960178 MPI_Allreduce 1
355960200 MPI_Send 0
355960200 MPI_Send 1
355960200 MPI_Wait 0
355960200 MPI_Wait 1
355960617 MPI_Allreduce 0
355960617 MPI_Allreduce 1
355960670 MPI_Allreduce 0
355960670 MPI_Allreduce 1
355960693 MPI_Send 0
355960693 MPI_Send 1
355960693 MPI_Wait 0
355960693 MPI_Wait 1
355961114 MPI_Allreduce 0
355961114 MPI_Allreduce 1
355961167 MPI_Allreduce 0
355961167 MPI_Allreduce 1
355961190 MPI_Send 0
355961190 MPI_Send 1
355961190 MPI_Wait 0
355961190 MPI_Wait 1
355961611 MPI_Allreduce 0
355961611 MPI_Allreduce 1
355961664 MPI_Allreduce 0
355961664 MPI_Allreduce 1
355961687 MPI_Send 0
355961687 MPI_Send 1
355961687 MPI_Wait 0
355961687 MPI_Wait 1
355962109 MPI_Allreduce 0
355962109 MPI_Allreduce 1
355962162 MPI_Allreduce 0
355962162 MPI_Allreduce 1
355962185 MPI_Send 0
355962185 MPI_Send 1
355962185 MPI_Wait 0
355962185 MPI_Wait 1
355962607 MPI_Allreduce 0
355962607 MPI_Allreduce 1
355962660 MPI_Allreduce 0
355962660 MPI_Allreduce 1
355962683 MPI_Send 0
355962683 MPI_Send 1
355962683 MPI_Wait 0
355962683 MPI_Wait 1
355963104 MPI_Allreduce 0
355963104 MPI_Allreduce 1
355963157 MPI_Allreduce 0
355963157 MPI_Allreduce 1
355963180 MPI_Send 0
355963180 MPI_Send 1
355963180 MPI_Wait 0
355963180 MPI_Wait 1
355963601 MPI_Allreduce 0
355963601 MPI_Allreduce 1
355963654 MPI_Allreduce 0
355963654 MPI_Allreduce 1
355963674 MPI_Send 0
355963674 MPI_Send 1
355963674 MPI_Wait 0
355963674 MPI_Wait 1
355964095 MPI_Allreduce 0
355964095 MPI_Allreduce 1
355964148 MPI_Allreduce 0
355964148 MPI_Allreduce 1
355964171 MPI_Send 0
355964171 MPI_Send 1
355964171 MPI_Wait 0
355964171 MPI_Wait 1
355964592 MPI_Allreduce 0
355964592 MPI_Allreduce 1
355964646 MPI_Allreduce 0
355964646 MPI_Allreduce 1
355964669 MPI_Send 0
355964669 MPI_Send 1
355964669 MPI_Wait 0
355964669 MPI_Wait 1
355965090 MPI_Allreduce 0
355965090 MPI_Allreduce 1
355965143 MPI_Allreduce 0
355965143 MPI_Allreduce 1
355965166 MPI_Send 0
355965166 MPI_Send 1
355965166 MPI_Wait 0
355965166 MPI_Wait 1
355965587 MPI_Allreduce 0
355965588 MPI_Allreduce 1
355965641 MPI_Allreduce 0
355965641 MPI_Allreduce 1
355965664 MPI_Send 0
355965664 MPI_Send 1
355965664 MPI_Wait 0
355965664 MPI_Wait 1
355966085 MPI_Allreduce 0
355966085 MPI_Allreduce 1
355966138 MPI_Allreduce 0
355966138 MPI_Allreduce 1
355966161 MPI_Send 0
355966161 MPI_Send 1
355966161 MPI_Wait 0
355966161 MPI_Wait 1
355966582 MPI_Allreduce 0
355966582 MPI_Allreduce 1
355966635 MPI_Allreduce 0
355966635 MPI_Allreduce 1
355966658 MPI_Send 0
355966659 MPI_Send 1
355966659 MPI_Wait 0
355966659 MPI_Wait 1
355967080 MPI_Allreduce 0
355967080 MPI_Allreduce 1
355967134 MPI_Allreduce 0
355967134 MPI_Allreduce 1
355967157 MPI_Send 0
355967157 MPI_Send 1
355967157 MPI_Wait 0
355967157 MPI_Wait 1
355967573 MPI_Allreduce 0
355967573 MPI_Allreduce 1
355967626 MPI_Allreduce 0
355967626 MPI_Allreduce 1
355967649 MPI_Send 0
355967649 MPI_Send 1
355967649 MPI_Wait 0
355967649 MPI_Wait 1
355968070 MPI_Allreduce 0
355968070 MPI_Allreduce 1
355968124 MPI_Allreduce 0
355968124 MPI_Allreduce 1
355968147 MPI_Send 0
355968147 MPI_Send 1
355968147 MPI_Wait 0
355968147 MPI_Wait 1
355968568 MPI_Allreduce 0
355968568 MPI_Allreduce 1
355968621 MPI_Allreduce 0
355968621 MPI_Allreduce 1
355968644 MPI_Send 0
355968645 MPI_Send 1
355968645 MPI_Wait 0
355968645 MPI_Wait 1
355969066 MPI_Allreduce 0
355969066 MPI_Allreduce 1
355969119 MPI_Allreduce 0
355969119 MPI_Allreduce 1
355969142 MPI_Send 0
355969142 MPI_Send 1
355969142 MPI_Wait 0
355969142 MPI_Wait 1
355969563 MPI_Allreduce 0
355969563 MPI_Allreduce 1
355969616 MPI_Allreduce 0
355969616 MPI_Allreduce 1
355969639 MPI_Send 0
355969639 MPI_Send 1
355969639 MPI_Wait 0
355969639 MPI_Wait 1
355970061 MPI_Allreduce 0
355970061 MPI_Allreduce 1
355970114 MPI_Allreduce 0
355970114 MPI_Allreduce 1
355970137 MPI_Send 0
355970137 MPI_Send 1
355970137 MPI_Wait 0
355970137 MPI_Wait 1
355970558 MPI_Allreduce 0
355970558 MPI_Allreduce 1
355970611 MPI_Allreduce 0
355970612 MPI_Allreduce 1
355970635 MPI_Send 0
355970635 MPI_Send 1
355970635 MPI_Wait 0
355970635 MPI_Wait 1
355971051 MPI_Allreduce 0
355971051 MPI_Allreduce 1
355971104 MPI_Allreduce 0
355971104 MPI_Allreduce 1
355971127 MPI_Send 0
355971127 MPI_Send 1
355971127 MPI_Wait 0
355971127 MPI_Wait 1
355971548 MPI_Allreduce 0
355971548 MPI_Allreduce 1
355971601 MPI_Allreduce 0
355971601 MPI_Allreduce 1
355971624 MPI_Send 0
355971624 MPI_Send 1
355971624 MPI_Wait 0
355971624 MPI_Wait 1
355972045 MPI_Allreduce 0
355972045 MPI_Allreduce 1
355972098 MPI_Allreduce 0
355972098 MPI_Allreduce 1
355972121 MPI_Send 0
355972121 MPI_Send 1
355972121 MPI_Wait 0
355972121 MPI_Wait 1
355972542 MPI_Allreduce 0
355972542 MPI_Allreduce 1
355972596 MPI_Allreduce 0
355972596 MPI_Allreduce 1
355972619 MPI_Send 0
355972619 MPI_Send 1
355972619 MPI_Wait 0
355972619 MPI_Wait 1
355973040 MPI_Allreduce 0
355973040 MPI_Allreduce 1
355973093 MPI_Allreduce 0
355973093 MPI_Allreduce 1
355973116 MPI_Send 0
355973116 MPI_Send 1
355973116 MPI_Wait 0
355973116 MPI_Wait 1
355973538 MPI_Allreduce 0
355973538 MPI_Allreduce 1
355973591 MPI_Allreduce 0
355973591 MPI_Allreduce 1
355973614 MPI_Send 0
355973614 MPI_Send 1
355973614 MPI_Wait 0
355973614 MPI_Wait 1
355974035 MPI_Allreduce 0
355974035 MPI_Allreduce 1
355974089 MPI_Allreduce 0
355974089 MPI_Allreduce 1
355974112 MPI_Send 0
355974112 MPI_Send 1
355974112 MPI_Wait 0
355974112 MPI_Wait 1
355974529 MPI_Allreduce 0
355974529 MPI_Allreduce 1
355974581 MPI_Allreduce 0
355974581 MPI_Allreduce 1
355974604 MPI_Send 0
355974604 MPI_Send 1
355974604 MPI_Wait 0
355974604 MPI_Wait 1
355975026 MPI_Allreduce 0
355975026 MPI_Allreduce 1
355975079 MPI_Allreduce 0
355975079 MPI_Allreduce 1
355975102 MPI_Send 0
355975102 MPI_Send 1
355975102 MPI_Wait 0
355975102 MPI_Wait 1
355975523 MPI_Allreduce 0
355975523 MPI_Allreduce 1
355975576 MPI_Allreduce 0
355975576 MPI_Allreduce 1
355975599 MPI_Send 0
355975599 MPI_Send 1
355975599 MPI_Wait 0
355975599 MPI_Wait 1
355976021 MPI_Allreduce 0
355976021 MPI_Allreduce 1
355976074 MPI_Allreduce 0
355976074 MPI_Allreduce 1
355976097 MPI_Send 0
355976097 MPI_Send 1
355976097 MPI_Wait 0
355976097 MPI_Wait 1
355976518 MPI_Allreduce 0
355976518 MPI_Allreduce 1
355976572 MPI_Allreduce 0
355976572 MPI_Allreduce 1
355976595 MPI_Send 0
355976595 MPI_Send 1
355976595 MPI_Wait 0
355976595 MPI_Wait 1
355977016 MPI_Allreduce 0
355977016 MPI_Allreduce 1
355977069 MPI_Allreduce 0
355977069 MPI_Allreduce 1
355977092 MPI_Send 0
355977092 MPI_Send 1
355977092 MPI_Wait 0
355977092 MPI_Wait 1
355977513 MPI_Allreduce 0
355977513 MPI_Allreduce 1
355977566 MPI_Allreduce 0
355977566 MPI_Allreduce 1
355977589 MPI_Send 0
355977589 MPI_Send 1
355977589 MPI_Wait 0
355977589 MPI_Wait 1
355978008 MPI_Allreduce 0
355978008 MPI_Allreduce 1
355978060 MPI_Allreduce 0
355978060 MPI_Allreduce 1
355978083 MPI_Send 0
355978083 MPI_Send 1
355978083 MPI_Wait 0
355978083 MPI_Wait 1
355978503 MPI_Allreduce 0
355978503 MPI_Allreduce 1
355978556 MPI_Allreduce 0
355978556 MPI_Allreduce 1
355978579 MPI_Send 0
355978579 MPI_Send 1
355978579 MPI_Wait 0
355978579 MPI_Wait 1
355979001 MPI_Allreduce 0
355979001 MPI_Allreduce 1
355979054 MPI_Allreduce 0
355979054 MPI_Allreduce 1
355979076 MPI_Send 0
355979077 MPI_Send 1
355979077 MPI_Wait 0
355979077 MPI_Wait 1
355979498 MPI_Allreduce 0
355979498 MPI_Allreduce 1
355979551 MPI_Allreduce 0
355979551 MPI_Allreduce 1
355979574 MPI_Send 0
355979574 MPI_Send 1
355979574 MPI_Wait 0
355979574 MPI_Wait 1
355979995 MPI_Allreduce 0
355979995 MPI_Allreduce 1
355980048 MPI_Allreduce 0
355980048 MPI_Allreduce 1
355980071 MPI_Send 0
355980072 MPI_Send 1
355980072 MPI_Wait 0
355980072 MPI_Wait 1
355980493 MPI_Allreduce 0
355980493 MPI_Allreduce 1
355980546 MPI_Allreduce 0
355980546 MPI_Allreduce 1
355980569 MPI_Send 0
355980569 MPI_Send 1
355980569 MPI_Wait 0
355980569 MPI_Wait 1
355980990 MPI_Allreduce 0
355980990 MPI_Allreduce 1
355981043 MPI_Allreduce 0
355981043 MPI_Allreduce 1
355981066 MPI_Send 0
355981066 MPI_Send 1
355981066 MPI_Wait 0
355981066 MPI_Wait 1
355981486 MPI_Allreduce 0
355981486 MPI_Allreduce 1
355981534 MPI_Allreduce 0
355981534 MPI_Allreduce 1
355981554 MPI_Send 0
355981555 MPI_Send 1
355981555 MPI_Wait 0
355981555 MPI_Wait 1
355981972 MPI_Allreduce 0
355981972 MPI_Allreduce 1
355982025 MPI_Allreduce 0
355982025 MPI_Allreduce 1
355982048 MPI_Send 0
355982048 MPI_Send 1
355982048 MPI_Wait 0
355982048 MPI_Wait 1
355982469 MPI_Allreduce 0
355982469 MPI_Allreduce 1
355982522 MPI_Allreduce 0
355982522 MPI_Allreduce 1
355982545 MPI_Send 0
355982545 MPI_Send 1
355982545 MPI_Wait 0
355982545 MPI_Wait 1
355982966 MPI_Allreduce 0
355982966 MPI_Allreduce 1
355983019 MPI_Allreduce 0
355983020 MPI_Allreduce 1
355983043 MPI_Send 0
355983043 MPI_Send 1
355983043 MPI_Wait 0
355983043 MPI_Wait 1
355983465 MPI_Allreduce 0
355983465 MPI_Allreduce 1
355983517 MPI_Allreduce 0
355983518 MPI_Allreduce 1
355983541 MPI_Send 0
355983541 MPI_Send 1
355983541 MPI_Wait 0
355983541 MPI_Wait 1
355983962 MPI_Allreduce 0
355983962 MPI_Allreduce 1
355984016 MPI_Allreduce 0
355984016 MPI_Allreduce 1
355984039 MPI_Send 0
355984039 MPI_Send 1
355984039 MPI_Wait 0
355984039 MPI_Wait 1
355984460 MPI_Allreduce 0
355984460 MPI_Allreduce 1
355984513 MPI_Allreduce 0
355984513 MPI_Allreduce 1
355984536 MPI_Send 0
355984536 MPI_Send 1
355984536 MPI_Wait 0
355984536 MPI_Wait 1
355984957 MPI_Allreduce 0
355984957 MPI_Allreduce 1
355985009 MPI_Allreduce 0
355985009 MPI_Allreduce 1
355985029 MPI_Send 0
355985029 MPI_Send 1
355985029 MPI_Wait 0
355985029 MPI_Wait 1
355985450 MPI_Allreduce 0
355985450 MPI_Allreduce 1
355985503 MPI_Allreduce 0
355985503 MPI_Allreduce 1
355985526 MPI_Send 0
355985526 MPI_Send 1
355985526 MPI_Wait 0
355985526 MPI_Wait 1
355985948 MPI_Allreduce 0
355985948 MPI_Allreduce 1
355986001 MPI_Allreduce 0
355986001 MPI_Allreduce 1
355986024 MPI_Send 0
355986024 MPI_Send 1
355986024 MPI_Wait 0
355986024 MPI_Wait 1
355986445 MPI_Allreduce 0
355986445 MPI_Allreduce 1
355986499 MPI_Allreduce 0
355986499 MPI_Allreduce 1
355986522 MPI_Send 0
355986522 MPI_Send 1
355986522 MPI_Wait 0
355986522 MPI_Wait 1
355986943 MPI_Allreduce 0
355986943 MPI_Allreduce 1
355986996 MPI_Allreduce 0
355986996 MPI_Allreduce 1
355987019 MPI_Send 0
355987019 MPI_Send 1
355987019 MPI_Wait 0
355987019 MPI_Wait 1
355987441 MPI_Allreduce 0
355987441 MPI_Allreduce 1
355987494 MPI_Allreduce 0
355987494 MPI_Allreduce 1
355987517 MPI_Send 0
355987517 MPI_Send 1
355987517 MPI_Wait 0
355987517 MPI_Wait 1
355987937 MPI_Allreduce 0
355987937 MPI_Allreduce 1
355987991 MPI_Allreduce 0
355987991 MPI_Allreduce 1
355988014 MPI_Send 0
355988014 MPI_Send 1
355988014 MPI_Wait 0
355988014 MPI_Wait 1
355988435 MPI_Allreduce 0
355988435 MPI_Allreduce 1
355988488 MPI_Allreduce 0
355988488 MPI_Allreduce 1
355988511 MPI_Send 0
355988511 MPI_Send 1
355988511 MPI_Wait 0
355988511 MPI_Wait 1
355988928 MPI_Allreduce 0
355988928 MPI_Allreduce 1
