time(ms) energy(J) hostname
319647252 0.000000 box
319647352 1.160889 box
319647452 1.167786 box
319647552 1.164673 box
319647652 1.166626 box
319647752 1.160217 box
319647852 1.168213 box
319647952 1.169373 box
319648052 1.166565 box
319648152 1.161194 box
319648252 1.170105 box
319648352 1.163025 box
319648452 1.163879 box
319648552 1.164429 box
319648652 1.166504 box
319648752 1.164429 box
319648852 1.164185 box
319648952 1.177856 box
319649052 1.163879 box
319649152 1.167786 box
319649252 1.166565 box
319649352 1.175049 box
319649452 1.164490 box
319649552 1.162598 box
319649652 1.164307 box
319649752 1.175537 box
319649852 1.166260 box
319649952 1.163147 box
319650052 1.164124 box
319650152 1.168701 box
319650252 1.165161 box
319650352 1.177795 box
319650452 1.163696 box
319650552 1.171631 box
319650652 1.160156 box
319650752 1.166870 box
319650852 1.166504 box
319650952 1.166565 box
319651052 1.162964 box
319651152 1.171631 box
319651252 1.162231 box
319651352 1.165466 box
319651452 1.169006 box
319651552 1.165894 box
319651652 1.168518 box
319651752 1.169739 box
319651852 1.162415 box
319651952 1.165588 box
319652052 1.165283 box
319652152 1.170227 box
319652252 1.164978 box
319652352 1.165405 box
319652452 1.167358 box
319652552 1.174500 box
319652652 1.167786 box
319652752 1.160767 box
319652852 1.164978 box
319652952 1.169800 box
319653052 1.166382 box
319653152 1.170349 box
319653252 1.158325 box
319653352 1.172363 box
319653452 1.167358 box
319653552 1.166565 box
319653652 1.163940 box
319653752 1.173706 box
319653852 1.168945 box
319653952 1.162781 box
319654052 1.166992 box
319654152 1.168518 box
319654252 1.168274 box
319654352 1.162964 box
319654452 1.167542 box
319654552 1.169617 box
319654652 1.170471 box
319654752 1.161011 box
319654852 1.167664 box
319654952 1.164490 box
319655052 1.172485 box
319655152 1.162231 box
319655252 1.167480 box
319655352 1.169861 box
319655452 1.172485 box
319655552 1.160095 box
319655652 1.170593 box
319655752 1.157837 box
319655852 1.172607 box
319655952 1.165161 box
319656052 1.170898 box
319656152 1.162231 box
319656252 1.170837 box
319656352 1.163818 box
319656452 1.171387 box
319656552 1.162109 box
319656652 1.176086 box
319656752 1.165222 box
319656852 1.167786 box
319656952 1.160339 box
319657052 1.171875 box
319657152 1.163757 box
319657252 1.169067 box
319657352 1.170715 box
319657452 1.169678 box
319657552 1.165955 box
319657652 1.168213 box
319657752 1.169373 box
319657852 1.167419 box
319657952 1.170349 box
319658052 1.175476 box
319658152 1.169922 box
319658252 1.166931 box
319658352 1.169189 box
319658452 1.164490 box
319658552 1.173096 box
319658652 1.163269 box
319658752 1.177917 box
319658852 1.159729 box
319658952 1.170959 box
319659052 1.167175 box
319659152 1.173340 box
319659252 1.160217 box
319659352 1.175293 box
319659452 1.167114 box
319659552 1.170471 box
319659652 1.166931 box
319659752 1.165527 box
319659852 1.169739 box
319659952 1.164185 box
319660052 1.174011 box
319660152 1.165588 box
319660252 1.173828 box
319660352 1.160461 box
319660452 1.178223 box
319660552 1.163757 box
319660652 1.171204 box
319660752 1.168701 box
319660852 1.168579 box
319660952 1.168579 box
319661052 1.164124 box
319661152 1.174438 box
319661252 1.163025 box
319661352 1.170593 box
319661452 1.167419 box
319661552 1.172424 box
319661652 1.164795 box
319661752 1.172180 box
319661852 1.165222 box
319661952 1.169128 box
319662052 1.169556 box
319662152 1.171692 box
319662252 1.167114 box
319662352 1.168762 box
319662452 1.170959 box
319662552 1.165039 box
319662652 1.169373 box
319662752 1.168335 box
319662852 1.175720 box
319662952 1.167175 box
319663052 1.170349 box
319663152 1.167786 box
319663252 1.172607 box
319663352 1.169800 box
319663452 1.168884 box
319663552 1.168945 box
319663652 1.175354 box
319663752 1.170898 box
319663852 1.167114 box
319663952 1.166077 box
319664052 1.178833 box
319664152 1.172546 box
319664252 1.170044 box
319664352 1.176147 box
319664452 1.165588 box
319664552 1.171753 box
319664652 1.169312 box
319664752 1.172546 box
319664852 1.166016 box
319664952 1.179199 box
319665052 1.165955 box
319665152 1.170044 box
319665252 1.167786 box
319665352 1.175781 box
319665452 1.168762 box
319665552 1.172974 box
319665652 1.169128 box
319665752 1.173279 box
319665852 1.166992 box
319665952 1.173157 box
319666052 1.170532 box
319666152 1.168457 box
319666252 1.175964 box
319666352 1.168030 box
319666452 1.169739 box
319666552 1.171570 box
319666652 1.177551 box
319666752 1.159668 box
319666852 1.179382 box
319666952 1.164856 box
319667052 1.175415 box
319667152 1.167053 box
319667252 1.171021 box
319667352 1.168762 box
319667452 1.173035 box
319667552 1.173706 box
319667652 1.174133 box
319667752 1.169617 box
319667852 1.168823 box
319667952 1.179626 box
319668052 1.163696 box
319668152 1.173645 box
319668252 1.167786 box
319668352 1.176025 box
319668452 1.165100 box
319668552 1.171082 box
319668652 1.168335 box
319668752 1.176575 box
319668852 1.172852 box
319668952 1.168518 box
319669052 1.174561 box
319669152 1.166504 box
319647158 1.070557 box
