time(ms) energy(J) hostname
208937964 0.000000 box
208938064 0.812195 box
208938164 0.897522 box
208938264 0.889587 box
208938364 0.932800 box
208938464 0.950684 box
208938564 0.946411 box
208938664 0.951111 box
208938764 0.946960 box
208938864 0.946716 box
208938964 0.946228 box
208939064 0.945984 box
208939164 0.945068 box
208939280 1.092224 box
208939364 0.806946 box
208939464 0.946716 box
208939564 0.941406 box
208939664 0.947083 box
208939764 0.946106 box
208939864 0.945557 box
208939964 0.946899 box
208940064 0.946533 box
208940164 0.945374 box
208940264 0.947021 box
208940364 0.945618 box
208940464 0.946289 box
208940564 0.936096 box
208940664 0.946411 box
208940764 0.944336 box
208940864 0.939026 box
208940964 0.907898 box
208941064 0.918762 box
208941164 0.922974 box
208941264 0.895691 box
208941364 0.936951 box
208941464 0.903625 box
208941571 1.002197 box
208941664 0.877869 box
208941764 0.916931 box
208941864 0.931763 box
208941964 0.943909 box
208942064 0.946228 box
208942164 0.946655 box
208942264 0.945862 box
208942364 0.946655 box
208942464 0.946228 box
208942564 0.946411 box
208942664 0.946716 box
208942764 0.946228 box
208942864 0.952820 box
208942964 0.939331 box
208943064 0.947205 box
208943164 0.946350 box
208943264 0.947021 box
208943364 0.945862 box
208943464 0.946655 box
208943564 0.951660 box
208943664 0.946777 box
208943764 0.946228 box
208943864 0.946167 box
208943964 0.946899 box
208944064 0.946350 box
208944164 0.948242 box
208944264 0.945801 box
208944364 0.946167 box
208944464 0.946899 box
208944564 0.939941 box
208944664 0.946045 box
208944764 0.946228 box
208944864 0.946472 box
208944964 0.946045 box
208945064 0.946655 box
208945164 0.946533 box
208945264 0.945801 box
208945364 0.946716 box
208945464 0.947083 box
208945564 0.945862 box
208945664 0.947327 box
208945764 0.946167 box
208945864 0.946045 box
208945964 0.945923 box
208946064 0.952698 box
208946164 0.941650 box
208946264 0.794800 box
208946364 0.942993 box
208946464 0.937012 box
208946564 0.950195 box
208946664 0.946838 box
208946764 0.945618 box
208946864 0.946594 box
208946964 0.945801 box
208947064 0.946411 box
208947164 0.946472 box
208947264 0.946472 box
208947364 0.947754 box
208947464 0.945679 box
208947564 0.946716 box
208947664 0.946472 box
208947764 0.946167 box
208947864 0.946777 box
208947964 0.945251 box
208948064 0.946594 box
208948164 0.946594 box
208948264 0.946045 box
208948364 0.946777 box
208948464 0.946960 box
208948564 0.945862 box
208948664 0.946289 box
208948764 0.945862 box
208948864 0.946899 box
208948964 0.945618 box
208949064 0.946472 box
208949164 0.947266 box
208949264 0.945618 box
208949364 0.950989 box
208949464 0.941833 box
208949564 0.945251 box
208949664 0.946533 box
208949764 0.945251 box
208949864 0.952759 box
208949964 0.945984 box
208950064 0.941101 box
208950164 0.946716 box
208950264 0.945129 box
208950364 0.952087 box
208950464 0.946960 box
208950564 0.946106 box
208950664 0.940308 box
208950764 0.945679 box
208950864 0.947205 box
208950964 0.945435 box
208951064 0.952209 box
208951164 0.946777 box
208951264 0.946838 box
208951364 0.940125 box
208951464 0.946594 box
208951564 0.946777 box
208951664 0.945435 box
208951764 0.946045 box
208951864 0.948486 box
208951964 0.945923 box
208952064 0.952454 box
208952164 0.945862 box
208952264 0.944458 box
208952364 0.948364 box
208952464 0.945740 box
208952564 0.947083 box
208952664 0.946899 box
208952764 0.940002 box
208952864 0.947449 box
208952964 0.945312 box
208953064 0.946167 box
208953164 0.946655 box
208953264 0.951050 box
208953364 0.946167 box
208953464 0.947205 box
208953564 0.936768 box
208953664 0.946594 box
208953764 0.946777 box
208953864 0.945496 box
208953964 0.946106 box
208954064 0.945740 box
208954164 0.952026 box
208954264 0.946472 box
208954364 0.946045 box
208954464 0.946533 box
208954564 0.940979 box
208954664 0.947327 box
208954764 0.945923 box
208954864 0.946594 box
208954964 0.946045 box
208955064 0.946594 box
208955164 0.946289 box
208955264 0.946716 box
208955364 0.951050 box
208955464 0.947632 box
208955564 0.944458 box
208955664 0.940674 box
208955764 0.947632 box
208955864 0.945374 box
208955964 0.946716 box
208956064 0.945740 box
208956164 0.953369 box
208956264 0.946533 box
208956364 0.945618 box
208956464 0.940369 box
208956564 0.947327 box
208956664 0.945984 box
208956764 0.946289 box
208956864 0.946899 box
208956964 0.944946 box
208957064 0.953186 box
208957164 0.946838 box
208957264 0.946411 box
208957364 0.946350 box
208957464 0.939392 box
208957564 0.946411 box
208957664 0.945312 box
208957764 0.947327 box
208957864 0.946838 box
208957964 0.946350 box
208958064 0.946838 box
208958164 0.945557 box
208958264 0.955383 box
208958364 0.946411 box
208958464 0.947266 box
208958564 0.939697 box
208958664 0.946289 box
208958764 0.946289 box
208958864 0.946045 box
208958964 0.946472 box
208959064 0.946350 box
208959164 0.945618 box
208959264 0.952820 box
208959364 0.946350 box
208959464 0.946167 box
208959564 0.946167 box
208959664 0.940796 box
208959764 0.946655 box
208959864 0.947754 box
208959964 0.944702 box
208960064 0.948486 box
208960164 0.946350 box
208960264 0.945923 box
208960364 0.951721 box
208960464 0.946411 box
208960564 0.941162 box
208960664 0.946167 box
208960764 0.945679 box
208960864 0.947083 box
208960964 0.952332 box
208961064 0.945923 box
208961164 0.947021 box
208961264 0.935974 box
208961364 0.947021 box
208961464 0.945068 box
208961564 0.946899 box
208961664 0.946777 box
208961764 0.946838 box
208961864 0.945984 box
208961964 0.953003 box
208962064 0.946350 box
208962164 0.945557 box
208962264 0.939392 box
208962364 0.946167 box
208962464 0.946350 box
208962564 0.945862 box
208962664 0.945801 box
208962764 0.946960 box
208962864 0.952026 box
208962964 0.946899 box
208963064 0.946228 box
208963164 0.945618 box
208963264 0.941528 box
208963364 0.946472 box
208963464 0.945435 box
208963564 0.946228 box
208963664 0.947327 box
208963764 0.944702 box
208963864 0.946411 box
208963964 0.952332 box
208964064 0.946472 box
208964164 0.947144 box
208964264 0.940979 box
208964364 0.945496 box
208964464 0.946777 box
208964564 0.946716 box
208964664 0.946777 box
208964764 0.945984 box
208964864 0.946228 box
208964964 0.946716 box
208965064 0.950989 box
208965164 0.946899 box
208965264 0.945801 box
208965364 0.947021 box
208965464 0.940674 box
208965564 0.945129 box
208965664 0.947571 box
208965764 0.945496 box
208965864 0.946350 box
208965964 0.946411 box
208966064 0.945801 box
208966164 0.952454 box
208966264 0.946472 box
208966364 0.945129 box
208966464 0.946960 box
208966564 0.940430 box
208966664 0.946289 box
208966764 0.947266 box
208966864 0.945251 box
208966964 0.946167 box
208967064 0.947083 box
208967164 0.945801 box
208967264 0.949463 box
208967364 0.950073 box
208967464 0.946960 box
208967564 0.940002 box
208967664 0.946899 box
208967764 0.945557 box
208967864 0.952148 box
208967964 0.945251 box
208968064 0.947693 box
208968164 0.946472 box
208968264 0.940186 box
208968364 0.946594 box
208968464 0.946838 box
208968564 0.946411 box
208968664 0.945312 box
208968764 0.946350 box
208968864 0.946106 box
208968964 0.952759 box
208969064 0.940002 box
208969164 0.947876 box
208969264 0.946960 box
208969364 0.944519 box
208969464 0.952026 box
208969564 0.940857 box
208969664 0.946960 box
208969764 0.951416 box
208969864 0.940735 box
208969964 0.946106 box
208970064 0.954590 box
208970164 0.940247 box
208970264 0.946228 box
208970364 0.952393 box
208970464 0.940063 box
208970564 0.952026 box
208970664 0.941895 box
208970764 0.945679 box
208970864 0.945435 box
208970964 0.952515 box
208971064 0.940125 box
208971164 0.947876 box
208971264 0.951416 box
208971364 0.940308 box
208971464 0.947388 box
208971564 0.951294 box
208971664 0.945068 box
208971764 0.943054 box
208971864 0.951843 box
208971964 0.944519 box
208972064 0.943176 box
208972164 0.950867 box
208972264 0.941528 box
208972364 0.945251 box
208972464 0.947327 box
208972564 0.945251 box
208972664 0.953064 box
208972764 0.940125 box
208972864 0.952698 box
208972964 0.940308 box
208973064 0.946350 box
208973164 0.952393 box
208973264 0.937744 box
208973364 0.945740 box
208973464 0.947571 box
208973564 0.950867 box
208973664 0.940369 box
208973764 0.951538 box
208973864 0.940552 box
208973964 0.946472 box
208974064 0.951538 box
208974164 0.940735 box
208974264 0.946350 box
208974364 0.947632 box
208974464 0.951172 box
208974564 0.939819 box
208974664 0.951660 box
208974764 0.944824 box
208974864 0.942078 box
208974964 0.950134 box
208975064 0.942078 box
208975164 0.952087 box
208975264 0.940002 box
208975364 0.947998 box
208975464 0.950623 box
208975564 0.941284 box
208975664 0.947083 box
208975764 0.950195 box
208975864 0.942017 box
208975964 0.945740 box
208976064 0.945312 box
208976164 0.946777 box
208976264 0.947327 box
208976364 0.951538 box
208976464 0.940735 box
208976564 0.944641 box
208976664 0.952881 box
208976764 0.940857 box
208976864 0.945618 box
208976964 0.952271 box
208977064 0.942627 box
208977164 0.943909 box
208977264 0.953430 box
208977364 0.941040 box
208977464 0.945435 box
208977564 0.952881 box
208977664 0.939880 box
208977764 0.947083 box
208977864 0.947205 box
208977964 0.950439 box
208978064 0.940308 box
208978164 0.952026 box
208978264 0.940125 box
208978364 0.947388 box
208978464 0.950500 box
208978564 0.947815 box
208978664 0.945435 box
208978764 0.945923 box
208978864 0.946533 box
208978964 0.946960 box
208979064 0.945557 box
208979164 0.946838 box
208979264 0.946594 box
208979364 0.947876 box
208979464 0.944824 box
208979564 0.939758 box
208979664 0.946838 box
208979764 0.945557 box
208979864 0.946167 box
208979964 0.946411 box
208980064 0.947266 box
208980164 0.946655 box
208980264 0.946594 box
208980364 0.945862 box
208980464 0.946289 box
208980564 0.946106 box
208980664 0.947937 box
208980764 0.946228 box
208980864 0.945740 box
208980964 0.946960 box
208981064 0.946228 box
208981164 0.947021 box
208981264 0.946167 box
208981364 0.948853 box
208981464 0.946594 box
208981564 0.946533 box
208981664 0.945801 box
208981764 0.946838 box
208981864 0.946838 box
208981964 0.945740 box
208982064 0.946594 box
208982164 0.947021 box
208982264 0.944946 box
208982364 0.851318 box
208982464 0.911743 box
208982564 0.941956 box
208982664 0.928040 box
208982764 0.930359 box
208982864 0.929382 box
208982964 0.941772 box
208983064 0.946411 box
208983164 0.947205 box
208983264 0.946106 box
208983364 0.946472 box
208983464 0.946594 box
208983564 0.946167 box
208983664 0.946533 box
208983764 0.945129 box
208983864 0.858398 box
208983964 0.831604 box
208984064 0.836731 box
208984164 0.830872 box
208984264 0.830383 box
208984364 0.830566 box
208984464 0.828125 box
208984564 0.829224 box
208984664 0.829224 box
208984764 0.829590 box
208984864 0.828918 box
208984964 0.828369 box
208985064 0.829285 box
208985164 0.826172 box
208985264 0.827698 box
208985364 0.829224 box
208985464 0.829773 box
208985564 0.828491 box
208985664 0.829407 box
208985764 0.827820 box
208985864 0.829712 box
208985964 0.828613 box
208986064 0.828186 box
208986164 0.827759 box
208986264 0.828674 box
208986364 0.826660 box
208986464 0.826599 box
208986564 0.826538 box
208986664 0.827698 box
208986764 0.826294 box
208986864 0.826965 box
208986964 0.825562 box
208987064 0.827698 box
208987164 0.827454 box
208987264 0.825562 box
208987364 0.825378 box
208987464 0.826111 box
208987564 0.826050 box
208987664 0.825439 box
208987764 0.825256 box
208987864 0.825073 box
208987964 0.828003 box
208988064 0.826660 box
208988164 0.825378 box
208988264 0.825500 box
208988364 0.826599 box
208988464 0.825378 box
208988564 0.825806 box
208988664 0.826294 box
208988764 0.826355 box
208988864 0.822388 box
208988964 0.820801 box
208989064 0.820740 box
208989164 0.821594 box
208989264 0.818237 box
208989364 0.818726 box
208989464 0.818542 box
208989564 0.824036 box
208989664 0.820007 box
208989764 0.819458 box
208989864 0.820984 box
208989964 0.818604 box
208990064 0.818909 box
208990164 0.820007 box
208990264 0.819214 box
208990364 0.819336 box
208990464 0.817871 box
208990564 0.816650 box
208990664 0.816162 box
208990764 0.817749 box
208990864 0.819458 box
208990964 0.819153 box
208991064 0.817688 box
208991164 0.818848 box
208991264 0.819946 box
208991364 0.819580 box
208991464 0.817871 box
208991564 0.818726 box
208991664 0.820129 box
208991764 0.819946 box
208991864 0.820862 box
208991964 0.817566 box
208992064 0.817932 box
208992164 0.820068 box
208992264 0.818604 box
208992364 0.814209 box
208992464 0.813599 box
208992564 0.815430 box
208992664 0.813904 box
208992764 0.814636 box
208992864 0.814270 box
208992964 0.813782 box
208993064 0.815979 box
208993164 0.816162 box
208993264 0.817322 box
208993364 0.815491 box
208993464 0.816223 box
208993564 0.816284 box
208993664 0.816406 box
208993764 0.816711 box
208993864 0.816040 box
208993964 0.816162 box
208994064 0.818054 box
208994164 0.816223 box
208994264 0.821411 box
208994364 0.823425 box
208994464 0.813721 box
208994564 0.815247 box
208994664 0.813293 box
208994764 0.814514 box
208994864 0.816528 box
208994964 0.815430 box
208995064 0.814331 box
208995164 0.815979 box
208995264 0.805847 box
208995364 0.805237 box
208995464 0.804871 box
208995564 0.804626 box
208995664 0.806091 box
208995764 0.805969 box
208995864 0.803101 box
208995964 0.798340 box
208996064 0.795837 box
208996164 0.799072 box
208996264 0.803894 box
208996364 0.821960 box
208996464 0.910828 box
208996564 0.945496 box
208996664 0.946106 box
208996764 0.944336 box
208996864 0.944580 box
208996964 0.945801 box
208997064 0.944885 box
208997164 0.946106 box
208997264 0.945923 box
208997364 0.945557 box
208997464 0.946655 box
208997564 0.945862 box
208997664 0.944885 box
208997764 0.946350 box
208997864 0.943542 box
208997964 0.945190 box
208998064 0.945740 box
208998164 0.944885 box
208998264 0.945801 box
208998364 0.944214 box
208998464 0.946472 box
208998564 0.946045 box
208998664 0.945801 box
208998764 0.944580 box
208998864 0.945618 box
208998964 0.945618 box
208999064 0.944153 box
208999164 0.945190 box
208999264 0.945251 box
208999364 0.944275 box
208999464 0.945984 box
208999564 0.946289 box
208999664 0.945801 box
208999764 0.944641 box
208999864 0.945679 box
208999964 0.945068 box
209000064 0.945007 box
209000164 0.944153 box
209000264 0.941345 box
209000364 0.875732 box
209000471 1.015198 box
209000564 0.877930 box
209000664 0.946289 box
209000764 0.936951 box
209000864 0.941101 box
209000964 0.939209 box
209001064 0.940002 box
209001164 0.817383 box
209001264 0.911011 box
