------------
Profiler Configuration
output path: /home/tc/pwr2018/output_miniFE_proc1//cap_11-5/profiler-3
monitoring frequency: 100000000 nano seconds
------------
MiniFE Mini-App, OpenMP Peer Implementation
Creating OpenMP Thread Pool...
Counted: 2 threads.
Running MiniFE Mini-App...
      creating/filling mesh...0.151467s, total time: 0.151467
generating matrix structure...7.14215s, total time: 7.29362
         assembling FE data...29.8636s, total time: 37.1572
      imposing Dirichlet BC...13.9231s, total time: 51.0803
      imposing Dirichlet BC...3.8405s, total time: 54.9208
making matrix indices local...0.00675702s, total time: 54.9276
Starting CG solver ... 
-------------------------------------------------------
Primary job  terminated normally, but 1 process returned
a non-zero exit code. Per user-direction, the job has been aborted.
-------------------------------------------------------
