time(ms) energy(J) hostname
137581460 0.000000 box
137581560 1.182983 box
137581660 1.294739 box
137581760 1.296143 box
137581860 1.297607 box
137581960 1.294739 box
137582060 1.297852 box
137582160 1.293823 box
137582260 1.296509 box
137582360 1.296448 box
137582460 1.295959 box
137582560 1.296265 box
137582660 1.295349 box
137582760 1.296509 box
137582860 1.297485 box
137582960 1.295044 box
137583060 1.296387 box
137583160 1.296631 box
137583260 1.295410 box
137583360 1.296021 box
137583460 1.296082 box
137583560 1.296753 box
137583660 1.294739 box
137583760 1.296204 box
137583860 1.296509 box
137583960 1.296753 box
137584060 1.295837 box
137584160 1.296143 box
137584260 1.297058 box
137584360 1.295227 box
137584460 1.299255 box
137584560 1.295288 box
137584660 1.294861 box
137584760 1.296570 box
137584860 1.298645 box
137584960 1.295959 box
137585060 1.296814 box
137585160 1.296387 box
137585260 1.158936 box
137585360 1.087036 box
137585460 1.238953 box
137585560 1.294861 box
137585660 1.297302 box
137585760 1.296021 box
137585860 1.295898 box
137585960 1.295959 box
137586060 1.292847 box
137586160 1.298584 box
137586260 1.296265 box
137586360 1.295959 box
137586460 1.297791 box
137586560 1.296814 box
137586660 1.296509 box
137586760 1.295715 box
137586860 1.297241 box
137586960 1.295898 box
137587060 1.295898 box
137587160 1.296997 box
137587260 1.295654 box
137587360 1.296204 box
137587460 1.292603 box
137587560 1.295349 box
137587660 1.299500 box
137587760 1.296326 box
137587860 1.296997 box
137587960 1.297180 box
137588060 1.296570 box
137588160 1.296692 box
137588260 1.296204 box
137588360 1.295959 box
137588460 1.296021 box
137588560 1.297241 box
137588660 1.296997 box
137588760 1.295227 box
137588860 1.296692 box
137588960 1.286804 box
137589060 1.299194 box
137589160 1.298462 box
137589260 1.297241 box
137589360 1.296814 box
137589460 1.296448 box
137589560 1.297119 box
137589660 1.297119 box
137589760 1.296021 box
137589860 1.295898 box
137589960 1.295959 box
137590060 1.296570 box
137590160 1.297485 box
137590260 1.295898 box
137590360 1.296265 box
137590460 1.291565 box
137590560 1.296265 box
137590660 1.298523 box
137590760 1.296326 box
137590860 1.296204 box
137590960 1.297852 box
137591060 1.297363 box
137591160 1.295471 box
137591260 1.297424 box
137591360 1.295715 box
137591460 1.295532 box
137591560 1.296387 box
137591660 1.297119 box
137591760 1.295898 box
137591860 1.296265 box
137591960 1.294556 box
137592060 1.294861 box
137592160 1.298157 box
137592260 1.296143 box
137592360 1.296265 box
137592460 1.297852 box
137592560 1.296509 box
137592660 1.296143 box
137592760 1.296692 box
137592860 1.296265 box
137592960 1.296509 box
137593060 1.296143 box
137593160 1.295105 box
137593260 1.297729 box
137593360 1.296631 box
137593460 1.294250 box
137593560 1.296204 box
137593660 1.296936 box
137593760 1.296875 box
137593860 1.296143 box
137593960 1.296143 box
137594060 1.297180 box
137594160 1.296509 box
137594260 1.296570 box
137594360 1.296082 box
137594460 1.295898 box
137594560 1.296875 box
137594660 1.295532 box
137594760 1.297424 box
137594860 1.296265 box
137594960 1.293640 box
137595060 1.296448 box
137595160 1.296875 box
137595260 1.295715 box
137595360 1.296326 box
137595460 1.297485 box
137595560 1.296204 box
137595660 1.296875 box
137595760 1.296082 box
137595860 1.296143 box
137595960 1.296448 box
137596060 1.296692 box
137596160 1.294067 box
137596260 1.298279 box
137596360 1.296021 box
137596460 1.294312 box
137596560 1.297546 box
137596660 1.295349 box
137596760 1.296143 box
137596860 1.296326 box
137596960 1.297485 box
137597060 1.296692 box
137597160 1.295959 box
137597260 1.296387 box
137597360 1.296387 box
137597460 1.296509 box
137597560 1.296814 box
137597660 1.296326 box
137597760 1.296082 box
137597860 1.296326 box
137597960 1.294556 box
137598060 1.297241 box
137598160 1.295471 box
137598260 1.296448 box
137598360 1.295776 box
137598460 1.298096 box
137598560 1.296875 box
137598660 1.296204 box
137598760 1.296753 box
137598860 1.297729 box
137598960 1.297302 box
137599060 1.295959 box
137599160 1.296204 box
137599260 1.296448 box
137599360 1.297546 box
137599460 1.292786 box
137599560 1.298157 box
137599660 1.292297 box
137599760 1.299194 box
137599860 1.296936 box
137599960 1.297302 box
137600060 1.297058 box
137600160 1.296021 box
137600260 1.297119 box
137600360 1.296082 box
137600460 1.296326 box
137600560 1.296265 box
137600660 1.296753 box
137600760 1.295959 box
137600860 1.296753 box
137600960 1.294189 box
137601060 1.295532 box
137601160 1.296204 box
137601260 1.296509 box
137601360 1.296692 box
137601460 1.296936 box
137601560 1.296753 box
137601660 1.296021 box
137601760 1.296082 box
137601860 1.296631 box
137601960 1.295715 box
137602060 1.295715 box
137602160 1.296265 box
137602260 1.296753 box
137602360 1.296570 box
137602460 1.293335 box
137602560 1.293701 box
137602660 1.295959 box
137602760 1.296692 box
137602860 1.296509 box
137602960 1.297119 box
137603060 1.296692 box
137603160 1.296204 box
137603260 1.296875 box
137603360 1.295837 box
137603460 1.296204 box
137603560 1.296631 box
137603660 1.295288 box
137603760 1.298157 box
137603860 1.295349 box
137603960 1.294128 box
137604060 1.296753 box
137604160 1.295959 box
137604260 1.296814 box
137604360 1.296082 box
137604460 1.297119 box
137604560 1.296570 box
137604660 1.296509 box
137604760 1.295837 box
137604860 1.296509 box
137604960 1.296082 box
137605060 1.296387 box
137605160 1.297241 box
137605260 1.295776 box
137605360 1.296082 box
137605460 1.294617 box
137605560 1.295776 box
137605660 1.295715 box
137605760 1.295715 box
137605860 1.297058 box
137605960 1.296936 box
137606060 1.296448 box
137606160 1.296509 box
137606260 1.296814 box
137606360 1.296204 box
137606460 1.295776 box
137606560 1.295959 box
137606660 1.297485 box
137606760 1.295959 box
137606860 1.296021 box
137606960 1.294250 box
137607060 1.295532 box
137607160 1.296692 box
137607260 1.296387 box
137607360 1.297302 box
137607460 1.296570 box
137607560 1.297302 box
137607660 1.296814 box
137607760 1.296082 box
137607860 1.296936 box
137607960 1.295959 box
137608060 1.296448 box
137608160 1.296814 box
137608260 1.296082 box
137608360 1.295898 box
137608460 1.292175 box
137608560 1.294006 box
137608660 1.297791 box
137608760 1.296631 box
137608860 1.295593 box
137608960 1.298035 box
137609060 1.296875 box
137609160 1.295959 box
137609260 1.296875 box
137609360 1.296082 box
137609460 1.296570 box
137609560 1.295593 box
137609660 1.296875 box
137609760 1.296204 box
137609860 1.296753 box
137609960 1.293213 box
137610060 1.292358 box
137610160 1.298584 box
137610260 1.296326 box
137610360 1.295776 box
137610460 1.297607 box
137610560 1.297363 box
137610660 1.296326 box
137610760 1.296692 box
137610860 1.296265 box
137610960 1.296204 box
137611060 1.296509 box
137611160 1.296997 box
137611260 1.296082 box
137611360 1.295898 box
137611460 1.293701 box
137611560 1.292297 box
137611660 1.298340 box
137611760 1.295959 box
137611860 1.297729 box
137611960 1.296875 box
137612060 1.296814 box
137612160 1.295837 box
137612260 1.296204 box
137612360 1.296509 box
137612460 1.296448 box
137612560 1.296326 box
137612660 1.297485 box
137612760 1.295654 box
137612860 1.295898 box
137612960 1.294556 box
137613060 1.291992 box
137613160 1.299194 box
137613260 1.299133 box
137613360 1.295776 box
137613460 1.298340 box
137613560 1.296265 box
137613660 1.296509 box
137613760 1.296753 box
137613860 1.296143 box
137613960 1.296082 box
137614060 1.296509 box
137614160 1.296753 box
137614260 1.295837 box
137614360 1.297058 box
137614460 1.293274 box
137614560 1.292786 box
137614660 1.297302 box
137614760 1.296814 box
137614860 1.296570 box
137614960 1.297180 box
137615060 1.297302 box
137615160 1.295898 box
137615260 1.297241 box
137615360 1.295532 box
137615460 1.296692 box
137615560 1.295288 box
137615660 1.297424 box
137615760 1.295959 box
137615860 1.295776 box
137615960 1.294434 box
137616060 1.294006 box
137616160 1.298157 box
137616260 1.296814 box
137616360 1.295776 box
137616460 1.297913 box
137616560 1.296692 box
137616660 1.296875 box
137616760 1.296387 box
137616860 1.296082 box
137616960 1.295776 box
137617060 1.296082 box
137617160 1.297424 box
137617260 1.294800 box
137617360 1.296997 box
137617460 1.293945 box
137617560 1.294922 box
137617660 1.297485 box
137617760 1.297180 box
137617860 1.296082 box
137617960 1.297302 box
137618060 1.297058 box
137618160 1.296509 box
137618260 1.295776 box
137618360 1.296570 box
137618460 1.296326 box
137618560 1.295593 box
137618660 1.297668 box
137618760 1.295715 box
137618860 1.295654 box
137618960 1.293152 box
137619060 1.294495 box
137619160 1.298828 box
137619260 1.296204 box
137619360 1.296997 box
137619460 1.297668 box
137619560 1.296692 box
137619660 1.296082 box
137619760 1.296875 box
137619860 1.296021 box
137619960 1.297119 box
137620060 1.295593 box
137620160 1.297058 box
137620260 1.296448 box
137620360 1.296448 box
137620460 1.292969 box
137620560 1.295105 box
137620660 1.298340 box
137620760 1.296509 box
137620860 1.296143 box
137620960 1.297729 box
137621060 1.297119 box
137621160 1.296204 box
137621260 1.296082 box
137621360 1.297241 box
137621460 1.296021 box
137621560 1.296448 box
137621660 1.297546 box
137621760 1.295166 box
137621860 1.296387 box
137621960 1.293945 box
137622060 1.295532 box
137622160 1.296631 box
137622260 1.296814 box
137622360 1.295532 box
137622460 1.297668 box
137622560 1.297119 box
137622660 1.296509 box
137622760 1.296448 box
137622860 1.296570 box
137622960 1.295959 box
137623060 1.295837 box
137623160 1.297302 box
137623260 1.295654 box
137623360 1.296387 box
137623460 1.292786 box
137623560 1.295166 box
137623660 1.298889 box
137623760 1.296570 box
137623860 1.295898 box
137623960 1.297302 box
137624060 1.296936 box
137624160 1.296692 box
137624260 1.296326 box
137624360 1.295837 box
137624460 1.296326 box
137624560 1.295410 box
137624660 1.297180 box
137624760 1.296326 box
137624860 1.295105 box
137624960 1.290710 box
137625060 1.296326 box
137625160 1.298645 box
137625260 1.295593 box
137625360 1.296753 box
137625460 1.298035 box
137625560 1.296448 box
137625660 1.296448 box
137625760 1.296814 box
137625860 1.295593 box
137625960 1.296875 box
137626060 1.296509 box
137626160 1.297119 box
137626260 1.296326 box
137626360 1.295349 box
137626460 1.291931 box
137626560 1.296265 box
137626660 1.298340 box
137626760 1.296143 box
137626860 1.297058 box
137626960 1.297180 box
137627060 1.296448 box
137627160 1.296326 box
137627260 1.296692 box
137627360 1.295532 box
137627460 1.299194 box
137627560 1.296265 box
137627660 1.297363 box
137627760 1.296143 box
137627860 1.295654 box
137627960 1.288208 box
137628060 1.299744 box
137628160 1.298584 box
137628260 1.296509 box
137628360 1.295227 box
137628460 1.297668 box
137628560 1.297668 box
137628660 1.295532 box
137628760 1.296509 box
137628860 1.296753 box
137628960 1.296448 box
137629060 1.295776 box
137629160 1.296875 box
137629260 1.295776 box
137629360 1.296509 box
137629460 1.287598 box
137629560 1.298645 box
137629660 1.299194 box
137629760 1.295959 box
137629860 1.296997 box
137629960 1.297119 box
137630060 1.296936 box
137630160 1.296143 box
137630260 1.296875 box
137630360 1.296814 box
137630460 1.296021 box
137630560 1.296387 box
137630660 1.296875 box
137630760 1.295654 box
137630860 1.296021 box
137630960 1.293518 box
137631060 1.291626 box
137631160 1.299011 box
137631260 1.296936 box
137631360 1.296204 box
137631460 1.296936 box
137631560 1.296692 box
137631660 1.295776 box
137631760 1.296814 box
137631860 1.296082 box
137631960 1.296021 box
137632060 1.296265 box
137632160 1.297119 box
137632260 1.295898 box
137632360 1.296326 box
137632460 1.293579 box
137632560 1.294189 box
137632660 1.299500 box
137632760 1.296875 box
137632860 1.295105 box
137632960 1.297302 box
137633060 1.296875 box
137633160 1.296875 box
137633260 1.295837 box
137633360 1.296448 box
137633460 1.296082 box
137633560 1.295715 box
137633660 1.297058 box
137633760 1.296326 box
137633860 1.296082 box
137633960 1.294556 box
137634060 1.294556 box
137634160 1.297913 box
137634260 1.295898 box
137634360 1.296143 box
137634460 1.297546 box
137634560 1.296875 box
137634660 1.296631 box
137634760 1.296753 box
137634860 1.296509 box
137634960 1.295715 box
137635060 1.296570 box
137635160 1.297058 box
137635260 1.296143 box
137635360 1.295593 box
137635460 1.292542 box
137635560 1.296021 box
137635660 1.297180 box
137635760 1.296936 box
137635860 1.296631 box
137635960 1.297424 box
137636060 1.297241 box
137636160 1.296387 box
137636260 1.296692 box
137636360 1.296692 box
137636460 1.296448 box
137636560 1.295959 box
137636660 1.298035 box
137636760 1.294922 box
137636860 1.295959 box
137636960 1.291321 box
137637060 1.296692 box
137637160 1.299561 box
137637260 1.296021 box
137637360 1.296143 box
137637460 1.297485 box
137637560 1.295898 box
137637660 1.296997 box
137637760 1.296326 box
137637860 1.296631 box
137637960 1.296509 box
137638060 1.295532 box
137638160 1.298279 box
137638260 1.295288 box
137638360 1.295776 box
137638460 1.294128 box
137638560 1.295227 box
137638660 1.296692 box
137638760 1.296753 box
137638860 1.296082 box
137638960 1.297180 box
137639060 1.296753 box
137639160 1.296143 box
137639260 1.296936 box
137639360 1.296631 box
137639460 1.296692 box
137639560 1.295654 box
137639660 1.297485 box
137639760 1.296265 box
137639860 1.296631 box
137639960 1.293396 box
137640060 1.294739 box
137640160 1.298096 box
137640260 1.296326 box
137640360 1.296692 box
137640460 1.296814 box
137640560 1.297180 box
137640660 1.296021 box
137640760 1.297058 box
137640860 1.296509 box
137640960 1.296265 box
137641060 1.297058 box
137641160 1.297180 box
137641260 1.295349 box
137641360 1.296021 box
137641460 1.291626 box
137641560 1.296143 box
137641660 1.300049 box
137641760 1.295349 box
137641860 1.297668 box
137641960 1.296448 box
137642060 1.296997 box
137642160 1.296936 box
137642260 1.296387 box
137642360 1.295532 box
137642460 1.297424 box
137642560 1.295898 box
137642660 1.297363 box
137642760 1.296326 box
137642860 1.295593 box
137642960 1.293518 box
137643060 1.294556 box
137643160 1.299316 box
137643260 1.295898 box
137643360 1.296509 box
137643460 1.296997 box
137643560 1.297241 box
137643660 1.296326 box
137643760 1.296082 box
137643860 1.296265 box
137643960 1.296509 box
137644060 1.295959 box
137644160 1.297668 box
137644260 1.294983 box
137644360 1.296631 box
137644460 1.293335 box
137644560 1.290833 box
137644660 1.298462 box
137644760 1.296997 box
137644860 1.295410 box
137644960 1.297607 box
137645060 1.297119 box
137645160 1.296448 box
137645260 1.296631 box
137645360 1.296326 box
137645460 1.296326 box
137645560 1.296631 box
137645660 1.297302 box
137645760 1.295044 box
137645860 1.296692 box
137645960 1.293762 box
137646060 1.293091 box
137646160 1.296326 box
137646260 1.296082 box
137646360 1.297241 box
137646460 1.296875 box
137646560 1.297607 box
137646660 1.295532 box
137646760 1.295837 box
137646860 1.296082 box
137646960 1.296753 box
137647060 1.296082 box
137647160 1.297546 box
137647260 1.294250 box
137647360 1.296570 box
137647460 1.294312 box
137647560 1.292114 box
137647660 1.297546 box
137647760 1.296875 box
137647860 1.296143 box
137647960 1.296570 box
137648060 1.296631 box
137648160 1.296448 box
137648260 1.296814 box
137648360 1.296021 box
137648460 1.296204 box
137648560 1.297180 box
137648660 1.296204 box
137648760 1.296021 box
137648860 1.296021 box
137648960 1.292969 box
137649060 1.293030 box
137649160 1.300049 box
137649260 1.295959 box
137649360 1.296448 box
137649460 1.297241 box
137649560 1.296753 box
137649660 1.296631 box
137649760 1.296326 box
137649860 1.296326 box
137649960 1.297241 box
137650060 1.295410 box
137650160 1.296875 box
137650260 1.295898 box
137650360 1.296509 box
137650460 1.293823 box
137650560 1.293518 box
137650660 1.299194 box
137650760 1.297119 box
137650860 1.295715 box
137650960 1.297485 box
137651060 1.296875 box
137651160 1.295898 box
137651260 1.296509 box
137651360 1.296265 box
137651460 1.297241 box
137651560 1.295776 box
137651660 1.297852 box
137651760 1.295349 box
137651860 1.295898 box
137651960 1.290588 box
137652060 1.293945 box
137652160 1.299194 box
137652260 1.295715 box
137652360 1.296448 box
137652460 1.296875 box
137652560 1.296753 box
137652660 1.295959 box
137652760 1.296509 box
137652860 1.295959 box
137652960 1.296692 box
137653060 1.296570 box
137653160 1.295776 box
137653260 1.296509 box
137653360 1.295227 box
137653460 1.290710 box
137653560 1.296997 box
137653660 1.299133 box
137653760 1.296021 box
137653860 1.296997 box
137653960 1.297729 box
137654060 1.296143 box
137654160 1.296326 box
137654260 1.295898 box
137654360 1.296631 box
137654460 1.296143 box
137654560 1.295898 box
137654660 1.297424 box
137654760 1.296387 box
137654860 1.295105 box
137654960 1.292969 box
137655060 1.293579 box
137655160 1.299438 box
137655260 1.296997 box
137655360 1.295959 box
137655460 1.297668 box
137655560 1.296509 box
137655660 1.296326 box
137655760 1.296570 box
137655860 1.296265 box
137655960 1.296814 box
137656060 1.296204 box
137656160 1.297058 box
137656260 1.296082 box
137656360 1.295715 box
137656460 1.290588 box
137656560 1.297485 box
137656660 1.299316 box
137656760 1.296936 box
137656860 1.296570 box
137656960 1.297607 box
137657060 1.296204 box
137657160 1.295288 box
137657260 1.296387 box
137657360 1.296875 box
137657460 1.296082 box
137657560 1.296326 box
137657660 1.299072 box
137657760 1.295959 box
137657860 1.296387 box
137657960 1.292786 box
137658060 1.294250 box
137658160 1.298950 box
137658260 1.296387 box
137658360 1.297119 box
137658460 1.296387 box
137658560 1.297119 box
137658660 1.296509 box
137658760 1.296082 box
137658860 1.296631 box
137658960 1.295959 box
137659060 1.296143 box
137659160 1.296692 box
137659260 1.295654 box
137659360 1.296692 box
137659460 1.290100 box
137659560 1.295105 box
137659660 1.298462 box
137659760 1.295959 box
137659860 1.296143 box
137659960 1.297546 box
137660060 1.296875 box
137660160 1.296753 box
137660260 1.295776 box
137660360 1.295959 box
137660460 1.295349 box
137660560 1.296204 box
137660660 1.297180 box
137660760 1.296509 box
137660860 1.296448 box
137660960 1.292786 box
137661060 1.294800 box
137661160 1.299744 box
137661260 1.296875 box
137661360 1.296692 box
137661460 1.295959 box
137661560 1.296875 box
137661660 1.296631 box
137661760 1.296875 box
137661860 1.296387 box
137661960 1.296326 box
137662060 1.295532 box
137662160 1.297607 box
137662260 1.295166 box
137662360 1.296204 box
137662460 1.291077 box
137662560 1.291443 box
137662660 1.299988 box
137662760 1.296143 box
137662860 1.296265 box
137662960 1.297546 box
137663060 1.296509 box
137663160 1.297241 box
137663260 1.296509 box
137663360 1.296326 box
137663460 1.295715 box
137663560 1.296387 box
137663660 1.296814 box
137663760 1.295959 box
137663860 1.295654 box
137663960 1.290710 box
137664060 1.293579 box
137664160 1.299805 box
137664260 1.296082 box
137664360 1.296387 box
137664460 1.297241 box
137664560 1.296204 box
137664660 1.296875 box
137664760 1.295959 box
137664860 1.296692 box
137664960 1.295898 box
137665060 1.295959 box
137665160 1.297424 box
137665260 1.295715 box
137665360 1.295837 box
137665460 1.290222 box
137665560 1.293823 box
137665660 1.299561 box
137665760 1.295410 box
137665860 1.296875 box
137665960 1.296753 box
137666060 1.296570 box
137666160 1.297363 box
137666260 1.295898 box
137666360 1.297058 box
137666460 1.295593 box
137666560 1.296570 box
137666660 1.296509 box
137666760 1.295410 box
137666860 1.296326 box
137666960 1.290222 box
137667060 1.294556 box
137667160 1.298401 box
137667260 1.296021 box
137667360 1.297424 box
137667460 1.296265 box
137667560 1.297302 box
137667660 1.296753 box
137667760 1.296753 box
137667860 1.295715 box
137667960 1.296509 box
137668060 1.295837 box
137668160 1.296631 box
137668260 1.296265 box
137668360 1.295227 box
137668460 1.294128 box
137668560 1.294556 box
137668660 1.299377 box
137668760 1.295654 box
137668860 1.296936 box
137668960 1.297058 box
137669060 1.297668 box
137669160 1.296204 box
137669260 1.296326 box
137669360 1.296570 box
137669460 1.295898 box
137669560 1.295959 box
137669660 1.297241 box
137669760 1.296875 box
137669860 1.295410 box
137669960 1.293213 box
137670060 1.294617 box
137670160 1.299255 box
137670260 1.296814 box
137670360 1.297302 box
137670460 1.296021 box
137670560 1.297302 box
137670660 1.295898 box
137670760 1.296204 box
137670860 1.297241 box
137670960 1.295776 box
137671060 1.296265 box
137671160 1.297119 box
137671260 1.296204 box
137671360 1.296326 box
137671460 1.290588 box
137671560 1.296753 box
137671660 1.295776 box
137671760 1.298767 box
137671860 1.296021 box
137671960 1.297363 box
137672060 1.296448 box
137672160 1.298889 box
137672260 1.296875 box
137672360 1.296021 box
137672460 1.296021 box
137672560 1.295410 box
137672660 1.297668 box
137672760 1.295715 box
137672860 1.296814 box
137672960 1.291504 box
137673060 1.293152 box
137673160 1.297852 box
137673260 1.296936 box
137673360 1.296692 box
137673460 1.297119 box
137673560 1.296936 box
137673660 1.296326 box
137673760 1.296265 box
137673860 1.297180 box
137673960 1.296265 box
137674060 1.295898 box
137674160 1.296387 box
137674260 1.296997 box
137674360 1.295898 box
137674460 1.294495 box
137674560 1.294495 box
137674660 1.297607 box
137674760 1.295898 box
137674860 1.297119 box
137674960 1.296204 box
137675060 1.297668 box
137675160 1.296021 box
137675260 1.296631 box
137675360 1.296692 box
137675460 1.296143 box
137675560 1.296143 box
137675660 1.296875 box
137675760 1.296082 box
137675860 1.296082 box
137675960 1.294556 box
137676060 1.295471 box
137676160 1.297485 box
137676260 1.296326 box
137676360 1.295837 box
137676460 1.298096 box
137676560 1.296936 box
137676660 1.296265 box
137676760 1.296753 box
137676860 1.296265 box
137676960 1.296509 box
137677060 1.295715 box
137677160 1.296997 box
137677260 1.295654 box
137677360 1.296082 box
137677460 1.293701 box
137677560 1.294128 box
137677660 1.297241 box
137677760 1.296509 box
137677860 1.296570 box
137677960 1.297485 box
137678060 1.296753 box
137678160 1.296814 box
137678260 1.296204 box
137678360 1.297302 box
137678460 1.295715 box
137678560 1.296021 box
137678660 1.297791 box
137678760 1.295288 box
137678860 1.296814 box
137678960 1.293457 box
137679060 1.294861 box
137679160 1.296875 box
137679260 1.296326 box
137679360 1.297119 box
137679460 1.296936 box
137679560 1.296875 box
137679660 1.296082 box
137679760 1.296143 box
137679860 1.296204 box
137679960 1.296814 box
137680060 1.296204 box
137680160 1.295654 box
137680260 1.296692 box
137680360 1.295898 box
137680460 1.294250 box
137680560 1.296570 box
137680660 1.297058 box
137680760 1.295959 box
137680860 1.296326 box
137680960 1.297424 box
137681060 1.296936 box
137681160 1.296204 box
137681260 1.296753 box
137681360 1.296387 box
137681460 1.296570 box
137681560 1.297058 box
137681660 1.294373 box
137681760 1.297485 box
137681860 1.296387 box
137681960 1.294678 box
137682060 1.294678 box
137682160 1.295715 box
137682260 1.296021 box
137682360 1.296509 box
137682460 1.297241 box
137682560 1.296326 box
137682660 1.297119 box
137682760 1.295898 box
137682860 1.295959 box
137682960 1.296509 box
137683060 1.295410 box
137683160 1.295166 box
