------------
Profiler Configuration
output path: /home/tc/pwr2018_data/output_fixed/miniFE_proc2/cap_10/profiler-5
monitoring frequency: 100000000 nano seconds
------------
MiniFE Mini-App, OpenMP Peer Implementation
Creating OpenMP Thread Pool...
Counted: 4 threads.
Running MiniFE Mini-App...
      creating/filling mesh...0.103096s, total time: 0.103096
generating matrix structure...4.3008s, total time: 4.40389
         assembling FE data...14.8551s, total time: 19.2589
      imposing Dirichlet BC...4.66177s, total time: 23.9207
      imposing Dirichlet BC...1.77997s, total time: 25.7007
making matrix indices local...0.570134s, total time: 26.2708
Starting CG solver ... 
Initial Residual = 231.002
Iteration = 20   Residual = 0.0570243
Iteration = 40   Residual = 0.0264371
Iteration = 60   Residual = 0.0154225
Iteration = 80   Residual = 0.0103041
Iteration = 100   Residual = 0.0172837
Iteration = 120   Residual = 0.00539683
Iteration = 140   Residual = 0.00394315
Iteration = 160   Residual = 0.00283027
Iteration = 180   Residual = 0.00200107
Iteration = 200   Residual = 0.00264971
Final Resid Norm: 0.00264971
