/dev/cpu/msr_batch: No such file or directory
graph_generation:               3.237729 s
construction_time:              0.858245 s
Running BFS 0
Time for BFS 0 is 0.295594
TEPS for BFS 0 is 5.6753e+07
Validating BFS 0
Validate time for BFS 0 is 1.050268
Running BFS 1
Time for BFS 1 is 0.295775
TEPS for BFS 1 is 5.67181e+07
Validating BFS 1
Validate time for BFS 1 is 1.050907
Running BFS 2
Time for BFS 2 is 0.295134
TEPS for BFS 2 is 5.68413e+07
Validating BFS 2
Validate time for BFS 2 is 1.050709
Running BFS 3
Time for BFS 3 is 0.295014
TEPS for BFS 3 is 5.68645e+07
Validating BFS 3
Validate time for BFS 3 is 1.043825
Running BFS 4
Time for BFS 4 is 0.294902
TEPS for BFS 4 is 5.6886e+07
Validating BFS 4
Validate time for BFS 4 is 1.041643
Running BFS 5
Time for BFS 5 is 0.294820
TEPS for BFS 5 is 5.69019e+07
Validating BFS 5
Validate time for BFS 5 is 1.044283
Running BFS 6
Time for BFS 6 is 0.294629
TEPS for BFS 6 is 5.69388e+07
Validating BFS 6
Validate time for BFS 6 is 1.041903
Running BFS 7
Time for BFS 7 is 0.295090
TEPS for BFS 7 is 5.68499e+07
Validating BFS 7
Validate time for BFS 7 is 1.043021
Running BFS 8
Time for BFS 8 is 0.295042
TEPS for BFS 8 is 5.6859e+07
Validating BFS 8
Validate time for BFS 8 is 1.040099
Running BFS 9
Time for BFS 9 is 0.295333
TEPS for BFS 9 is 5.6803e+07
Validating BFS 9
Validate time for BFS 9 is 1.041857
Running BFS 10
Time for BFS 10 is 0.295410
TEPS for BFS 10 is 5.67882e+07
Validating BFS 10
Validate time for BFS 10 is 1.040350
Running BFS 11
Time for BFS 11 is 0.294786
TEPS for BFS 11 is 5.69085e+07
Validating BFS 11
Validate time for BFS 11 is 1.038273
Running BFS 12
Time for BFS 12 is 0.294972
TEPS for BFS 12 is 5.68726e+07
Validating BFS 12
Validate time for BFS 12 is 1.039152
Running BFS 13
Time for BFS 13 is 0.295005
TEPS for BFS 13 is 5.68662e+07
Validating BFS 13
Validate time for BFS 13 is 1.037608
Running BFS 14
Time for BFS 14 is 0.295490
TEPS for BFS 14 is 5.67728e+07
Validating BFS 14
Validate time for BFS 14 is 1.038104
Running BFS 15
Time for BFS 15 is 0.295386
TEPS for BFS 15 is 5.6793e+07
Validating BFS 15
Validate time for BFS 15 is 1.040925
Running BFS 16
Time for BFS 16 is 0.295224
TEPS for BFS 16 is 5.68239e+07
Validating BFS 16
Validate time for BFS 16 is 1.038218
Running BFS 17
Time for BFS 17 is 0.294901
TEPS for BFS 17 is 5.68863e+07
Validating BFS 17
Validate time for BFS 17 is 1.039513
Running BFS 18
Time for BFS 18 is 0.294990
TEPS for BFS 18 is 5.68691e+07
Validating BFS 18
Validate time for BFS 18 is 1.039417
Running BFS 19
Time for BFS 19 is 0.294699
TEPS for BFS 19 is 5.69252e+07
Validating BFS 19
Validate time for BFS 19 is 1.038973
Running BFS 20
Time for BFS 20 is 0.294683
TEPS for BFS 20 is 5.69284e+07
Validating BFS 20
Validate time for BFS 20 is 1.037232
Running BFS 21
Time for BFS 21 is 0.295104
TEPS for BFS 21 is 5.68472e+07
Validating BFS 21
Validate time for BFS 21 is 1.038426
Running BFS 22
Time for BFS 22 is 0.294711
TEPS for BFS 22 is 5.6923e+07
Validating BFS 22
Validate time for BFS 22 is 1.039896
Running BFS 23
Time for BFS 23 is 0.295310
TEPS for BFS 23 is 5.68075e+07
Validating BFS 23
Validate time for BFS 23 is 1.040052
Running BFS 24
Time for BFS 24 is 0.294728
TEPS for BFS 24 is 5.69196e+07
Validating BFS 24
Validate time for BFS 24 is 1.038131
Running BFS 25
Time for BFS 25 is 0.294668
TEPS for BFS 25 is 5.69313e+07
Validating BFS 25
Validate time for BFS 25 is 1.040191
Running BFS 26
Time for BFS 26 is 0.294991
TEPS for BFS 26 is 5.6869e+07
Validating BFS 26
Validate time for BFS 26 is 1.038489
Running BFS 27
Time for BFS 27 is 0.294830
TEPS for BFS 27 is 5.68999e+07
Validating BFS 27
Validate time for BFS 27 is 1.037146
Running BFS 28
Time for BFS 28 is 0.295194
TEPS for BFS 28 is 5.68298e+07
Validating BFS 28
Validate time for BFS 28 is 1.041215
Running BFS 29
Time for BFS 29 is 0.294935
TEPS for BFS 29 is 5.68798e+07
Validating BFS 29
Validate time for BFS 29 is 1.040498
Running BFS 30
Time for BFS 30 is 0.295901
TEPS for BFS 30 is 5.66939e+07
Validating BFS 30
Validate time for BFS 30 is 1.039854
Running BFS 31
Time for BFS 31 is 0.294806
TEPS for BFS 31 is 5.69047e+07
Validating BFS 31
Validate time for BFS 31 is 1.037933
Running BFS 32
Time for BFS 32 is 0.295835
TEPS for BFS 32 is 5.67066e+07
Validating BFS 32
Validate time for BFS 32 is 1.038910
Running BFS 33
Time for BFS 33 is 0.296102
TEPS for BFS 33 is 5.66555e+07
Validating BFS 33
Validate time for BFS 33 is 1.039675
Running BFS 34
Time for BFS 34 is 0.294383
TEPS for BFS 34 is 5.69863e+07
Validating BFS 34
Validate time for BFS 34 is 1.037321
Running BFS 35
Time for BFS 35 is 0.295429
TEPS for BFS 35 is 5.67845e+07
Validating BFS 35
Validate time for BFS 35 is 1.039601
Running BFS 36
Time for BFS 36 is 0.295321
TEPS for BFS 36 is 5.68054e+07
Validating BFS 36
Validate time for BFS 36 is 1.038469
Running BFS 37
Time for BFS 37 is 0.295130
TEPS for BFS 37 is 5.68422e+07
Validating BFS 37
Validate time for BFS 37 is 1.037703
Running BFS 38
Time for BFS 38 is 0.295038
TEPS for BFS 38 is 5.68599e+07
Validating BFS 38
Validate time for BFS 38 is 1.037490
Running BFS 39
Time for BFS 39 is 0.294746
TEPS for BFS 39 is 5.69163e+07
Validating BFS 39
Validate time for BFS 39 is 1.037804
Running BFS 40
Time for BFS 40 is 0.295530
TEPS for BFS 40 is 5.67653e+07
Validating BFS 40
Validate time for BFS 40 is 1.038342
Running BFS 41
Time for BFS 41 is 0.295486
TEPS for BFS 41 is 5.67737e+07
Validating BFS 41
Validate time for BFS 41 is 1.039009
Running BFS 42
Time for BFS 42 is 0.295227
TEPS for BFS 42 is 5.68234e+07
Validating BFS 42
Validate time for BFS 42 is 1.037304
Running BFS 43
Time for BFS 43 is 0.295229
TEPS for BFS 43 is 5.68231e+07
Validating BFS 43
Validate time for BFS 43 is 1.038355
Running BFS 44
Time for BFS 44 is 0.296542
TEPS for BFS 44 is 5.65714e+07
Validating BFS 44
Validate time for BFS 44 is 1.038715
Running BFS 45
Time for BFS 45 is 0.295476
TEPS for BFS 45 is 5.67755e+07
Validating BFS 45
Validate time for BFS 45 is 1.038516
Running BFS 46
Time for BFS 46 is 0.294437
TEPS for BFS 46 is 5.69758e+07
Validating BFS 46
Validate time for BFS 46 is 1.038840
Running BFS 47
Time for BFS 47 is 0.295114
TEPS for BFS 47 is 5.68453e+07
Validating BFS 47
Validate time for BFS 47 is 1.039118
Running BFS 48
Time for BFS 48 is 0.297473
TEPS for BFS 48 is 5.63945e+07
Validating BFS 48
Validate time for BFS 48 is 1.041422
Running BFS 49
Time for BFS 49 is 0.294958
TEPS for BFS 49 is 5.68754e+07
Validating BFS 49
Validate time for BFS 49 is 1.037132
Running BFS 50
Time for BFS 50 is 0.295446
TEPS for BFS 50 is 5.67813e+07
Validating BFS 50
Validate time for BFS 50 is 1.038453
Running BFS 51
Time for BFS 51 is 0.296424
TEPS for BFS 51 is 5.6594e+07
Validating BFS 51
Validate time for BFS 51 is 1.039219
Running BFS 52
Time for BFS 52 is 0.294846
TEPS for BFS 52 is 5.68968e+07
Validating BFS 52
Validate time for BFS 52 is 1.043476
Running BFS 53
Time for BFS 53 is 0.294932
TEPS for BFS 53 is 5.68802e+07
Validating BFS 53
Validate time for BFS 53 is 1.038129
Running BFS 54
Time for BFS 54 is 0.294944
TEPS for BFS 54 is 5.6878e+07
Validating BFS 54
Validate time for BFS 54 is 1.039453
Running BFS 55
Time for BFS 55 is 0.294620
TEPS for BFS 55 is 5.69406e+07
Validating BFS 55
Validate time for BFS 55 is 1.037348
Running BFS 56
Time for BFS 56 is 0.297019
TEPS for BFS 56 is 5.64807e+07
Validating BFS 56
Validate time for BFS 56 is 1.036250
Running BFS 57
Time for BFS 57 is 0.296304
TEPS for BFS 57 is 5.66169e+07
Validating BFS 57
Validate time for BFS 57 is 1.040812
Running BFS 58
Time for BFS 58 is 0.295533
TEPS for BFS 58 is 5.67645e+07
Validating BFS 58
Validate time for BFS 58 is 1.042958
Running BFS 59
Time for BFS 59 is 0.297028
TEPS for BFS 59 is 5.64789e+07
Validating BFS 59
Validate time for BFS 59 is 1.039263
Running BFS 60
Time for BFS 60 is 0.293603
TEPS for BFS 60 is 5.71377e+07
Validating BFS 60
Validate time for BFS 60 is 1.038148
Running BFS 61
Time for BFS 61 is 0.295558
TEPS for BFS 61 is 5.67599e+07
Validating BFS 61
Validate time for BFS 61 is 1.039286
Running BFS 62
Time for BFS 62 is 0.294864
TEPS for BFS 62 is 5.68935e+07
Validating BFS 62
Validate time for BFS 62 is 1.038972
Running BFS 63
Time for BFS 63 is 0.295011
TEPS for BFS 63 is 5.68651e+07
Validating BFS 63
Validate time for BFS 63 is 1.037560
real	1m 36.11s
user	3m 6.31s
sys	0m 5.82s
