------------
Profiler Configuration
output path: /home/tc/pwr2018_data/output_fixed/miniFE_proc2/cap_12-5/profiler-2
monitoring frequency: 100000000 nano seconds
------------
MiniFE Mini-App, OpenMP Peer Implementation
Creating OpenMP Thread Pool...
Counted: 4 threads.
Running MiniFE Mini-App...
      creating/filling mesh...0.0934658s, total time: 0.0934658
generating matrix structure...3.80958s, total time: 3.90304
         assembling FE data...13.1287s, total time: 17.0317
      imposing Dirichlet BC...4.21387s, total time: 21.2456
      imposing Dirichlet BC...1.60001s, total time: 22.8456
making matrix indices local...0.53416s, total time: 23.3798
Starting CG solver ... 
Initial Residual = 231.002
Iteration = 20   Residual = 0.0570243
Iteration = 40   Residual = 0.0264371
Iteration = 60   Residual = 0.0154225
Iteration = 80   Residual = 0.0103041
Iteration = 100   Residual = 0.0172837
Iteration = 120   Residual = 0.00539683
Iteration = 140   Residual = 0.00394315
Iteration = 160   Residual = 0.00283027
Iteration = 180   Residual = 0.00200107
Iteration = 200   Residual = 0.00264971
Final Resid Norm: 0.00264971
