------------
Profiler Configuration
output path: /home/tc/pwr2018_data/output_fixed/graph500_proc2/cap_14-5/profiler-3
monitoring frequency: 100000000 nano seconds
------------
SCALE:                          20
edgefactor:                     16
NBFS:                           64
graph_generation:               3.28257
num_mpi_processes:              2
construction_time:              0.903067
bfs  min_time:                  0.303348
bfs  firstquartile_time:        0.303716
bfs  median_time:               0.303916
bfs  thirdquartile_time:        0.304112
bfs  max_time:                  0.306119
bfs  mean_time:                 0.304063
bfs  stddev_time:               0.000554603
min_nedge:                      16775818
firstquartile_nedge:            16775818
median_nedge:                   16775818
thirdquartile_nedge:            16775818
max_nedge:                      16775818
mean_nedge:                     16775818
stddev_nedge:                   0
bfs  min_TEPS:                  5.48017e+07
bfs  firstquartile_TEPS:        5.51632e+07
bfs  median_TEPS:               5.51988e+07
bfs  thirdquartile_TEPS:        5.52353e+07
bfs  max_TEPS:                  5.53023e+07
bfs  harmonic_mean_TEPS:     !  5.51722e+07
bfs  harmonic_stddev_TEPS:      12678.5
bfs  min_validate:              1.07273
bfs  firstquartile_validate:    1.07426
bfs  median_validate:           1.07502
bfs  thirdquartile_validate:    1.07567
bfs  max_validate:              1.07903
bfs  mean_validate:             1.07522
bfs  stddev_validate:           0.00132905
