/dev/cpu/msr_batch: No such file or directory
--------------------------------------------------------------------------
mpirun noticed that process rank 0 with PID 0 on node box exited on signal 9 (Killed).
--------------------------------------------------------------------------
Command exited with non-zero status 137
real	1m 5.22s
user	1m 45.87s
sys	0m 10.44s
