------------
Profiler Configuration
output path: /home/tc/pwr2018_data/output_fixed/lulesh_proc1/cap_12/profiler-4
monitoring frequency: 100000000 nano seconds
------------
Running problem size 42^3 per domain until completion
Num processors: 1
Num threads: 2
Total number of elements: 74088

To run other sizes, use -s <integer>.
To run a fixed number of iterations, use -i <integer>.
To run a more or less balanced region set, use -b <integer>.
To change the relative costs of regions, use -c <integer>.
To print out progress, use -p
To write an output file for VisIt, use -v
See help (-h) for more options

Run completed:  
   Problem size        =  42 
   MPI tasks           =  1 
   Iteration count     =  1367 
   Final Origin Energy = 3.738968e+05 
   Testing Plane 0 of Energy Array on rank 0:
        MaxAbsDiff   = 5.820766e-11
        TotalAbsDiff = 2.334986e-09
        MaxRelDiff   = 1.400554e-12


Elapsed time         =      77.81 (s)
Grind time (us/z/c)  = 0.76825062 (per dom)  (0.76825062 overall)
FOM                  =  1301.6586 (z/s)

