/dev/cpu/msr_batch: No such file or directory
graph_generation:               6.444661 s
construction_time:              1.048210 s
Running BFS 0
Time for BFS 0 is 0.265732
TEPS for BFS 0 is 6.31306e+07
Validating BFS 0
Validate time for BFS 0 is 1.611565
Running BFS 1
Time for BFS 1 is 0.265866
TEPS for BFS 1 is 6.30987e+07
Validating BFS 1
Validate time for BFS 1 is 1.610870
Running BFS 2
Time for BFS 2 is 0.265667
TEPS for BFS 2 is 6.31459e+07
Validating BFS 2
Validate time for BFS 2 is 1.611441
Running BFS 3
Time for BFS 3 is 0.265753
TEPS for BFS 3 is 6.31255e+07
Validating BFS 3
Validate time for BFS 3 is 1.604535
Running BFS 4
Time for BFS 4 is 0.265735
TEPS for BFS 4 is 6.31298e+07
Validating BFS 4
Validate time for BFS 4 is 1.603179
Running BFS 5
Time for BFS 5 is 0.265675
TEPS for BFS 5 is 6.31441e+07
Validating BFS 5
Validate time for BFS 5 is 1.609945
Running BFS 6
Time for BFS 6 is 0.265599
TEPS for BFS 6 is 6.31621e+07
Validating BFS 6
Validate time for BFS 6 is 1.603015
Running BFS 7
Time for BFS 7 is 0.265632
TEPS for BFS 7 is 6.31544e+07
Validating BFS 7
Validate time for BFS 7 is 1.608711
Running BFS 8
Time for BFS 8 is 0.265767
TEPS for BFS 8 is 6.31223e+07
Validating BFS 8
Validate time for BFS 8 is 1.603646
Running BFS 9
Time for BFS 9 is 0.265730
TEPS for BFS 9 is 6.3131e+07
Validating BFS 9
Validate time for BFS 9 is 1.604724
Running BFS 10
Time for BFS 10 is 0.265595
TEPS for BFS 10 is 6.3163e+07
Validating BFS 10
Validate time for BFS 10 is 1.610972
Running BFS 11
Time for BFS 11 is 0.265741
TEPS for BFS 11 is 6.31284e+07
Validating BFS 11
Validate time for BFS 11 is 1.603878
Running BFS 12
Time for BFS 12 is 0.265653
TEPS for BFS 12 is 6.31493e+07
Validating BFS 12
Validate time for BFS 12 is 1.609103
Running BFS 13
Time for BFS 13 is 0.265552
TEPS for BFS 13 is 6.31733e+07
Validating BFS 13
Validate time for BFS 13 is 1.604144
Running BFS 14
Time for BFS 14 is 0.265641
TEPS for BFS 14 is 6.31523e+07
Validating BFS 14
Validate time for BFS 14 is 1.605179
Running BFS 15
Time for BFS 15 is 0.265419
TEPS for BFS 15 is 6.32051e+07
Validating BFS 15
Validate time for BFS 15 is 1.612062
Running BFS 16
Time for BFS 16 is 0.265550
TEPS for BFS 16 is 6.31738e+07
Validating BFS 16
Validate time for BFS 16 is 1.604322
Running BFS 17
Time for BFS 17 is 0.265443
TEPS for BFS 17 is 6.31994e+07
Validating BFS 17
Validate time for BFS 17 is 1.610298
Running BFS 18
Time for BFS 18 is 0.265575
TEPS for BFS 18 is 6.3168e+07
Validating BFS 18
Validate time for BFS 18 is 1.611698
Running BFS 19
Time for BFS 19 is 0.265688
TEPS for BFS 19 is 6.31411e+07
Validating BFS 19
Validate time for BFS 19 is 1.612726
Running BFS 20
Time for BFS 20 is 0.265684
TEPS for BFS 20 is 6.31421e+07
Validating BFS 20
Validate time for BFS 20 is 1.604385
Running BFS 21
Time for BFS 21 is 0.265491
TEPS for BFS 21 is 6.3188e+07
Validating BFS 21
Validate time for BFS 21 is 1.607882
Running BFS 22
Time for BFS 22 is 0.265556
TEPS for BFS 22 is 6.31725e+07
Validating BFS 22
Validate time for BFS 22 is 1.609232
Running BFS 23
Time for BFS 23 is 0.265716
TEPS for BFS 23 is 6.31343e+07
Validating BFS 23
Validate time for BFS 23 is 1.610740
Running BFS 24
Time for BFS 24 is 0.265622
TEPS for BFS 24 is 6.31568e+07
Validating BFS 24
Validate time for BFS 24 is 1.604638
Running BFS 25
Time for BFS 25 is 0.265467
TEPS for BFS 25 is 6.31936e+07
Validating BFS 25
Validate time for BFS 25 is 1.612242
Running BFS 26
Time for BFS 26 is 0.265560
TEPS for BFS 26 is 6.31716e+07
Validating BFS 26
Validate time for BFS 26 is 1.611222
Running BFS 27
Time for BFS 27 is 0.265595
TEPS for BFS 27 is 6.31631e+07
Validating BFS 27
Validate time for BFS 27 is 1.604451
Running BFS 28
Time for BFS 28 is 0.265829
TEPS for BFS 28 is 6.31075e+07
Validating BFS 28
Validate time for BFS 28 is 1.612127
Running BFS 29
Time for BFS 29 is 0.265727
TEPS for BFS 29 is 6.31318e+07
Validating BFS 29
Validate time for BFS 29 is 1.611818
Running BFS 30
Time for BFS 30 is 0.265600
TEPS for BFS 30 is 6.31619e+07
Validating BFS 30
Validate time for BFS 30 is 1.611012
Running BFS 31
Time for BFS 31 is 0.265526
TEPS for BFS 31 is 6.31796e+07
Validating BFS 31
Validate time for BFS 31 is 1.604035
Running BFS 32
Time for BFS 32 is 0.265630
TEPS for BFS 32 is 6.31549e+07
Validating BFS 32
Validate time for BFS 32 is 1.604948
Running BFS 33
Time for BFS 33 is 0.265589
TEPS for BFS 33 is 6.31647e+07
Validating BFS 33
Validate time for BFS 33 is 1.610865
Running BFS 34
Time for BFS 34 is 0.265632
TEPS for BFS 34 is 6.31545e+07
Validating BFS 34
Validate time for BFS 34 is 1.604962
Running BFS 35
Time for BFS 35 is 0.265876
TEPS for BFS 35 is 6.30964e+07
Validating BFS 35
Validate time for BFS 35 is 1.604209
Running BFS 36
Time for BFS 36 is 0.265726
TEPS for BFS 36 is 6.31321e+07
Validating BFS 36
Validate time for BFS 36 is 1.605633
Running BFS 37
Time for BFS 37 is 0.265658
TEPS for BFS 37 is 6.31483e+07
Validating BFS 37
Validate time for BFS 37 is 1.610116
Running BFS 38
Time for BFS 38 is 0.265581
TEPS for BFS 38 is 6.31664e+07
Validating BFS 38
Validate time for BFS 38 is 1.603840
Running BFS 39
Time for BFS 39 is 0.265773
TEPS for BFS 39 is 6.31208e+07
Validating BFS 39
Validate time for BFS 39 is 1.605565
Running BFS 40
Time for BFS 40 is 0.265720
TEPS for BFS 40 is 6.31334e+07
Validating BFS 40
Validate time for BFS 40 is 1.605240
Running BFS 41
Time for BFS 41 is 0.265657
TEPS for BFS 41 is 6.31484e+07
Validating BFS 41
Validate time for BFS 41 is 1.610371
Running BFS 42
Time for BFS 42 is 0.265618
TEPS for BFS 42 is 6.31577e+07
Validating BFS 42
Validate time for BFS 42 is 1.605132
Running BFS 43
Time for BFS 43 is 0.265522
TEPS for BFS 43 is 6.31804e+07
Validating BFS 43
Validate time for BFS 43 is 1.608372
Running BFS 44
Time for BFS 44 is 0.265506
TEPS for BFS 44 is 6.31843e+07
Validating BFS 44
Validate time for BFS 44 is 1.610971
Running BFS 45
Time for BFS 45 is 0.265676
TEPS for BFS 45 is 6.31439e+07
Validating BFS 45
Validate time for BFS 45 is 1.602468
Running BFS 46
Time for BFS 46 is 0.265770
TEPS for BFS 46 is 6.31217e+07
Validating BFS 46
Validate time for BFS 46 is 1.608470
Running BFS 47
Time for BFS 47 is 0.265776
TEPS for BFS 47 is 6.31202e+07
Validating BFS 47
Validate time for BFS 47 is 1.604021
Running BFS 48
Time for BFS 48 is 0.265701
TEPS for BFS 48 is 6.31379e+07
Validating BFS 48
Validate time for BFS 48 is 1.610210
Running BFS 49
Time for BFS 49 is 0.265532
TEPS for BFS 49 is 6.3178e+07
Validating BFS 49
Validate time for BFS 49 is 1.604806
Running BFS 50
Time for BFS 50 is 0.265651
TEPS for BFS 50 is 6.31499e+07
Validating BFS 50
Validate time for BFS 50 is 1.604392
Running BFS 51
Time for BFS 51 is 0.265694
TEPS for BFS 51 is 6.31397e+07
Validating BFS 51
Validate time for BFS 51 is 1.610838
Running BFS 52
Time for BFS 52 is 0.265647
TEPS for BFS 52 is 6.31508e+07
Validating BFS 52
Validate time for BFS 52 is 1.611857
Running BFS 53
Time for BFS 53 is 0.265622
TEPS for BFS 53 is 6.31567e+07
Validating BFS 53
Validate time for BFS 53 is 1.603546
Running BFS 54
Time for BFS 54 is 0.265563
TEPS for BFS 54 is 6.31708e+07
Validating BFS 54
Validate time for BFS 54 is 1.610639
Running BFS 55
Time for BFS 55 is 0.265715
TEPS for BFS 55 is 6.31346e+07
Validating BFS 55
Validate time for BFS 55 is 1.604523
Running BFS 56
Time for BFS 56 is 0.265759
TEPS for BFS 56 is 6.31242e+07
Validating BFS 56
Validate time for BFS 56 is 1.604685
Running BFS 57
Time for BFS 57 is 0.265644
TEPS for BFS 57 is 6.31516e+07
Validating BFS 57
Validate time for BFS 57 is 1.612865
Running BFS 58
Time for BFS 58 is 0.265619
TEPS for BFS 58 is 6.31576e+07
Validating BFS 58
Validate time for BFS 58 is 1.609297
Running BFS 59
Time for BFS 59 is 0.265778
TEPS for BFS 59 is 6.31197e+07
Validating BFS 59
Validate time for BFS 59 is 1.610876
Running BFS 60
Time for BFS 60 is 0.265775
TEPS for BFS 60 is 6.31204e+07
Validating BFS 60
Validate time for BFS 60 is 1.604941
Running BFS 61
Time for BFS 61 is 0.265611
TEPS for BFS 61 is 6.31594e+07
Validating BFS 61
Validate time for BFS 61 is 1.612114
Running BFS 62
Time for BFS 62 is 0.265568
TEPS for BFS 62 is 6.31696e+07
Validating BFS 62
Validate time for BFS 62 is 1.611943
Running BFS 63
Time for BFS 63 is 0.265812
TEPS for BFS 63 is 6.31117e+07
Validating BFS 63
Validate time for BFS 63 is 1.602278
real	2m 19.09s
user	2m 19.00s
sys	0m 0.08s
