/dev/cpu/msr_batch: No such file or directory
graph_generation:               3.425760 s
construction_time:              0.903410 s
Running BFS 0
Time for BFS 0 is 0.324632
TEPS for BFS 0 is 5.16764e+07
Validating BFS 0
Validate time for BFS 0 is 1.137775
Running BFS 1
Time for BFS 1 is 0.325767
TEPS for BFS 1 is 5.14963e+07
Validating BFS 1
Validate time for BFS 1 is 1.132307
Running BFS 2
Time for BFS 2 is 0.323761
TEPS for BFS 2 is 5.18154e+07
Validating BFS 2
Validate time for BFS 2 is 1.130262
Running BFS 3
Time for BFS 3 is 0.325287
TEPS for BFS 3 is 5.15724e+07
Validating BFS 3
Validate time for BFS 3 is 1.117385
Running BFS 4
Time for BFS 4 is 0.323909
TEPS for BFS 4 is 5.17917e+07
Validating BFS 4
Validate time for BFS 4 is 1.118333
Running BFS 5
Time for BFS 5 is 0.324360
TEPS for BFS 5 is 5.17197e+07
Validating BFS 5
Validate time for BFS 5 is 1.114074
Running BFS 6
Time for BFS 6 is 0.324742
TEPS for BFS 6 is 5.16589e+07
Validating BFS 6
Validate time for BFS 6 is 1.114669
Running BFS 7
Time for BFS 7 is 0.325113
TEPS for BFS 7 is 5.15999e+07
Validating BFS 7
Validate time for BFS 7 is 1.120499
Running BFS 8
Time for BFS 8 is 0.324072
TEPS for BFS 8 is 5.17657e+07
Validating BFS 8
Validate time for BFS 8 is 1.134388
Running BFS 9
Time for BFS 9 is 0.325439
TEPS for BFS 9 is 5.15482e+07
Validating BFS 9
Validate time for BFS 9 is 1.111261
Running BFS 10
Time for BFS 10 is 0.324729
TEPS for BFS 10 is 5.1661e+07
Validating BFS 10
Validate time for BFS 10 is 1.113335
Running BFS 11
Time for BFS 11 is 0.324932
TEPS for BFS 11 is 5.16288e+07
Validating BFS 11
Validate time for BFS 11 is 1.105068
Running BFS 12
Time for BFS 12 is 0.324396
TEPS for BFS 12 is 5.17141e+07
Validating BFS 12
Validate time for BFS 12 is 1.111815
Running BFS 13
Time for BFS 13 is 0.323955
TEPS for BFS 13 is 5.17845e+07
Validating BFS 13
Validate time for BFS 13 is 1.106930
Running BFS 14
Time for BFS 14 is 0.325025
TEPS for BFS 14 is 5.16139e+07
Validating BFS 14
Validate time for BFS 14 is 1.105404
Running BFS 15
Time for BFS 15 is 0.323472
TEPS for BFS 15 is 5.18617e+07
Validating BFS 15
Validate time for BFS 15 is 1.116352
Running BFS 16
Time for BFS 16 is 0.324333
TEPS for BFS 16 is 5.17241e+07
Validating BFS 16
Validate time for BFS 16 is 1.108421
Running BFS 17
Time for BFS 17 is 0.324836
TEPS for BFS 17 is 5.1644e+07
Validating BFS 17
Validate time for BFS 17 is 1.170794
Running BFS 18
Time for BFS 18 is 0.326021
TEPS for BFS 18 is 5.14562e+07
Validating BFS 18
Validate time for BFS 18 is 1.111717
Running BFS 19
Time for BFS 19 is 0.324583
TEPS for BFS 19 is 5.16843e+07
Validating BFS 19
Validate time for BFS 19 is 1.121841
Running BFS 20
Time for BFS 20 is 0.324274
TEPS for BFS 20 is 5.17335e+07
Validating BFS 20
Validate time for BFS 20 is 1.111746
Running BFS 21
Time for BFS 21 is 0.324530
TEPS for BFS 21 is 5.16926e+07
Validating BFS 21
Validate time for BFS 21 is 1.116295
Running BFS 22
Time for BFS 22 is 0.324092
TEPS for BFS 22 is 5.17625e+07
Validating BFS 22
Validate time for BFS 22 is 1.108398
Running BFS 23
Time for BFS 23 is 0.324476
TEPS for BFS 23 is 5.17012e+07
Validating BFS 23
Validate time for BFS 23 is 1.111649
Running BFS 24
Time for BFS 24 is 0.323965
TEPS for BFS 24 is 5.17828e+07
Validating BFS 24
Validate time for BFS 24 is 1.108438
Running BFS 25
Time for BFS 25 is 0.324166
TEPS for BFS 25 is 5.17506e+07
Validating BFS 25
Validate time for BFS 25 is 1.115019
Running BFS 26
Time for BFS 26 is 0.324143
TEPS for BFS 26 is 5.17544e+07
Validating BFS 26
Validate time for BFS 26 is 1.112769
Running BFS 27
Time for BFS 27 is 0.324167
TEPS for BFS 27 is 5.17506e+07
Validating BFS 27
Validate time for BFS 27 is 1.167911
Running BFS 28
Time for BFS 28 is 0.326614
TEPS for BFS 28 is 5.13629e+07
Validating BFS 28
Validate time for BFS 28 is 1.162356
Running BFS 29
Time for BFS 29 is 0.324013
TEPS for BFS 29 is 5.17751e+07
Validating BFS 29
Validate time for BFS 29 is 1.119311
Running BFS 30
Time for BFS 30 is 0.325514
TEPS for BFS 30 is 5.15364e+07
Validating BFS 30
Validate time for BFS 30 is 1.116709
Running BFS 31
Time for BFS 31 is 0.324837
TEPS for BFS 31 is 5.16438e+07
Validating BFS 31
Validate time for BFS 31 is 1.112700
Running BFS 32
Time for BFS 32 is 0.324025
TEPS for BFS 32 is 5.17733e+07
Validating BFS 32
Validate time for BFS 32 is 1.108461
Running BFS 33
Time for BFS 33 is 0.324322
TEPS for BFS 33 is 5.17258e+07
Validating BFS 33
Validate time for BFS 33 is 1.115314
Running BFS 34
Time for BFS 34 is 0.324068
TEPS for BFS 34 is 5.17664e+07
Validating BFS 34
Validate time for BFS 34 is 1.106155
Running BFS 35
Time for BFS 35 is 0.323376
TEPS for BFS 35 is 5.18771e+07
Validating BFS 35
Validate time for BFS 35 is 1.108688
Running BFS 36
Time for BFS 36 is 0.324872
TEPS for BFS 36 is 5.16383e+07
Validating BFS 36
Validate time for BFS 36 is 1.112304
Running BFS 37
Time for BFS 37 is 0.323356
TEPS for BFS 37 is 5.18804e+07
Validating BFS 37
Validate time for BFS 37 is 1.165494
Running BFS 38
Time for BFS 38 is 0.324775
TEPS for BFS 38 is 5.16537e+07
Validating BFS 38
Validate time for BFS 38 is 1.109296
Running BFS 39
Time for BFS 39 is 0.324742
TEPS for BFS 39 is 5.16589e+07
Validating BFS 39
Validate time for BFS 39 is 1.113097
Running BFS 40
Time for BFS 40 is 0.324422
TEPS for BFS 40 is 5.17099e+07
Validating BFS 40
Validate time for BFS 40 is 1.113474
Running BFS 41
Time for BFS 41 is 0.324309
TEPS for BFS 41 is 5.17279e+07
Validating BFS 41
Validate time for BFS 41 is 1.116720
Running BFS 42
Time for BFS 42 is 0.324241
TEPS for BFS 42 is 5.17388e+07
Validating BFS 42
Validate time for BFS 42 is 1.108109
Running BFS 43
Time for BFS 43 is 0.324006
TEPS for BFS 43 is 5.17762e+07
Validating BFS 43
Validate time for BFS 43 is 1.169584
Running BFS 44
Time for BFS 44 is 0.327031
TEPS for BFS 44 is 5.12973e+07
Validating BFS 44
Validate time for BFS 44 is 1.114787
Running BFS 45
Time for BFS 45 is 0.324101
TEPS for BFS 45 is 5.17611e+07
Validating BFS 45
Validate time for BFS 45 is 1.108696
Running BFS 46
Time for BFS 46 is 0.323848
TEPS for BFS 46 is 5.18015e+07
Validating BFS 46
Validate time for BFS 46 is 1.112838
Running BFS 47
Time for BFS 47 is 0.325278
TEPS for BFS 47 is 5.15738e+07
Validating BFS 47
Validate time for BFS 47 is 1.110112
Running BFS 48
Time for BFS 48 is 0.324532
TEPS for BFS 48 is 5.16924e+07
Validating BFS 48
Validate time for BFS 48 is 1.117033
Running BFS 49
Time for BFS 49 is 0.324698
TEPS for BFS 49 is 5.16659e+07
Validating BFS 49
Validate time for BFS 49 is 1.108426
Running BFS 50
Time for BFS 50 is 0.324705
TEPS for BFS 50 is 5.16649e+07
Validating BFS 50
Validate time for BFS 50 is 1.112448
Running BFS 51
Time for BFS 51 is 0.325542
TEPS for BFS 51 is 5.1532e+07
Validating BFS 51
Validate time for BFS 51 is 1.118739
Running BFS 52
Time for BFS 52 is 0.324260
TEPS for BFS 52 is 5.17357e+07
Validating BFS 52
Validate time for BFS 52 is 1.117688
Running BFS 53
Time for BFS 53 is 0.324581
TEPS for BFS 53 is 5.16846e+07
Validating BFS 53
Validate time for BFS 53 is 1.107467
Running BFS 54
Time for BFS 54 is 0.325072
TEPS for BFS 54 is 5.16065e+07
Validating BFS 54
Validate time for BFS 54 is 1.113017
Running BFS 55
Time for BFS 55 is 0.323725
TEPS for BFS 55 is 5.18212e+07
Validating BFS 55
Validate time for BFS 55 is 1.172804
Running BFS 56
Time for BFS 56 is 0.327767
TEPS for BFS 56 is 5.11822e+07
Validating BFS 56
Validate time for BFS 56 is 1.131144
Running BFS 57
Time for BFS 57 is 0.327327
TEPS for BFS 57 is 5.12509e+07
Validating BFS 57
Validate time for BFS 57 is 1.117043
Running BFS 58
Time for BFS 58 is 0.324780
TEPS for BFS 58 is 5.16528e+07
Validating BFS 58
Validate time for BFS 58 is 1.116988
Running BFS 59
Time for BFS 59 is 0.327560
TEPS for BFS 59 is 5.12145e+07
Validating BFS 59
Validate time for BFS 59 is 1.117009
Running BFS 60
Time for BFS 60 is 0.324703
TEPS for BFS 60 is 5.16652e+07
Validating BFS 60
Validate time for BFS 60 is 1.119560
Running BFS 61
Time for BFS 61 is 0.324340
TEPS for BFS 61 is 5.17229e+07
Validating BFS 61
Validate time for BFS 61 is 1.117156
Running BFS 62
Time for BFS 62 is 0.324636
TEPS for BFS 62 is 5.16757e+07
Validating BFS 62
Validate time for BFS 62 is 1.117761
Running BFS 63
Time for BFS 63 is 0.324961
TEPS for BFS 63 is 5.16241e+07
Validating BFS 63
Validate time for BFS 63 is 1.113642
real	1m 43.80s
user	3m 20.76s
sys	0m 6.73s
