/dev/cpu/msr_batch: No such file or directory
terminate called after throwing an instance of 'std::bad_alloc'
  what():  std::bad_alloc
[box:05261] *** Process received signal ***
[box:05261] Signal: Aborted (6)
[box:05261] Signal code:  (-6)
[box:05261] [ 0] /lib/libpthread.so.0(+0x10030)[0x7f1aef95b030]
[box:05261] [ 1] /lib/libc.so.6(gsignal+0xbb)[0x7f1aef60185e]
[box:05261] [ 2] /lib/libc.so.6(abort+0x139)[0x7f1aef60299d]
[box:05261] [ 3] /usr/lib/libstdc++.so.6(_ZN9__gnu_cxx27__verbose_terminate_handlerEv+0xbc)[0x7f1af013c9ad]
[box:05261] [ 4] /usr/lib/libstdc++.so.6(+0x94081)[0x7f1af013b081]
[box:05261] [ 5] /usr/lib/libstdc++.so.6(+0x940ba)[0x7f1af013b0ba]
[box:05261] [ 6] /usr/lib/libstdc++.so.6(__cxa_rethrow+0x0)[0x7f1af013b29c]
[box:05261] [ 7] /usr/lib/libstdc++.so.6(_Znwm+0x53)[0x7f1af013b63a]
[box:05261] [ 8] /mnt/sda1/miniFE/src/miniFE.x[0x412849]
[box:05261] [ 9] /mnt/sda1/miniFE/src/miniFE.x[0x419c53]
[box:05261] [10] /mnt/sda1/miniFE/src/miniFE.x[0x404d2a]
[box:05261] [11] /lib/libc.so.6(__libc_start_main+0x15a)[0x7f1aef5f209d]
[box:05261] [12] /mnt/sda1/miniFE/src/miniFE.x[0x406b6a]
[box:05261] *** End of error message ***
--------------------------------------------------------------------------
mpirun noticed that process rank 0 with PID 0 on node box exited on signal 6 (Aborted).
--------------------------------------------------------------------------
Command exited with non-zero status 134
real	0m 57.45s
user	1m 35.18s
sys	0m 6.48s
