time(ms) energy(J) hostname
440697616 0.000000 box
440697716 1.339355 box
440697816 1.307678 box
440697916 1.260742 box
440698016 1.291992 box
440698116 1.285217 box
440698216 1.291138 box
440698316 1.282776 box
440698416 1.334778 box
440698516 1.335999 box
440698616 1.370789 box
440698716 1.369263 box
440698816 1.370544 box
440698916 1.368652 box
440699016 1.371033 box
440699116 1.372131 box
440699216 1.368103 box
440699316 1.368591 box
440699416 1.367249 box
440699516 1.369385 box
440699616 1.371216 box
440699716 1.367126 box
440699816 1.367432 box
440699916 1.369202 box
440700016 1.366699 box
440700116 1.368896 box
440700216 1.368042 box
440700316 1.365662 box
440700416 1.365540 box
440700516 1.369324 box
440700616 1.366577 box
440700716 1.371155 box
440700816 1.366577 box
440700916 1.367493 box
440701016 1.369202 box
440701116 1.369507 box
440701216 1.370422 box
440701316 1.370117 box
440701416 1.367249 box
440701516 1.368835 box
440701616 1.367798 box
440701716 1.368958 box
440701816 1.369507 box
440701916 1.370178 box
440702016 1.367554 box
440702116 1.368774 box
440702216 1.370667 box
440702316 1.369019 box
440702416 1.370605 box
440702516 1.370178 box
440702616 1.371277 box
440702716 1.370300 box
440702816 1.368958 box
440702916 1.370544 box
440703016 1.371216 box
440703116 1.367920 box
440703216 1.370911 box
440703316 1.366821 box
440703416 1.366821 box
440703516 1.370850 box
440703616 1.369995 box
440703716 1.369507 box
440703816 1.369080 box
440703916 1.369873 box
440704016 1.367859 box
440704116 1.372314 box
440704216 1.368408 box
440704316 1.367126 box
440704416 1.368774 box
440704516 1.366455 box
440704616 1.369324 box
440704716 1.365540 box
440704816 1.367126 box
440704916 1.366699 box
440705016 1.366516 box
440705116 1.370544 box
440705216 1.368774 box
440705316 1.371521 box
440705416 1.369812 box
440705516 1.368652 box
440705616 1.367371 box
440705716 1.369080 box
440705816 1.372375 box
440705916 1.368347 box
440706016 1.369080 box
440706116 1.367920 box
440706216 1.368713 box
440706316 1.367615 box
440706416 1.369324 box
440706516 1.371155 box
440706616 1.369019 box
440706716 1.368530 box
440706816 1.369507 box
440706916 1.371887 box
440707016 1.372559 box
440707116 1.369507 box
440707216 1.372986 box
440707316 1.369812 box
440707416 1.371521 box
440707516 1.369019 box
440707616 1.371582 box
440707716 1.368286 box
440707816 1.369934 box
440707916 1.370056 box
440708016 1.368286 box
440708116 1.367920 box
440708216 1.371887 box
440708316 1.367676 box
440708416 1.367676 box
440708516 1.368591 box
440708616 1.363770 box
440708716 1.369141 box
440708816 1.368530 box
440708916 1.369629 box
440709016 1.369202 box
440709116 1.370056 box
440709216 1.365906 box
440709316 1.365295 box
440709416 1.367249 box
440709516 1.368896 box
440709616 1.369690 box
440709716 1.368591 box
440709816 1.366272 box
440709916 1.370361 box
440710016 1.367676 box
440710116 1.372437 box
440710216 1.370544 box
440710316 1.369812 box
440710416 1.367615 box
440710516 1.367981 box
440710616 1.370605 box
440710716 1.370483 box
440710816 1.371582 box
440710916 1.366516 box
440711016 1.369751 box
440711116 1.369568 box
440711216 1.369080 box
440711316 1.370544 box
440711416 1.371338 box
440711516 1.369446 box
440711616 1.369873 box
440711716 1.371155 box
440711816 1.370239 box
440711916 1.368103 box
440712016 1.370667 box
440712116 1.371887 box
440712216 1.368652 box
440712316 1.367981 box
440712416 1.369202 box
440712516 1.371521 box
440712616 1.370117 box
440712716 1.372742 box
440712816 1.367371 box
440712916 1.367920 box
440713016 1.370483 box
440713116 1.368652 box
440713216 1.371948 box
440713316 1.371521 box
440713416 1.367004 box
440713516 1.364380 box
440713616 1.368469 box
440713716 1.369934 box
440713816 1.370300 box
440713916 1.367981 box
440714016 1.362183 box
440714116 1.367493 box
440714216 1.370056 box
440714316 1.368042 box
440714416 1.366577 box
440714516 1.369385 box
440714616 1.366455 box
440714716 1.368469 box
440714816 1.369568 box
440714916 1.371948 box
440715016 1.368591 box
440715116 1.366760 box
440715216 1.369080 box
440715316 1.371033 box
440715416 1.368958 box
440715516 1.369995 box
440715616 1.370117 box
440715716 1.367798 box
440715816 1.368958 box
440715916 1.371155 box
440716016 1.370422 box
440716116 1.368469 box
440716216 1.369324 box
440716316 1.369202 box
440716416 1.371643 box
440716516 1.370544 box
440716616 1.369507 box
440716716 1.367310 box
440716816 1.369873 box
440716916 1.369385 box
440717016 1.370728 box
440717116 1.370117 box
440717216 1.366943 box
440717316 1.367615 box
440717416 1.371338 box
440717516 1.370667 box
440717616 1.366699 box
440717716 1.366821 box
440717816 1.366699 box
440717916 1.366943 box
440718016 1.367310 box
440718116 1.365173 box
440718216 1.368042 box
440718316 1.370178 box
440718416 1.372192 box
440718516 1.369995 box
440718616 1.369324 box
440718716 1.368835 box
440718816 1.367493 box
440718916 1.369141 box
440719016 1.369446 box
440719116 1.370422 box
440719216 1.367432 box
440719316 1.367676 box
440719416 1.368652 box
440719516 1.368713 box
440719616 1.372559 box
440719716 1.369080 box
440719816 1.372559 box
440719916 1.371460 box
440720016 1.369263 box
440720116 1.369934 box
440720216 1.368286 box
440720316 1.369629 box
440720416 1.371399 box
440720516 1.371460 box
440720616 1.369507 box
440720716 1.368530 box
440720816 1.369202 box
440720916 1.368469 box
440721016 1.372009 box
440721116 1.369629 box
440721216 1.369629 box
440721316 1.365784 box
440721416 1.367310 box
440721516 1.370239 box
440721616 1.367249 box
440721716 1.369446 box
440721816 1.369080 box
440721916 1.366394 box
440722016 1.367432 box
440722116 1.369080 box
440722216 1.368774 box
440722316 1.369812 box
440722416 1.367798 box
440722516 1.367798 box
440722616 1.370789 box
440722716 1.368591 box
440722816 1.368164 box
440722916 1.367371 box
440723016 1.369568 box
440723116 1.371704 box
440723216 1.371155 box
440723316 1.368774 box
440723416 1.367188 box
440723516 1.368896 box
440723616 1.370056 box
440723716 1.369751 box
440723816 1.372131 box
440723916 1.368591 box
440724016 1.368835 box
440724116 1.372375 box
440724216 1.368774 box
440724316 1.371460 box
440724416 1.370422 box
440724516 1.368225 box
440724616 1.369568 box
440724716 1.368713 box
440724816 1.371338 box
440724916 1.369873 box
440725016 1.367493 box
440725116 1.368652 box
440725216 1.368469 box
440725316 1.369080 box
440725416 1.364563 box
440725516 1.367065 box
440725616 1.369934 box
440725716 1.367554 box
440725816 1.368774 box
440725916 1.364380 box
440726016 1.365173 box
440726116 1.371582 box
440726216 1.367920 box
440726316 1.365540 box
440726416 1.366089 box
440726516 1.369507 box
440726616 1.370056 box
440726716 1.367737 box
440726816 1.365540 box
440726916 1.370605 box
440727016 1.369995 box
440727116 1.368469 box
440727216 1.367188 box
440727316 1.365051 box
440727416 1.369019 box
440727516 1.368958 box
440727616 1.370483 box
440727716 1.366943 box
440727816 1.370361 box
440727916 1.371033 box
440728016 1.369507 box
440728116 1.371094 box
440728216 1.367249 box
440728316 1.371460 box
440728416 1.371155 box
440728516 1.369385 box
440728616 1.369690 box
440728716 1.366455 box
440728816 1.370850 box
440728916 1.370728 box
440729016 1.368530 box
440729116 1.367188 box
440729216 1.365356 box
440729316 1.369263 box
440729416 1.367798 box
440729516 1.365295 box
440729616 1.363708 box
440729716 1.368042 box
440729816 1.369507 box
440729916 1.368347 box
440730016 1.367859 box
440730116 1.366760 box
440730216 1.369629 box
440730316 1.367981 box
440730416 1.368347 box
440730516 1.368408 box
440730616 1.365417 box
440730716 1.370239 box
440730816 1.369019 box
440730916 1.367249 box
440731016 1.368042 box
440731116 1.367554 box
440731216 1.370422 box
440731316 1.369141 box
440731416 1.368835 box
440731516 1.368896 box
440731616 1.369019 box
440731716 1.369751 box
440731816 1.368225 box
440731916 1.368347 box
440732016 1.367432 box
440732116 1.370483 box
440732216 1.367493 box
440732316 1.368164 box
440732416 1.366699 box
440732516 1.363403 box
440732616 1.370178 box
440732716 1.368958 box
440732816 1.367859 box
440732916 1.366333 box
440733016 1.366028 box
440733116 1.368103 box
440733216 1.365784 box
440733316 1.365356 box
440733416 1.367004 box
440733516 1.370422 box
440733616 1.367615 box
440733716 1.368103 box
440733816 1.366760 box
440733916 1.366943 box
440734016 1.368164 box
440734116 1.368958 box
440734216 1.367493 box
440734316 1.367615 box
440734416 1.367981 box
440734516 1.370422 box
440734616 1.368469 box
440734716 1.370239 box
440734816 1.369690 box
440734916 1.368042 box
440735016 1.372375 box
440735116 1.370300 box
440735216 1.365967 box
440735316 1.370483 box
440735416 1.366455 box
440735516 1.368286 box
440735616 1.366760 box
440735716 1.367615 box
440735816 1.369629 box
440735916 1.368103 box
440736016 1.369507 box
440736116 1.368713 box
440736216 1.366028 box
440736316 1.366455 box
440736416 1.366516 box
440736516 1.368713 box
440736616 1.369751 box
440736716 1.361633 box
440736816 1.367126 box
440736916 1.366577 box
440737016 1.366028 box
440737116 1.366028 box
440737216 1.368896 box
440737316 1.369446 box
440737416 1.369934 box
440737516 1.367615 box
440737616 1.367432 box
440737716 1.366821 box
440737816 1.370667 box
440737916 1.369873 box
440738016 1.366028 box
440738116 1.365906 box
440738216 1.369568 box
440738316 1.367126 box
440738416 1.371094 box
440738516 1.368469 box
440738616 1.368591 box
440738716 1.368896 box
440738816 1.368896 box
440738916 1.370544 box
440739016 1.369202 box
440739116 1.367493 box
440739216 1.370483 box
440739316 1.367676 box
440739416 1.371887 box
440739516 1.367310 box
440739616 1.368225 box
440739716 1.369629 box
440739816 1.367859 box
440739916 1.365784 box
440740016 1.367004 box
440740116 1.367859 box
440740216 1.369202 box
440740316 1.368652 box
440740416 1.362000 box
440740516 1.364990 box
440740616 1.367859 box
440740716 1.369080 box
440740816 1.367554 box
440740916 1.364807 box
440741016 1.370789 box
440741116 1.369080 box
440741216 1.367004 box
440741316 1.368347 box
440741416 1.368408 box
440741516 1.368896 box
440741616 1.370728 box
440741716 1.368469 box
440741816 1.367554 box
440741916 1.371521 box
440742016 1.370178 box
440742116 1.368774 box
440742216 1.367737 box
440742316 1.368164 box
440742416 1.371460 box
440742516 1.368896 box
440742616 1.369812 box
440742716 1.368652 box
440742816 1.369080 box
440742916 1.369690 box
440743016 1.370544 box
440743116 1.374329 box
440743216 1.370544 box
440743316 1.368103 box
440743416 1.368591 box
440743516 1.369263 box
440743616 1.367981 box
440743716 1.365845 box
440743816 1.370239 box
440743916 1.368958 box
440744016 1.364929 box
440744116 1.367920 box
440744216 1.368958 box
440744316 1.367432 box
440744416 1.368835 box
440744516 1.368652 box
440744616 1.366211 box
440744716 1.367920 box
440744816 1.369385 box
440744916 1.370300 box
440745016 1.366028 box
440745116 1.366638 box
440745216 1.371887 box
440745316 1.367065 box
440745416 1.370667 box
440745516 1.368408 box
440745616 1.368835 box
440745716 1.370789 box
440745816 1.370728 box
440745916 1.372314 box
440746016 1.367737 box
440746116 1.369080 box
440746216 1.369995 box
440746316 1.370056 box
440746416 1.371094 box
440746516 1.368164 box
440746616 1.370117 box
440746716 1.368469 box
440746816 1.370728 box
440746916 1.369934 box
440747016 1.365540 box
440747116 1.369263 box
440747216 1.370117 box
440747316 1.367249 box
440747416 1.367920 box
440747516 1.365601 box
440747616 1.367859 box
440747716 1.365845 box
440747816 1.365967 box
440747916 1.366638 box
440748016 1.367126 box
440748116 1.371155 box
440748216 1.368408 box
440748316 1.370422 box
440748416 1.366516 box
440748516 1.369263 box
440748616 1.370972 box
440748716 1.368652 box
440748816 1.367798 box
440748916 1.366577 box
440749016 1.369568 box
440749116 1.369629 box
440749216 1.369324 box
440749316 1.368530 box
440749416 1.371582 box
440749516 1.368774 box
440749616 1.370850 box
440749716 1.369141 box
440749816 1.366699 box
440749916 1.366333 box
440750016 1.369324 box
440750116 1.372437 box
440750216 1.368896 box
440750316 1.368225 box
440750416 1.368530 box
440750516 1.368591 box
440750616 1.369629 box
440750716 1.369141 box
440750816 1.365356 box
440750916 1.369202 box
440751016 1.368896 box
440751116 1.368103 box
440751216 1.367432 box
440751316 1.364929 box
440751416 1.367676 box
440751516 1.368286 box
440751616 1.368652 box
440751716 1.367554 box
440751816 1.369446 box
440751916 1.371033 box
440752016 1.368225 box
440752116 1.367676 box
440752216 1.365356 box
440752316 1.369507 box
440752416 1.370911 box
440752516 1.371765 box
440752616 1.365845 box
440752716 1.367615 box
440752816 1.369141 box
440752916 1.370239 box
440753016 1.370789 box
440753116 1.367676 box
440753216 1.370239 box
440753316 1.370972 box
440753416 1.368408 box
440753516 1.372314 box
440753616 1.368713 box
440753716 1.368225 box
440753816 1.370056 box
440753916 1.369446 box
440754016 1.369629 box
440754116 1.369080 box
440754216 1.368164 box
440754316 1.368042 box
440754416 1.367554 box
440754516 1.368958 box
440754616 1.369690 box
440754716 1.366333 box
440754816 1.368225 box
440754916 1.370117 box
440755016 1.368958 box
440755116 1.366577 box
440755216 1.365967 box
440755316 1.365906 box
440755416 1.369202 box
440755516 1.369446 box
440755616 1.370850 box
440755716 1.368347 box
440755816 1.369324 box
440755916 1.370056 box
440756016 1.370117 box
440756116 1.367554 box
440756216 1.367615 box
440756316 1.369019 box
440756416 1.369019 box
440756516 1.370911 box
440756616 1.370300 box
440756716 1.368591 box
440756816 1.368896 box
440756916 1.371826 box
440757016 1.369446 box
440757116 1.371277 box
440757216 1.369690 box
440757316 1.372925 box
440757416 1.369934 box
440757516 1.371765 box
440757616 1.371582 box
440757716 1.366943 box
440757816 1.369507 box
440757916 1.371826 box
440758016 1.369934 box
440758116 1.371704 box
440758216 1.366577 box
440758316 1.367981 box
440758416 1.368408 box
440758516 1.368713 box
440758616 1.371826 box
440758716 1.366516 box
440758816 1.368225 box
440758916 1.368774 box
440759016 1.365906 box
440759116 1.365845 box
440759216 1.366028 box
440759316 1.369019 box
440759416 1.369202 box
440759516 1.366760 box
440759616 1.368652 box
440759716 1.366394 box
440759816 1.367615 box
440759916 1.367371 box
440760016 1.370361 box
440760116 1.368164 box
440760216 1.367981 box
440760316 1.365906 box
440760416 1.371887 box
440760516 1.368469 box
440760616 1.370361 box
440760716 1.370117 box
440760816 1.369629 box
440760916 1.368774 box
440761016 1.370239 box
440761116 1.370178 box
440761216 1.369568 box
440761316 1.368225 box
440761416 1.369812 box
440761516 1.368286 box
440761616 1.369141 box
440761716 1.370361 box
440761816 1.366638 box
440761916 1.370911 box
440762016 1.371521 box
440762116 1.369324 box
440762216 1.372559 box
440762316 1.364502 box
440762416 1.365234 box
440762516 1.368042 box
440762616 1.367188 box
440762716 1.370544 box
440762816 1.366516 box
440762916 1.368347 box
440763016 1.367065 box
440763116 1.366516 box
440763216 1.366882 box
440763316 1.368347 box
440763416 1.366577 box
440763516 1.370056 box
440763616 1.369507 box
440763716 1.369690 box
440763816 1.369202 box
440763916 1.366699 box
440764016 1.370361 box
440764116 1.368713 box
440764216 1.369324 box
440764316 1.368652 box
440764416 1.368652 box
440764516 1.371155 box
440764616 1.371094 box
440764716 1.368103 box
440764816 1.370422 box
440764916 1.368530 box
440765016 1.366150 box
440765116 1.368713 box
440765216 1.370544 box
440765316 1.368103 box
440765416 1.371338 box
440765516 1.367432 box
440765616 1.366760 box
440765716 1.368958 box
440765816 1.369385 box
440765916 1.369873 box
440766016 1.370544 box
440766116 1.371399 box
440766216 1.365417 box
440766316 1.368835 box
440766416 1.366394 box
440766516 1.368347 box
440766616 1.369934 box
440766716 1.365540 box
440766816 1.369019 box
440766916 1.369080 box
440767016 1.369202 box
440767116 1.369080 box
440767216 1.366760 box
440767316 1.365234 box
440767416 1.363525 box
440767516 1.369324 box
440767616 1.366699 box
440767716 1.368774 box
440767816 1.365845 box
440767916 1.367310 box
440768016 1.369629 box
440768116 1.368835 box
440768216 1.370789 box
440768316 1.366516 box
440768416 1.364441 box
440768516 1.371033 box
440768616 1.367859 box
440768716 1.371460 box
440768816 1.368042 box
440768916 1.368408 box
440769016 1.369568 box
440769116 1.368958 box
440769216 1.369324 box
440769316 1.369385 box
440769416 1.373291 box
440769516 1.368164 box
440769616 1.369995 box
440769716 1.369385 box
440769816 1.371826 box
440769916 1.371277 box
440770016 1.370117 box
440770116 1.367981 box
440770216 1.366394 box
440770316 1.369690 box
440770416 1.370667 box
440770516 1.369507 box
440770616 1.370728 box
440770716 1.368225 box
440770816 1.367126 box
440770916 1.370728 box
440771016 1.370361 box
440771116 1.370056 box
440771216 1.367126 box
440771316 1.365662 box
440771416 1.367249 box
440771516 1.368835 box
440771616 1.367310 box
440771716 1.368103 box
440771816 1.365417 box
440771916 1.368408 box
440772016 1.367249 box
440772116 1.371582 box
440772216 1.369141 box
440772316 1.366882 box
440772416 1.364685 box
440772516 1.369629 box
440772616 1.369507 box
440772716 1.370056 box
440772816 1.369446 box
440772916 1.366089 box
440773016 1.368652 box
440773116 1.369263 box
440773216 1.371094 box
440773316 1.370178 box
440773416 1.371399 box
440773516 1.367615 box
440773616 1.365784 box
440773716 1.373779 box
440773816 1.369324 box
440773916 1.370789 box
440774016 1.371643 box
440774116 1.368774 box
440774216 1.369080 box
440774316 1.370300 box
440774416 1.369629 box
440774516 1.368652 box
440774616 1.369751 box
440774716 1.366089 box
440774816 1.369446 box
440774916 1.369690 box
440775016 1.370056 box
440775116 1.369812 box
440775216 1.370911 box
440775316 1.365417 box
440775416 1.370544 box
440775516 1.368835 box
440775616 1.368164 box
440775716 1.369324 box
440775816 1.367249 box
440775916 1.367004 box
440776016 1.368042 box
440776116 1.367920 box
440776216 1.367126 box
440776316 1.365967 box
440776416 1.367615 box
440776516 1.367554 box
440776616 1.371765 box
440776716 1.370789 box
440776816 1.370483 box
440776916 1.368835 box
440777016 1.365479 box
440777116 1.366394 box
440777216 1.367554 box
440777316 1.370361 box
440777416 1.369202 box
440777516 1.369812 box
440777616 1.368286 box
440777716 1.370972 box
440777816 1.369507 box
440777916 1.370422 box
440778016 1.371033 box
440778116 1.367676 box
440778216 1.372070 box
440778316 1.370178 box
440778416 1.369019 box
440778516 1.371277 box
440778616 1.370728 box
440778716 1.366943 box
440778816 1.368896 box
440778916 1.367310 box
440779016 1.371155 box
440779116 1.369873 box
440779216 1.370605 box
440779316 1.369934 box
440779416 1.368652 box
440779516 1.372375 box
440779616 1.368958 box
440779716 1.370789 box
440779816 1.370483 box
440779916 1.366638 box
440780016 1.367676 box
440780116 1.368408 box
440780216 1.373108 box
440780316 1.368958 box
440780416 1.367554 box
440780516 1.367798 box
440780616 1.366638 box
440780716 1.369507 box
440780816 1.369629 box
440780916 1.367493 box
440781016 1.368347 box
440781116 1.368164 box
440781216 1.373352 box
440781316 1.367493 box
440781416 1.369629 box
440781516 1.366882 box
440781616 1.367188 box
440781716 1.369263 box
440781816 1.370605 box
440781916 1.372192 box
440782016 1.367859 box
440782116 1.368347 box
440782216 1.369019 box
440782316 1.370605 box
440782416 1.367493 box
440782516 1.372986 box
440782616 1.370422 box
440782716 1.366943 box
440782816 1.371582 box
440782916 1.371887 box
440783016 1.370361 box
440783116 1.370667 box
440783216 1.370361 box
440783316 1.368958 box
440783416 1.367126 box
440783516 1.368958 box
440783616 1.369751 box
440783716 1.372681 box
440783816 1.373291 box
440783916 1.369751 box
440784016 1.368896 box
440784116 1.369141 box
440784216 1.368469 box
440784316 1.370483 box
440784416 1.370361 box
440784516 1.368286 box
440784616 1.368408 box
440784716 1.370605 box
440784816 1.369202 box
440784916 1.368164 box
440785016 1.367371 box
440785116 1.368103 box
440785216 1.369690 box
440785316 1.371094 box
440785416 1.371704 box
440785516 1.370300 box
440785616 1.369324 box
440785716 1.368225 box
440785816 1.367859 box
440785916 1.368774 box
440786016 1.370117 box
440786116 1.370789 box
440786216 1.369751 box
440786316 1.366699 box
440786416 1.369751 box
440786516 1.369324 box
440786616 1.372864 box
440786716 1.370544 box
440786816 1.366943 box
440786916 1.370972 box
440787016 1.369934 box
440787116 1.370667 box
440787216 1.372375 box
440787316 1.370972 box
440787416 1.367737 box
440787516 1.369751 box
440787616 1.370728 box
440787716 1.373047 box
440787816 1.372192 box
440787916 1.370605 box
440788016 1.369324 box
440788116 1.370972 box
440788216 1.371033 box
440788316 1.369751 box
440788416 1.372498 box
440788516 1.369629 box
440788616 1.365173 box
440788716 1.371338 box
440788816 1.368164 box
440788916 1.368896 box
440789016 1.368713 box
440789116 1.366211 box
440789216 1.367310 box
440789316 1.368835 box
440789416 1.368286 box
440789516 1.368286 box
440789616 1.369812 box
440789716 1.368835 box
440789816 1.368652 box
440789916 1.369568 box
440790016 1.369324 box
440790116 1.369507 box
440790216 1.369385 box
440790316 1.369141 box
440790416 1.365723 box
440790516 1.371521 box
440790616 1.374023 box
440790716 1.369324 box
440790816 1.369812 box
440790916 1.367554 box
440791016 1.368591 box
440791116 1.369141 box
440791216 1.370544 box
440791316 1.369690 box
440791416 1.369873 box
440791516 1.371765 box
440791616 1.372375 box
440791716 1.369934 box
440791816 1.373901 box
440791916 1.370789 box
440792016 1.370117 box
440792116 1.372253 box
440792216 1.366638 box
440792316 1.370300 box
440792416 1.372070 box
440792516 1.369324 box
440792616 1.371521 box
440792716 1.371704 box
440792816 1.367249 box
440792916 1.370789 box
440793016 1.370422 box
440793116 1.368530 box
440793216 1.369019 box
440793316 1.370850 box
440793416 1.366882 box
440793516 1.367493 box
440793616 1.369873 box
440793716 1.370056 box
440793816 1.370789 box
440793916 1.370605 box
440794016 1.367371 box
440794116 1.369263 box
440794216 1.367920 box
440794316 1.370422 box
440794416 1.369568 box
440794516 1.370605 box
440794616 1.366699 box
440794716 1.369202 box
440794816 1.370972 box
440794916 1.370972 box
440795016 1.371765 box
440795116 1.369080 box
440795216 1.365601 box
440795316 1.368958 box
440795416 1.367981 box
440795516 1.371216 box
440795616 1.370972 box
440795716 1.366577 box
440795816 1.371033 box
440795916 1.370300 box
440796016 1.370239 box
440796116 1.371582 box
440796216 1.372925 box
440796316 1.371521 box
440796416 1.368958 box
440796516 1.369995 box
440796616 1.371887 box
440796716 1.371765 box
440796816 1.372803 box
440796916 1.369812 box
440797016 1.369629 box
440797116 1.369446 box
440797216 1.373047 box
440797316 1.369812 box
440797416 1.370422 box
440797516 1.373657 box
440797616 1.371826 box
440797716 1.369690 box
440797816 1.370667 box
440797916 1.372437 box
440798016 1.372437 box
440798116 1.370300 box
440798216 1.369385 box
440798316 1.366699 box
440798416 1.371155 box
440798516 1.369873 box
440798616 1.371643 box
440798716 1.370605 box
440798816 1.366638 box
440798916 1.368652 box
440799016 1.371887 box
440799116 1.371887 box
440799216 1.370483 box
440799316 1.371460 box
440799416 1.369080 box
440799516 1.366577 box
440799616 1.370850 box
440799716 1.370850 box
440799816 1.371460 box
440799916 1.375000 box
440800016 1.371033 box
440800116 1.367249 box
440800216 1.368835 box
440800316 1.368530 box
440800416 1.371460 box
440800516 1.371155 box
440800616 1.370544 box
440800716 1.366943 box
440800816 1.367920 box
440800916 1.370605 box
440801016 1.371338 box
440801116 1.370544 box
440801216 1.371643 box
440801316 1.373596 box
440801416 1.370178 box
440801516 1.368835 box
440801616 1.370544 box
440801716 1.371643 box
440801816 1.369141 box
440801916 1.370911 box
440802016 1.370178 box
440802116 1.368896 box
440802216 1.370300 box
440802316 1.371033 box
440802416 1.369507 box
440802516 1.370911 box
440802616 1.370361 box
440802716 1.367798 box
440802816 1.368225 box
440802916 1.370239 box
440803016 1.370483 box
440803116 1.371338 box
440803216 1.371826 box
440803316 1.369751 box
440803416 1.366943 box
440803516 1.369873 box
440803616 1.368225 box
440803716 1.368103 box
440803816 1.371765 box
440803916 1.370728 box
440804016 1.368286 box
440804116 1.368286 box
440804216 1.368774 box
440804316 1.372131 box
440804416 1.370667 box
440804516 1.370911 box
440804616 1.367004 box
440804716 1.370544 box
440804816 1.374084 box
440804916 1.371765 box
440805016 1.371826 box
440805116 1.368469 box
440805216 1.370850 box
440805316 1.367004 box
440805416 1.368652 box
440805516 1.368774 box
440805616 1.371338 box
440805716 1.371338 box
440805816 1.369690 box
440805916 1.373779 box
440806016 1.370483 box
440806116 1.371826 box
440806216 1.371033 box
440806316 1.371216 box
440806416 1.372620 box
440806516 1.370483 box
440806616 1.369690 box
440806716 1.371765 box
440806816 1.369690 box
440806916 1.370300 box
440807016 1.373230 box
440807116 1.369629 box
440807216 1.371948 box
440807316 1.370178 box
440807416 1.370911 box
440807516 1.370056 box
440807616 1.370117 box
440807716 1.369385 box
440807816 1.367859 box
440807916 1.371277 box
440808016 1.371765 box
440808116 1.371338 box
440808216 1.372559 box
440808316 1.367310 box
440808416 1.366638 box
440808516 1.370117 box
440808616 1.371948 box
440808716 1.371460 box
440808816 1.371338 box
440808916 1.371948 box
440809016 1.369263 box
440809116 1.369751 box
440809216 1.374451 box
440809316 1.371521 box
440809416 1.371948 box
440809516 1.369934 box
440809616 1.368591 box
440809716 1.369812 box
440809816 1.371338 box
440809916 1.373413 box
440810016 1.368774 box
440810116 1.366272 box
440810216 1.368469 box
440810316 1.370850 box
440810416 1.372925 box
440810516 1.369446 box
440810616 1.372803 box
440810716 1.371643 box
440810816 1.369446 box
440810916 1.368896 box
440811016 1.370056 box
440811116 1.370667 box
440811216 1.370850 box
440811316 1.372131 box
440811416 1.371887 box
440811516 1.369019 box
440811616 1.370911 box
440811716 1.370178 box
440811816 1.372253 box
440811916 1.371887 box
440812016 1.372803 box
440812116 1.373169 box
440812216 1.367371 box
440812316 1.372253 box
440812416 1.371277 box
440812516 1.371460 box
440812616 1.371155 box
440812716 1.370178 box
440812816 1.369629 box
440812916 1.370911 box
440813016 1.372070 box
440813116 1.370117 box
440813216 1.370117 box
440813316 1.367310 box
440813416 1.372925 box
440813516 1.373169 box
440813616 1.374146 box
440813716 1.370483 box
440813816 1.370117 box
440813916 1.370117 box
440814016 1.370117 box
440814116 1.369629 box
440814216 1.371277 box
440814316 1.372498 box
440814416 1.368958 box
440814516 1.368896 box
440814616 1.366821 box
440814716 1.370728 box
440814816 1.372070 box
440814916 1.371582 box
440815016 1.371765 box
440815116 1.370972 box
440815216 1.372009 box
440815316 1.371155 box
440815416 1.372803 box
440815516 1.372803 box
440815616 1.373779 box
440815716 1.371765 box
440815816 1.368652 box
440815916 1.369751 box
440816016 1.371948 box
440816116 1.373657 box
440816216 1.369568 box
440816316 1.371765 box
440816416 1.370667 box
440816516 1.368774 box
440816616 1.369202 box
440816716 1.371643 box
440816816 1.370911 box
440816916 1.371826 box
440817016 1.373108 box
440817116 1.368469 box
440817216 1.366089 box
440817316 1.370300 box
440817416 1.370911 box
440817516 1.370178 box
440817616 1.370239 box
440817716 1.370789 box
440817816 1.367554 box
440817916 1.369324 box
440818016 1.369324 box
440818116 1.368958 box
440818216 1.369080 box
440818316 1.370605 box
440818416 1.370667 box
440818516 1.369019 box
440818616 1.370117 box
440818716 1.371887 box
440818816 1.371338 box
440818916 1.370300 box
440819016 1.369385 box
440819116 1.369873 box
440819216 1.368652 box
440819316 1.371765 box
440819416 1.372192 box
440819516 1.372498 box
440819616 1.371704 box
440819716 1.371887 box
440819816 1.370117 box
440819916 1.368530 box
440820016 1.371399 box
440820116 1.372925 box
440820216 1.372742 box
440820316 1.369751 box
440820416 1.370361 box
440820516 1.372559 box
440820616 1.373413 box
440820716 1.370911 box
440820816 1.372375 box
440820916 1.372742 box
440821016 1.372925 box
440821116 1.369629 box
440821216 1.372803 box
440821316 1.372925 box
440821416 1.373352 box
440821516 1.372192 box
440821616 1.372620 box
440821716 1.371155 box
440821816 1.370728 box
440821916 1.371033 box
440822016 1.371948 box
440822116 1.369263 box
440822216 1.370300 box
440822316 1.371765 box
440822416 1.367737 box
440822516 1.370728 box
440822616 1.371399 box
440822716 1.373535 box
440822816 1.370361 box
440822916 1.370911 box
440823016 1.370361 box
440823116 1.368713 box
440823216 1.367554 box
440823316 1.371399 box
440823416 1.371948 box
440823516 1.373230 box
440823616 1.369568 box
440823716 1.370483 box
440823816 1.370850 box
440823916 1.371338 box
440824016 1.372131 box
440824116 1.371155 box
440824216 1.371826 box
440824316 1.368530 box
440824416 1.371216 box
440824516 1.372620 box
440824616 1.372375 box
440824716 1.373291 box
440824816 1.371216 box
440824916 1.370544 box
440825016 1.366516 box
440825116 1.372009 box
440825216 1.371155 box
440825316 1.371887 box
440825416 1.373596 box
440825516 1.373108 box
440825616 1.371338 box
440825716 1.368286 box
440825816 1.373047 box
440825916 1.370972 box
440826016 1.372986 box
440826116 1.372742 box
440826216 1.373474 box
440826316 1.371765 box
440826416 1.369141 box
440826516 1.373291 box
440826616 1.371887 box
440826716 1.375183 box
440826816 1.373901 box
440826916 1.373230 box
440827016 1.370972 box
440827116 1.370605 box
440827216 1.372559 box
440827316 1.372375 box
440827416 1.372437 box
440827516 1.370972 box
440827616 1.372925 box
440827716 1.368591 box
440827816 1.369507 box
440827916 1.372131 box
440828016 1.372192 box
440828116 1.369812 box
440828216 1.370361 box
440828316 1.368652 box
440828416 1.370300 box
440828516 1.370911 box
440828616 1.373535 box
440828716 1.371643 box
440828816 1.373840 box
440828916 1.370850 box
440829016 1.367615 box
440829116 1.368591 box
440829216 1.373840 box
440829316 1.372498 box
440829416 1.373535 box
440829516 1.370850 box
440829616 1.370972 box
440829716 1.369080 box
440829816 1.369141 box
440829916 1.371216 box
440830016 1.373291 box
440830116 1.373657 box
440830216 1.371216 box
440830316 1.371399 box
440830416 1.370667 box
440830516 1.371582 box
440830616 1.372803 box
440830716 1.373230 box
440830816 1.373169 box
440830916 1.374084 box
440831016 1.369690 box
440831116 1.369446 box
440831216 1.370667 box
440831316 1.374817 box
440831416 1.372375 box
440831516 1.372375 box
440831616 1.371643 box
440831716 1.369324 box
440831816 1.372375 box
440831916 1.369568 box
440832016 1.372742 box
440832116 1.372131 box
440832216 1.370911 box
440832316 1.371094 box
440832416 1.374878 box
440832516 1.367249 box
440832616 1.370117 box
440832716 1.370605 box
440832816 1.372070 box
440832916 1.370728 box
440833016 1.372986 box
440833116 1.371033 box
440833216 1.369873 box
440833316 1.367371 box
440833416 1.370117 box
440833516 1.371887 box
440833616 1.371887 box
440833716 1.372498 box
440833816 1.371826 box
440833916 1.370544 box
440834016 1.371399 box
440834116 1.374329 box
440834216 1.371643 box
440834316 1.372925 box
440834416 1.374634 box
440834516 1.370544 box
440834616 1.368164 box
440834716 1.371704 box
440834816 1.372620 box
440834916 1.371826 box
440835016 1.373047 box
440835116 1.371033 box
440835216 1.370361 box
440835316 1.369324 box
440835416 1.372192 box
440835516 1.370117 box
440835616 1.373535 box
440835716 1.372192 box
440835816 1.373535 box
440835916 1.374207 box
440836016 1.370850 box
440836116 1.369080 box
440836216 1.373840 box
440836316 1.374268 box
440836416 1.372375 box
440836516 1.371460 box
440836616 1.373657 box
440836716 1.372253 box
440836816 1.369934 box
440836916 1.372253 box
440837016 1.370667 box
440837116 1.371643 box
440837216 1.372559 box
440837316 1.373352 box
440837416 1.374817 box
440837516 1.371033 box
440837616 1.370300 box
440837716 1.371826 box
440837816 1.373657 box
440837916 1.372009 box
440838016 1.375732 box
440838116 1.372192 box
440838216 1.370667 box
440838316 1.371277 box
440838416 1.371582 box
440838516 1.373352 box
440838616 1.372864 box
440838716 1.372986 box
440838816 1.371887 box
440838916 1.370300 box
440839016 1.367432 box
440839116 1.371277 box
440839216 1.371704 box
440839316 1.371704 box
440839416 1.374512 box
440839516 1.372009 box
440839616 1.369934 box
440839716 1.369263 box
440839816 1.369873 box
440839916 1.375671 box
440840016 1.373352 box
440840116 1.375061 box
440840216 1.372986 box
440840316 1.370483 box
440840416 1.369080 box
440840516 1.370972 box
440840616 1.373962 box
440840716 1.372681 box
440840816 1.373535 box
440840916 1.374146 box
440841016 1.370300 box
440841116 1.370178 box
440841216 1.370239 box
440841316 1.371765 box
440841416 1.374084 box
440841516 1.371887 box
440841616 1.372131 box
440841716 1.375000 box
440841816 1.372620 box
440841916 1.369751 box
440842016 1.371887 box
440842116 1.372803 box
440842216 1.374573 box
440842316 1.372864 box
440842416 1.372437 box
440842516 1.371948 box
440842616 1.370422 box
440842716 1.369507 box
440842816 1.373413 box
440842916 1.372925 box
440843016 1.374939 box
440843116 1.372803 box
440843216 1.374146 box
440843316 1.373535 box
440843416 1.369141 box
440843516 1.372253 box
440843616 1.373291 box
440843716 1.374451 box
440843816 1.373352 box
440843916 1.372498 box
440844016 1.371338 box
440844116 1.369019 box
440844216 1.370728 box
440844316 1.371399 box
440844416 1.372131 box
440844516 1.371765 box
440844616 1.371521 box
440844716 1.369995 box
440844816 1.369141 box
440844916 1.369019 box
440845016 1.371826 box
440845116 1.372742 box
440845216 1.373657 box
440845316 1.373108 box
440845416 1.371216 box
440845516 1.369324 box
440845616 1.370544 box
440845716 1.373047 box
440845816 1.375671 box
440845916 1.375549 box
440846016 1.371277 box
440846116 1.371460 box
440846216 1.372131 box
440846316 1.370605 box
440846416 1.373779 box
440846516 1.376038 box
440846616 1.372009 box
440846716 1.374146 box
440846816 1.371277 box
440846916 1.374329 box
440847016 1.372314 box
440847116 1.373779 box
440847216 1.372253 box
440847316 1.374390 box
440847416 1.372253 box
440847516 1.372986 box
440847616 1.373108 box
440847716 1.373169 box
440847816 1.369385 box
440847916 1.368225 box
440848016 1.373413 box
440848116 1.376038 box
440848216 1.372314 box
440848316 1.373474 box
440848416 1.374756 box
440848516 1.372253 box
440848616 1.371704 box
440848716 1.373230 box
440848816 1.374939 box
440848916 1.372803 box
440849016 1.371643 box
440849116 1.377075 box
440849216 1.369629 box
440849316 1.370544 box
440849416 1.371765 box
440849516 1.373108 box
440849616 1.370789 box
440849716 1.373596 box
440849816 1.373718 box
440849916 1.371460 box
440850016 1.367188 box
440850116 1.370850 box
440850216 1.374878 box
440850316 1.373657 box
440850416 1.373047 box
440850516 1.372253 box
440850616 1.372070 box
440850716 1.371033 box
440850816 1.374634 box
440850916 1.372314 box
440851016 1.373108 box
440851116 1.372009 box
440851216 1.373718 box
440851316 1.372253 box
440851416 1.371338 box
440851516 1.372620 box
440851616 1.371155 box
440851716 1.371277 box
440851816 1.375305 box
440851916 1.375427 box
440852016 1.373779 box
440852116 1.372253 box
440852216 1.373779 box
440852316 1.372192 box
440852416 1.375732 box
440852516 1.371094 box
440852616 1.374695 box
440852716 1.372437 box
440852816 1.371765 box
440852916 1.372681 box
440853016 1.373779 box
440853116 1.374023 box
440853216 1.373962 box
440853316 1.373535 box
440853416 1.374146 box
440853516 1.374329 box
440853616 1.372864 box
440853716 1.369568 box
440853816 1.372192 box
440853916 1.374939 box
440854016 1.374878 box
440854116 1.375488 box
440854216 1.373901 box
440854316 1.374695 box
440854416 1.371094 box
440854516 1.372620 box
440854616 1.374023 box
440854716 1.375488 box
440854816 1.375305 box
440854916 1.372070 box
440855016 1.371826 box
440855116 1.368408 box
440855216 1.372742 box
440855316 1.376038 box
440855416 1.372681 box
440855516 1.373535 box
440855616 1.370117 box
440855716 1.372742 box
440855816 1.373230 box
440855916 1.371338 box
440856016 1.373352 box
440856116 1.373047 box
440856216 1.373230 box
440856316 1.372803 box
440856416 1.371765 box
440856516 1.370483 box
440856616 1.373718 box
440856716 1.373352 box
440856816 1.373840 box
440856916 1.372009 box
440857016 1.373108 box
440857116 1.369629 box
440857216 1.367126 box
440857316 1.372131 box
440857416 1.373413 box
440857516 1.372498 box
440857616 1.375183 box
440857716 1.373596 box
440857816 1.374634 box
440857916 1.371033 box
440858016 1.373108 box
440858116 1.372620 box
440858216 1.373596 box
440858316 1.373291 box
440858416 1.376404 box
440858516 1.372559 box
440858616 1.370544 box
440858716 1.371765 box
440858816 1.374023 box
440858916 1.372559 box
440859016 1.373535 box
440859116 1.374084 box
440859216 1.373779 box
440859316 1.372925 box
440859416 1.372437 box
440859516 1.372375 box
440859616 1.371826 box
440859716 1.373901 box
440859816 1.373291 box
440859916 1.373413 box
440860016 1.369568 box
440860116 1.371399 box
440860216 1.368774 box
440860316 1.375061 box
440860416 1.371887 box
440860516 1.372314 box
440860616 1.373352 box
440860716 1.372742 box
440860816 1.371338 box
440860916 1.369507 box
440861016 1.372498 box
440861116 1.369446 box
440861216 1.373657 box
440861316 1.375427 box
440861416 1.374268 box
440861516 1.372070 box
440861616 1.371094 box
440861716 1.373901 box
440861816 1.373779 box
440861916 1.375427 box
440862016 1.373962 box
440862116 1.372620 box
440862216 1.373169 box
440862316 1.372620 box
440862416 1.374634 box
440862516 1.375122 box
440862616 1.373230 box
440862716 1.374451 box
440862816 1.373779 box
440862916 1.371216 box
440863016 1.369873 box
440863116 1.373901 box
440863216 1.372803 box
440863316 1.374756 box
440863416 1.371887 box
440863516 1.376953 box
440863616 1.374512 box
440863716 1.373962 box
440863816 1.370911 box
440863916 1.375793 box
440864016 1.375610 box
440864116 1.373596 box
440864216 1.373779 box
440864316 1.375732 box
440864416 1.373840 box
440864516 1.374939 box
440864616 1.374512 box
440864716 1.373352 box
440864816 1.374817 box
440864916 1.375305 box
440865016 1.373596 box
440865116 1.375183 box
440865216 1.373901 box
440865316 1.372131 box
440865416 1.373840 box
440865516 1.375122 box
440865616 1.374084 box
440865716 1.372803 box
440865816 1.375305 box
440865916 1.373169 box
440866016 1.371277 box
440866116 1.370789 box
440866216 1.372375 box
440866316 1.373962 box
440866416 1.373596 box
440866516 1.373535 box
440866616 1.373169 box
440866716 1.369690 box
440866816 1.375366 box
440866916 1.373291 box
440867016 1.371216 box
440867116 1.373962 box
440867216 1.374268 box
440867316 1.371216 box
440867416 1.369080 box
440867516 1.373718 box
440695860 1.374878 box
440695960 1.377014 box
440696060 1.373474 box
440696160 1.387024 box
440696260 1.372192 box
440696360 1.358582 box
440696460 1.386047 box
440696560 1.359131 box
440696660 1.386902 box
440696760 1.361633 box
440696860 1.387939 box
440696960 1.360229 box
440697060 1.389282 box
440697160 1.375366 box
440697260 1.361877 box
440697360 1.378113 box
440697460 1.372864 box
