time(ms) energy(J) hostname
244201259 0.000000 box
244201359 0.908264 box
244201459 0.905823 box
244201559 0.884705 box
244201659 0.880005 box
244201759 0.878540 box
244201859 0.879944 box
244201959 0.879517 box
244202059 0.879395 box
244202159 0.880127 box
244202259 0.880005 box
244202359 0.879517 box
244202459 0.880737 box
244202559 0.879089 box
244202659 0.880615 box
244202759 0.880493 box
244202859 0.878662 box
244202959 0.879211 box
244203059 0.879517 box
244203159 0.879211 box
244203259 0.878357 box
244203359 0.879517 box
244203459 0.879639 box
244203559 0.880981 box
244203659 0.880066 box
244203759 0.879395 box
244203859 0.878540 box
244203959 0.880676 box
244204059 0.880188 box
244204159 0.879639 box
244204259 0.879944 box
244204359 0.878540 box
244204459 0.880371 box
244204559 0.880188 box
244204659 0.880920 box
244204759 0.879883 box
244204859 0.881165 box
244204959 0.880188 box
244205059 0.880188 box
244205159 0.880493 box
244205259 0.880066 box
244205359 0.880188 box
244205459 0.879822 box
244205559 0.880249 box
244205659 0.880859 box
244205759 0.880554 box
244205859 0.879578 box
244205959 0.880127 box
244206059 0.879700 box
244206159 0.879822 box
244206259 0.879028 box
244206359 0.879395 box
244206459 0.881897 box
244206559 0.879395 box
244206659 0.880859 box
244206759 0.879211 box
244206859 0.881104 box
244206959 0.879883 box
244207059 0.881714 box
244207159 0.881165 box
244207259 0.878845 box
244207359 0.882080 box
244207459 0.881042 box
244207559 0.879395 box
244207659 0.880432 box
244207759 1.002075 box
244207859 1.028931 box
244207959 0.983093 box
244208059 0.695557 box
244208159 0.616211 box
244208259 0.727112 box
244208359 0.762390 box
244208459 0.763245 box
244208559 0.763123 box
244208659 0.927002 box
244208759 1.013306 box
244208859 1.086670 box
244208959 0.982605 box
244209059 0.798584 box
244209159 0.745361 box
244209259 0.747070 box
244209359 0.722717 box
244209459 0.778625 box
244209559 0.820679 box
244209659 0.760986 box
244209759 0.748596 box
244209859 0.778259 box
244209959 0.819580 box
244210059 0.827820 box
244210159 0.829651 box
244210259 0.826050 box
244210359 0.792236 box
244210459 0.759399 box
244210559 0.738037 box
244210659 0.923157 box
244210759 1.065247 box
244210859 0.911682 box
244210959 0.976440 box
244211059 0.974792 box
244211159 0.770325 box
244211259 0.745239 box
244211359 0.726440 box
244211459 0.762939 box
244211559 0.824585 box
244211659 0.771545 box
244211759 0.747375 box
244211859 0.770935 box
244211959 0.813110 box
244212059 0.825195 box
244212159 0.825989 box
244212259 0.824463 box
244212359 0.798950 box
244212459 0.757751 box
244212559 0.743042 box
244212659 0.866394 box
244212759 1.073975 box
244212859 0.952515 box
244212959 0.940735 box
244213059 1.000366 box
244213159 0.777710 box
244213259 0.744019 box
244213359 0.711548 box
244213459 0.776184 box
244213559 0.820618 box
244213659 0.783264 box
244213759 0.747437 box
244213859 0.766541 box
244213959 0.806580 box
244214059 0.824829 box
244214159 0.827026 box
244214259 0.824402 box
244214359 0.806030 box
244214459 0.766113 box
244214559 0.748047 box
244214659 0.813232 box
244214759 1.077454 box
244214859 0.986938 box
244214959 0.912354 box
244215059 1.018005 box
244215159 0.796875 box
244215259 0.742554 box
244215359 0.715820 box
244215459 0.758667 box
244215559 0.821106 box
244215659 0.794800 box
244215759 0.747314 box
244215859 0.763367 box
244215959 0.801941 box
244216059 0.825134 box
244216159 0.828003 box
244216259 0.825317 box
244216359 0.807007 box
244216459 0.774841 box
244216559 0.748169 box
244216659 0.758606 box
244216759 1.082458 box
244216859 1.017273 box
244216959 0.894104 box
244217059 1.028137 box
244217159 0.821350 box
244217259 0.720520 box
244217359 0.748230 box
244217459 0.821167 box
244217559 0.822205 box
244217659 0.799377 box
244217759 0.746826 box
244217859 0.757507 box
244217959 0.797363 box
244218059 0.825745 box
244218159 0.826904 box
244218259 0.826355 box
244218359 0.814331 box
244218459 0.781921 box
244218559 0.748901 box
244218659 0.732422 box
244218759 1.077332 box
244218859 1.028870 box
244218959 0.889404 box
244219059 1.019043 box
244219159 0.849304 box
244219259 0.717346 box
244219359 0.780273 box
244219459 0.820740 box
244219559 0.819519 box
244219659 0.805725 box
244219759 0.746704 box
244219859 0.756592 box
244219959 0.794678 box
244220059 0.824219 box
244220159 0.826111 box
244220259 0.825195 box
244220359 0.819275 box
244220459 0.783752 box
244220559 0.748840 box
244220659 0.719971 box
244220759 1.064514 box
244220859 1.037170 box
244220959 0.885864 box
244221059 1.015381 box
244221159 0.880859 box
244221259 0.744568 box
244221359 0.737732 box
244221459 0.726685 box
244221559 0.818481 box
244221659 0.816895 box
244221759 0.747681 box
244221859 0.752563 box
244221959 0.789917 box
244222059 0.823181 box
244222159 0.826050 box
244222259 0.826599 box
244222359 0.823425 box
244222459 0.790100 box
244222559 0.749695 box
244222659 0.725708 box
244222759 1.019958 box
244222859 1.049438 box
244222959 0.881531 box
244223059 1.004639 box
244223159 0.916443 box
244223259 0.726868 box
244223359 0.741333 box
244223459 0.819885 box
244223559 0.820251 box
244223659 0.818787 box
244223759 0.750488 box
244223859 0.749390 box
244223959 0.786743 box
244224059 0.823730 box
244224159 0.825928 box
244224259 0.826538 box
244224359 0.824951 box
244224459 0.789612 box
244224559 0.750977 box
244224659 0.731140 box
244224759 0.981812 box
244224859 1.057495 box
244224959 0.887085 box
244225059 1.002808 box
244225159 0.938232 box
244225259 0.752075 box
244225359 0.708923 box
244225459 0.750427 box
244225559 0.821350 box
244225659 0.818420 box
244225759 0.757935 box
244225859 0.748718 box
244225959 0.784607 box
244226059 0.818909 box
244226159 0.826233 box
244226259 0.825317 box
244226359 0.821838 box
244226459 0.787415 box
244226559 0.754700 box
244226659 0.736023 box
244226759 0.935608 box
244226859 1.065369 box
244226959 0.902100 box
244227059 0.986572 box
244227159 0.958313 box
244227259 0.773254 box
244227359 0.782349 box
244227459 0.781860 box
244227559 0.781555 box
244227659 0.805481 box
244227759 0.766663 box
244227859 0.748108 box
244227959 0.782166 box
244228059 0.817383 box
244228159 0.829712 box
244228259 0.826660 box
244228359 0.824341 box
244228459 0.794495 box
244228559 0.761658 box
244228659 0.738159 box
244228759 0.912048 box
244228859 1.067749 box
244228959 0.918274 box
244229059 0.970032 box
244229159 0.973816 box
244229259 0.743835 box
244229359 0.768311 box
244229459 0.801575 box
244229559 0.817627 box
244229659 0.803711 box
244229759 0.768677 box
244229859 0.747742 box
244229959 0.774475 box
244230059 0.814392 box
244230159 0.826782 box
244230259 0.827332 box
244230359 0.824219 box
244230459 0.798828 box
244230559 0.763000 box
244230659 0.742615 box
244230759 0.883301 box
244230859 1.071167 box
244230959 0.938049 box
244231059 0.951111 box
244231159 0.990173 box
244231259 0.774170 box
244231359 0.742676 box
244231459 0.715088 box
244231559 0.788086 box
244231659 0.820435 box
244231759 0.779358 box
244231859 0.747498 box
244231959 0.773560 box
244232059 0.810486 box
244232159 0.826965 box
244232259 0.826904 box
244232359 0.825073 box
244232459 0.805237 box
244232559 0.770081 box
244232659 0.742676 box
244232759 0.828674 box
244232859 1.076538 box
244232959 0.978333 box
244233059 0.919556 box
244233159 1.011963 box
244233259 0.785461 box
244233359 0.708862 box
244233459 0.788696 box
244233559 0.819885 box
244233659 0.820190 box
244233759 0.785706 box
244233859 0.747375 box
244233959 0.767761 box
244234059 0.805664 box
244234159 0.823730 box
244234259 0.826172 box
244234359 0.824219 box
244234459 0.808167 box
244234559 0.772034 box
244234659 0.748169 box
244234759 0.797974 box
244234859 1.080627 box
244234959 0.996399 box
244235059 0.906433 box
244235159 1.023987 box
244235259 0.801514 box
244235359 0.736511 box
244235459 0.710083 box
244235559 0.786743 box
244235659 0.820068 box
244235759 0.794495 box
244235859 0.747437 box
244235959 0.762329 box
244236059 0.801208 box
244236159 0.823303 box
244236259 0.828308 box
244236359 0.823669 box
244236459 0.810791 box
244236559 0.777283 box
244236659 0.747803 box
244236759 0.752014 box
244236859 1.080566 box
244236959 1.018066 box
244237059 0.892334 box
244237159 1.026978 box
244237259 0.813171 box
244237359 0.749146 box
244237459 0.788818 box
244237559 0.782898 box
244237659 0.782959 box
244237759 0.799988 box
244237859 0.747314 box
244237959 0.757751 box
244238059 0.796265 box
244238159 0.823242 box
244238259 0.825562 box
244238359 0.826111 box
244238459 0.815186 box
244238559 0.783020 box
244238659 0.748108 box
244238759 0.729614 box
244238859 1.073120 box
244238959 1.030090 box
244239059 0.888489 box
244239159 1.018005 box
244239259 0.851807 box
244239359 0.738770 box
244239459 0.790588 box
244239559 0.783203 box
244239659 0.790039 box
244239759 0.803040 box
244239859 0.747192 box
244239959 0.759888 box
244240059 0.793640 box
244240159 0.823547 box
244240259 0.826904 box
244240359 0.824646 box
244240459 0.820007 box
244240559 0.783203 box
244240659 0.748840 box
244240759 0.725037 box
244240859 1.054138 box
244240959 1.039062 box
244241059 0.883423 box
244241159 1.009399 box
244241259 0.894714 box
244241359 0.748535 box
244241459 0.746155 box
244241559 0.722961 box
244241659 0.797546 box
244241759 0.819946 box
244241859 0.749878 box
244241959 0.750000 box
244242059 0.788574 box
244242159 0.823059 box
244242259 0.828186 box
244242359 0.827820 box
244242459 0.823120 box
244242559 0.788879 box
244242659 0.750305 box
244242759 0.727905 box
244242859 0.994141 box
244242959 1.054504 box
244243059 0.883545 box
244243159 1.002808 box
244243259 0.929565 box
244243359 0.735901 box
244243459 0.720398 box
244243559 0.812805 box
244243659 0.819641 box
244243759 0.818115 box
244243859 0.753967 box
244243959 0.748962 box
244244059 0.781555 box
244244159 0.822876 box
244244259 0.830017 box
244244359 0.830505 box
244244459 0.827332 box
244244559 0.794495 box
244244659 0.755981 box
244244759 0.732056 box
244244859 0.965271 box
244244959 1.059692 box
244245059 0.889587 box
244245159 0.995605 box
244245259 0.949646 box
244245359 0.771973 box
244245459 0.747864 box
244245559 0.746521 box
244245659 0.745117 box
244245759 0.817993 box
244245859 0.765442 box
244245959 0.748474 box
244246059 0.776794 box
244246159 0.817505 box
244246259 0.829590 box
244246359 0.828918 box
244246459 0.826111 box
244246559 0.798767 box
244246659 0.760803 box
244246759 0.739624 box
244246859 0.904236 box
244246959 1.069824 box
244247059 0.926575 box
244247159 0.960999 box
244247259 0.983398 box
244247359 0.772766 box
244247459 0.746094 box
244247559 0.729736 box
244247659 0.763428 box
244247759 0.821411 box
244247859 0.777222 box
244247959 0.748047 box
244248059 0.775818 box
244248159 0.812805 box
244248259 0.827942 box
244248359 0.828430 box
244248459 0.827087 box
244248559 0.804749 box
244248659 0.767456 box
244248759 0.744751 box
244248859 0.852234 box
244248959 1.074036 box
244249059 0.960876 box
244249159 0.931335 box
244249259 1.005432 box
244249359 0.794678 box
244249459 0.747498 box
244249559 0.745972 box
244249659 0.742126 box
244249759 0.793945 box
244249859 0.793762 box
244249959 0.747681 box
244250059 0.767090 box
244250159 0.802795 box
244250259 0.823547 box
244250359 0.825867 box
244250459 0.824585 box
244250559 0.809692 box
244250659 0.773376 box
244250759 0.748413 box
244250859 0.782288 box
244250959 1.081299 box
244251059 1.002930 box
244251159 0.904785 box
244251259 1.023682 box
244251359 0.799438 box
244251459 0.728638 box
244251559 0.810608 box
244251659 0.819824 box
244251759 0.820496 box
244251859 0.796631 box
244251959 0.747864 box
244252059 0.761658 box
244252159 0.801636 box
244252259 0.823486 box
244252359 0.828308 box
244252459 0.824463 box
244252559 0.809265 box
244252659 0.771912 box
244252759 0.749084 box
244252859 0.764099 box
244252959 1.082947 box
244253059 1.015198 box
244253159 0.894409 box
244253259 1.026001 box
244253359 0.822021 box
244253459 0.732056 box
244253559 0.710632 box
244253659 0.795898 box
244253759 0.821289 box
244253859 0.800354 box
244253959 0.747864 box
244254059 0.758972 box
244254159 0.797546 box
244254259 0.823608 box
244254359 0.825928 box
244254459 0.824707 box
244254559 0.812683 box
244254659 0.782532 box
244254759 0.748352 box
244254859 0.728210 box
244254959 1.073425 box
244255059 1.030762 box
244255159 0.887817 box
244255259 1.012451 box
244255359 0.868347 box
244255459 0.746033 box
244255559 0.712524 box
244255659 0.746521 box
244255759 0.821289 box
244255859 0.810974 box
244255959 0.746826 box
244256059 0.758728 box
244256159 0.789978 box
244256259 0.823669 box
244256359 0.826050 box
244256459 0.826477 box
244256559 0.821045 box
244256659 0.782959 box
244256759 0.749573 box
244256859 0.722412 box
244256959 1.032349 box
244257059 1.046082 box
244257159 0.883057 box
244257259 1.009949 box
244257359 0.912720 box
244257459 0.748840 box
244257559 0.731934 box
244257659 0.724121 box
244257759 0.819397 box
244257859 0.822083 box
244257959 0.752258 box
244258059 0.749451 box
244258159 0.784485 box
244258259 0.824707 box
244258359 0.830811 box
244258459 0.831116 box
244258559 0.823547 box
244258659 0.789673 box
244258759 0.752563 box
244258859 0.729431 box
244258959 0.974365 box
244259059 1.059021 box
244259159 0.887024 box
244259259 0.999939 box
244259359 0.940369 box
244259459 0.741760 box
244259559 0.714233 box
244259659 0.809387 box
244259759 0.822021 box
244259859 0.820557 box
244259959 0.756836 box
244260059 0.748352 box
244260159 0.782593 box
244260259 0.819519 box
244260359 0.827209 box
244260459 0.826538 box
244260559 0.825562 box
244260659 0.794678 box
244260759 0.752808 box
244260859 0.735718 box
244260959 0.944458 box
244261059 1.064392 box
244261159 0.896423 box
244261259 0.992371 box
244261359 0.961182 box
244261459 0.765137 box
244261559 0.745911 box
244261659 0.725403 box
244261759 0.767883 box
244261859 0.828735 box
244261959 0.767700 box
244262059 0.747192 box
244262159 0.777344 box
244262259 0.817322 box
244262359 0.829956 box
244262459 0.831299 box
244262559 0.828125 box
244262659 0.797791 box
244262759 0.757629 box
244262859 0.740112 box
244262959 0.893799 box
244263059 1.071350 box
244263159 0.934204 box
244263259 0.955994 box
244263359 0.989563 box
244263459 0.782471 box
244263559 0.745544 box
244263659 0.745361 box
244263759 0.743958 box
244263859 0.809937 box
244263959 0.782532 box
244264059 0.749451 box
244264159 0.770569 box
244264259 0.811035 box
244264359 0.824829 box
244264459 0.827148 box
244264559 0.824463 box
244264659 0.801147 box
244264759 0.767456 box
244264859 0.746826 box
244264959 0.830322 box
244265059 1.076233 box
244265159 0.975647 box
244265259 0.920044 box
244265359 1.013733 box
244265459 0.782166 box
244265559 0.781311 box
244265659 0.781738 box
244265759 0.781921 box
244265859 0.787109 box
244265959 0.793274 box
244266059 0.746643 box
244266159 0.764343 box
244266259 0.805969 box
244266359 0.824402 box
244266459 0.829651 box
244266559 0.826660 box
244266659 0.805420 box
244266759 0.769958 box
244266859 0.747620 box
244266959 0.796570 box
244267059 1.080566 box
244267159 0.995422 box
244267259 0.905457 box
244267359 1.022461 box
244267459 0.814453 box
244267559 0.745972 box
244267659 0.747559 box
244267759 0.745178 box
244267859 0.783875 box
244267959 0.803162 box
244268059 0.746887 box
244268159 0.761536 box
244268259 0.798584 box
244268359 0.826965 box
244268459 0.828125 box
244268559 0.827271 box
244268659 0.816162 box
244268759 0.776306 box
244268859 0.748352 box
244268959 0.745972 box
244269059 1.079590 box
244269159 1.023560 box
244269259 0.891052 box
244269359 1.024902 box
244269459 0.843750 box
244269559 0.745972 box
244269659 0.740234 box
244269759 0.717896 box
244269859 0.809326 box
244269959 0.810425 box
244270059 0.746765 box
244270159 0.754822 box
244270259 0.794128 box
244270359 0.826294 box
244270459 0.829407 box
244270559 0.828003 box
244270659 0.819519 box
244270759 0.784546 box
244270859 0.749268 box
244270959 0.724731 box
244271059 1.051697 box
244271159 1.039307 box
244271259 0.883972 box
244271359 1.009155 box
244271459 0.901672 box
244271559 0.751892 box
244271659 0.746216 box
244271759 0.743225 box
244271859 0.771912 box
244271959 0.823608 box
244272059 0.750244 box
244272159 0.748962 box
244272259 0.787659 box
244272359 0.822998 box
244272459 0.827087 box
244272559 0.825867 box
244272659 0.824097 box
244272759 0.793640 box
244272859 0.752075 box
244272959 0.729919 box
244273059 0.992554 box
244273159 1.054504 box
244273259 0.885254 box
244273359 1.003662 box
244273459 0.927490 box
244273559 0.730896 box
244273659 0.789246 box
244273759 0.793579 box
244273859 0.798584 box
244273959 0.807373 box
244274059 0.755249 box
244274159 0.750427 box
244274259 0.785400 box
244274359 0.822571 box
244274459 0.829834 box
244274559 0.827942 box
244274659 0.824646 box
244274759 0.791687 box
244274859 0.754272 box
244274959 0.733032 box
244275059 0.967896 box
244275159 1.059570 box
244275259 0.889526 box
244275359 0.994995 box
244275459 0.946655 box
244275559 0.731750 box
244275659 0.785522 box
244275759 0.819153 box
244275859 0.810425 box
244275959 0.806274 box
244276059 0.758545 box
244276159 0.749268 box
244276259 0.779907 box
244276359 0.824341 box
244276459 0.829834 box
244276559 0.828613 box
244276659 0.825012 box
244276759 0.791687 box
244276859 0.754211 box
244276959 0.739319 box
244277059 0.939697 box
244277159 1.062744 box
244277259 0.897888 box
244277359 0.988953 box
244277459 0.964905 box
244277559 0.766357 box
244277659 0.742798 box
244277759 0.716431 box
244277859 0.779724 box
244277959 0.823486 box
244278059 0.766296 box
244278159 0.750000 box
244278259 0.770325 box
244278359 0.816772 box
244278459 0.830261 box
244278559 0.827820 box
244278659 0.826355 box
244278759 0.799377 box
244278859 0.764404 box
244278959 0.740417 box
244279059 0.887207 box
244279159 1.073181 box
244279259 0.936462 box
244279359 0.951843 box
244279459 0.989319 box
244279559 0.748352 box
244279659 0.768616 box
244279759 0.795776 box
244279859 0.784851 box
244279959 0.802124 box
244280059 0.776123 box
244280159 0.746887 box
244280259 0.773010 box
244280359 0.811584 box
244280459 0.828125 box
244280559 0.829041 box
244280659 0.827026 box
244280759 0.804688 box
244280859 0.764282 box
244280959 0.745178 box
244281059 0.856445 box
244281159 1.075378 box
244281259 0.959595 box
244281359 0.934875 box
244281459 1.003479 box
244281559 0.769470 box
244281659 0.712952 box
244281759 0.802734 box
244281859 0.821472 box
244281959 0.818787 box
244282059 0.779236 box
244282159 0.748291 box
244282259 0.768127 box
244282359 0.810059 box
244282459 0.828430 box
244282559 0.831787 box
244282659 0.826904 box
244282759 0.804382 box
244282859 0.764465 box
244282959 0.748047 box
244283059 0.829773 box
244283159 1.077759 box
244283259 0.977295 box
244283359 0.920349 box
244283459 1.011414 box
244283559 0.767334 box
244283659 0.763855 box
244283759 0.791687 box
244283859 0.783875 box
244283959 0.785828 box
244284059 0.792603 box
244284159 0.746948 box
244284259 0.767395 box
244284359 0.805786 box
244284459 0.828857 box
244284559 0.830933 box
244284659 0.827332 box
244284759 0.807983 box
244284859 0.770508 box
244284959 0.747620 box
244285059 0.803162 box
244285159 1.078918 box
244285259 0.993042 box
244285359 0.908142 box
244285459 1.021362 box
244285559 0.820679 box
244285659 0.770264 box
244285759 0.749390 box
244285859 0.747925 box
244285959 0.758301 box
244286059 0.804932 box
244286159 0.747375 box
244286259 0.763611 box
244286359 0.801392 box
244286459 0.825378 box
244286559 0.828552 box
244286659 0.826782 box
244286759 0.812256 box
244286859 0.758728 box
244286959 0.748474 box
244287059 0.758423 box
244287159 1.080688 box
244287259 1.016785 box
244287359 0.893127 box
244287459 1.027710 box
244287559 0.820496 box
244287659 0.712280 box
244287759 0.781677 box
244287859 0.819458 box
244287959 0.820007 box
244288059 0.799194 box
244288159 0.747009 box
244288259 0.761047 box
244288359 0.797180 box
244288459 0.824463 box
244288559 0.827515 box
244288659 0.827637 box
244288759 0.816040 box
244288859 0.779053 box
244288959 0.748779 box
244289059 0.739624 box
244289159 1.077393 box
244289259 1.024902 box
244289359 0.889709 box
244289459 1.021301 box
244289559 0.839294 box
244289659 0.734863 box
244289759 0.800964 box
244289859 0.817810 box
244289959 0.810181 box
244290059 0.803406 box
244290159 0.747803 box
244290259 0.758240 box
244290359 0.795410 box
244290459 0.826782 box
244290559 0.827881 box
244290659 0.825867 box
244290759 0.816162 box
244290859 0.783813 box
244290959 0.749146 box
244291059 0.729004 box
244291159 1.071716 box
244291259 1.035095 box
244291359 0.887573 box
244291459 1.015503 box
244291559 0.862793 box
244291659 0.725647 box
244291759 0.805603 box
244291859 0.820740 box
244291959 0.819458 box
244292059 0.812683 box
244292159 0.748840 box
244292259 0.753967 box
244292359 0.797485 box
244292459 0.827515 box
244292559 0.832581 box
244292659 0.829895 box
244292759 0.822083 box
244292859 0.781128 box
244292959 0.748901 box
244293059 0.722351 box
244293159 1.056763 box
244293259 1.038330 box
244293359 0.887512 box
244293459 1.012817 box
244293559 0.892517 box
244293659 0.754944 box
244293759 0.746216 box
244293859 0.746155 box
244293959 0.761536 box
244294059 0.828552 box
244294159 0.750122 box
244294259 0.753601 box
244294359 0.788452 box
244294459 0.825806 box
244294559 0.830933 box
244294659 0.829834 box
244294759 0.823547 box
244294859 0.787537 box
244294959 0.754211 box
244295059 0.730408 box
244295159 1.001953 box
244295259 1.052551 box
244295359 0.883850 box
244295459 1.005798 box
244295559 0.921753 box
244295659 0.727722 box
244295759 0.787903 box
244295859 0.802063 box
244295959 0.799683 box
244296059 0.807556 box
244296159 0.753479 box
244296259 0.748596 box
244296359 0.782410 box
244296459 0.824646 box
244296559 0.828674 box
244296659 0.825745 box
244296759 0.823853 box
244296859 0.791382 box
244296959 0.753540 box
244297059 0.731262 box
244297159 0.975586 box
244297259 1.058838 box
244297359 0.888062 box
244297459 0.999207 box
244297559 0.941528 box
244297659 0.788269 box
244297759 0.781616 box
244297859 0.776184 box
244297959 0.759155 box
244298059 0.806335 box
244298159 0.761841 box
244298259 0.749878 box
244298359 0.778870 box
244298459 0.821838 box
244298559 0.826050 box
244298659 0.825745 box
244298759 0.823547 box
244298859 0.794983 box
244298959 0.756897 box
244299059 0.735229 box
244299159 0.941406 box
244299259 1.065002 box
244299359 0.896423 box
244299459 0.991089 box
244299559 0.962769 box
244299659 0.765564 box
244299759 0.745605 box
244299859 0.720520 box
244299959 0.772461 box
244300059 0.824280 box
244300159 0.766235 box
244300259 0.748047 box
244300359 0.777222 box
244300459 0.814331 box
244300559 0.827026 box
244300659 0.829041 box
244300759 0.824219 box
244300859 0.788757 box
244300959 0.758850 box
244301059 0.740234 box
244301159 0.890747 box
244301259 1.071777 box
244301359 0.934753 box
244301459 0.955505 box
244301559 0.987427 box
244301659 0.757629 box
244301759 0.736023 box
244301859 0.816650 box
244301959 0.819824 box
244302059 0.821411 box
244302159 0.772034 box
244302259 0.747742 box
244302359 0.771973 box
244302459 0.812195 box
244302559 0.826050 box
244302659 0.826477 box
244302759 0.823975 box
244302859 0.807007 box
244302959 0.762817 box
244303059 0.744019 box
244303159 0.863953 box
244303259 1.075745 box
244303359 0.954529 box
244303459 0.942078 box
244303559 1.000610 box
244303659 0.777527 box
244303759 0.728149 box
244303859 0.715088 box
244303959 0.813782 box
244304059 0.820862 box
244304159 0.780334 box
244304259 0.747192 box
244304359 0.770264 box
244304459 0.806030 box
244304559 0.824707 box
244304659 0.828796 box
244304759 0.824463 box
244304859 0.807617 box
244304959 0.771667 box
244305059 0.748474 box
244305159 0.818176 box
244305259 1.079163 box
244305359 0.984741 box
244305459 0.913391 box
244305559 1.014954 box
244305659 0.773743 box
244305759 0.758911 box
244305859 0.801514 box
244305959 0.785522 box
244306059 0.783386 box
244306159 0.793213 box
244306259 0.748047 box
244306359 0.769531 box
244306459 0.802185 box
244306559 0.824524 box
244306659 0.827209 box
244306759 0.824890 box
244306859 0.808777 box
244306959 0.772583 box
244307059 0.750305 box
244307159 0.786377 box
244307259 1.082397 box
244307359 1.003052 box
244307459 0.902344 box
244307559 1.024841 box
244307659 0.812744 box
244307759 0.745483 box
244307859 0.739990 box
244307959 0.732910 box
244308059 0.814636 box
244308159 0.800354 box
244308259 0.747986 box
244308359 0.758789 box
244308459 0.798523 box
244308559 0.823975 box
244308659 0.827820 box
244308759 0.824707 box
244308859 0.812195 box
244308959 0.779846 box
244309059 0.749573 box
244309159 0.741638 box
244309259 1.079407 box
244309359 1.026367 box
244309459 0.890320 box
244309559 1.019531 box
244309659 0.840149 box
244309759 0.734558 box
244309859 0.799622 box
244309959 0.805298 box
244310059 0.806213 box
244310159 0.802185 box
244310259 0.747253 box
244310359 0.760742 box
244310459 0.796265 box
244310559 0.823608 box
244310659 0.826782 box
244310759 0.824829 box
244310859 0.815369 box
244310959 0.780579 box
244311059 0.748840 box
244311159 0.724670 box
244311259 1.067505 box
244311359 1.036743 box
244311459 0.886902 box
244311559 1.012939 box
244311659 0.869019 box
244311759 0.721130 box
244311859 0.798889 box
244311959 0.818115 box
244312059 0.818237 box
244312159 0.812744 box
244312259 0.746948 box
244312359 0.756042 box
244312459 0.792419 box
244312559 0.823730 box
244312659 0.828186 box
244312759 0.828003 box
244312859 0.821350 box
244312959 0.782654 box
244313059 0.749573 box
244313159 0.722290 box
244313259 1.048218 box
244313359 1.042114 box
244313459 0.884705 box
244313559 1.007141 box
244313659 0.900940 box
244313759 0.760254 box
244313859 0.746338 box
244313959 0.747009 box
244314059 0.747314 box
244314159 0.821411 box
244314259 0.753296 box
244314359 0.749390 box
244314459 0.788025 box
244314559 0.823730 box
244314659 0.827271 box
244314759 0.829407 box
244314859 0.823242 box
244314959 0.789368 box
244315059 0.749634 box
244315159 0.731262 box
244315259 0.987915 box
244315359 1.056519 box
244315459 0.883911 box
244315559 1.000610 box
244315659 0.936890 box
244315759 0.769287 box
244315859 0.747620 box
244315959 0.746338 box
244316059 0.747803 box
244316159 0.816711 box
244316259 0.761780 box
244316359 0.747742 box
244316459 0.780457 box
244316559 0.818970 box
244316659 0.824829 box
244316759 0.828369 box
244316859 0.823608 box
244316959 0.794678 box
244317059 0.756470 box
244317159 0.736938 box
244317259 0.929260 box
244317359 1.066895 box
244317459 0.906006 box
244317559 0.979614 box
244317659 0.968445 box
244317759 0.750305 box
244317859 0.723938 box
244317959 0.811707 box
244318059 0.818726 box
244318159 0.819153 box
244318259 0.765320 box
244318359 0.748840 box
244318459 0.775452 box
244318559 0.816711 box
244318659 0.824646 box
244318759 0.827820 box
244318859 0.823792 box
244318959 0.796692 box
244319059 0.759766 box
244319159 0.739563 box
244319259 0.896423 box
244319359 1.069458 box
244319459 0.930115 box
244319559 0.961426 box
244319659 0.985596 box
244319759 0.776184 box
244319859 0.747314 box
244319959 0.727722 box
244320059 0.756409 box
244320159 0.821228 box
244320259 0.776611 box
244320359 0.747742 box
244320459 0.767151 box
244320559 0.809631 box
244320659 0.825500 box
244320759 0.825256 box
244320859 0.824341 box
244320959 0.802063 box
244321059 0.763916 box
244321159 0.745972 box
244321259 0.839539 box
244321359 1.076904 box
244321459 0.970581 box
244321559 0.925903 box
244321659 1.007385 box
244321759 0.773804 box
244321859 0.782532 box
244321959 0.784424 box
244322059 0.782410 box
244322159 0.786804 box
244322259 0.790588 box
244322359 0.747375 box
244322459 0.768250 box
244322559 0.806580 box
244322659 0.824097 box
244322759 0.826599 box
244322859 0.824280 box
244322959 0.809509 box
244323059 0.769226 box
244323159 0.747864 box
244323259 0.806885 box
244323359 1.079468 box
244323459 0.990479 box
244323559 0.910583 box
244323659 1.017944 box
244323759 0.791443 box
244323859 0.782349 box
244323959 0.782532 box
244324059 0.783142 box
244324159 0.784302 box
244324259 0.798279 box
244324359 0.746948 box
244324459 0.766846 box
244324559 0.803650 box
244324659 0.824585 box
244324759 0.825989 box
244324859 0.824524 box
244324959 0.806641 box
244325059 0.771790 box
244325159 0.749695 box
244325259 0.778381 box
244325359 1.082275 box
244325459 1.007751 box
244325559 0.900208 box
244325659 1.027832 box
244325759 0.817932 box
244325859 0.746399 box
244325959 0.745605 box
244326059 0.740601 box
244326159 0.798462 box
244326259 0.801758 box
244326359 0.748230 box
244326459 0.759705 box
244326559 0.797180 box
244326659 0.823120 box
244326759 0.827271 box
244326859 0.824402 box
244326959 0.815796 box
244327059 0.782898 box
244327159 0.748413 box
244327259 0.732788 box
244327359 1.076660 box
244327459 1.029541 box
244327559 0.890991 box
244327659 1.016724 box
244327759 0.860413 box
244327859 0.745667 box
244327959 0.726501 box
244328059 0.737732 box
244328159 0.822632 box
244328259 0.807739 box
244328359 0.747375 box
244328459 0.754883 box
244328559 0.793884 box
244328659 0.824768 box
244328759 0.827454 box
244328859 0.826538 box
244328959 0.820557 box
244329059 0.787537 box
244329159 0.748840 box
244329259 0.722656 box
244329359 1.042236 box
244329459 1.044434 box
244329559 0.884949 box
244329659 1.006226 box
244329759 0.906372 box
244329859 0.758667 box
244329959 0.746704 box
244330059 0.748230 box
244330159 0.750305 box
244330259 0.823425 box
244330359 0.753845 box
244330459 0.748535 box
244330559 0.784363 box
244330659 0.822388 box
244330759 0.827271 box
244330859 0.825500 box
244330959 0.825562 box
244331059 0.790100 box
244331159 0.751892 box
244331259 0.731995 box
244331359 0.977051 box
244331459 1.058472 box
244331559 0.886536 box
244331659 1.000977 box
244331759 0.937256 box
244331859 0.760864 box
244331959 0.783569 box
244332059 0.784912 box
244332159 0.782654 box
244332259 0.804565 box
244332359 0.759094 box
244332459 0.749451 box
244332559 0.783813 box
244332659 0.818176 box
244332759 0.825500 box
244332859 0.826416 box
244332959 0.824402 box
244333059 0.797180 box
244333159 0.758972 box
244333259 0.732483 box
244333359 0.948608 box
244333459 1.063538 box
244333559 0.893616 box
244333659 0.990479 box
244333759 0.959778 box
244333859 0.762695 box
244333959 0.736389 box
244334059 0.708740 box
244334159 0.803711 box
244334259 0.821655 box
244334359 0.764771 box
244334459 0.747986 box
244334559 0.775757 box
244334659 0.814819 box
244334759 0.826111 box
244334859 0.824890 box
244334959 0.823242 box
244335059 0.794739 box
244335159 0.759277 box
244335259 0.743286 box
244335359 0.897278 box
244335459 1.071411 box
244335559 0.931274 box
244335659 0.959778 box
244335759 0.987488 box
244335859 0.774536 box
244335959 0.745789 box
244336059 0.733032 box
244336159 0.743652 box
244336259 0.821472 box
244336359 0.778137 box
244336459 0.747620 box
244336559 0.772095 box
244336659 0.809875 box
244336759 0.825562 box
244336859 0.826721 box
244336959 0.824280 box
244337059 0.804871 box
244337159 0.766602 box
244337259 0.745178 box
244337359 0.839722 box
244337459 1.078125 box
244337559 0.971741 box
244337659 0.925476 box
244337759 1.008606 box
244337859 0.771484 box
244337959 0.727844 box
244338059 0.811096 box
244338159 0.818787 box
244338259 0.818787 box
244338359 0.782715 box
244338459 0.747803 box
244338559 0.771667 box
244338659 0.807373 box
244338759 0.823364 box
244338859 0.825928 box
244338959 0.823730 box
244339059 0.805176 box
244339159 0.766418 box
244339259 0.745117 box
244339359 0.608826 box
