time(ms) function_name moment
318861248 MPI_Barrier 0
318861248 MPI_Barrier 1
318861274 MPI_Allreduce 0
318861274 MPI_Allreduce 1
318861298 MPI_Allreduce 0
318861298 MPI_Allreduce 1
318861322 MPI_Allreduce 0
318861322 MPI_Allreduce 1
318861346 MPI_Allreduce 0
318861346 MPI_Allreduce 1
318861370 MPI_Allreduce 0
318861370 MPI_Allreduce 1
318861394 MPI_Allreduce 0
318861394 MPI_Allreduce 1
318861418 MPI_Allreduce 0
318861418 MPI_Allreduce 1
318861442 MPI_Allreduce 0
318861442 MPI_Allreduce 1
318861466 MPI_Allreduce 0
318861466 MPI_Allreduce 1
318861490 MPI_Allreduce 0
318861490 MPI_Allreduce 1
318861514 MPI_Allreduce 0
318861514 MPI_Allreduce 1
318861538 MPI_Allreduce 0
318861538 MPI_Allreduce 1
318861562 MPI_Allreduce 0
318861562 MPI_Allreduce 1
318861586 MPI_Allreduce 0
318861586 MPI_Allreduce 1
318861610 MPI_Allreduce 0
318861610 MPI_Allreduce 1
318861634 MPI_Allreduce 0
318861634 MPI_Allreduce 1
318861659 MPI_Allreduce 0
318861659 MPI_Allreduce 1
318861682 MPI_Allreduce 0
318861682 MPI_Allreduce 1
318861707 MPI_Allreduce 0
318861707 MPI_Allreduce 1
318861731 MPI_Allreduce 0
318861731 MPI_Allreduce 1
318861755 MPI_Allreduce 0
318861755 MPI_Allreduce 1
318861779 MPI_Allreduce 0
318861779 MPI_Allreduce 1
318861803 MPI_Allreduce 0
318861803 MPI_Allreduce 1
318861827 MPI_Allreduce 0
318861827 MPI_Allreduce 1
318861851 MPI_Allreduce 0
318861851 MPI_Allreduce 1
318861875 MPI_Allreduce 0
318861875 MPI_Allreduce 1
318861899 MPI_Allreduce 0
318861899 MPI_Allreduce 1
318861923 MPI_Allreduce 0
318861923 MPI_Allreduce 1
318861947 MPI_Allreduce 0
318861947 MPI_Allreduce 1
318861971 MPI_Allreduce 0
318861971 MPI_Allreduce 1
318861995 MPI_Allreduce 0
318861995 MPI_Allreduce 1
318862019 MPI_Allreduce 0
318862019 MPI_Allreduce 1
318862043 MPI_Allreduce 0
318862043 MPI_Allreduce 1
318862067 MPI_Allreduce 0
318862067 MPI_Allreduce 1
318862091 MPI_Allreduce 0
318862091 MPI_Allreduce 1
318862115 MPI_Allreduce 0
318862115 MPI_Allreduce 1
318862139 MPI_Allreduce 0
318862139 MPI_Allreduce 1
318862163 MPI_Allreduce 0
318862163 MPI_Allreduce 1
318862187 MPI_Allreduce 0
318862187 MPI_Allreduce 1
318862211 MPI_Allreduce 0
318862211 MPI_Allreduce 1
318862235 MPI_Allreduce 0
318862235 MPI_Allreduce 1
318862259 MPI_Allreduce 0
318862259 MPI_Allreduce 1
318862283 MPI_Allreduce 0
318862283 MPI_Allreduce 1
318862307 MPI_Allreduce 0
318862307 MPI_Allreduce 1
318862331 MPI_Allreduce 0
318862331 MPI_Allreduce 1
318862355 MPI_Allreduce 0
318862355 MPI_Allreduce 1
318862380 MPI_Allreduce 0
318862380 MPI_Allreduce 1
318862404 MPI_Allreduce 0
318862404 MPI_Allreduce 1
318862428 MPI_Allreduce 0
318862428 MPI_Allreduce 1
318862452 MPI_Allreduce 0
318862452 MPI_Allreduce 1
318862476 MPI_Allreduce 0
318862476 MPI_Allreduce 1
318862500 MPI_Allreduce 0
318862500 MPI_Allreduce 1
318862524 MPI_Allreduce 0
318862524 MPI_Allreduce 1
318862548 MPI_Allreduce 0
318862548 MPI_Allreduce 1
318862572 MPI_Allreduce 0
318862572 MPI_Allreduce 1
318862596 MPI_Allreduce 0
318862596 MPI_Allreduce 1
318862620 MPI_Allreduce 0
318862620 MPI_Allreduce 1
318862644 MPI_Allreduce 0
318862644 MPI_Allreduce 1
318862668 MPI_Allreduce 0
318862668 MPI_Allreduce 1
318862692 MPI_Allreduce 0
318862692 MPI_Allreduce 1
318862716 MPI_Allreduce 0
318862716 MPI_Allreduce 1
318862740 MPI_Allreduce 0
318862740 MPI_Allreduce 1
318862764 MPI_Allreduce 0
318862764 MPI_Allreduce 1
318862788 MPI_Allreduce 0
318862788 MPI_Allreduce 1
318862812 MPI_Allreduce 0
318862812 MPI_Allreduce 1
318862836 MPI_Allreduce 0
318862836 MPI_Allreduce 1
318862860 MPI_Allreduce 0
318862860 MPI_Allreduce 1
318862884 MPI_Allreduce 0
318862884 MPI_Allreduce 1
318862908 MPI_Allreduce 0
318862908 MPI_Allreduce 1
318862932 MPI_Allreduce 0
318862932 MPI_Allreduce 1
318862956 MPI_Allreduce 0
318862956 MPI_Allreduce 1
318862981 MPI_Allreduce 0
318862981 MPI_Allreduce 1
318863005 MPI_Allreduce 0
318863005 MPI_Allreduce 1
318863029 MPI_Allreduce 0
318863029 MPI_Allreduce 1
318863053 MPI_Allreduce 0
318863053 MPI_Allreduce 1
318863077 MPI_Allreduce 0
318863077 MPI_Allreduce 1
318863101 MPI_Allreduce 0
318863101 MPI_Allreduce 1
318863125 MPI_Allreduce 0
318863125 MPI_Allreduce 1
318863149 MPI_Allreduce 0
318863149 MPI_Allreduce 1
318863173 MPI_Allreduce 0
318863173 MPI_Allreduce 1
318863197 MPI_Allreduce 0
318863197 MPI_Allreduce 1
318863221 MPI_Allreduce 0
318863221 MPI_Allreduce 1
318863246 MPI_Allreduce 0
318863246 MPI_Allreduce 1
318863270 MPI_Allreduce 0
318863270 MPI_Allreduce 1
318863294 MPI_Allreduce 0
318863294 MPI_Allreduce 1
318863318 MPI_Allreduce 0
318863318 MPI_Allreduce 1
318863342 MPI_Allreduce 0
318863342 MPI_Allreduce 1
318863366 MPI_Allreduce 0
318863366 MPI_Allreduce 1
318863390 MPI_Allreduce 0
318863390 MPI_Allreduce 1
318863415 MPI_Allreduce 0
318863415 MPI_Allreduce 1
318863439 MPI_Allreduce 0
318863439 MPI_Allreduce 1
318863463 MPI_Allreduce 0
318863463 MPI_Allreduce 1
318863487 MPI_Allreduce 0
318863487 MPI_Allreduce 1
318863511 MPI_Allreduce 0
318863511 MPI_Allreduce 1
318863535 MPI_Allreduce 0
318863535 MPI_Allreduce 1
318863559 MPI_Allreduce 0
318863559 MPI_Allreduce 1
318863583 MPI_Allreduce 0
318863583 MPI_Allreduce 1
318863607 MPI_Allreduce 0
318863607 MPI_Allreduce 1
318863631 MPI_Allreduce 0
318863631 MPI_Allreduce 1
318863655 MPI_Allreduce 0
318863655 MPI_Allreduce 1
318863680 MPI_Allreduce 0
318863680 MPI_Allreduce 1
318863704 MPI_Allreduce 0
318863704 MPI_Allreduce 1
318863728 MPI_Allreduce 0
318863728 MPI_Allreduce 1
318863752 MPI_Allreduce 0
318863752 MPI_Allreduce 1
318863776 MPI_Allreduce 0
318863776 MPI_Allreduce 1
318863800 MPI_Allreduce 0
318863800 MPI_Allreduce 1
318863824 MPI_Allreduce 0
318863824 MPI_Allreduce 1
318863848 MPI_Allreduce 0
318863848 MPI_Allreduce 1
318863872 MPI_Allreduce 0
318863872 MPI_Allreduce 1
318863896 MPI_Allreduce 0
318863896 MPI_Allreduce 1
318863920 MPI_Allreduce 0
318863920 MPI_Allreduce 1
318863944 MPI_Allreduce 0
318863944 MPI_Allreduce 1
318863968 MPI_Allreduce 0
318863968 MPI_Allreduce 1
318863992 MPI_Allreduce 0
318863992 MPI_Allreduce 1
318864017 MPI_Allreduce 0
318864017 MPI_Allreduce 1
318864041 MPI_Allreduce 0
318864041 MPI_Allreduce 1
318864065 MPI_Allreduce 0
318864065 MPI_Allreduce 1
318864089 MPI_Allreduce 0
318864089 MPI_Allreduce 1
318864113 MPI_Allreduce 0
318864113 MPI_Allreduce 1
318864137 MPI_Allreduce 0
318864137 MPI_Allreduce 1
318864161 MPI_Allreduce 0
318864161 MPI_Allreduce 1
318864185 MPI_Allreduce 0
318864185 MPI_Allreduce 1
318864209 MPI_Allreduce 0
318864209 MPI_Allreduce 1
318864233 MPI_Allreduce 0
318864233 MPI_Allreduce 1
318864257 MPI_Allreduce 0
318864257 MPI_Allreduce 1
318864281 MPI_Allreduce 0
318864281 MPI_Allreduce 1
318864306 MPI_Allreduce 0
318864306 MPI_Allreduce 1
318864330 MPI_Allreduce 0
318864330 MPI_Allreduce 1
318864354 MPI_Allreduce 0
318864354 MPI_Allreduce 1
318864378 MPI_Allreduce 0
318864378 MPI_Allreduce 1
318864402 MPI_Allreduce 0
318864402 MPI_Allreduce 1
318864426 MPI_Allreduce 0
318864426 MPI_Allreduce 1
318864450 MPI_Allreduce 0
318864450 MPI_Allreduce 1
318864474 MPI_Allreduce 0
318864474 MPI_Allreduce 1
318864498 MPI_Allreduce 0
318864498 MPI_Allreduce 1
318864522 MPI_Allreduce 0
318864522 MPI_Allreduce 1
318864546 MPI_Allreduce 0
318864547 MPI_Allreduce 1
318864571 MPI_Allreduce 0
318864571 MPI_Allreduce 1
318864595 MPI_Allreduce 0
318864595 MPI_Allreduce 1
318864619 MPI_Allreduce 0
318864619 MPI_Allreduce 1
318864643 MPI_Allreduce 0
318864643 MPI_Allreduce 1
318864667 MPI_Allreduce 0
318864667 MPI_Allreduce 1
318864691 MPI_Allreduce 0
318864691 MPI_Allreduce 1
318864716 MPI_Allreduce 0
318864716 MPI_Allreduce 1
318864740 MPI_Allreduce 0
318864740 MPI_Allreduce 1
318864764 MPI_Allreduce 0
318864764 MPI_Allreduce 1
318864788 MPI_Allreduce 0
318864788 MPI_Allreduce 1
318864812 MPI_Allreduce 0
318864812 MPI_Allreduce 1
318864836 MPI_Allreduce 0
318864836 MPI_Allreduce 1
318864860 MPI_Allreduce 0
318864860 MPI_Allreduce 1
318864884 MPI_Allreduce 0
318864884 MPI_Allreduce 1
318864908 MPI_Allreduce 0
318864908 MPI_Allreduce 1
318864932 MPI_Allreduce 0
318864932 MPI_Allreduce 1
318864956 MPI_Allreduce 0
318864956 MPI_Allreduce 1
318864980 MPI_Allreduce 0
318864980 MPI_Allreduce 1
318865004 MPI_Allreduce 0
318865004 MPI_Allreduce 1
318865028 MPI_Allreduce 0
318865028 MPI_Allreduce 1
318865053 MPI_Allreduce 0
318865053 MPI_Allreduce 1
318865077 MPI_Allreduce 0
318865077 MPI_Allreduce 1
318865101 MPI_Allreduce 0
318865101 MPI_Allreduce 1
318865125 MPI_Allreduce 0
318865125 MPI_Allreduce 1
318865149 MPI_Allreduce 0
318865149 MPI_Allreduce 1
318865173 MPI_Allreduce 0
318865173 MPI_Allreduce 1
318865197 MPI_Allreduce 0
318865197 MPI_Allreduce 1
318865222 MPI_Allreduce 0
318865222 MPI_Allreduce 1
318865246 MPI_Allreduce 0
318865246 MPI_Allreduce 1
318865270 MPI_Allreduce 0
318865270 MPI_Allreduce 1
318865294 MPI_Allreduce 0
318865294 MPI_Allreduce 1
318865318 MPI_Allreduce 0
318865318 MPI_Allreduce 1
318865343 MPI_Allreduce 0
318865343 MPI_Allreduce 1
318865367 MPI_Allreduce 0
318865367 MPI_Allreduce 1
318865391 MPI_Allreduce 0
318865391 MPI_Allreduce 1
318865415 MPI_Allreduce 0
318865415 MPI_Allreduce 1
318865439 MPI_Allreduce 0
318865439 MPI_Allreduce 1
318865463 MPI_Allreduce 0
318865463 MPI_Allreduce 1
318865487 MPI_Allreduce 0
318865487 MPI_Allreduce 1
318865511 MPI_Allreduce 0
318865511 MPI_Allreduce 1
318865535 MPI_Allreduce 0
318865535 MPI_Allreduce 1
318865559 MPI_Allreduce 0
318865559 MPI_Allreduce 1
318865583 MPI_Allreduce 0
318865583 MPI_Allreduce 1
318865608 MPI_Allreduce 0
318865608 MPI_Allreduce 1
318865632 MPI_Allreduce 0
318865632 MPI_Allreduce 1
318865656 MPI_Allreduce 0
318865656 MPI_Allreduce 1
318865680 MPI_Allreduce 0
318865680 MPI_Allreduce 1
318865704 MPI_Allreduce 0
318865704 MPI_Allreduce 1
318865728 MPI_Allreduce 0
318865728 MPI_Allreduce 1
318865752 MPI_Allreduce 0
318865752 MPI_Allreduce 1
318865777 MPI_Allreduce 0
318865777 MPI_Allreduce 1
318865801 MPI_Allreduce 0
318865801 MPI_Allreduce 1
318865825 MPI_Allreduce 0
318865825 MPI_Allreduce 1
318865849 MPI_Allreduce 0
318865849 MPI_Allreduce 1
318865873 MPI_Allreduce 0
318865873 MPI_Allreduce 1
318865897 MPI_Allreduce 0
318865897 MPI_Allreduce 1
318865921 MPI_Allreduce 0
318865921 MPI_Allreduce 1
318865945 MPI_Allreduce 0
318865945 MPI_Allreduce 1
318865969 MPI_Allreduce 0
318865969 MPI_Allreduce 1
318865994 MPI_Allreduce 0
318865994 MPI_Allreduce 1
318866018 MPI_Allreduce 0
318866018 MPI_Allreduce 1
318866042 MPI_Allreduce 0
318866042 MPI_Allreduce 1
318866066 MPI_Allreduce 0
318866066 MPI_Allreduce 1
318866090 MPI_Allreduce 0
318866090 MPI_Allreduce 1
318866114 MPI_Allreduce 0
318866114 MPI_Allreduce 1
318866138 MPI_Allreduce 0
318866138 MPI_Allreduce 1
318866162 MPI_Allreduce 0
318866162 MPI_Allreduce 1
318866187 MPI_Allreduce 0
318866187 MPI_Allreduce 1
318866211 MPI_Allreduce 0
318866211 MPI_Allreduce 1
318866234 MPI_Allreduce 0
318866234 MPI_Allreduce 1
318866259 MPI_Allreduce 0
318866259 MPI_Allreduce 1
318866283 MPI_Allreduce 0
318866283 MPI_Allreduce 1
318866307 MPI_Allreduce 0
318866307 MPI_Allreduce 1
318866331 MPI_Allreduce 0
318866331 MPI_Allreduce 1
318866355 MPI_Allreduce 0
318866355 MPI_Allreduce 1
318866379 MPI_Allreduce 0
318866379 MPI_Allreduce 1
318866403 MPI_Allreduce 0
318866403 MPI_Allreduce 1
318866427 MPI_Allreduce 0
318866427 MPI_Allreduce 1
318866451 MPI_Allreduce 0
318866451 MPI_Allreduce 1
318866476 MPI_Allreduce 0
318866476 MPI_Allreduce 1
318866500 MPI_Allreduce 0
318866500 MPI_Allreduce 1
318866524 MPI_Allreduce 0
318866524 MPI_Allreduce 1
318866548 MPI_Allreduce 0
318866548 MPI_Allreduce 1
318866572 MPI_Allreduce 0
318866572 MPI_Allreduce 1
318866596 MPI_Allreduce 0
318866596 MPI_Allreduce 1
318866620 MPI_Allreduce 0
318866620 MPI_Allreduce 1
318866644 MPI_Allreduce 0
318866644 MPI_Allreduce 1
318866669 MPI_Allreduce 0
318866669 MPI_Allreduce 1
318866693 MPI_Allreduce 0
318866693 MPI_Allreduce 1
318866717 MPI_Allreduce 0
318866717 MPI_Allreduce 1
318866741 MPI_Allreduce 0
318866741 MPI_Allreduce 1
318866765 MPI_Allreduce 0
318866765 MPI_Allreduce 1
318866789 MPI_Allreduce 0
318866789 MPI_Allreduce 1
318866813 MPI_Allreduce 0
318866813 MPI_Allreduce 1
318866837 MPI_Allreduce 0
318866837 MPI_Allreduce 1
318866861 MPI_Allreduce 0
318866861 MPI_Allreduce 1
318866886 MPI_Allreduce 0
318866886 MPI_Allreduce 1
318866910 MPI_Allreduce 0
318866910 MPI_Allreduce 1
318866934 MPI_Allreduce 0
318866934 MPI_Allreduce 1
318866958 MPI_Allreduce 0
318866958 MPI_Allreduce 1
318866982 MPI_Allreduce 0
318866982 MPI_Allreduce 1
318867006 MPI_Allreduce 0
318867006 MPI_Allreduce 1
318867030 MPI_Allreduce 0
318867030 MPI_Allreduce 1
318867054 MPI_Allreduce 0
318867054 MPI_Allreduce 1
318867078 MPI_Allreduce 0
318867078 MPI_Allreduce 1
318867103 MPI_Allreduce 0
318867103 MPI_Allreduce 1
318867127 MPI_Allreduce 0
318867127 MPI_Allreduce 1
318867151 MPI_Allreduce 0
318867151 MPI_Allreduce 1
318867175 MPI_Allreduce 0
318867175 MPI_Allreduce 1
318867199 MPI_Allreduce 0
318867199 MPI_Allreduce 1
318867223 MPI_Allreduce 0
318867223 MPI_Allreduce 1
318867247 MPI_Allreduce 0
318867247 MPI_Allreduce 1
318867272 MPI_Allreduce 0
318867272 MPI_Allreduce 1
318867296 MPI_Allreduce 0
318867296 MPI_Allreduce 1
318867320 MPI_Allreduce 0
318867320 MPI_Allreduce 1
318867344 MPI_Allreduce 0
318867344 MPI_Allreduce 1
318867368 MPI_Allreduce 0
318867368 MPI_Allreduce 1
318867392 MPI_Allreduce 0
318867392 MPI_Allreduce 1
318867416 MPI_Allreduce 0
318867416 MPI_Allreduce 1
318867440 MPI_Allreduce 0
318867440 MPI_Allreduce 1
318867465 MPI_Allreduce 0
318867465 MPI_Allreduce 1
318867489 MPI_Allreduce 0
318867489 MPI_Allreduce 1
318867513 MPI_Allreduce 0
318867513 MPI_Allreduce 1
318867537 MPI_Allreduce 0
318867537 MPI_Allreduce 1
318867561 MPI_Allreduce 0
318867561 MPI_Allreduce 1
318867585 MPI_Allreduce 0
318867585 MPI_Allreduce 1
318867609 MPI_Allreduce 0
318867609 MPI_Allreduce 1
318867633 MPI_Allreduce 0
318867633 MPI_Allreduce 1
318867657 MPI_Allreduce 0
318867657 MPI_Allreduce 1
318867681 MPI_Allreduce 0
318867681 MPI_Allreduce 1
318867705 MPI_Allreduce 0
318867705 MPI_Allreduce 1
318867730 MPI_Allreduce 0
318867730 MPI_Allreduce 1
318867754 MPI_Allreduce 0
318867754 MPI_Allreduce 1
318867778 MPI_Allreduce 0
318867778 MPI_Allreduce 1
318867802 MPI_Allreduce 0
318867802 MPI_Allreduce 1
318867826 MPI_Allreduce 0
318867826 MPI_Allreduce 1
318867851 MPI_Allreduce 0
318867851 MPI_Allreduce 1
318867875 MPI_Allreduce 0
318867875 MPI_Allreduce 1
318867899 MPI_Allreduce 0
318867899 MPI_Allreduce 1
318867923 MPI_Allreduce 0
318867923 MPI_Allreduce 1
318867947 MPI_Allreduce 0
318867947 MPI_Allreduce 1
318867971 MPI_Allreduce 0
318867971 MPI_Allreduce 1
318867996 MPI_Allreduce 0
318867996 MPI_Allreduce 1
318868020 MPI_Allreduce 0
318868020 MPI_Allreduce 1
318868044 MPI_Allreduce 0
318868044 MPI_Allreduce 1
318868068 MPI_Allreduce 0
318868068 MPI_Allreduce 1
318868092 MPI_Allreduce 0
318868092 MPI_Allreduce 1
318868116 MPI_Allreduce 0
318868116 MPI_Allreduce 1
318868140 MPI_Allreduce 0
318868140 MPI_Allreduce 1
318868164 MPI_Allreduce 0
318868164 MPI_Allreduce 1
318868189 MPI_Allreduce 0
318868189 MPI_Allreduce 1
318868213 MPI_Allreduce 0
318868213 MPI_Allreduce 1
318868237 MPI_Allreduce 0
318868237 MPI_Allreduce 1
318868261 MPI_Allreduce 0
318868261 MPI_Allreduce 1
318868285 MPI_Allreduce 0
318868285 MPI_Allreduce 1
318868309 MPI_Allreduce 0
318868309 MPI_Allreduce 1
318868333 MPI_Allreduce 0
318868333 MPI_Allreduce 1
318868358 MPI_Allreduce 0
318868358 MPI_Allreduce 1
318868382 MPI_Allreduce 0
318868382 MPI_Allreduce 1
318868406 MPI_Allreduce 0
318868406 MPI_Allreduce 1
318868430 MPI_Allreduce 0
318868430 MPI_Allreduce 1
318868454 MPI_Allreduce 0
318868454 MPI_Allreduce 1
318868478 MPI_Allreduce 0
318868478 MPI_Allreduce 1
318868503 MPI_Allreduce 0
318868503 MPI_Allreduce 1
318868527 MPI_Allreduce 0
318868527 MPI_Allreduce 1
318868551 MPI_Allreduce 0
318868551 MPI_Allreduce 1
318868575 MPI_Allreduce 0
318868575 MPI_Allreduce 1
318868599 MPI_Allreduce 0
318868599 MPI_Allreduce 1
318868624 MPI_Allreduce 0
318868624 MPI_Allreduce 1
318868648 MPI_Allreduce 0
318868648 MPI_Allreduce 1
318868672 MPI_Allreduce 0
318868672 MPI_Allreduce 1
318868696 MPI_Allreduce 0
318868696 MPI_Allreduce 1
318868720 MPI_Allreduce 0
318868720 MPI_Allreduce 1
318868744 MPI_Allreduce 0
318868744 MPI_Allreduce 1
318868768 MPI_Allreduce 0
318868768 MPI_Allreduce 1
318868792 MPI_Allreduce 0
318868792 MPI_Allreduce 1
318868816 MPI_Allreduce 0
318868816 MPI_Allreduce 1
318868840 MPI_Allreduce 0
318868840 MPI_Allreduce 1
318868865 MPI_Allreduce 0
318868865 MPI_Allreduce 1
318868889 MPI_Allreduce 0
318868889 MPI_Allreduce 1
318868913 MPI_Allreduce 0
318868913 MPI_Allreduce 1
318868937 MPI_Allreduce 0
318868937 MPI_Allreduce 1
318868962 MPI_Allreduce 0
318868962 MPI_Allreduce 1
318868986 MPI_Allreduce 0
318868986 MPI_Allreduce 1
318869010 MPI_Allreduce 0
318869010 MPI_Allreduce 1
318869034 MPI_Allreduce 0
318869034 MPI_Allreduce 1
318869058 MPI_Allreduce 0
318869058 MPI_Allreduce 1
318869083 MPI_Allreduce 0
318869083 MPI_Allreduce 1
318869107 MPI_Allreduce 0
318869107 MPI_Allreduce 1
318869131 MPI_Allreduce 0
318869131 MPI_Allreduce 1
318869155 MPI_Allreduce 0
318869155 MPI_Allreduce 1
318869179 MPI_Allreduce 0
318869179 MPI_Allreduce 1
318869203 MPI_Allreduce 0
318869203 MPI_Allreduce 1
318869227 MPI_Allreduce 0
318869227 MPI_Allreduce 1
318869252 MPI_Allreduce 0
318869252 MPI_Allreduce 1
318869276 MPI_Allreduce 0
318869276 MPI_Allreduce 1
318869300 MPI_Allreduce 0
318869300 MPI_Allreduce 1
318869325 MPI_Allreduce 0
318869325 MPI_Allreduce 1
318869349 MPI_Allreduce 0
318869349 MPI_Allreduce 1
318869373 MPI_Allreduce 0
318869373 MPI_Allreduce 1
318869398 MPI_Allreduce 0
318869398 MPI_Allreduce 1
318869422 MPI_Allreduce 0
318869422 MPI_Allreduce 1
318869446 MPI_Allreduce 0
318869446 MPI_Allreduce 1
318869470 MPI_Allreduce 0
318869470 MPI_Allreduce 1
318869494 MPI_Allreduce 0
318869494 MPI_Allreduce 1
318869518 MPI_Allreduce 0
318869518 MPI_Allreduce 1
318869542 MPI_Allreduce 0
318869542 MPI_Allreduce 1
318869566 MPI_Allreduce 0
318869566 MPI_Allreduce 1
318869591 MPI_Allreduce 0
318869591 MPI_Allreduce 1
318869615 MPI_Allreduce 0
318869615 MPI_Allreduce 1
318869639 MPI_Allreduce 0
318869639 MPI_Allreduce 1
318869663 MPI_Allreduce 0
318869663 MPI_Allreduce 1
318869687 MPI_Allreduce 0
318869687 MPI_Allreduce 1
318869711 MPI_Allreduce 0
318869711 MPI_Allreduce 1
318869735 MPI_Allreduce 0
318869735 MPI_Allreduce 1
318869759 MPI_Allreduce 0
318869759 MPI_Allreduce 1
318869784 MPI_Allreduce 0
318869784 MPI_Allreduce 1
318869808 MPI_Allreduce 0
318869808 MPI_Allreduce 1
318869832 MPI_Allreduce 0
318869832 MPI_Allreduce 1
318869856 MPI_Allreduce 0
318869856 MPI_Allreduce 1
318869880 MPI_Allreduce 0
318869880 MPI_Allreduce 1
318869904 MPI_Allreduce 0
318869904 MPI_Allreduce 1
318869928 MPI_Allreduce 0
318869928 MPI_Allreduce 1
318869953 MPI_Allreduce 0
318869953 MPI_Allreduce 1
318869977 MPI_Allreduce 0
318869977 MPI_Allreduce 1
318870001 MPI_Allreduce 0
318870001 MPI_Allreduce 1
318870025 MPI_Allreduce 0
318870025 MPI_Allreduce 1
318870050 MPI_Allreduce 0
318870050 MPI_Allreduce 1
318870074 MPI_Allreduce 0
318870074 MPI_Allreduce 1
318870098 MPI_Allreduce 0
318870098 MPI_Allreduce 1
318870122 MPI_Allreduce 0
318870122 MPI_Allreduce 1
318870146 MPI_Allreduce 0
318870146 MPI_Allreduce 1
318870171 MPI_Allreduce 0
318870171 MPI_Allreduce 1
318870195 MPI_Allreduce 0
318870195 MPI_Allreduce 1
318870219 MPI_Allreduce 0
318870219 MPI_Allreduce 1
318870243 MPI_Allreduce 0
318870243 MPI_Allreduce 1
318870267 MPI_Allreduce 0
318870267 MPI_Allreduce 1
318870291 MPI_Allreduce 0
318870291 MPI_Allreduce 1
318870316 MPI_Allreduce 0
318870316 MPI_Allreduce 1
318870340 MPI_Allreduce 0
318870340 MPI_Allreduce 1
318870364 MPI_Allreduce 0
318870364 MPI_Allreduce 1
318870388 MPI_Allreduce 0
318870388 MPI_Allreduce 1
318870412 MPI_Allreduce 0
318870412 MPI_Allreduce 1
318870437 MPI_Allreduce 0
318870437 MPI_Allreduce 1
318870461 MPI_Allreduce 0
318870461 MPI_Allreduce 1
318870485 MPI_Allreduce 0
318870485 MPI_Allreduce 1
318870509 MPI_Allreduce 0
318870509 MPI_Allreduce 1
318870533 MPI_Allreduce 0
318870533 MPI_Allreduce 1
318870558 MPI_Allreduce 0
318870558 MPI_Allreduce 1
318870582 MPI_Allreduce 0
318870582 MPI_Allreduce 1
318870606 MPI_Allreduce 0
318870606 MPI_Allreduce 1
318870630 MPI_Allreduce 0
318870630 MPI_Allreduce 1
318870654 MPI_Allreduce 0
318870654 MPI_Allreduce 1
318870679 MPI_Allreduce 0
318870679 MPI_Allreduce 1
318870703 MPI_Allreduce 0
318870703 MPI_Allreduce 1
318870727 MPI_Allreduce 0
318870727 MPI_Allreduce 1
318870751 MPI_Allreduce 0
318870751 MPI_Allreduce 1
318870775 MPI_Allreduce 0
318870775 MPI_Allreduce 1
318870799 MPI_Allreduce 0
318870799 MPI_Allreduce 1
318870824 MPI_Allreduce 0
318870824 MPI_Allreduce 1
318870848 MPI_Allreduce 0
318870848 MPI_Allreduce 1
318870872 MPI_Allreduce 0
318870872 MPI_Allreduce 1
318870896 MPI_Allreduce 0
318870896 MPI_Allreduce 1
318870920 MPI_Allreduce 0
318870920 MPI_Allreduce 1
318870944 MPI_Allreduce 0
318870944 MPI_Allreduce 1
318870969 MPI_Allreduce 0
318870969 MPI_Allreduce 1
318870993 MPI_Allreduce 0
318870993 MPI_Allreduce 1
318871017 MPI_Allreduce 0
318871017 MPI_Allreduce 1
318871041 MPI_Allreduce 0
318871041 MPI_Allreduce 1
318871065 MPI_Allreduce 0
318871066 MPI_Allreduce 1
318871090 MPI_Allreduce 0
318871090 MPI_Allreduce 1
318871114 MPI_Allreduce 0
318871114 MPI_Allreduce 1
318871138 MPI_Allreduce 0
318871138 MPI_Allreduce 1
318871162 MPI_Allreduce 0
318871162 MPI_Allreduce 1
318871187 MPI_Allreduce 0
318871187 MPI_Allreduce 1
318871211 MPI_Allreduce 0
318871211 MPI_Allreduce 1
318871235 MPI_Allreduce 0
318871235 MPI_Allreduce 1
318871259 MPI_Allreduce 0
318871259 MPI_Allreduce 1
318871283 MPI_Allreduce 0
318871283 MPI_Allreduce 1
318871308 MPI_Allreduce 0
318871308 MPI_Allreduce 1
318871332 MPI_Allreduce 0
318871332 MPI_Allreduce 1
318871356 MPI_Allreduce 0
318871356 MPI_Allreduce 1
318871380 MPI_Allreduce 0
318871380 MPI_Allreduce 1
318871404 MPI_Allreduce 0
318871404 MPI_Allreduce 1
318871428 MPI_Allreduce 0
318871428 MPI_Allreduce 1
318871453 MPI_Allreduce 0
318871453 MPI_Allreduce 1
318871477 MPI_Allreduce 0
318871477 MPI_Allreduce 1
318871501 MPI_Allreduce 0
318871501 MPI_Allreduce 1
318871525 MPI_Allreduce 0
318871525 MPI_Allreduce 1
318871549 MPI_Allreduce 0
318871549 MPI_Allreduce 1
318871574 MPI_Allreduce 0
318871574 MPI_Allreduce 1
318871598 MPI_Allreduce 0
318871598 MPI_Allreduce 1
318871622 MPI_Allreduce 0
318871622 MPI_Allreduce 1
318871646 MPI_Allreduce 0
318871646 MPI_Allreduce 1
318871670 MPI_Allreduce 0
318871670 MPI_Allreduce 1
318871694 MPI_Allreduce 0
318871694 MPI_Allreduce 1
318871718 MPI_Allreduce 0
318871718 MPI_Allreduce 1
318871743 MPI_Allreduce 0
318871743 MPI_Allreduce 1
318871767 MPI_Allreduce 0
318871767 MPI_Allreduce 1
318871791 MPI_Allreduce 0
318871791 MPI_Allreduce 1
318871815 MPI_Allreduce 0
318871815 MPI_Allreduce 1
318871840 MPI_Allreduce 0
318871840 MPI_Allreduce 1
318871864 MPI_Allreduce 0
318871864 MPI_Allreduce 1
318871888 MPI_Allreduce 0
318871888 MPI_Allreduce 1
318871912 MPI_Allreduce 0
318871912 MPI_Allreduce 1
318871936 MPI_Allreduce 0
318871936 MPI_Allreduce 1
318871961 MPI_Allreduce 0
318871961 MPI_Allreduce 1
318871985 MPI_Allreduce 0
318871985 MPI_Allreduce 1
318872009 MPI_Allreduce 0
318872009 MPI_Allreduce 1
318872033 MPI_Allreduce 0
318872033 MPI_Allreduce 1
318872057 MPI_Allreduce 0
318872057 MPI_Allreduce 1
318872082 MPI_Allreduce 0
318872082 MPI_Allreduce 1
318872106 MPI_Allreduce 0
318872106 MPI_Allreduce 1
318872130 MPI_Allreduce 0
318872130 MPI_Allreduce 1
318872154 MPI_Allreduce 0
318872154 MPI_Allreduce 1
318872179 MPI_Allreduce 0
318872179 MPI_Allreduce 1
318872203 MPI_Allreduce 0
318872203 MPI_Allreduce 1
318872227 MPI_Allreduce 0
318872227 MPI_Allreduce 1
318872251 MPI_Allreduce 0
318872251 MPI_Allreduce 1
318872276 MPI_Allreduce 0
318872276 MPI_Allreduce 1
318872300 MPI_Allreduce 0
318872300 MPI_Allreduce 1
318872324 MPI_Allreduce 0
318872324 MPI_Allreduce 1
318872348 MPI_Allreduce 0
318872348 MPI_Allreduce 1
318872373 MPI_Allreduce 0
318872373 MPI_Allreduce 1
318872397 MPI_Allreduce 0
318872397 MPI_Allreduce 1
318872421 MPI_Allreduce 0
318872421 MPI_Allreduce 1
318872445 MPI_Allreduce 0
318872445 MPI_Allreduce 1
318872469 MPI_Allreduce 0
318872469 MPI_Allreduce 1
318872493 MPI_Allreduce 0
318872493 MPI_Allreduce 1
318872518 MPI_Allreduce 0
318872518 MPI_Allreduce 1
318872542 MPI_Allreduce 0
318872542 MPI_Allreduce 1
318872566 MPI_Allreduce 0
318872566 MPI_Allreduce 1
318872590 MPI_Allreduce 0
318872590 MPI_Allreduce 1
318872615 MPI_Allreduce 0
318872615 MPI_Allreduce 1
318872639 MPI_Allreduce 0
318872639 MPI_Allreduce 1
318872663 MPI_Allreduce 0
318872663 MPI_Allreduce 1
318872687 MPI_Allreduce 0
318872687 MPI_Allreduce 1
318872712 MPI_Allreduce 0
318872712 MPI_Allreduce 1
318872736 MPI_Allreduce 0
318872736 MPI_Allreduce 1
318872760 MPI_Allreduce 0
318872760 MPI_Allreduce 1
318872784 MPI_Allreduce 0
318872784 MPI_Allreduce 1
318872809 MPI_Allreduce 0
318872809 MPI_Allreduce 1
318872833 MPI_Allreduce 0
318872833 MPI_Allreduce 1
318872857 MPI_Allreduce 0
318872857 MPI_Allreduce 1
318872881 MPI_Allreduce 0
318872881 MPI_Allreduce 1
318872906 MPI_Allreduce 0
318872906 MPI_Allreduce 1
318872930 MPI_Allreduce 0
318872930 MPI_Allreduce 1
318872954 MPI_Allreduce 0
318872954 MPI_Allreduce 1
318872978 MPI_Allreduce 0
318872978 MPI_Allreduce 1
318873003 MPI_Allreduce 0
318873003 MPI_Allreduce 1
318873027 MPI_Allreduce 0
318873027 MPI_Allreduce 1
318873051 MPI_Allreduce 0
318873051 MPI_Allreduce 1
318873075 MPI_Allreduce 0
318873075 MPI_Allreduce 1
318873100 MPI_Allreduce 0
318873100 MPI_Allreduce 1
318873124 MPI_Allreduce 0
318873124 MPI_Allreduce 1
318873148 MPI_Allreduce 0
318873148 MPI_Allreduce 1
318873172 MPI_Allreduce 0
318873172 MPI_Allreduce 1
318873197 MPI_Allreduce 0
318873197 MPI_Allreduce 1
318873221 MPI_Allreduce 0
318873221 MPI_Allreduce 1
318873245 MPI_Allreduce 0
318873245 MPI_Allreduce 1
318873269 MPI_Allreduce 0
318873269 MPI_Allreduce 1
318873294 MPI_Allreduce 0
318873294 MPI_Allreduce 1
318873318 MPI_Allreduce 0
318873318 MPI_Allreduce 1
318873342 MPI_Allreduce 0
318873342 MPI_Allreduce 1
318873366 MPI_Allreduce 0
318873366 MPI_Allreduce 1
318873391 MPI_Allreduce 0
318873391 MPI_Allreduce 1
318873415 MPI_Allreduce 0
318873415 MPI_Allreduce 1
318873439 MPI_Allreduce 0
318873439 MPI_Allreduce 1
318873463 MPI_Allreduce 0
318873463 MPI_Allreduce 1
318873487 MPI_Allreduce 0
318873487 MPI_Allreduce 1
318873512 MPI_Allreduce 0
318873512 MPI_Allreduce 1
318873536 MPI_Allreduce 0
318873536 MPI_Allreduce 1
318873560 MPI_Allreduce 0
318873560 MPI_Allreduce 1
318873585 MPI_Allreduce 0
318873585 MPI_Allreduce 1
318873609 MPI_Allreduce 0
318873609 MPI_Allreduce 1
318873633 MPI_Allreduce 0
318873633 MPI_Allreduce 1
318873657 MPI_Allreduce 0
318873657 MPI_Allreduce 1
318873681 MPI_Allreduce 0
318873681 MPI_Allreduce 1
318873706 MPI_Allreduce 0
318873706 MPI_Allreduce 1
318873730 MPI_Allreduce 0
318873730 MPI_Allreduce 1
318873754 MPI_Allreduce 0
318873754 MPI_Allreduce 1
318873779 MPI_Allreduce 0
318873779 MPI_Allreduce 1
318873803 MPI_Allreduce 0
318873803 MPI_Allreduce 1
318873827 MPI_Allreduce 0
318873827 MPI_Allreduce 1
318873852 MPI_Allreduce 0
318873852 MPI_Allreduce 1
318873876 MPI_Allreduce 0
318873876 MPI_Allreduce 1
318873900 MPI_Allreduce 0
318873900 MPI_Allreduce 1
318873924 MPI_Allreduce 0
318873924 MPI_Allreduce 1
318873949 MPI_Allreduce 0
318873949 MPI_Allreduce 1
318873973 MPI_Allreduce 0
318873973 MPI_Allreduce 1
318873997 MPI_Allreduce 0
318873997 MPI_Allreduce 1
318874021 MPI_Allreduce 0
318874021 MPI_Allreduce 1
318874046 MPI_Allreduce 0
318874046 MPI_Allreduce 1
318874070 MPI_Allreduce 0
318874070 MPI_Allreduce 1
318874094 MPI_Allreduce 0
318874094 MPI_Allreduce 1
318874119 MPI_Allreduce 0
318874119 MPI_Allreduce 1
318874143 MPI_Allreduce 0
318874143 MPI_Allreduce 1
318874167 MPI_Allreduce 0
318874167 MPI_Allreduce 1
318874191 MPI_Allreduce 0
318874191 MPI_Allreduce 1
318874216 MPI_Allreduce 0
318874216 MPI_Allreduce 1
318874240 MPI_Allreduce 0
318874240 MPI_Allreduce 1
318874264 MPI_Allreduce 0
318874264 MPI_Allreduce 1
318874288 MPI_Allreduce 0
318874288 MPI_Allreduce 1
318874313 MPI_Allreduce 0
318874313 MPI_Allreduce 1
318874337 MPI_Allreduce 0
318874337 MPI_Allreduce 1
318874361 MPI_Allreduce 0
318874361 MPI_Allreduce 1
318874385 MPI_Allreduce 0
318874385 MPI_Allreduce 1
318874410 MPI_Allreduce 0
318874410 MPI_Allreduce 1
318874434 MPI_Allreduce 0
318874434 MPI_Allreduce 1
318874458 MPI_Allreduce 0
318874458 MPI_Allreduce 1
318874483 MPI_Allreduce 0
318874483 MPI_Allreduce 1
318874507 MPI_Allreduce 0
318874507 MPI_Allreduce 1
318874531 MPI_Allreduce 0
318874531 MPI_Allreduce 1
318874555 MPI_Allreduce 0
318874555 MPI_Allreduce 1
318874580 MPI_Allreduce 0
318874580 MPI_Allreduce 1
318874604 MPI_Allreduce 0
318874604 MPI_Allreduce 1
318874628 MPI_Allreduce 0
318874628 MPI_Allreduce 1
318874653 MPI_Allreduce 0
318874653 MPI_Allreduce 1
318874677 MPI_Allreduce 0
318874677 MPI_Allreduce 1
318874701 MPI_Allreduce 0
318874701 MPI_Allreduce 1
318874726 MPI_Allreduce 0
318874726 MPI_Allreduce 1
318874750 MPI_Allreduce 0
318874750 MPI_Allreduce 1
318874774 MPI_Allreduce 0
318874774 MPI_Allreduce 1
318874798 MPI_Allreduce 0
318874798 MPI_Allreduce 1
318874823 MPI_Allreduce 0
318874823 MPI_Allreduce 1
318874847 MPI_Allreduce 0
318874847 MPI_Allreduce 1
318874871 MPI_Allreduce 0
318874871 MPI_Allreduce 1
318874896 MPI_Allreduce 0
318874896 MPI_Allreduce 1
318874920 MPI_Allreduce 0
318874920 MPI_Allreduce 1
318874945 MPI_Allreduce 0
318874945 MPI_Allreduce 1
318874969 MPI_Allreduce 0
318874969 MPI_Allreduce 1
318874993 MPI_Allreduce 0
318874993 MPI_Allreduce 1
318875018 MPI_Allreduce 0
318875018 MPI_Allreduce 1
318875042 MPI_Allreduce 0
318875042 MPI_Allreduce 1
318875066 MPI_Allreduce 0
318875066 MPI_Allreduce 1
318875090 MPI_Allreduce 0
318875090 MPI_Allreduce 1
318875114 MPI_Allreduce 0
318875114 MPI_Allreduce 1
318875139 MPI_Allreduce 0
318875139 MPI_Allreduce 1
318875163 MPI_Allreduce 0
318875163 MPI_Allreduce 1
318875187 MPI_Allreduce 0
318875187 MPI_Allreduce 1
318875211 MPI_Allreduce 0
318875211 MPI_Allreduce 1
318875235 MPI_Allreduce 0
318875235 MPI_Allreduce 1
318875260 MPI_Allreduce 0
318875260 MPI_Allreduce 1
318875284 MPI_Allreduce 0
318875284 MPI_Allreduce 1
318875308 MPI_Allreduce 0
318875308 MPI_Allreduce 1
318875333 MPI_Allreduce 0
318875333 MPI_Allreduce 1
318875357 MPI_Allreduce 0
318875357 MPI_Allreduce 1
318875382 MPI_Allreduce 0
318875382 MPI_Allreduce 1
318875406 MPI_Allreduce 0
318875406 MPI_Allreduce 1
318875431 MPI_Allreduce 0
318875431 MPI_Allreduce 1
318875455 MPI_Allreduce 0
318875455 MPI_Allreduce 1
318875479 MPI_Allreduce 0
318875479 MPI_Allreduce 1
318875504 MPI_Allreduce 0
318875504 MPI_Allreduce 1
318875528 MPI_Allreduce 0
318875528 MPI_Allreduce 1
318875552 MPI_Allreduce 0
318875552 MPI_Allreduce 1
318875576 MPI_Allreduce 0
318875576 MPI_Allreduce 1
318875601 MPI_Allreduce 0
318875601 MPI_Allreduce 1
318875625 MPI_Allreduce 0
318875625 MPI_Allreduce 1
318875649 MPI_Allreduce 0
318875649 MPI_Allreduce 1
318875673 MPI_Allreduce 0
318875673 MPI_Allreduce 1
318875698 MPI_Allreduce 0
318875698 MPI_Allreduce 1
318875722 MPI_Allreduce 0
318875722 MPI_Allreduce 1
318875746 MPI_Allreduce 0
318875746 MPI_Allreduce 1
318875770 MPI_Allreduce 0
318875770 MPI_Allreduce 1
318875795 MPI_Allreduce 0
318875795 MPI_Allreduce 1
318875820 MPI_Allreduce 0
318875820 MPI_Allreduce 1
318875844 MPI_Allreduce 0
318875844 MPI_Allreduce 1
318875868 MPI_Allreduce 0
318875868 MPI_Allreduce 1
318875893 MPI_Allreduce 0
318875893 MPI_Allreduce 1
318875917 MPI_Allreduce 0
318875917 MPI_Allreduce 1
318875942 MPI_Allreduce 0
318875942 MPI_Allreduce 1
318875966 MPI_Allreduce 0
318875966 MPI_Allreduce 1
318875990 MPI_Allreduce 0
318875990 MPI_Allreduce 1
318876015 MPI_Allreduce 0
318876015 MPI_Allreduce 1
318876039 MPI_Allreduce 0
318876039 MPI_Allreduce 1
318876063 MPI_Allreduce 0
318876063 MPI_Allreduce 1
318876088 MPI_Allreduce 0
318876088 MPI_Allreduce 1
318876112 MPI_Allreduce 0
318876112 MPI_Allreduce 1
318876136 MPI_Allreduce 0
318876136 MPI_Allreduce 1
318876160 MPI_Allreduce 0
318876160 MPI_Allreduce 1
318876185 MPI_Allreduce 0
318876185 MPI_Allreduce 1
318876209 MPI_Allreduce 0
318876209 MPI_Allreduce 1
318876233 MPI_Allreduce 0
318876233 MPI_Allreduce 1
318876258 MPI_Allreduce 0
318876258 MPI_Allreduce 1
318876282 MPI_Allreduce 0
318876282 MPI_Allreduce 1
318876306 MPI_Allreduce 0
318876306 MPI_Allreduce 1
318876331 MPI_Allreduce 0
318876331 MPI_Allreduce 1
318876355 MPI_Allreduce 0
318876355 MPI_Allreduce 1
318876379 MPI_Allreduce 0
318876379 MPI_Allreduce 1
318876404 MPI_Allreduce 0
318876404 MPI_Allreduce 1
318876428 MPI_Allreduce 0
318876428 MPI_Allreduce 1
318876452 MPI_Allreduce 0
318876452 MPI_Allreduce 1
318876477 MPI_Allreduce 0
318876477 MPI_Allreduce 1
318876501 MPI_Allreduce 0
318876501 MPI_Allreduce 1
318876525 MPI_Allreduce 0
318876525 MPI_Allreduce 1
318876550 MPI_Allreduce 0
318876550 MPI_Allreduce 1
318876574 MPI_Allreduce 0
318876574 MPI_Allreduce 1
318876598 MPI_Allreduce 0
318876598 MPI_Allreduce 1
318876623 MPI_Allreduce 0
318876623 MPI_Allreduce 1
318876647 MPI_Allreduce 0
318876647 MPI_Allreduce 1
318876671 MPI_Allreduce 0
318876671 MPI_Allreduce 1
318876696 MPI_Allreduce 0
318876696 MPI_Allreduce 1
318876720 MPI_Allreduce 0
318876720 MPI_Allreduce 1
318876744 MPI_Allreduce 0
318876744 MPI_Allreduce 1
318876769 MPI_Allreduce 0
318876769 MPI_Allreduce 1
318876793 MPI_Allreduce 0
318876793 MPI_Allreduce 1
318876817 MPI_Allreduce 0
318876817 MPI_Allreduce 1
318876842 MPI_Allreduce 0
318876842 MPI_Allreduce 1
318876866 MPI_Allreduce 0
318876866 MPI_Allreduce 1
318876891 MPI_Allreduce 0
318876891 MPI_Allreduce 1
318876915 MPI_Allreduce 0
318876915 MPI_Allreduce 1
318876939 MPI_Allreduce 0
318876939 MPI_Allreduce 1
318876964 MPI_Allreduce 0
318876964 MPI_Allreduce 1
318876988 MPI_Allreduce 0
318876988 MPI_Allreduce 1
318877012 MPI_Allreduce 0
318877012 MPI_Allreduce 1
318877037 MPI_Allreduce 0
318877037 MPI_Allreduce 1
318877061 MPI_Allreduce 0
318877061 MPI_Allreduce 1
318877085 MPI_Allreduce 0
318877085 MPI_Allreduce 1
318877110 MPI_Allreduce 0
318877110 MPI_Allreduce 1
318877134 MPI_Allreduce 0
318877134 MPI_Allreduce 1
318877158 MPI_Allreduce 0
318877158 MPI_Allreduce 1
318877183 MPI_Allreduce 0
318877183 MPI_Allreduce 1
318877207 MPI_Allreduce 0
318877207 MPI_Allreduce 1
318877231 MPI_Allreduce 0
318877231 MPI_Allreduce 1
318877256 MPI_Allreduce 0
318877256 MPI_Allreduce 1
318877280 MPI_Allreduce 0
318877280 MPI_Allreduce 1
318877304 MPI_Allreduce 0
318877304 MPI_Allreduce 1
318877329 MPI_Allreduce 0
318877329 MPI_Allreduce 1
318877353 MPI_Allreduce 0
318877353 MPI_Allreduce 1
318877378 MPI_Allreduce 0
318877378 MPI_Allreduce 1
318877402 MPI_Allreduce 0
318877402 MPI_Allreduce 1
318877427 MPI_Allreduce 0
318877427 MPI_Allreduce 1
318877451 MPI_Allreduce 0
318877451 MPI_Allreduce 1
318877475 MPI_Allreduce 0
318877475 MPI_Allreduce 1
318877500 MPI_Allreduce 0
318877500 MPI_Allreduce 1
318877524 MPI_Allreduce 0
318877524 MPI_Allreduce 1
318877549 MPI_Allreduce 0
318877549 MPI_Allreduce 1
318877573 MPI_Allreduce 0
318877573 MPI_Allreduce 1
318877597 MPI_Allreduce 0
318877597 MPI_Allreduce 1
318877621 MPI_Allreduce 0
318877621 MPI_Allreduce 1
318877646 MPI_Allreduce 0
318877646 MPI_Allreduce 1
318877670 MPI_Allreduce 0
318877670 MPI_Allreduce 1
318877694 MPI_Allreduce 0
318877694 MPI_Allreduce 1
318877719 MPI_Allreduce 0
318877719 MPI_Allreduce 1
318877743 MPI_Allreduce 0
318877743 MPI_Allreduce 1
318877767 MPI_Allreduce 0
318877767 MPI_Allreduce 1
318877792 MPI_Allreduce 0
318877792 MPI_Allreduce 1
318877816 MPI_Allreduce 0
318877816 MPI_Allreduce 1
318877841 MPI_Allreduce 0
318877841 MPI_Allreduce 1
318877865 MPI_Allreduce 0
318877865 MPI_Allreduce 1
318877889 MPI_Allreduce 0
318877889 MPI_Allreduce 1
318877914 MPI_Allreduce 0
318877914 MPI_Allreduce 1
318877938 MPI_Allreduce 0
318877938 MPI_Allreduce 1
318877963 MPI_Allreduce 0
318877963 MPI_Allreduce 1
318877987 MPI_Allreduce 0
318877987 MPI_Allreduce 1
318878012 MPI_Allreduce 0
318878012 MPI_Allreduce 1
318878036 MPI_Allreduce 0
318878036 MPI_Allreduce 1
318878061 MPI_Allreduce 0
318878061 MPI_Allreduce 1
318878085 MPI_Allreduce 0
318878085 MPI_Allreduce 1
318878109 MPI_Allreduce 0
318878109 MPI_Allreduce 1
318878134 MPI_Allreduce 0
318878134 MPI_Allreduce 1
318878158 MPI_Allreduce 0
318878158 MPI_Allreduce 1
318878182 MPI_Allreduce 0
318878182 MPI_Allreduce 1
318878207 MPI_Allreduce 0
318878207 MPI_Allreduce 1
318878231 MPI_Allreduce 0
318878231 MPI_Allreduce 1
318878256 MPI_Allreduce 0
318878256 MPI_Allreduce 1
318878280 MPI_Allreduce 0
318878280 MPI_Allreduce 1
318878304 MPI_Allreduce 0
318878304 MPI_Allreduce 1
318878329 MPI_Allreduce 0
318878329 MPI_Allreduce 1
318878353 MPI_Allreduce 0
318878353 MPI_Allreduce 1
318878377 MPI_Allreduce 0
318878377 MPI_Allreduce 1
318878402 MPI_Allreduce 0
318878402 MPI_Allreduce 1
318878426 MPI_Allreduce 0
318878426 MPI_Allreduce 1
318878451 MPI_Allreduce 0
318878451 MPI_Allreduce 1
318878475 MPI_Allreduce 0
318878475 MPI_Allreduce 1
318878500 MPI_Allreduce 0
318878500 MPI_Allreduce 1
318878524 MPI_Allreduce 0
318878524 MPI_Allreduce 1
318878548 MPI_Allreduce 0
318878548 MPI_Allreduce 1
318878573 MPI_Allreduce 0
318878573 MPI_Allreduce 1
318878597 MPI_Allreduce 0
318878597 MPI_Allreduce 1
318878622 MPI_Allreduce 0
318878622 MPI_Allreduce 1
318878646 MPI_Allreduce 0
318878646 MPI_Allreduce 1
318878670 MPI_Allreduce 0
318878670 MPI_Allreduce 1
318878695 MPI_Allreduce 0
318878695 MPI_Allreduce 1
318878719 MPI_Allreduce 0
318878719 MPI_Allreduce 1
318878743 MPI_Allreduce 0
318878743 MPI_Allreduce 1
318878768 MPI_Allreduce 0
318878768 MPI_Allreduce 1
318878792 MPI_Allreduce 0
318878792 MPI_Allreduce 1
318878816 MPI_Allreduce 0
318878816 MPI_Allreduce 1
318878841 MPI_Allreduce 0
318878841 MPI_Allreduce 1
318878865 MPI_Allreduce 0
318878865 MPI_Allreduce 1
318878890 MPI_Allreduce 0
318878890 MPI_Allreduce 1
318878914 MPI_Allreduce 0
318878914 MPI_Allreduce 1
318878938 MPI_Allreduce 0
318878938 MPI_Allreduce 1
318878963 MPI_Allreduce 0
318878963 MPI_Allreduce 1
318878987 MPI_Allreduce 0
318878987 MPI_Allreduce 1
318879011 MPI_Allreduce 0
318879011 MPI_Allreduce 1
318879036 MPI_Allreduce 0
318879036 MPI_Allreduce 1
318879061 MPI_Allreduce 0
318879061 MPI_Allreduce 1
318879085 MPI_Allreduce 0
318879085 MPI_Allreduce 1
318879109 MPI_Allreduce 0
318879109 MPI_Allreduce 1
318879134 MPI_Allreduce 0
318879134 MPI_Allreduce 1
318879158 MPI_Allreduce 0
318879158 MPI_Allreduce 1
318879184 MPI_Allreduce 0
318879184 MPI_Allreduce 1
318879209 MPI_Allreduce 0
318879209 MPI_Allreduce 1
318879233 MPI_Allreduce 0
318879233 MPI_Allreduce 1
318879257 MPI_Allreduce 0
318879257 MPI_Allreduce 1
318879281 MPI_Allreduce 0
318879281 MPI_Allreduce 1
318879305 MPI_Allreduce 0
318879305 MPI_Allreduce 1
318879329 MPI_Allreduce 0
318879329 MPI_Allreduce 1
318879353 MPI_Allreduce 0
318879353 MPI_Allreduce 1
318879377 MPI_Allreduce 0
318879377 MPI_Allreduce 1
318879402 MPI_Allreduce 0
318879402 MPI_Allreduce 1
318879426 MPI_Allreduce 0
318879426 MPI_Allreduce 1
318879450 MPI_Allreduce 0
318879450 MPI_Allreduce 1
318879474 MPI_Allreduce 0
318879474 MPI_Allreduce 1
318879498 MPI_Allreduce 0
318879498 MPI_Allreduce 1
318879523 MPI_Allreduce 0
318879523 MPI_Allreduce 1
318879547 MPI_Allreduce 0
318879547 MPI_Allreduce 1
318879571 MPI_Allreduce 0
318879571 MPI_Allreduce 1
318879595 MPI_Allreduce 0
318879595 MPI_Allreduce 1
318879620 MPI_Allreduce 0
318879620 MPI_Allreduce 1
318879644 MPI_Allreduce 0
318879644 MPI_Allreduce 1
318879668 MPI_Allreduce 0
318879668 MPI_Allreduce 1
318879692 MPI_Allreduce 0
318879692 MPI_Allreduce 1
318879716 MPI_Allreduce 0
318879716 MPI_Allreduce 1
318879740 MPI_Allreduce 0
318879740 MPI_Allreduce 1
318879765 MPI_Allreduce 0
318879765 MPI_Allreduce 1
318879789 MPI_Allreduce 0
318879789 MPI_Allreduce 1
318879813 MPI_Allreduce 0
318879813 MPI_Allreduce 1
318879837 MPI_Allreduce 0
318879837 MPI_Allreduce 1
318879861 MPI_Allreduce 0
318879861 MPI_Allreduce 1
318879886 MPI_Allreduce 0
318879886 MPI_Allreduce 1
318879910 MPI_Allreduce 0
318879910 MPI_Allreduce 1
318879934 MPI_Allreduce 0
318879934 MPI_Allreduce 1
318879958 MPI_Allreduce 0
318879958 MPI_Allreduce 1
318879983 MPI_Allreduce 0
318879983 MPI_Allreduce 1
318880007 MPI_Allreduce 0
318880007 MPI_Allreduce 1
318880031 MPI_Allreduce 0
318880031 MPI_Allreduce 1
318880055 MPI_Allreduce 0
318880055 MPI_Allreduce 1
318880080 MPI_Allreduce 0
318880080 MPI_Allreduce 1
318880104 MPI_Allreduce 0
318880104 MPI_Allreduce 1
318880128 MPI_Allreduce 0
318880128 MPI_Allreduce 1
318880152 MPI_Allreduce 0
318880152 MPI_Allreduce 1
318880176 MPI_Allreduce 0
318880176 MPI_Allreduce 1
318880200 MPI_Allreduce 0
318880200 MPI_Allreduce 1
318880224 MPI_Allreduce 0
318880224 MPI_Allreduce 1
318880248 MPI_Allreduce 0
318880248 MPI_Allreduce 1
318880273 MPI_Allreduce 0
318880273 MPI_Allreduce 1
318880297 MPI_Allreduce 0
318880297 MPI_Allreduce 1
318880321 MPI_Allreduce 0
318880321 MPI_Allreduce 1
318880345 MPI_Allreduce 0
318880345 MPI_Allreduce 1
318880369 MPI_Allreduce 0
318880370 MPI_Allreduce 1
318880394 MPI_Allreduce 0
318880394 MPI_Allreduce 1
318880418 MPI_Allreduce 0
318880418 MPI_Allreduce 1
318880442 MPI_Allreduce 0
318880442 MPI_Allreduce 1
318880466 MPI_Allreduce 0
318880466 MPI_Allreduce 1
318880490 MPI_Allreduce 0
318880490 MPI_Allreduce 1
318880515 MPI_Allreduce 0
318880515 MPI_Allreduce 1
318880539 MPI_Allreduce 0
318880539 MPI_Allreduce 1
318880563 MPI_Allreduce 0
318880563 MPI_Allreduce 1
318880587 MPI_Allreduce 0
318880587 MPI_Allreduce 1
318880611 MPI_Allreduce 0
318880611 MPI_Allreduce 1
318880636 MPI_Allreduce 0
318880636 MPI_Allreduce 1
318880660 MPI_Allreduce 0
318880660 MPI_Allreduce 1
318880684 MPI_Allreduce 0
318880684 MPI_Allreduce 1
318880708 MPI_Allreduce 0
318880708 MPI_Allreduce 1
318880732 MPI_Allreduce 0
318880732 MPI_Allreduce 1
318880756 MPI_Allreduce 0
318880756 MPI_Allreduce 1
318880781 MPI_Allreduce 0
318880781 MPI_Allreduce 1
318880805 MPI_Allreduce 0
318880805 MPI_Allreduce 1
318880829 MPI_Allreduce 0
318880829 MPI_Allreduce 1
318880853 MPI_Allreduce 0
318880853 MPI_Allreduce 1
318880878 MPI_Allreduce 0
318880878 MPI_Allreduce 1
318880902 MPI_Allreduce 0
318880902 MPI_Allreduce 1
318880926 MPI_Allreduce 0
318880926 MPI_Allreduce 1
318880950 MPI_Allreduce 0
318880950 MPI_Allreduce 1
318880975 MPI_Allreduce 0
318880975 MPI_Allreduce 1
318880999 MPI_Allreduce 0
318880999 MPI_Allreduce 1
318881023 MPI_Allreduce 0
318881023 MPI_Allreduce 1
318881047 MPI_Allreduce 0
318881047 MPI_Allreduce 1
318881071 MPI_Allreduce 0
318881071 MPI_Allreduce 1
318881096 MPI_Allreduce 0
318881096 MPI_Allreduce 1
318881120 MPI_Allreduce 0
318881120 MPI_Allreduce 1
318881144 MPI_Allreduce 0
318881144 MPI_Allreduce 1
318881168 MPI_Allreduce 0
318881168 MPI_Allreduce 1
318881192 MPI_Allreduce 0
318881192 MPI_Allreduce 1
318881216 MPI_Allreduce 0
318881216 MPI_Allreduce 1
318881240 MPI_Allreduce 0
318881240 MPI_Allreduce 1
318881264 MPI_Allreduce 0
318881264 MPI_Allreduce 1
318881289 MPI_Allreduce 0
318881289 MPI_Allreduce 1
318881313 MPI_Allreduce 0
318881313 MPI_Allreduce 1
318881337 MPI_Allreduce 0
318881337 MPI_Allreduce 1
318881361 MPI_Allreduce 0
318881361 MPI_Allreduce 1
318881385 MPI_Allreduce 0
318881385 MPI_Allreduce 1
318881409 MPI_Allreduce 0
318881409 MPI_Allreduce 1
318881433 MPI_Allreduce 0
318881433 MPI_Allreduce 1
318881458 MPI_Allreduce 0
318881458 MPI_Allreduce 1
318881482 MPI_Allreduce 0
318881482 MPI_Allreduce 1
318881506 MPI_Allreduce 0
318881506 MPI_Allreduce 1
318881530 MPI_Allreduce 0
318881530 MPI_Allreduce 1
318881554 MPI_Allreduce 0
318881554 MPI_Allreduce 1
318881579 MPI_Allreduce 0
318881579 MPI_Allreduce 1
318881603 MPI_Allreduce 0
318881603 MPI_Allreduce 1
318881627 MPI_Allreduce 0
318881627 MPI_Allreduce 1
318881651 MPI_Allreduce 0
318881651 MPI_Allreduce 1
318881675 MPI_Allreduce 0
318881675 MPI_Allreduce 1
318881700 MPI_Allreduce 0
318881700 MPI_Allreduce 1
318881724 MPI_Allreduce 0
318881724 MPI_Allreduce 1
318881748 MPI_Allreduce 0
318881748 MPI_Allreduce 1
318881772 MPI_Allreduce 0
318881772 MPI_Allreduce 1
318881796 MPI_Allreduce 0
318881796 MPI_Allreduce 1
318881820 MPI_Allreduce 0
318881820 MPI_Allreduce 1
318881844 MPI_Allreduce 0
318881844 MPI_Allreduce 1
318881869 MPI_Allreduce 0
318881869 MPI_Allreduce 1
318881893 MPI_Allreduce 0
318881893 MPI_Allreduce 1
318881917 MPI_Allreduce 0
318881917 MPI_Allreduce 1
318881941 MPI_Allreduce 0
318881941 MPI_Allreduce 1
318881965 MPI_Allreduce 0
318881965 MPI_Allreduce 1
318881989 MPI_Allreduce 0
318881989 MPI_Allreduce 1
318882014 MPI_Allreduce 0
318882014 MPI_Allreduce 1
318882038 MPI_Allreduce 0
318882038 MPI_Allreduce 1
318882062 MPI_Allreduce 0
318882062 MPI_Allreduce 1
318882086 MPI_Allreduce 0
318882086 MPI_Allreduce 1
318882111 MPI_Allreduce 0
318882111 MPI_Allreduce 1
318882135 MPI_Allreduce 0
318882135 MPI_Allreduce 1
318882159 MPI_Allreduce 0
318882159 MPI_Allreduce 1
318882184 MPI_Allreduce 0
318882184 MPI_Allreduce 1
318882208 MPI_Allreduce 0
318882208 MPI_Allreduce 1
318882232 MPI_Allreduce 0
318882232 MPI_Allreduce 1
318882256 MPI_Allreduce 0
318882256 MPI_Allreduce 1
318882280 MPI_Allreduce 0
318882280 MPI_Allreduce 1
318882304 MPI_Allreduce 0
318882304 MPI_Allreduce 1
318882328 MPI_Allreduce 0
318882328 MPI_Allreduce 1
318882352 MPI_Allreduce 0
318882353 MPI_Allreduce 1
318882377 MPI_Allreduce 0
318882377 MPI_Allreduce 1
318882401 MPI_Allreduce 0
318882401 MPI_Allreduce 1
318882425 MPI_Allreduce 0
318882425 MPI_Allreduce 1
318882449 MPI_Allreduce 0
318882450 MPI_Allreduce 1
318882474 MPI_Allreduce 0
318882474 MPI_Allreduce 1
318882498 MPI_Allreduce 0
318882498 MPI_Allreduce 1
318882522 MPI_Allreduce 0
318882522 MPI_Allreduce 1
318882546 MPI_Allreduce 0
318882547 MPI_Allreduce 1
318882571 MPI_Allreduce 0
318882571 MPI_Allreduce 1
318882595 MPI_Allreduce 0
318882595 MPI_Allreduce 1
318882619 MPI_Allreduce 0
318882619 MPI_Allreduce 1
318882643 MPI_Allreduce 0
318882643 MPI_Allreduce 1
318882668 MPI_Allreduce 0
318882668 MPI_Allreduce 1
318882692 MPI_Allreduce 0
318882692 MPI_Allreduce 1
318882716 MPI_Allreduce 0
318882716 MPI_Allreduce 1
318882740 MPI_Allreduce 0
318882740 MPI_Allreduce 1
318882764 MPI_Allreduce 0
318882764 MPI_Allreduce 1
318882788 MPI_Allreduce 0
318882788 MPI_Allreduce 1
318882813 MPI_Allreduce 0
318882813 MPI_Allreduce 1
318882837 MPI_Allreduce 0
318882837 MPI_Allreduce 1
318882861 MPI_Allreduce 0
318882861 MPI_Allreduce 1
318882885 MPI_Allreduce 0
318882885 MPI_Allreduce 1
318882910 MPI_Allreduce 0
318882910 MPI_Allreduce 1
318882934 MPI_Allreduce 0
318882934 MPI_Allreduce 1
318882958 MPI_Allreduce 0
318882958 MPI_Allreduce 1
318882982 MPI_Allreduce 0
318882982 MPI_Allreduce 1
318883006 MPI_Allreduce 0
318883006 MPI_Allreduce 1
318883030 MPI_Allreduce 0
318883030 MPI_Allreduce 1
318883055 MPI_Allreduce 0
318883055 MPI_Allreduce 1
318883079 MPI_Allreduce 0
318883079 MPI_Allreduce 1
318883103 MPI_Allreduce 0
318883103 MPI_Allreduce 1
318883127 MPI_Allreduce 0
318883127 MPI_Allreduce 1
318883151 MPI_Allreduce 0
318883151 MPI_Allreduce 1
318883175 MPI_Allreduce 0
318883175 MPI_Allreduce 1
318883199 MPI_Allreduce 0
318883199 MPI_Allreduce 1
318883224 MPI_Allreduce 0
318883224 MPI_Allreduce 1
318883248 MPI_Allreduce 0
318883248 MPI_Allreduce 1
318883272 MPI_Allreduce 0
318883272 MPI_Allreduce 1
318883297 MPI_Allreduce 0
318883297 MPI_Allreduce 1
318883321 MPI_Allreduce 0
318883321 MPI_Allreduce 1
318883345 MPI_Allreduce 0
318883345 MPI_Allreduce 1
318883369 MPI_Allreduce 0
318883369 MPI_Allreduce 1
318883393 MPI_Allreduce 0
318883393 MPI_Allreduce 1
318883418 MPI_Allreduce 0
318883418 MPI_Allreduce 1
318883442 MPI_Allreduce 0
318883442 MPI_Allreduce 1
318883466 MPI_Allreduce 0
318883466 MPI_Allreduce 1
318883490 MPI_Allreduce 0
318883490 MPI_Allreduce 1
318883514 MPI_Allreduce 0
318883514 MPI_Allreduce 1
318883538 MPI_Allreduce 0
318883538 MPI_Allreduce 1
318883562 MPI_Allreduce 0
318883562 MPI_Allreduce 1
318883587 MPI_Allreduce 0
318883587 MPI_Allreduce 1
318883611 MPI_Allreduce 0
318883611 MPI_Allreduce 1
318883635 MPI_Allreduce 0
318883635 MPI_Allreduce 1
318883659 MPI_Allreduce 0
318883659 MPI_Allreduce 1
318883683 MPI_Allreduce 0
318883683 MPI_Allreduce 1
318883708 MPI_Allreduce 0
318883708 MPI_Allreduce 1
318883732 MPI_Allreduce 0
318883732 MPI_Allreduce 1
318883756 MPI_Allreduce 0
318883756 MPI_Allreduce 1
318883780 MPI_Allreduce 0
318883780 MPI_Allreduce 1
318883805 MPI_Reduce 0
318883805 MPI_Reduce 1
