time(ms) energy(J) hostname
281498602 0.000000 box
281498702 1.118164 box
281498802 1.129211 box
281498902 1.134583 box
281499002 1.135742 box
281499102 1.126038 box
281499202 1.124390 box
281499302 1.119080 box
281499402 1.126770 box
281499502 1.124390 box
281499602 1.126465 box
281499702 1.130737 box
281499802 1.126099 box
281499902 1.137573 box
281500002 1.128235 box
281500102 1.124512 box
281500202 1.122864 box
281500302 1.137451 box
281500402 1.133118 box
281500502 1.131714 box
281500602 1.137817 box
281500702 1.143616 box
281500802 1.131897 box
281500902 1.122925 box
281501002 1.124695 box
281501102 1.133850 box
281501202 1.134705 box
281501302 1.131042 box
281501402 1.135986 box
281501502 1.136169 box
281501602 1.127747 box
281501702 1.129517 box
281501802 1.129761 box
281501902 1.121094 box
281502002 1.130127 box
281502102 1.129333 box
281502202 1.135376 box
281502302 1.124268 box
281502402 1.141479 box
281502502 1.133545 box
281502602 1.123962 box
281502702 1.123108 box
281502802 1.129028 box
281502902 1.124512 box
281503002 1.128845 box
281503102 1.132385 box
281503202 1.141418 box
281503302 1.128845 box
281503402 1.139160 box
281503502 1.132690 box
281503602 1.125183 box
281503702 1.126953 box
281503802 1.128174 box
281503902 1.134644 box
281504002 1.141846 box
281504102 1.131226 box
281504202 1.131348 box
281504302 1.125122 box
281504402 1.135132 box
281504502 1.133789 box
281504602 1.138367 box
281504702 1.132690 box
281504802 1.130249 box
281504902 1.136658 box
281505002 1.123047 box
281505102 1.122009 box
281505202 1.135803 box
281505302 1.134705 box
281505402 1.137329 box
281505502 1.131226 box
281505602 1.140686 box
281505702 1.131775 box
281505802 1.127563 box
281505902 1.126526 box
281506002 1.136414 box
281506102 1.132751 box
281506202 1.124390 box
281506302 1.127441 box
281506402 1.135864 box
281506502 1.139954 box
281506602 1.143005 box
281506702 1.123901 box
281506802 1.135010 box
281506902 1.131287 box
281507002 1.119873 box
281507102 1.127197 box
281507202 1.134399 box
281507302 1.138977 box
281507402 1.125366 box
281507502 1.129333 box
281507602 1.136169 box
281507702 1.125671 box
281507802 1.127563 box
281507902 1.120056 box
281508002 1.125610 box
281508102 1.126831 box
281508202 1.130737 box
281508302 1.138367 box
281508402 1.132263 box
281508502 1.131897 box
281508602 1.133484 box
281508702 1.137939 box
281508802 1.134521 box
281508902 1.135925 box
281509002 1.133667 box
281509102 1.125549 box
281509202 1.124451 box
281509302 1.127136 box
281509402 1.131042 box
281509502 1.123413 box
281509602 1.124817 box
281509702 1.139771 box
281509802 1.129089 box
281509902 1.131165 box
281510002 1.140991 box
281510102 1.131531 box
281510202 1.131470 box
281510302 1.126465 box
281510402 1.130371 box
281510502 1.131775 box
281510602 1.130066 box
281510702 1.149414 box
281510802 1.132996 box
281510902 1.129150 box
281511002 1.131042 box
281511102 1.131775 box
281511202 1.128723 box
281511302 1.135925 box
281511402 1.149109 box
281511502 1.133545 box
281511602 1.131470 box
281511702 1.132568 box
281511802 1.133179 box
281511902 1.130981 box
281512002 1.143311 box
281512102 1.128601 box
281512202 1.134033 box
281512302 1.132507 box
281512402 1.132141 box
281512502 1.134766 box
281512602 1.130493 box
281512702 1.130737 box
281512802 1.139954 box
281512902 1.137756 box
281513002 1.134766 box
281513102 1.142700 box
281513202 1.120544 box
281513302 1.136475 box
281513402 1.134521 box
281513502 1.132629 box
281513602 1.133972 box
281513702 1.145447 box
281513802 1.137390 box
281513902 1.129883 box
281514002 1.130493 box
281514102 1.120300 box
281514202 1.129639 box
281514302 1.135071 box
281514402 1.146667 box
281514502 1.134399 box
281514602 1.127686 box
281514702 1.124695 box
281514802 1.133789 box
281514902 1.134094 box
281515002 1.133484 box
281515102 1.126099 box
281515202 1.128601 box
281515302 1.142395 box
281515402 1.135437 box
281515502 1.129272 box
281515602 1.124390 box
281515702 1.135071 box
281515802 1.133972 box
281515902 1.124573 box
281516002 1.129822 box
281516102 1.132080 box
281516202 1.134460 box
281516302 1.129028 box
281516402 1.129333 box
281516502 1.140076 box
281516602 1.132446 box
281516702 1.134705 box
281516802 1.134033 box
281516902 1.127441 box
281517002 1.136047 box
281517102 1.124756 box
281517202 1.124329 box
281517302 1.135132 box
281517402 1.132446 box
281517502 1.135986 box
281517602 1.135681 box
281517702 1.134277 box
281517802 1.143555 box
281517902 1.134216 box
281518002 1.133423 box
281518102 1.134155 box
281518202 1.130920 box
281518302 1.133728 box
281518402 1.127258 box
281518502 1.131042 box
281518602 1.133850 box
281518702 1.140564 box
281518802 1.140564 box
281518902 1.137207 box
281519002 1.124084 box
281519102 1.124023 box
281519202 1.128235 box
281519302 1.132385 box
281519402 1.147278 box
281519502 1.132080 box
281519602 1.134705 box
281519702 1.133301 box
281519802 1.130066 box
281519902 1.134521 box
281520002 1.135681 box
281520102 1.135071 box
281520202 1.129211 box
281520302 1.134949 box
281520402 1.132141 box
281520502 1.130981 box
281520602 1.129395 box
281520702 1.133606 box
281520802 1.132080 box
281520902 1.133240 box
281521002 1.126831 box
281521102 1.133545 box
281521202 1.132446 box
281521302 1.132629 box
281521402 1.134705 box
281521502 1.134705 box
281521602 1.132446 box
281521702 1.136292 box
281521802 1.136230 box
281521902 1.137817 box
281522002 1.125183 box
281522102 1.125793 box
281522202 1.136780 box
281522302 1.131226 box
281522402 1.129150 box
281522502 1.133301 box
281522602 1.131104 box
281522702 1.135437 box
281522802 1.130371 box
281522902 1.129089 box
281523002 1.126648 box
281523102 1.138367 box
281523202 1.133118 box
281523302 1.131042 box
281523402 1.135864 box
281523502 1.135620 box
281523602 1.133057 box
281523702 1.126465 box
281523802 1.132202 box
281523902 1.136108 box
281524002 1.131104 box
281524102 1.125183 box
281524202 1.125610 box
281524302 1.138855 box
281524402 1.143250 box
281524502 1.130920 box
281524602 1.132263 box
281524702 1.131775 box
281524802 1.130981 box
281524902 1.129211 box
281525002 1.125244 box
281525102 1.135193 box
281525202 1.138794 box
281525302 1.132080 box
281525402 1.123657 box
281525502 1.126160 box
281525602 1.127686 box
281525702 1.128052 box
281525802 1.122498 box
281525902 1.126038 box
281526002 1.133728 box
281526102 1.124939 box
281526202 1.144043 box
281526302 1.134583 box
281526402 1.124023 box
281526502 1.134766 box
281526602 1.137939 box
281526702 1.125793 box
281526802 1.131104 box
281526902 1.131592 box
281527002 1.133850 box
281527102 1.133728 box
281527202 1.130066 box
281527302 1.131531 box
281527402 1.132996 box
281527502 1.124023 box
281527602 1.128967 box
281527702 1.136108 box
281527802 1.125427 box
281527902 1.142456 box
281528002 1.134094 box
281528102 1.128052 box
281528202 1.127625 box
281528302 1.132141 box
281528402 1.126892 box
281528502 1.124023 box
281528602 1.126770 box
281528702 1.127319 box
281528802 1.136780 box
281528902 1.134277 box
281529002 1.126953 box
281529102 1.133118 box
281529202 1.131409 box
281529302 1.125122 box
281529402 1.131653 box
281529502 1.127197 box
281529602 1.133545 box
281529702 1.127075 box
281529802 1.125427 box
281529902 1.119324 box
281530002 1.122620 box
281530102 1.132568 box
281530202 1.138977 box
281530302 1.129028 box
281530402 1.135803 box
281530502 1.143921 box
281530602 1.133545 box
281530702 1.134338 box
281530802 1.132507 box
281530902 1.130066 box
281531002 1.131653 box
281531102 1.136047 box
281531202 1.137268 box
281531302 1.143616 box
281531402 1.132019 box
281531502 1.128784 box
281531602 1.128845 box
281531702 1.133911 box
281531802 1.126709 box
281531902 1.132385 box
281532002 1.132690 box
281532102 1.141785 box
281532202 1.128357 box
281532302 1.124878 box
281532402 1.134033 box
281532502 1.123352 box
281532602 1.131653 box
281532702 1.129822 box
281532802 1.128052 box
281532902 1.135437 box
281533002 1.143188 box
281533102 1.131409 box
281533202 1.129456 box
281533302 1.128418 box
281533402 1.133789 box
281533502 1.127930 box
281533602 1.126648 box
281533702 1.127991 box
281533802 1.131165 box
281533902 1.128601 box
281534002 1.127930 box
281534102 1.126343 box
281534202 1.133057 box
281534302 1.131104 box
281534402 1.133545 box
281534502 1.134338 box
281534602 1.135559 box
281534702 1.142822 box
281534802 1.131592 box
281534902 1.133911 box
281535002 1.128479 box
281535102 1.129089 box
281535202 1.131165 box
281535302 1.136658 box
281535402 1.138977 box
281535502 1.129761 box
281535602 1.126892 box
281535702 1.124878 box
281535802 1.123047 box
281535902 1.136414 box
281536002 1.129700 box
281536102 1.125427 box
281536202 1.135437 box
281536302 1.132019 box
281536402 1.140442 box
281536502 1.136108 box
281536602 1.134216 box
281536702 1.129150 box
281536802 1.130676 box
281536902 1.122681 box
281537002 1.124329 box
281537102 1.132935 box
281537202 1.123474 box
281537302 1.132263 box
281537402 1.127319 box
281537502 1.126831 box
281537602 1.121399 box
281537702 1.134888 box
281537802 1.129150 box
281537902 1.125122 box
281538002 1.133789 box
281538102 1.133057 box
281538202 1.141052 box
281538302 1.130920 box
281538402 1.121338 box
281538502 1.139771 box
281538602 1.122925 box
281538702 1.130066 box
281538802 1.136230 box
281538902 1.134094 box
281539002 1.129333 box
281539102 1.135010 box
281539202 1.127441 box
281539302 1.128174 box
281539402 1.134094 box
281539502 1.131592 box
281539602 1.136108 box
281539702 1.121521 box
281539802 1.138184 box
281539902 1.127869 box
281540002 1.127808 box
281540102 1.132446 box
281540202 1.119446 box
281540302 1.123962 box
281540402 1.127380 box
281540502 1.135864 box
281540602 1.129150 box
281540702 1.125061 box
281540802 1.143616 box
281540902 1.135559 box
281541002 1.134155 box
281541102 1.134827 box
281541202 1.131653 box
281541302 1.128296 box
281541402 1.131592 box
281541502 1.125305 box
281541602 1.133911 box
281541702 1.127869 box
281541802 1.124939 box
281541902 1.129211 box
281542002 1.132812 box
281542102 1.134766 box
281542202 1.130676 box
281542302 1.139282 box
281542402 1.144409 box
281542502 1.133728 box
281542602 1.122986 box
281542702 1.124146 box
281542802 1.135376 box
281542902 1.126953 box
281543002 1.127930 box
281543102 1.131165 box
281543202 1.124207 box
281543302 1.131775 box
281543402 1.128540 box
281543502 1.127441 box
281543602 1.132935 box
281543702 1.131409 box
281543802 1.133972 box
281543902 1.135986 box
281544002 1.129578 box
281544102 1.138062 box
281544202 1.136719 box
281544302 1.140808 box
281544402 1.122498 box
281544502 1.122131 box
281544602 1.122803 box
281544702 1.126343 box
281544802 1.128052 box
281544902 1.129944 box
281545002 1.145447 box
281545102 1.127869 box
281545202 1.129883 box
281545302 1.124512 box
281545402 1.124329 box
281545502 1.133484 box
281545602 1.136963 box
281545702 1.129089 box
281545802 1.128784 box
281545902 1.133789 box
281546002 1.130859 box
281546102 1.129517 box
281546202 1.132629 box
281546302 1.126160 box
281546402 1.123840 box
281546502 1.127014 box
281546602 1.138123 box
281546702 1.132629 box
281546802 1.129883 box
281546902 1.134705 box
281547002 1.134216 box
281547102 1.130981 box
281547202 1.126038 box
281547302 1.136353 box
281547402 1.129578 box
281547502 1.129700 box
281547602 1.131531 box
281547702 1.134155 box
281547802 1.124756 box
281547902 1.129639 box
281548002 1.135132 box
281548102 1.133667 box
281548202 1.124207 box
281548302 1.129395 box
281548402 1.126648 box
281548502 1.139832 box
281548602 1.129150 box
281548702 1.129272 box
281548802 1.135132 box
281548902 1.131287 box
281549002 1.132812 box
281549102 1.126648 box
281549202 1.137512 box
281549302 1.130859 box
281549402 1.132996 box
281549502 1.124512 box
281549602 1.131775 box
281549702 1.137085 box
281549802 1.130005 box
281549902 1.130737 box
281550002 1.132507 box
281550102 1.127502 box
281550202 1.143494 box
281550302 1.130737 box
281550402 1.132263 box
281550502 1.133240 box
281550602 1.134766 box
281550702 1.127197 box
281550802 1.127136 box
281550902 1.136230 box
281551002 1.140930 box
281551102 1.124268 box
281551202 1.121704 box
281551302 1.118530 box
281551402 1.125061 box
281551502 1.124878 box
281551602 1.130432 box
281551702 1.131165 box
281551802 1.134949 box
281551902 1.141785 box
281552002 1.126343 box
281552102 1.122681 box
281552202 1.129211 box
281552302 1.128418 box
281552402 1.125000 box
281552502 1.126587 box
281552602 1.130066 box
281552702 1.125916 box
281552802 1.132507 box
281552902 1.126282 box
281553002 1.122437 box
281553102 1.124390 box
281553202 1.128052 box
281553302 1.139465 box
281553402 1.128906 box
281553502 1.135254 box
281553602 1.127869 box
281553702 1.128784 box
281553802 1.124878 box
281553902 1.125793 box
281554002 1.137329 box
281554102 1.132080 box
281554202 1.128784 box
281554302 1.130859 box
281554402 1.127075 box
281554502 1.136536 box
281554602 1.138306 box
281554702 1.132507 box
281554802 1.131897 box
281554902 1.123291 box
281555002 1.129456 box
281555102 1.130493 box
281555202 1.138855 box
281555302 1.144958 box
281555402 1.132507 box
281555502 1.121521 box
281555602 1.137024 box
281555702 1.130493 box
281555802 1.123901 box
281555902 1.124573 box
281556002 1.132996 box
281556102 1.139587 box
281556202 1.134827 box
281556302 1.132324 box
281556402 1.134827 box
281556502 1.124207 box
281556602 1.132141 box
281556702 1.122192 box
281556802 1.131409 box
281556902 1.127075 box
281557002 1.140869 box
281557102 1.136353 box
281557202 1.124268 box
281557302 1.122253 box
281557402 1.133301 box
281557502 1.135437 box
281557602 1.125183 box
281557702 1.130676 box
281557802 1.134094 box
281557902 1.132385 box
281558002 1.135071 box
281558102 1.132935 box
281558202 1.132874 box
281558302 1.135254 box
281558402 1.122131 box
281558502 1.127258 box
281558602 1.126953 box
281558702 1.129578 box
281558802 1.128296 box
281558902 1.121765 box
281559002 1.128784 box
281559102 1.134338 box
281559202 1.128601 box
281559302 1.134460 box
281559402 1.137634 box
281559502 1.132874 box
281559602 1.126404 box
281559702 1.125488 box
281559802 1.124512 box
281559902 1.125061 box
281560002 1.124390 box
281560102 1.124268 box
281560202 1.126282 box
281560302 1.131653 box
281560402 1.131226 box
281560502 1.139404 box
281560602 1.140564 box
281560702 1.130127 box
281560802 1.127197 box
281560902 1.136047 box
281561002 1.124329 box
281561102 1.131897 box
281561202 1.128235 box
281561302 1.131042 box
281561402 1.130127 box
281561502 1.126404 box
281561602 1.119202 box
281561702 1.127808 box
281561802 1.135925 box
281561902 1.128052 box
281562002 1.127502 box
281562102 1.138550 box
281562202 1.132812 box
281562302 1.135498 box
281562402 1.125000 box
281562502 1.137695 box
281562602 1.128967 box
281562702 1.124451 box
281562802 1.125549 box
281562902 1.128601 box
281563002 1.122742 box
281563102 1.143982 box
281563202 1.134277 box
281563302 1.132874 box
281563402 1.130981 box
281563502 1.120911 box
281563602 1.129822 box
281563702 1.124939 box
281563802 1.132568 box
281563902 1.132202 box
281564002 1.127625 box
281564102 1.135437 box
281564202 1.129150 box
281564302 1.124695 box
281564402 1.131897 box
281564502 1.125671 box
281564602 1.124512 box
281564702 1.125488 box
281564802 1.140625 box
281564902 1.133667 box
281565002 1.129944 box
281565102 1.133301 box
281565202 1.130676 box
281565302 1.128845 box
281565402 1.133606 box
281565502 1.131836 box
281565602 1.139893 box
281565702 1.124084 box
281565802 1.122620 box
281565902 1.116821 box
281566002 1.127380 box
281566102 1.123657 box
281566202 1.125916 box
281566302 1.129517 box
281566402 1.133911 box
281566502 1.128479 box
281566602 1.122986 box
281566702 1.132385 box
281566802 1.136658 box
281566902 1.130310 box
281567002 1.129700 box
281567102 1.130920 box
281567202 1.133606 box
281567302 1.136841 box
281567402 1.140198 box
281567502 1.128052 box
281567602 1.126038 box
281567702 1.125183 box
281567802 1.126526 box
281567902 1.124756 box
281568002 1.128601 box
281568102 1.126465 box
281568202 1.133179 box
281568302 1.137024 box
281568402 1.131348 box
281568502 1.127930 box
281568602 1.131409 box
281568702 1.126953 box
281568802 1.125488 box
281568902 1.132629 box
281569002 1.124695 box
281569102 1.133667 box
281569202 1.128357 box
281569302 1.128662 box
281569402 1.138367 box
281569502 1.132690 box
281569602 1.124084 box
281569702 1.123901 box
281569802 1.137085 box
281569902 1.134521 box
281570002 1.137390 box
281570102 1.129517 box
281570202 1.131287 box
281570302 1.133179 box
281570402 1.126770 box
281570502 1.129578 box
281570602 1.131409 box
281570702 1.145264 box
281570802 1.124268 box
281570902 1.134216 box
281571002 1.120605 box
281571102 1.123901 box
281571202 1.126404 box
281571302 1.138977 box
281571402 1.131531 box
281571502 1.132874 box
281571602 1.132385 box
281571702 1.133301 box
281571802 1.129089 box
281571902 1.127136 box
281572002 1.132507 box
281572102 1.134460 box
281572202 1.123169 box
281572302 1.138184 box
281572402 1.143005 box
281572502 1.135193 box
281572602 1.135132 box
281572702 1.132935 box
281572802 1.123718 box
281572902 1.126587 box
281573002 1.133240 box
281573102 1.132202 box
281573202 1.143860 box
281573302 1.124756 box
281573402 1.125549 box
281573502 1.134094 box
281573602 1.129150 box
281573702 1.127014 box
281573802 1.127502 box
281573902 1.130066 box
281574002 1.132263 box
281574102 1.133484 box
281574202 1.125549 box
281574302 1.127258 box
281574402 1.122986 box
281574502 1.127930 box
281574602 1.139160 box
281574702 1.128357 box
281574802 1.129944 box
281574902 1.135437 box
281575002 1.140503 box
281575102 1.135742 box
281575202 1.126831 box
281575302 1.134888 box
281575402 1.131836 box
281575502 1.125000 box
281575602 1.128052 box
281575702 1.127075 box
281575802 1.131104 box
281575902 1.129700 box
281576002 1.122864 box
281576102 1.123962 box
281576202 1.138916 box
281576302 1.131226 box
281576402 1.128906 box
281576502 1.129578 box
281576602 1.132385 box
281576702 1.141235 box
281576802 1.134827 box
281576902 1.133728 box
281577002 1.132080 box
281577102 1.127014 box
281577202 1.136169 box
281577302 1.128357 box
281577402 1.130371 box
281577502 1.133484 box
281577602 1.132446 box
281577702 1.123291 box
281577802 1.121216 box
281577902 1.130188 box
281578002 1.129517 box
281578102 1.124756 box
281578202 1.128723 box
281578302 1.139038 box
281578402 1.143433 box
281578502 1.131165 box
281578602 1.130676 box
281578702 1.130737 box
281578802 1.121338 box
281578902 1.133057 box
281579002 1.127869 box
281579102 1.131592 box
281579202 1.130432 box
281579302 1.135986 box
281579402 1.126709 box
281579502 1.122986 box
281579602 1.136292 box
281579702 1.126038 box
281579802 1.127808 box
281579902 1.134216 box
281580002 1.134644 box
281580102 1.141541 box
281580202 1.125549 box
281580302 1.134705 box
281580402 1.136108 box
281580502 1.130554 box
281580602 1.127686 box
281580702 1.127747 box
281580802 1.126709 box
281580902 1.127258 box
281581002 1.125549 box
281581102 1.122375 box
281581202 1.121887 box
281581302 1.129089 box
281581402 1.135681 box
281581502 1.127686 box
281581602 1.128662 box
281581702 1.135437 box
281581802 1.144470 box
281581902 1.122498 box
281582002 1.125244 box
281582102 1.131042 box
281582202 1.124817 box
281582302 1.130981 box
281582402 1.130005 box
281582502 1.139038 box
281582602 1.137756 box
281582702 1.126709 box
281582802 1.123962 box
281582902 1.119995 box
281583002 1.133850 box
281583102 1.128479 box
281583202 1.132507 box
281583302 1.134338 box
281583402 1.125610 box
281583502 1.136169 box
281583602 1.133484 box
281583702 1.133057 box
281583802 1.124207 box
281583902 1.123352 box
281584002 1.132446 box
281584102 1.125244 box
281584202 1.125244 box
281584302 1.129089 box
281584402 1.135010 box
281584502 1.129456 box
281584602 1.132812 box
281584702 1.138123 box
281584802 1.129761 box
281584902 1.121582 box
281585002 1.132141 box
281585102 1.127686 box
281585202 1.135193 box
281585302 1.132568 box
281585402 1.128784 box
281585502 1.123840 box
281585602 1.135681 box
281585702 1.128113 box
281585802 1.131287 box
281585902 1.141663 box
281586002 1.137817 box
281586102 1.126892 box
281586202 1.132874 box
281586302 1.130859 box
281586402 1.131958 box
281586502 1.130188 box
281586602 1.130249 box
281586702 1.130310 box
281586802 1.126953 box
281586902 1.139709 box
281587002 1.128296 box
281587102 1.122742 box
281587202 1.139404 box
281587302 1.132507 box
281587402 1.129883 box
281587502 1.134949 box
281587602 1.127747 box
281587702 1.135681 box
281587802 1.135803 box
281587902 1.129028 box
281588002 1.136719 box
281588102 1.122803 box
281588202 1.131775 box
281588302 1.130676 box
281588402 1.137451 box
281588502 1.142944 box
281588602 1.134094 box
281588702 1.122375 box
281588802 1.127197 box
281588902 1.134888 box
281589002 1.130310 box
281589102 1.127747 box
281589202 1.128662 box
281589302 1.128174 box
281589402 1.140137 box
281589502 1.134766 box
281589602 1.133789 box
281589702 1.131653 box
281589802 1.130188 box
281589902 1.133484 box
281590002 1.131897 box
281590102 1.127197 box
281590202 1.136230 box
281590302 1.141785 box
281590402 1.129822 box
281590502 1.135742 box
281590602 1.129333 box
281590702 1.131653 box
281590802 1.134705 box
281590902 1.133972 box
281591002 1.132202 box
281591102 1.127991 box
281591202 1.131042 box
281591302 1.125061 box
281591402 1.133362 box
281591502 1.127869 box
281591602 1.131592 box
281591702 1.138245 box
281591802 1.140808 box
281591902 1.129150 box
281592002 1.138733 box
281592102 1.131287 box
281592202 1.133972 box
281592302 1.130676 box
281592402 1.126465 box
281592502 1.141296 box
281592602 1.138916 box
281592702 1.127625 box
281592802 1.127747 box
281592902 1.127808 box
281593002 1.130066 box
281593102 1.126892 box
281593202 1.127747 box
281593302 1.128967 box
281593402 1.135925 box
281593502 1.128235 box
281593602 1.133728 box
281593702 1.126404 box
281593802 1.122864 box
281593902 1.131531 box
281594002 1.131836 box
281594102 1.129456 box
281594202 1.132324 box
281594302 1.131042 box
281594402 1.137512 box
281594502 1.131592 box
281594602 1.126587 box
281594702 1.130554 box
281594802 1.129333 box
281594902 1.127686 box
281595002 1.126221 box
281595102 1.138733 box
281595202 1.128967 box
281595302 1.131958 box
281595402 1.130920 box
281595502 1.130127 box
281595602 1.133301 box
281595702 1.121033 box
281595802 1.126892 box
281595902 1.133972 box
281596002 1.128723 box
281596102 1.130798 box
281596202 1.139404 box
281596302 1.117004 box
281596402 1.130981 box
281596502 1.127441 box
281596602 1.132996 box
281596702 1.130005 box
281596802 1.125793 box
281596902 1.143555 box
281597002 1.130188 box
281597102 1.134766 box
281597202 1.133484 box
281597302 1.129517 box
281597402 1.134277 box
281597502 1.129395 box
281597602 1.125793 box
281597702 1.127563 box
281597802 1.124939 box
281597902 1.127930 box
281598002 1.120728 box
281598102 1.138123 box
281598202 1.131958 box
281598302 1.129517 box
281598402 1.138428 box
281598502 1.129211 box
281598602 1.133179 box
281598702 1.126770 box
281598802 1.124207 box
281598902 1.138977 box
281599002 1.122498 box
281599102 1.129578 box
281599202 1.131409 box
281599302 1.136108 box
281599402 1.132446 box
281599502 1.131775 box
281599602 1.124268 box
281599702 1.116272 box
281599802 1.126465 box
281599902 1.124451 box
281600002 1.124451 box
281600102 1.128296 box
281600202 1.125488 box
281600302 1.133423 box
281600402 1.136108 box
281600502 1.131470 box
281600602 1.130920 box
281600702 1.123047 box
281600802 1.133423 box
281600902 1.139282 box
281601002 1.136963 box
281601102 1.126892 box
281601202 1.129883 box
281601302 1.122253 box
281601402 1.124573 box
281601502 1.134827 box
281601602 1.131531 box
281601702 1.129333 box
281601802 1.137451 box
281601902 1.129028 box
281602002 1.133850 box
281602102 1.133362 box
281602202 1.129456 box
281602302 1.136719 box
281602402 1.134705 box
281602502 1.133606 box
281602602 1.135498 box
281602702 1.126831 box
281602802 1.136536 box
281602902 1.124146 box
281603002 1.123047 box
281603102 1.132263 box
281603202 1.135742 box
281603302 1.133057 box
281603402 1.131653 box
281603502 1.131165 box
281603602 1.129456 box
281603702 1.133606 box
281603802 1.128296 box
281603902 1.125793 box
281604002 1.127014 box
281604102 1.128296 box
281604202 1.126343 box
281604302 1.126526 box
281604402 1.129456 box
281604502 1.126282 box
281604602 1.131226 box
281604702 1.134705 box
281604802 1.134216 box
281604902 1.131531 box
281605002 1.129333 box
281605102 1.124451 box
281605202 1.136108 box
281605302 1.130005 box
281605402 1.140747 box
281605502 1.126160 box
281605602 1.123108 box
281605702 1.134705 box
281605802 1.127930 box
281605902 1.133850 box
281606002 1.123230 box
281606102 1.138977 box
281606202 1.140015 box
281606302 1.127197 box
281606402 1.141052 box
281606502 1.123901 box
281606602 1.126953 box
281606702 1.130005 box
281606802 1.126709 box
281606902 1.126343 box
281607002 1.128296 box
281607102 1.128723 box
281607202 1.125122 box
281607302 1.125244 box
281607402 1.122253 box
281607502 1.125244 box
281607602 1.130310 box
281607702 1.128113 box
281607802 1.126160 box
281607902 1.135010 box
281608002 1.131897 box
281608102 1.135376 box
281608202 1.133118 box
281608302 1.132019 box
281608402 1.131836 box
281608502 1.123169 box
281608602 1.128174 box
281608702 1.137817 box
281608802 1.143127 box
281608902 1.132507 box
281609002 1.131287 box
281609102 1.133606 box
281609202 1.120789 box
281609302 1.129761 box
281609402 1.128845 box
281609502 1.137573 box
281609602 1.130310 box
281609702 1.125610 box
281609802 1.129456 box
281609902 1.133240 box
281610002 1.135803 box
281610102 1.132202 box
281610202 1.129700 box
281610302 1.140625 box
281610402 1.129578 box
281610502 1.129761 box
281610602 1.134033 box
281610702 1.119812 box
281610802 1.131042 box
281610902 1.140015 box
281611002 1.124817 box
281611102 1.133179 box
281611202 1.134705 box
281611302 1.143433 box
281611402 1.134033 box
281611502 1.123352 box
281611602 1.136414 box
281611702 1.125244 box
281611802 1.122498 box
281611902 1.127869 box
281612002 1.125000 box
281612102 1.133545 box
281612202 1.127625 box
281612302 1.124756 box
281612402 1.117981 box
281612502 1.126282 box
281612602 1.126953 box
281612702 1.126770 box
281612802 1.133301 box
281612902 1.133118 box
281613002 1.137085 box
281613102 1.135864 box
281613202 1.121338 box
281613302 1.129456 box
281613402 1.132263 box
281613502 1.124634 box
281613602 1.128723 box
281613702 1.135620 box
281613802 1.134766 box
281613902 1.135010 box
281614002 1.139404 box
281614102 1.126953 box
281614202 1.132812 box
281614302 1.128845 box
281614402 1.127441 box
281614502 1.132568 box
281614602 1.122559 box
281614702 1.134521 box
281614802 1.130493 box
281614902 1.126831 box
281615002 1.128723 box
281615102 1.132446 box
281615202 1.136108 box
281615302 1.132324 box
281615402 1.126709 box
281615502 1.133911 box
281615602 1.136536 box
281615702 1.131897 box
281615802 1.132629 box
281615902 1.132568 box
281616002 1.128784 box
281616102 1.124329 box
281616202 1.129272 box
281616302 1.128296 box
281616402 1.139099 box
281616502 1.134399 box
281616602 1.124207 box
281616702 1.133179 box
281616802 1.133179 box
281616902 1.131104 box
281617002 1.132629 box
281617102 1.126770 box
281617202 1.137085 box
281617302 1.128357 box
281617402 1.135193 box
281617502 1.134460 box
281617602 1.131775 box
281617702 1.130676 box
281617802 1.136963 box
281617902 1.130127 box
281618002 1.131287 box
281618102 1.131226 box
281618202 1.127747 box
281618302 1.138123 box
281618402 1.127808 box
281618502 1.139771 box
281618602 1.132385 box
281618702 1.126343 box
281618802 1.133850 box
281618902 1.129089 box
281619002 1.128662 box
281619102 1.139709 box
281619202 1.129700 box
281619302 1.122986 box
281619402 1.122498 box
281619502 1.129395 box
281619602 1.138611 box
281619702 1.140137 box
281619802 1.127808 box
281619902 1.133301 box
281620002 1.136658 box
281620102 1.133911 box
281620202 1.129517 box
281620302 1.135620 box
281620402 1.142761 box
281620502 1.134949 box
281620602 1.127258 box
281620702 1.122070 box
281620802 1.127319 box
281620902 1.139404 box
281621002 1.125122 box
281621102 1.134766 box
281621202 1.129639 box
281621302 1.133606 box
281621402 1.133728 box
281621502 1.126526 box
281621602 1.133789 box
281621702 1.130798 box
281621802 1.123352 box
281621902 1.129150 box
281622002 1.132629 box
281622102 1.133728 box
281622202 1.125671 box
281622302 1.125732 box
281622402 1.134277 box
281622502 1.136719 box
281622602 1.132507 box
281622702 1.127075 box
281622802 1.127197 box
281622902 1.137146 box
281623002 1.141663 box
281623102 1.126282 box
281623202 1.137573 box
281623302 1.129150 box
281623402 1.126648 box
281623502 1.124512 box
281623602 1.127625 box
281623702 1.130371 box
281623802 1.129211 box
281623902 1.129272 box
281624002 1.130066 box
281624102 1.130249 box
281624202 1.128052 box
281624302 1.126770 box
281624402 1.123596 box
281624502 1.128662 box
281624602 1.135010 box
281624702 1.140991 box
281624802 1.124329 box
281624902 1.125854 box
281625002 1.135193 box
281625102 1.132080 box
281625202 1.129822 box
281625302 1.126465 box
281625402 1.130371 box
281625502 1.129578 box
281625602 1.125610 box
281625702 1.126038 box
281625802 1.117920 box
281625902 1.137329 box
281626002 1.128296 box
281626102 1.133057 box
281626202 1.132141 box
281626302 1.126465 box
281626402 1.145996 box
281626502 1.121155 box
281626602 1.126648 box
281626702 1.137451 box
281626802 1.120667 box
281626902 1.132202 box
281627002 1.123413 box
281627102 1.132080 box
281627202 1.141479 box
281627302 1.133545 box
281627402 1.138428 box
281627502 1.126953 box
281627602 1.135132 box
281627702 1.132690 box
281627802 1.123657 box
281627902 1.135376 box
281628002 1.129822 box
281628102 1.146423 box
281628202 1.125000 box
281628302 1.126587 box
281628402 1.125977 box
281628502 1.125793 box
281628602 1.127502 box
281628702 1.135498 box
281628802 1.129395 box
281628902 1.145264 box
281629002 1.132141 box
281629102 1.123718 box
281629202 1.129395 box
281629302 1.131042 box
281629402 1.125305 box
281629502 1.125366 box
281629602 1.136902 box
281629702 1.130188 box
281629802 1.132568 box
281629902 1.123047 box
281630002 1.129150 box
281630102 1.137695 box
281630202 1.129211 box
281630302 1.130554 box
281630402 1.132507 box
281630502 1.130798 box
281630602 1.135254 box
281630702 1.128662 box
281630802 1.125488 box
281630902 1.130737 box
281631002 1.133728 box
281631102 1.133728 box
281631202 1.132690 box
281631302 1.134888 box
281631402 1.144043 box
281631502 1.134705 box
281631602 1.131104 box
281631702 1.128357 box
281631802 1.136414 box
281631902 1.131836 box
281632002 1.129578 box
281632102 1.126526 box
281632202 1.129944 box
281632302 1.126221 box
281632402 1.123108 box
281632502 1.123657 box
281632602 1.124329 box
281632702 1.121582 box
281632802 1.126587 box
281632902 1.128052 box
281633002 1.129272 box
281633102 1.129944 box
281633202 1.134521 box
281633302 1.127136 box
281633402 1.135986 box
281633502 1.128967 box
281633602 1.129089 box
281633702 1.129333 box
281633802 1.133362 box
281633902 1.141907 box
281634002 1.131897 box
281634102 1.130676 box
281634202 1.135925 box
281634302 1.135681 box
281634402 1.129333 box
281634502 1.127136 box
281634602 1.126282 box
281634702 1.130981 box
281634802 1.125244 box
281634902 1.130432 box
281635002 1.134338 box
281635102 1.132446 box
281635202 1.134155 box
281635302 1.130493 box
281635402 1.128296 box
281635502 1.138855 box
281635602 1.136169 box
281635702 1.125793 box
281635802 1.133850 box
281635902 1.126099 box
281636002 1.138184 box
281636102 1.130066 box
281636202 1.130249 box
281636302 1.135010 box
281636402 1.133728 box
281636502 1.124573 box
281636602 1.123718 box
281636702 1.136658 box
281636802 1.132385 box
281636902 1.132812 box
281637002 1.137512 box
281637102 1.140320 box
281637202 1.127197 box
281637302 1.128296 box
281637402 1.131104 box
281637502 1.131592 box
281637602 1.128357 box
281637702 1.126038 box
281637802 1.125977 box
281637902 1.128784 box
281638002 1.139099 box
281638102 1.135254 box
281638202 1.130188 box
281638302 1.134094 box
281638402 1.134705 box
281638502 1.133728 box
281638602 1.136169 box
281638702 1.132080 box
281638802 1.132935 box
281638902 1.130920 box
281639002 1.126343 box
281639102 1.131348 box
281639202 1.133057 box
281639302 1.126953 box
281639402 1.128967 box
281639502 1.137207 box
281639602 1.141113 box
281639702 1.137634 box
281639802 1.131287 box
281639902 1.127930 box
281640002 1.136658 box
281640102 1.128357 box
281640202 1.135010 box
281640302 1.136169 box
281640402 1.130249 box
281640502 1.134094 box
281640602 1.126648 box
281640702 1.127136 box
281640802 1.126282 box
281640902 1.127197 box
281641002 1.121765 box
281641102 1.128113 box
281641202 1.124512 box
281641302 1.134583 box
281641402 1.131897 box
281641502 1.128052 box
281641602 1.130493 box
281641702 1.132141 box
281641802 1.133545 box
281641902 1.124695 box
281642002 1.140442 box
281642102 1.130127 box
281642202 1.138062 box
281642302 1.132019 box
281642402 1.117126 box
281642502 1.127686 box
281642602 1.127930 box
281642702 1.125061 box
281642802 1.129883 box
281642902 1.126648 box
281643002 1.146912 box
281643102 1.130615 box
281643202 1.125916 box
281643302 1.128967 box
281643402 1.133850 box
281643502 1.134583 box
281643602 1.135193 box
281643702 1.130066 box
281643802 1.145386 box
281643902 1.130798 box
281644002 1.134277 box
281644102 1.127808 box
281644202 1.131653 box
281644302 1.135071 box
281644402 1.132629 box
281644502 1.128174 box
281644602 1.145630 box
281644702 1.125549 box
281644802 1.137817 box
281644902 1.135132 box
281645002 1.132141 box
281645102 1.139648 box
281645202 1.125366 box
281645302 1.137207 box
281645402 1.144836 box
281645502 1.124146 box
281645602 1.125366 box
281645702 1.137451 box
281645802 1.133606 box
281645902 1.133301 box
281646002 1.135132 box
281646102 1.129028 box
281646202 1.134155 box
281646302 1.135315 box
281646402 1.126770 box
281646502 1.125610 box
281646602 1.129211 box
281646702 1.130127 box
281646802 1.133118 box
281646902 1.139343 box
281647002 1.144836 box
281647102 1.124023 box
281647202 1.140137 box
281647302 1.127747 box
281647402 1.128479 box
281647502 1.137695 box
281647602 1.122803 box
281647702 1.137695 box
281647802 1.145691 box
281647902 1.128113 box
281648002 1.138855 box
281648102 1.128845 box
281648202 1.132507 box
281648302 1.132935 box
281648402 1.132874 box
281648502 1.137085 box
281648602 1.134399 box
281648702 1.129822 box
281648802 1.122498 box
281648902 1.136353 box
281649002 1.132690 box
281649102 1.122925 box
281649202 1.124817 box
281649302 1.127991 box
281649402 1.128174 box
281649502 1.141052 box
281649602 1.135803 box
281649702 1.124451 box
281649802 1.126587 box
281649902 1.135193 box
281650002 1.128601 box
281650102 1.136047 box
281650202 1.131897 box
281650302 1.136108 box
281650402 1.128174 box
281650502 1.134155 box
281650602 1.123413 box
281650702 1.134033 box
281650802 1.130432 box
281650902 1.134949 box
281651002 1.134705 box
281651102 1.139526 box
281651202 1.130188 box
281651302 1.124512 box
281651402 1.126953 box
281651502 1.129272 box
281651602 1.124390 box
281651702 1.129272 box
281651802 1.129333 box
281651902 1.123962 box
281652002 1.133057 box
281652102 1.137695 box
281652202 1.132751 box
281652302 1.133545 box
281652402 1.131470 box
281652502 1.131592 box
281652602 1.128906 box
281652702 1.129333 box
281652802 1.135010 box
281652902 1.138977 box
281653002 1.123230 box
281653102 1.134583 box
281653202 1.133240 box
281653302 1.130920 box
281653402 1.136353 box
281653502 1.137817 box
281653602 1.138184 box
281653702 1.135071 box
281653802 1.130798 box
281653902 1.130859 box
281654002 1.133423 box
281654102 1.130737 box
281654202 1.127808 box
281654302 1.125916 box
281654402 1.141907 box
281654502 1.132385 box
281654602 1.130371 box
281654702 1.134338 box
281654802 1.134155 box
281654902 1.135071 box
281655002 1.127686 box
281655102 1.138184 box
281655202 1.140198 box
281655302 1.122742 box
281655402 1.131226 box
281655502 1.135010 box
281655602 1.133606 box
281655702 1.133179 box
281655802 1.133057 box
281655902 1.136719 box
281656002 1.140747 box
281656102 1.125671 box
281656202 1.126160 box
281656302 1.137024 box
281656402 1.139648 box
281656502 1.127197 box
281656602 1.143494 box
281656702 1.127991 box
281656802 1.143433 box
281656902 1.128357 box
281657002 1.122192 box
281657102 1.141541 box
281657202 1.134521 box
281657302 1.127625 box
281657402 1.125366 box
281657502 1.134033 box
281657602 1.146057 box
281657702 1.123779 box
281657802 1.126282 box
281657902 1.138489 box
281658002 1.133545 box
281658102 1.132019 box
281658202 1.136963 box
281658302 1.129089 box
281658402 1.145325 box
281658502 1.132080 box
281658602 1.129761 box
281658702 1.134888 box
281658802 1.132080 box
281658902 1.130249 box
281659002 1.132690 box
281659102 1.124573 box
281659202 1.132202 box
281659302 1.130615 box
281659402 1.132263 box
281659502 1.135376 box
281659602 1.130737 box
281659702 1.133362 box
281659802 1.144531 box
281659902 1.123962 box
281660002 1.134583 box
281660102 1.125427 box
281660202 1.125366 box
281660302 1.127441 box
281660402 1.128052 box
281660502 1.125061 box
281660602 1.132080 box
281660702 1.129211 box
281660802 1.147095 box
281660902 1.131714 box
281661002 1.126343 box
281661102 1.130249 box
281661202 1.133667 box
281661302 1.129639 box
281661402 1.125366 box
281661502 1.130615 box
281661602 1.127808 box
281661702 1.127563 box
281661802 1.123291 box
281661902 1.128906 box
281662002 1.133972 box
281662102 1.133301 box
281662202 1.130249 box
281662302 1.131897 box
281662402 1.126160 box
281662502 1.130188 box
281662602 1.124817 box
281662702 1.121704 box
281662802 1.125000 box
281662902 1.133362 box
281663002 1.132019 box
281663102 1.136108 box
281663202 1.130432 box
281663302 1.133789 box
281663402 1.135559 box
281663502 1.123108 box
281663602 1.125244 box
281663702 1.126282 box
281663802 1.133301 box
281663902 1.131287 box
281664002 1.131104 box
281664102 1.135376 box
281664202 1.134705 box
281664302 1.126282 box
281664402 1.131653 box
281664502 1.130798 box
281664602 1.137207 box
281664702 1.123474 box
281664802 1.140442 box
281664902 1.143188 box
281665002 1.128662 box
281665102 1.126526 box
281665202 1.127197 box
281665302 1.135986 box
281665402 1.143372 box
281665502 1.122986 box
281665602 1.137085 box
281665702 1.133423 box
281665802 1.139954 box
281665902 1.127319 box
281666002 1.134705 box
281666102 1.140259 box
281666202 1.131226 box
281666302 1.130310 box
281666402 1.146423 box
281666502 1.133118 box
281666602 1.132690 box
281666702 1.126587 box
281666802 1.128296 box
281666902 1.135132 box
281667002 1.136597 box
281667102 1.129639 box
281667202 1.145447 box
281667302 1.133545 box
281667402 1.128052 box
281667502 1.123901 box
281667602 1.136597 box
281667702 1.140564 box
281667802 1.128784 box
281667902 1.131592 box
281668002 1.141479 box
281668102 1.134460 box
281668202 1.127686 box
281668302 1.125854 box
281668402 1.132812 box
281668502 1.137146 box
281668602 1.128418 box
281668702 1.130005 box
281668802 1.139099 box
281668902 1.134827 box
281669002 1.141235 box
281669102 1.122986 box
281669202 1.135803 box
281669302 1.132690 box
281669402 1.132019 box
281669502 1.135620 box
281669602 1.136719 box
281669702 1.144348 box
281669802 1.127502 box
281669902 1.125244 box
281670002 1.138184 box
281670102 1.132080 box
281670202 1.139954 box
281670302 1.126282 box
281670402 1.135437 box
281670502 1.144104 box
281670602 1.123657 box
281670702 1.136597 box
281670802 1.136536 box
281670902 1.132202 box
281671002 1.128967 box
281671102 1.138794 box
281671202 1.141663 box
281671302 1.128906 box
281671402 1.133179 box
281671502 1.119995 box
281671602 1.128784 box
281671702 1.124023 box
281671802 1.133850 box
281671902 1.131714 box
281672002 1.129089 box
281672102 1.135376 box
281672202 1.130249 box
281672302 1.126282 box
281672402 1.126831 box
281672502 1.135986 box
281672602 1.131042 box
281672702 1.130188 box
281672802 1.129517 box
281672902 1.144287 box
281673002 1.131592 box
281673102 1.128174 box
281673202 1.123108 box
281673302 1.128113 box
281673402 1.127869 box
281673502 1.125977 box
281673602 1.133606 box
281673702 1.129211 box
281673802 1.133179 box
281673902 1.130737 box
281674002 1.136963 box
281674102 1.126160 box
281674202 1.130737 box
281674302 1.131470 box
281674402 1.139038 box
281674502 1.132629 box
281674602 1.136719 box
281674702 1.133484 box
281674802 1.132751 box
281674902 1.133362 box
281675002 1.134155 box
281675102 1.136047 box
281675202 1.133789 box
281675302 1.141418 box
281675402 1.133972 box
281675502 1.126831 box
281675602 1.135742 box
281675702 1.139404 box
281675802 1.129211 box
281675902 1.132141 box
281676002 1.135315 box
281676102 1.135681 box
281676202 1.127258 box
281676302 1.136414 box
281676402 1.128174 box
281676502 1.128784 box
281676602 1.126709 box
281676702 1.125427 box
281676802 1.132507 box
281676902 1.128845 box
281677002 1.130920 box
281677102 1.124634 box
281677202 1.121765 box
281677302 1.125793 box
281677402 1.137634 box
281677502 1.127808 box
281677602 1.138245 box
281677702 1.130920 box
281677802 1.135986 box
281677902 1.128052 box
281678002 1.139709 box
281678102 1.132874 box
281678202 1.132019 box
281678302 1.128662 box
281678402 1.135986 box
281678502 1.135315 box
281678602 1.135132 box
281678702 1.129517 box
281678802 1.123657 box
281678902 1.134766 box
281679002 1.128540 box
281679102 1.122803 box
281679202 1.126648 box
281679302 1.130920 box
281679402 1.132629 box
281679502 1.129944 box
281679602 1.128235 box
281679702 1.128357 box
281679802 1.132629 box
281679902 1.132996 box
281680002 1.130676 box
281680102 1.132324 box
281680202 1.131775 box
281680302 1.132629 box
281680402 1.133850 box
281680502 1.129272 box
281680602 1.128113 box
281680702 1.133972 box
281680802 1.138794 box
281680902 1.131775 box
281681002 1.131958 box
281681102 1.142700 box
281681202 1.129456 box
281681302 1.124634 box
281681402 1.128601 box
281681502 1.135925 box
281681602 1.128235 box
281681702 1.142090 box
281681802 1.131226 box
281681902 1.141479 box
281682002 1.127930 box
281682102 1.138123 box
281682202 1.131470 box
281682302 1.134155 box
281682402 1.132324 box
281682502 1.135315 box
281682602 1.129761 box
281682702 1.131348 box
281682802 1.128906 box
281682902 1.139160 box
281683002 1.132385 box
281683102 1.133362 box
281683202 1.132996 box
281683302 1.135254 box
281683402 1.135986 box
281683502 1.131531 box
281683602 1.129028 box
281683702 1.127319 box
281683802 1.125244 box
281683902 1.130005 box
281684002 1.124817 box
281684102 1.123352 box
281684202 1.130188 box
281684302 1.126892 box
281684402 1.134766 box
281684502 1.129089 box
281684602 1.128235 box
281684702 1.124146 box
281684802 1.128052 box
281684902 1.125183 box
281685002 1.132629 box
281685102 1.132690 box
281685202 1.132751 box
281685302 1.137573 box
281685402 1.127869 box
281685502 1.125916 box
281685602 1.137329 box
281685702 1.133728 box
281685802 1.135376 box
281685902 1.132385 box
281686002 1.139160 box
281686102 1.140808 box
281686202 1.126953 box
281686302 1.121277 box
281686402 1.126770 box
281686502 1.128052 box
281686602 1.123718 box
281686702 1.129028 box
281686802 1.136597 box
281686902 1.142273 box
281687002 1.125916 box
281687102 1.135803 box
281687202 1.135437 box
281687302 1.130920 box
281687402 1.129150 box
281687502 1.131775 box
281687602 1.133728 box
281687702 1.142151 box
281687802 1.130554 box
281687902 1.121277 box
281688002 1.139221 box
281688102 1.131531 box
281688202 1.130981 box
281688302 1.140442 box
281688402 1.132446 box
281688502 1.138428 box
281688602 1.132996 box
281688702 1.119934 box
281688802 1.136108 box
281688902 1.135132 box
281689002 1.129150 box
281689102 1.137024 box
281689202 1.130737 box
281689302 1.135193 box
281689402 1.130066 box
281689502 1.127563 box
281689602 1.137085 box
281689702 1.131409 box
281689802 1.123352 box
281689902 1.139832 box
281690002 1.130981 box
281690102 1.135376 box
281690202 1.127808 box
281690302 1.128723 box
281690402 1.136047 box
281690502 1.129578 box
281690602 1.132141 box
281690702 1.134644 box
281690802 1.130188 box
281690902 1.134583 box
281691002 1.131042 box
281691102 1.128845 box
281691202 1.129333 box
281691302 1.133118 box
281691402 1.132324 box
281691502 1.137451 box
281691602 1.126831 box
281691702 1.135620 box
281691802 1.126465 box
281691902 1.141907 box
281692002 1.126343 box
281692102 1.124390 box
281692202 1.122925 box
281692302 1.129700 box
281692402 1.127563 box
281692502 1.144653 box
281692602 1.131226 box
281692702 1.134460 box
281692802 1.127747 box
281692902 1.137146 box
281693002 1.132019 box
281693102 1.128418 box
281693202 1.130127 box
281693302 1.145935 box
281693402 1.135498 box
281693502 1.137512 box
281693602 1.128662 box
281693702 1.129944 box
281693802 1.128662 box
281693902 1.135925 box
281694002 1.130188 box
281694102 1.142517 box
281694202 1.135315 box
281694302 1.124268 box
281694402 1.128540 box
281694502 1.136230 box
281694602 1.137756 box
281694702 1.122925 box
281694802 1.138672 box
281694902 1.143433 box
281695002 1.127319 box
281695102 1.127502 box
281695202 1.135193 box
281695302 1.134705 box
281695402 1.140137 box
281695502 1.124023 box
281695602 1.137634 box
281695702 1.137024 box
281695802 1.135742 box
281695902 0.991638 box
281498262 1.087097 box
281498362 1.090942 box
281498462 1.092163 box
