/dev/cpu/msr_batch: No such file or directory
graph_generation:               6.443734 s
construction_time:              1.036496 s
Running BFS 0
Time for BFS 0 is 0.264274
TEPS for BFS 0 is 6.34789e+07
Validating BFS 0
Validate time for BFS 0 is 1.591264
Running BFS 1
Time for BFS 1 is 0.264189
TEPS for BFS 1 is 6.34994e+07
Validating BFS 1
Validate time for BFS 1 is 1.590510
Running BFS 2
Time for BFS 2 is 0.264297
TEPS for BFS 2 is 6.34733e+07
Validating BFS 2
Validate time for BFS 2 is 1.591831
Running BFS 3
Time for BFS 3 is 0.264415
TEPS for BFS 3 is 6.34451e+07
Validating BFS 3
Validate time for BFS 3 is 1.583990
Running BFS 4
Time for BFS 4 is 0.264274
TEPS for BFS 4 is 6.3479e+07
Validating BFS 4
Validate time for BFS 4 is 1.582804
Running BFS 5
Time for BFS 5 is 0.264335
TEPS for BFS 5 is 6.34643e+07
Validating BFS 5
Validate time for BFS 5 is 1.589958
Running BFS 6
Time for BFS 6 is 0.264391
TEPS for BFS 6 is 6.34508e+07
Validating BFS 6
Validate time for BFS 6 is 1.583314
Running BFS 7
Time for BFS 7 is 0.264232
TEPS for BFS 7 is 6.34889e+07
Validating BFS 7
Validate time for BFS 7 is 1.587778
Running BFS 8
Time for BFS 8 is 0.264181
TEPS for BFS 8 is 6.35012e+07
Validating BFS 8
Validate time for BFS 8 is 1.583207
Running BFS 9
Time for BFS 9 is 0.264299
TEPS for BFS 9 is 6.3473e+07
Validating BFS 9
Validate time for BFS 9 is 1.584289
Running BFS 10
Time for BFS 10 is 0.264343
TEPS for BFS 10 is 6.34622e+07
Validating BFS 10
Validate time for BFS 10 is 1.590421
Running BFS 11
Time for BFS 11 is 0.264396
TEPS for BFS 11 is 6.34496e+07
Validating BFS 11
Validate time for BFS 11 is 1.583309
Running BFS 12
Time for BFS 12 is 0.264218
TEPS for BFS 12 is 6.34923e+07
Validating BFS 12
Validate time for BFS 12 is 1.588410
Running BFS 13
Time for BFS 13 is 0.264246
TEPS for BFS 13 is 6.34855e+07
Validating BFS 13
Validate time for BFS 13 is 1.583922
Running BFS 14
Time for BFS 14 is 0.264248
TEPS for BFS 14 is 6.34851e+07
Validating BFS 14
Validate time for BFS 14 is 1.584222
Running BFS 15
Time for BFS 15 is 0.264264
TEPS for BFS 15 is 6.34813e+07
Validating BFS 15
Validate time for BFS 15 is 1.591904
Running BFS 16
Time for BFS 16 is 0.264256
TEPS for BFS 16 is 6.34833e+07
Validating BFS 16
Validate time for BFS 16 is 1.584161
Running BFS 17
Time for BFS 17 is 0.264212
TEPS for BFS 17 is 6.34937e+07
Validating BFS 17
Validate time for BFS 17 is 1.590481
Running BFS 18
Time for BFS 18 is 0.264395
TEPS for BFS 18 is 6.34499e+07
Validating BFS 18
Validate time for BFS 18 is 1.590947
Running BFS 19
Time for BFS 19 is 0.264299
TEPS for BFS 19 is 6.34729e+07
Validating BFS 19
Validate time for BFS 19 is 1.591705
Running BFS 20
Time for BFS 20 is 0.264336
TEPS for BFS 20 is 6.34639e+07
Validating BFS 20
Validate time for BFS 20 is 1.584384
Running BFS 21
Time for BFS 21 is 0.264284
TEPS for BFS 21 is 6.34764e+07
Validating BFS 21
Validate time for BFS 21 is 1.587381
Running BFS 22
Time for BFS 22 is 0.264351
TEPS for BFS 22 is 6.34605e+07
Validating BFS 22
Validate time for BFS 22 is 1.589117
Running BFS 23
Time for BFS 23 is 0.264206
TEPS for BFS 23 is 6.34952e+07
Validating BFS 23
Validate time for BFS 23 is 1.591074
Running BFS 24
Time for BFS 24 is 0.264269
TEPS for BFS 24 is 6.348e+07
Validating BFS 24
Validate time for BFS 24 is 1.584721
Running BFS 25
Time for BFS 25 is 0.264118
TEPS for BFS 25 is 6.35165e+07
Validating BFS 25
Validate time for BFS 25 is 1.591366
Running BFS 26
Time for BFS 26 is 0.264261
TEPS for BFS 26 is 6.3482e+07
Validating BFS 26
Validate time for BFS 26 is 1.591062
Running BFS 27
Time for BFS 27 is 0.264303
TEPS for BFS 27 is 6.3472e+07
Validating BFS 27
Validate time for BFS 27 is 1.583620
Running BFS 28
Time for BFS 28 is 0.264346
TEPS for BFS 28 is 6.34617e+07
Validating BFS 28
Validate time for BFS 28 is 1.591842
Running BFS 29
Time for BFS 29 is 0.264337
TEPS for BFS 29 is 6.34636e+07
Validating BFS 29
Validate time for BFS 29 is 1.591380
Running BFS 30
Time for BFS 30 is 0.264213
TEPS for BFS 30 is 6.34935e+07
Validating BFS 30
Validate time for BFS 30 is 1.591409
Running BFS 31
Time for BFS 31 is 0.264345
TEPS for BFS 31 is 6.34619e+07
Validating BFS 31
Validate time for BFS 31 is 1.583740
Running BFS 32
Time for BFS 32 is 0.264278
TEPS for BFS 32 is 6.3478e+07
Validating BFS 32
Validate time for BFS 32 is 1.584892
Running BFS 33
Time for BFS 33 is 0.264359
TEPS for BFS 33 is 6.34585e+07
Validating BFS 33
Validate time for BFS 33 is 1.590368
Running BFS 34
Time for BFS 34 is 0.264218
TEPS for BFS 34 is 6.34922e+07
Validating BFS 34
Validate time for BFS 34 is 1.583914
Running BFS 35
Time for BFS 35 is 0.264332
TEPS for BFS 35 is 6.34649e+07
Validating BFS 35
Validate time for BFS 35 is 1.582506
Running BFS 36
Time for BFS 36 is 0.264245
TEPS for BFS 36 is 6.34858e+07
Validating BFS 36
Validate time for BFS 36 is 1.584552
Running BFS 37
Time for BFS 37 is 0.264335
TEPS for BFS 37 is 6.34641e+07
Validating BFS 37
Validate time for BFS 37 is 1.588705
Running BFS 38
Time for BFS 38 is 0.264309
TEPS for BFS 38 is 6.34705e+07
Validating BFS 38
Validate time for BFS 38 is 1.582923
Running BFS 39
Time for BFS 39 is 0.264345
TEPS for BFS 39 is 6.34617e+07
Validating BFS 39
Validate time for BFS 39 is 1.584585
Running BFS 40
Time for BFS 40 is 0.264200
TEPS for BFS 40 is 6.34966e+07
Validating BFS 40
Validate time for BFS 40 is 1.584797
Running BFS 41
Time for BFS 41 is 0.264358
TEPS for BFS 41 is 6.34586e+07
Validating BFS 41
Validate time for BFS 41 is 1.590650
Running BFS 42
Time for BFS 42 is 0.264274
TEPS for BFS 42 is 6.34788e+07
Validating BFS 42
Validate time for BFS 42 is 1.584306
Running BFS 43
Time for BFS 43 is 0.264251
TEPS for BFS 43 is 6.34843e+07
Validating BFS 43
Validate time for BFS 43 is 1.587935
Running BFS 44
Time for BFS 44 is 0.264209
TEPS for BFS 44 is 6.34945e+07
Validating BFS 44
Validate time for BFS 44 is 1.590673
Running BFS 45
Time for BFS 45 is 0.264310
TEPS for BFS 45 is 6.34703e+07
Validating BFS 45
Validate time for BFS 45 is 1.582028
Running BFS 46
Time for BFS 46 is 0.264252
TEPS for BFS 46 is 6.34842e+07
Validating BFS 46
Validate time for BFS 46 is 1.588288
Running BFS 47
Time for BFS 47 is 0.264283
TEPS for BFS 47 is 6.34768e+07
Validating BFS 47
Validate time for BFS 47 is 1.583846
Running BFS 48
Time for BFS 48 is 0.264298
TEPS for BFS 48 is 6.3473e+07
Validating BFS 48
Validate time for BFS 48 is 1.590468
Running BFS 49
Time for BFS 49 is 0.264183
TEPS for BFS 49 is 6.35007e+07
Validating BFS 49
Validate time for BFS 49 is 1.584076
Running BFS 50
Time for BFS 50 is 0.264426
TEPS for BFS 50 is 6.34425e+07
Validating BFS 50
Validate time for BFS 50 is 1.583869
Running BFS 51
Time for BFS 51 is 0.264186
TEPS for BFS 51 is 6.35e+07
Validating BFS 51
Validate time for BFS 51 is 1.589878
Running BFS 52
Time for BFS 52 is 0.264279
TEPS for BFS 52 is 6.34776e+07
Validating BFS 52
Validate time for BFS 52 is 1.590768
Running BFS 53
Time for BFS 53 is 0.264371
TEPS for BFS 53 is 6.34556e+07
Validating BFS 53
Validate time for BFS 53 is 1.582967
Running BFS 54
Time for BFS 54 is 0.264365
TEPS for BFS 54 is 6.34571e+07
Validating BFS 54
Validate time for BFS 54 is 1.590334
Running BFS 55
Time for BFS 55 is 0.264234
TEPS for BFS 55 is 6.34885e+07
Validating BFS 55
Validate time for BFS 55 is 1.583419
Running BFS 56
Time for BFS 56 is 0.264254
TEPS for BFS 56 is 6.34837e+07
Validating BFS 56
Validate time for BFS 56 is 1.584250
Running BFS 57
Time for BFS 57 is 0.264120
TEPS for BFS 57 is 6.35159e+07
Validating BFS 57
Validate time for BFS 57 is 1.591099
Running BFS 58
Time for BFS 58 is 0.264194
TEPS for BFS 58 is 6.34982e+07
Validating BFS 58
Validate time for BFS 58 is 1.588435
Running BFS 59
Time for BFS 59 is 0.264251
TEPS for BFS 59 is 6.34844e+07
Validating BFS 59
Validate time for BFS 59 is 1.590250
Running BFS 60
Time for BFS 60 is 0.264268
TEPS for BFS 60 is 6.34803e+07
Validating BFS 60
Validate time for BFS 60 is 1.583926
Running BFS 61
Time for BFS 61 is 0.264161
TEPS for BFS 61 is 6.35059e+07
Validating BFS 61
Validate time for BFS 61 is 1.589449
Running BFS 62
Time for BFS 62 is 0.264180
TEPS for BFS 62 is 6.35014e+07
Validating BFS 62
Validate time for BFS 62 is 1.591033
Running BFS 63
Time for BFS 63 is 0.264217
TEPS for BFS 63 is 6.34926e+07
Validating BFS 63
Validate time for BFS 63 is 1.582319
real	2m 17.48s
user	2m 17.37s
sys	0m 0.10s
