/dev/cpu/msr_batch: No such file or directory
terminate called after throwing an instance of 'std::bad_alloc'
  what():  std::bad_alloc
[box:04840] *** Process received signal ***
[box:04840] Signal: Aborted (6)
[box:04840] Signal code:  (-6)
[box:04840] [ 0] /lib/libpthread.so.0(+0x10030)[0x7fccda24a030]
[box:04840] [ 1] /lib/libc.so.6(gsignal+0xbb)[0x7fccd9ef085e]
[box:04840] [ 2] /lib/libc.so.6(abort+0x139)[0x7fccd9ef199d]
[box:04840] [ 3] /usr/lib/libstdc++.so.6(_ZN9__gnu_cxx27__verbose_terminate_handlerEv+0xbc)[0x7fccdaa2b9ad]
[box:04840] [ 4] /usr/lib/libstdc++.so.6(+0x94081)[0x7fccdaa2a081]
[box:04840] [ 5] /usr/lib/libstdc++.so.6(+0x940ba)[0x7fccdaa2a0ba]
[box:04840] [ 6] /usr/lib/libstdc++.so.6(__cxa_rethrow+0x0)[0x7fccdaa2a29c]
[box:04840] [ 7] /usr/lib/libstdc++.so.6(_Znwm+0x53)[0x7fccdaa2a63a]
[box:04840] [ 8] /mnt/sda1/miniFE/src/miniFE.x[0x412849]
[box:04840] [ 9] /mnt/sda1/miniFE/src/miniFE.x[0x419c53]
[box:04840] [10] /mnt/sda1/miniFE/src/miniFE.x[0x404d2a]
[box:04840] [11] /lib/libc.so.6(__libc_start_main+0x15a)[0x7fccd9ee109d]
[box:04840] [12] /mnt/sda1/miniFE/src/miniFE.x[0x406b6a]
[box:04840] *** End of error message ***
--------------------------------------------------------------------------
mpirun noticed that process rank 0 with PID 0 on node box exited on signal 6 (Aborted).
--------------------------------------------------------------------------
Command exited with non-zero status 134
real	0m 58.12s
user	1m 36.00s
sys	0m 6.70s
