time(ms) function_name moment
297899682 MPI_Barrier 0
297899682 MPI_Barrier 1
297899787 MPI_Allreduce 0
297899787 MPI_Allreduce 1
297899893 MPI_Allreduce 0
297899893 MPI_Allreduce 1
297900001 MPI_Allreduce 0
297900001 MPI_Allreduce 1
297900108 MPI_Allreduce 0
297900108 MPI_Allreduce 1
297900216 MPI_Allreduce 0
297900216 MPI_Allreduce 1
297900324 MPI_Allreduce 0
297900324 MPI_Allreduce 1
297900432 MPI_Allreduce 0
297900432 MPI_Allreduce 1
297900539 MPI_Allreduce 0
297900539 MPI_Allreduce 1
297900647 MPI_Allreduce 0
297900647 MPI_Allreduce 1
297900755 MPI_Allreduce 0
297900755 MPI_Allreduce 1
297900862 MPI_Allreduce 0
297900862 MPI_Allreduce 1
297900970 MPI_Allreduce 0
297900970 MPI_Allreduce 1
297901078 MPI_Allreduce 0
297901078 MPI_Allreduce 1
297901186 MPI_Allreduce 0
297901186 MPI_Allreduce 1
297901285 MPI_Allreduce 0
297901285 MPI_Allreduce 1
297901383 MPI_Allreduce 0
297901383 MPI_Allreduce 1
297901482 MPI_Allreduce 0
297901482 MPI_Allreduce 1
297901580 MPI_Allreduce 0
297901580 MPI_Allreduce 1
297901679 MPI_Allreduce 0
297901679 MPI_Allreduce 1
297901777 MPI_Allreduce 0
297901777 MPI_Allreduce 1
297901875 MPI_Allreduce 0
297901875 MPI_Allreduce 1
297901973 MPI_Allreduce 0
297901973 MPI_Allreduce 1
297902072 MPI_Allreduce 0
297902072 MPI_Allreduce 1
297902170 MPI_Allreduce 0
297902170 MPI_Allreduce 1
297902268 MPI_Allreduce 0
297902268 MPI_Allreduce 1
297902366 MPI_Allreduce 0
297902366 MPI_Allreduce 1
297902465 MPI_Allreduce 0
297902465 MPI_Allreduce 1
297902563 MPI_Allreduce 0
297902563 MPI_Allreduce 1
297902661 MPI_Allreduce 0
297902661 MPI_Allreduce 1
297902759 MPI_Allreduce 0
297902759 MPI_Allreduce 1
297902858 MPI_Allreduce 0
297902858 MPI_Allreduce 1
297902956 MPI_Allreduce 0
297902956 MPI_Allreduce 1
297903054 MPI_Allreduce 0
297903054 MPI_Allreduce 1
297903153 MPI_Allreduce 0
297903153 MPI_Allreduce 1
297903251 MPI_Allreduce 0
297903251 MPI_Allreduce 1
297903350 MPI_Allreduce 0
297903350 MPI_Allreduce 1
297903448 MPI_Allreduce 0
297903448 MPI_Allreduce 1
297903546 MPI_Allreduce 0
297903546 MPI_Allreduce 1
297903645 MPI_Allreduce 0
297903645 MPI_Allreduce 1
297903743 MPI_Allreduce 0
297903743 MPI_Allreduce 1
297903842 MPI_Allreduce 0
297903842 MPI_Allreduce 1
297903940 MPI_Allreduce 0
297903940 MPI_Allreduce 1
297904038 MPI_Allreduce 0
297904038 MPI_Allreduce 1
297904137 MPI_Allreduce 0
297904137 MPI_Allreduce 1
297904235 MPI_Allreduce 0
297904235 MPI_Allreduce 1
297904334 MPI_Allreduce 0
297904334 MPI_Allreduce 1
297904432 MPI_Allreduce 0
297904432 MPI_Allreduce 1
297904530 MPI_Allreduce 0
297904530 MPI_Allreduce 1
297904628 MPI_Allreduce 0
297904628 MPI_Allreduce 1
297904726 MPI_Allreduce 0
297904726 MPI_Allreduce 1
297904825 MPI_Allreduce 0
297904825 MPI_Allreduce 1
297904923 MPI_Allreduce 0
297904923 MPI_Allreduce 1
297905021 MPI_Allreduce 0
297905021 MPI_Allreduce 1
297905120 MPI_Allreduce 0
297905120 MPI_Allreduce 1
297905218 MPI_Allreduce 0
297905218 MPI_Allreduce 1
297905317 MPI_Allreduce 0
297905317 MPI_Allreduce 1
297905415 MPI_Allreduce 0
297905415 MPI_Allreduce 1
297905513 MPI_Allreduce 0
297905513 MPI_Allreduce 1
297905612 MPI_Allreduce 0
297905612 MPI_Allreduce 1
297905710 MPI_Allreduce 0
297905710 MPI_Allreduce 1
297905808 MPI_Allreduce 0
297905808 MPI_Allreduce 1
297905906 MPI_Allreduce 0
297905906 MPI_Allreduce 1
297906005 MPI_Allreduce 0
297906005 MPI_Allreduce 1
297906103 MPI_Allreduce 0
297906103 MPI_Allreduce 1
297906201 MPI_Allreduce 0
297906201 MPI_Allreduce 1
297906300 MPI_Allreduce 0
297906300 MPI_Allreduce 1
297906398 MPI_Allreduce 0
297906398 MPI_Allreduce 1
297906496 MPI_Allreduce 0
297906496 MPI_Allreduce 1
297906594 MPI_Allreduce 0
297906594 MPI_Allreduce 1
297906693 MPI_Allreduce 0
297906693 MPI_Allreduce 1
297906791 MPI_Allreduce 0
297906791 MPI_Allreduce 1
297906889 MPI_Allreduce 0
297906889 MPI_Allreduce 1
297906987 MPI_Allreduce 0
297906987 MPI_Allreduce 1
297907086 MPI_Allreduce 0
297907086 MPI_Allreduce 1
297907184 MPI_Allreduce 0
297907184 MPI_Allreduce 1
297907282 MPI_Allreduce 0
297907282 MPI_Allreduce 1
297907381 MPI_Allreduce 0
297907381 MPI_Allreduce 1
297907479 MPI_Allreduce 0
297907479 MPI_Allreduce 1
297907577 MPI_Allreduce 0
297907577 MPI_Allreduce 1
297907675 MPI_Allreduce 0
297907675 MPI_Allreduce 1
297907774 MPI_Allreduce 0
297907774 MPI_Allreduce 1
297907872 MPI_Allreduce 0
297907872 MPI_Allreduce 1
297907971 MPI_Allreduce 0
297907971 MPI_Allreduce 1
297908069 MPI_Allreduce 0
297908069 MPI_Allreduce 1
297908167 MPI_Allreduce 0
297908167 MPI_Allreduce 1
297908266 MPI_Allreduce 0
297908266 MPI_Allreduce 1
297908364 MPI_Allreduce 0
297908364 MPI_Allreduce 1
297908462 MPI_Allreduce 0
297908462 MPI_Allreduce 1
297908561 MPI_Allreduce 0
297908561 MPI_Allreduce 1
297908659 MPI_Allreduce 0
297908659 MPI_Allreduce 1
297908758 MPI_Allreduce 0
297908758 MPI_Allreduce 1
297908856 MPI_Allreduce 0
297908856 MPI_Allreduce 1
297908954 MPI_Allreduce 0
297908954 MPI_Allreduce 1
297909052 MPI_Allreduce 0
297909052 MPI_Allreduce 1
297909150 MPI_Allreduce 0
297909150 MPI_Allreduce 1
297909249 MPI_Allreduce 0
297909249 MPI_Allreduce 1
297909347 MPI_Allreduce 0
297909347 MPI_Allreduce 1
297909446 MPI_Allreduce 0
297909446 MPI_Allreduce 1
297909544 MPI_Allreduce 0
297909544 MPI_Allreduce 1
297909643 MPI_Allreduce 0
297909643 MPI_Allreduce 1
297909741 MPI_Allreduce 0
297909741 MPI_Allreduce 1
297909839 MPI_Allreduce 0
297909839 MPI_Allreduce 1
297909938 MPI_Allreduce 0
297909938 MPI_Allreduce 1
297910036 MPI_Allreduce 0
297910036 MPI_Allreduce 1
297910134 MPI_Allreduce 0
297910134 MPI_Allreduce 1
297910233 MPI_Allreduce 0
297910233 MPI_Allreduce 1
297910331 MPI_Allreduce 0
297910331 MPI_Allreduce 1
297910430 MPI_Allreduce 0
297910430 MPI_Allreduce 1
297910528 MPI_Allreduce 0
297910528 MPI_Allreduce 1
297910626 MPI_Allreduce 0
297910626 MPI_Allreduce 1
297910725 MPI_Allreduce 0
297910725 MPI_Allreduce 1
297910823 MPI_Allreduce 0
297910823 MPI_Allreduce 1
297910921 MPI_Allreduce 0
297910921 MPI_Allreduce 1
297911020 MPI_Allreduce 0
297911020 MPI_Allreduce 1
297911118 MPI_Allreduce 0
297911118 MPI_Allreduce 1
297911216 MPI_Allreduce 0
297911216 MPI_Allreduce 1
297911314 MPI_Allreduce 0
297911314 MPI_Allreduce 1
297911413 MPI_Allreduce 0
297911413 MPI_Allreduce 1
297911511 MPI_Allreduce 0
297911511 MPI_Allreduce 1
297911609 MPI_Allreduce 0
297911609 MPI_Allreduce 1
297911708 MPI_Allreduce 0
297911708 MPI_Allreduce 1
297911806 MPI_Allreduce 0
297911806 MPI_Allreduce 1
297911904 MPI_Allreduce 0
297911904 MPI_Allreduce 1
297912003 MPI_Allreduce 0
297912003 MPI_Allreduce 1
297912101 MPI_Allreduce 0
297912101 MPI_Allreduce 1
297912199 MPI_Allreduce 0
297912199 MPI_Allreduce 1
297912297 MPI_Allreduce 0
297912297 MPI_Allreduce 1
297912396 MPI_Allreduce 0
297912396 MPI_Allreduce 1
297912494 MPI_Allreduce 0
297912494 MPI_Allreduce 1
297912593 MPI_Allreduce 0
297912593 MPI_Allreduce 1
297912691 MPI_Allreduce 0
297912691 MPI_Allreduce 1
297912790 MPI_Allreduce 0
297912790 MPI_Allreduce 1
297912888 MPI_Allreduce 0
297912888 MPI_Allreduce 1
297912986 MPI_Allreduce 0
297912986 MPI_Allreduce 1
297913084 MPI_Allreduce 0
297913084 MPI_Allreduce 1
297913183 MPI_Allreduce 0
297913183 MPI_Allreduce 1
297913281 MPI_Allreduce 0
297913281 MPI_Allreduce 1
297913379 MPI_Allreduce 0
297913379 MPI_Allreduce 1
297913478 MPI_Allreduce 0
297913478 MPI_Allreduce 1
297913575 MPI_Allreduce 0
297913575 MPI_Allreduce 1
297913673 MPI_Allreduce 0
297913673 MPI_Allreduce 1
297913771 MPI_Allreduce 0
297913771 MPI_Allreduce 1
297913869 MPI_Allreduce 0
297913869 MPI_Allreduce 1
297913967 MPI_Allreduce 0
297913967 MPI_Allreduce 1
297914065 MPI_Allreduce 0
297914065 MPI_Allreduce 1
297914163 MPI_Allreduce 0
297914163 MPI_Allreduce 1
297914261 MPI_Allreduce 0
297914261 MPI_Allreduce 1
297914359 MPI_Allreduce 0
297914359 MPI_Allreduce 1
297914457 MPI_Allreduce 0
297914457 MPI_Allreduce 1
297914555 MPI_Allreduce 0
297914555 MPI_Allreduce 1
297914653 MPI_Allreduce 0
297914653 MPI_Allreduce 1
297914751 MPI_Allreduce 0
297914751 MPI_Allreduce 1
297914849 MPI_Allreduce 0
297914849 MPI_Allreduce 1
297914947 MPI_Allreduce 0
297914947 MPI_Allreduce 1
297915045 MPI_Allreduce 0
297915045 MPI_Allreduce 1
297915143 MPI_Allreduce 0
297915143 MPI_Allreduce 1
297915241 MPI_Allreduce 0
297915241 MPI_Allreduce 1
297915339 MPI_Allreduce 0
297915339 MPI_Allreduce 1
297915436 MPI_Allreduce 0
297915436 MPI_Allreduce 1
297915534 MPI_Allreduce 0
297915534 MPI_Allreduce 1
297915632 MPI_Allreduce 0
297915632 MPI_Allreduce 1
297915730 MPI_Allreduce 0
297915730 MPI_Allreduce 1
297915828 MPI_Allreduce 0
297915828 MPI_Allreduce 1
297915926 MPI_Allreduce 0
297915926 MPI_Allreduce 1
297916024 MPI_Allreduce 0
297916024 MPI_Allreduce 1
297916122 MPI_Allreduce 0
297916122 MPI_Allreduce 1
297916220 MPI_Allreduce 0
297916220 MPI_Allreduce 1
297916318 MPI_Allreduce 0
297916318 MPI_Allreduce 1
297916416 MPI_Allreduce 0
297916416 MPI_Allreduce 1
297916513 MPI_Allreduce 0
297916513 MPI_Allreduce 1
297916611 MPI_Allreduce 0
297916611 MPI_Allreduce 1
297916709 MPI_Allreduce 0
297916709 MPI_Allreduce 1
297916807 MPI_Allreduce 0
297916807 MPI_Allreduce 1
297916905 MPI_Allreduce 0
297916905 MPI_Allreduce 1
297917003 MPI_Allreduce 0
297917003 MPI_Allreduce 1
297917101 MPI_Allreduce 0
297917101 MPI_Allreduce 1
297917199 MPI_Allreduce 0
297917199 MPI_Allreduce 1
297917297 MPI_Allreduce 0
297917297 MPI_Allreduce 1
297917394 MPI_Allreduce 0
297917394 MPI_Allreduce 1
297917492 MPI_Allreduce 0
297917492 MPI_Allreduce 1
297917590 MPI_Allreduce 0
297917590 MPI_Allreduce 1
297917688 MPI_Allreduce 0
297917688 MPI_Allreduce 1
297917786 MPI_Allreduce 0
297917786 MPI_Allreduce 1
297917884 MPI_Allreduce 0
297917884 MPI_Allreduce 1
297917982 MPI_Allreduce 0
297917982 MPI_Allreduce 1
297918080 MPI_Allreduce 0
297918080 MPI_Allreduce 1
297918177 MPI_Allreduce 0
297918178 MPI_Allreduce 1
297918275 MPI_Allreduce 0
297918275 MPI_Allreduce 1
297918373 MPI_Allreduce 0
297918373 MPI_Allreduce 1
297918471 MPI_Allreduce 0
297918471 MPI_Allreduce 1
297918569 MPI_Allreduce 0
297918569 MPI_Allreduce 1
297918667 MPI_Allreduce 0
297918667 MPI_Allreduce 1
297918765 MPI_Allreduce 0
297918765 MPI_Allreduce 1
297918863 MPI_Allreduce 0
297918863 MPI_Allreduce 1
297918961 MPI_Allreduce 0
297918961 MPI_Allreduce 1
297919059 MPI_Allreduce 0
297919059 MPI_Allreduce 1
297919157 MPI_Allreduce 0
297919157 MPI_Allreduce 1
297919254 MPI_Allreduce 0
297919254 MPI_Allreduce 1
297919352 MPI_Allreduce 0
297919352 MPI_Allreduce 1
297919451 MPI_Allreduce 0
297919451 MPI_Allreduce 1
297919549 MPI_Allreduce 0
297919549 MPI_Allreduce 1
297919646 MPI_Allreduce 0
297919646 MPI_Allreduce 1
297919744 MPI_Allreduce 0
297919744 MPI_Allreduce 1
297919842 MPI_Allreduce 0
297919842 MPI_Allreduce 1
297919940 MPI_Allreduce 0
297919940 MPI_Allreduce 1
297920038 MPI_Allreduce 0
297920038 MPI_Allreduce 1
297920136 MPI_Allreduce 0
297920136 MPI_Allreduce 1
297920234 MPI_Allreduce 0
297920234 MPI_Allreduce 1
297920332 MPI_Allreduce 0
297920332 MPI_Allreduce 1
297920429 MPI_Allreduce 0
297920429 MPI_Allreduce 1
297920528 MPI_Allreduce 0
297920528 MPI_Allreduce 1
297920625 MPI_Allreduce 0
297920625 MPI_Allreduce 1
297920724 MPI_Allreduce 0
297920724 MPI_Allreduce 1
297920821 MPI_Allreduce 0
297920821 MPI_Allreduce 1
297920919 MPI_Allreduce 0
297920919 MPI_Allreduce 1
297921017 MPI_Allreduce 0
297921017 MPI_Allreduce 1
297921115 MPI_Allreduce 0
297921115 MPI_Allreduce 1
297921213 MPI_Allreduce 0
297921213 MPI_Allreduce 1
297921311 MPI_Allreduce 0
297921311 MPI_Allreduce 1
297921409 MPI_Allreduce 0
297921409 MPI_Allreduce 1
297921507 MPI_Allreduce 0
297921507 MPI_Allreduce 1
297921604 MPI_Allreduce 0
297921604 MPI_Allreduce 1
297921702 MPI_Allreduce 0
297921702 MPI_Allreduce 1
297921800 MPI_Allreduce 0
297921800 MPI_Allreduce 1
297921898 MPI_Allreduce 0
297921898 MPI_Allreduce 1
297921996 MPI_Allreduce 0
297921996 MPI_Allreduce 1
297922094 MPI_Allreduce 0
297922094 MPI_Allreduce 1
297922192 MPI_Allreduce 0
297922192 MPI_Allreduce 1
297922290 MPI_Allreduce 0
297922290 MPI_Allreduce 1
297922388 MPI_Allreduce 0
297922388 MPI_Allreduce 1
297922486 MPI_Allreduce 0
297922486 MPI_Allreduce 1
297922584 MPI_Allreduce 0
297922584 MPI_Allreduce 1
297922682 MPI_Allreduce 0
297922682 MPI_Allreduce 1
297922780 MPI_Allreduce 0
297922780 MPI_Allreduce 1
297922877 MPI_Allreduce 0
297922877 MPI_Allreduce 1
297922975 MPI_Allreduce 0
297922975 MPI_Allreduce 1
297923073 MPI_Allreduce 0
297923073 MPI_Allreduce 1
297923171 MPI_Allreduce 0
297923171 MPI_Allreduce 1
297923269 MPI_Allreduce 0
297923269 MPI_Allreduce 1
297923367 MPI_Allreduce 0
297923367 MPI_Allreduce 1
297923466 MPI_Allreduce 0
297923466 MPI_Allreduce 1
297923563 MPI_Allreduce 0
297923563 MPI_Allreduce 1
297923661 MPI_Allreduce 0
297923661 MPI_Allreduce 1
297923758 MPI_Allreduce 0
297923758 MPI_Allreduce 1
297923856 MPI_Allreduce 0
297923856 MPI_Allreduce 1
297923953 MPI_Allreduce 0
297923953 MPI_Allreduce 1
297924051 MPI_Allreduce 0
297924051 MPI_Allreduce 1
297924148 MPI_Allreduce 0
297924148 MPI_Allreduce 1
297924246 MPI_Allreduce 0
297924246 MPI_Allreduce 1
297924343 MPI_Allreduce 0
297924343 MPI_Allreduce 1
297924441 MPI_Allreduce 0
297924441 MPI_Allreduce 1
297924538 MPI_Allreduce 0
297924538 MPI_Allreduce 1
297924636 MPI_Allreduce 0
297924636 MPI_Allreduce 1
297924733 MPI_Allreduce 0
297924733 MPI_Allreduce 1
297924831 MPI_Allreduce 0
297924831 MPI_Allreduce 1
297924928 MPI_Allreduce 0
297924928 MPI_Allreduce 1
297925026 MPI_Allreduce 0
297925026 MPI_Allreduce 1
297925123 MPI_Allreduce 0
297925123 MPI_Allreduce 1
297925220 MPI_Allreduce 0
297925220 MPI_Allreduce 1
297925317 MPI_Allreduce 0
297925317 MPI_Allreduce 1
297925415 MPI_Allreduce 0
297925415 MPI_Allreduce 1
297925512 MPI_Allreduce 0
297925512 MPI_Allreduce 1
297925609 MPI_Allreduce 0
297925609 MPI_Allreduce 1
297925707 MPI_Allreduce 0
297925707 MPI_Allreduce 1
297925805 MPI_Allreduce 0
297925805 MPI_Allreduce 1
297925902 MPI_Allreduce 0
297925902 MPI_Allreduce 1
297925999 MPI_Allreduce 0
297925999 MPI_Allreduce 1
297926097 MPI_Allreduce 0
297926097 MPI_Allreduce 1
297926194 MPI_Allreduce 0
297926194 MPI_Allreduce 1
297926292 MPI_Allreduce 0
297926292 MPI_Allreduce 1
297926389 MPI_Allreduce 0
297926389 MPI_Allreduce 1
297926487 MPI_Allreduce 0
297926487 MPI_Allreduce 1
297926584 MPI_Allreduce 0
297926584 MPI_Allreduce 1
297926682 MPI_Allreduce 0
297926682 MPI_Allreduce 1
297926779 MPI_Allreduce 0
297926779 MPI_Allreduce 1
297926876 MPI_Allreduce 0
297926876 MPI_Allreduce 1
297926973 MPI_Allreduce 0
297926973 MPI_Allreduce 1
297927071 MPI_Allreduce 0
297927071 MPI_Allreduce 1
297927168 MPI_Allreduce 0
297927168 MPI_Allreduce 1
297927266 MPI_Allreduce 0
297927266 MPI_Allreduce 1
297927363 MPI_Allreduce 0
297927363 MPI_Allreduce 1
297927461 MPI_Allreduce 0
297927461 MPI_Allreduce 1
297927558 MPI_Allreduce 0
297927558 MPI_Allreduce 1
297927656 MPI_Allreduce 0
297927656 MPI_Allreduce 1
297927754 MPI_Allreduce 0
297927754 MPI_Allreduce 1
297927851 MPI_Allreduce 0
297927851 MPI_Allreduce 1
297927949 MPI_Allreduce 0
297927949 MPI_Allreduce 1
297928046 MPI_Allreduce 0
297928046 MPI_Allreduce 1
297928144 MPI_Allreduce 0
297928144 MPI_Allreduce 1
297928241 MPI_Allreduce 0
297928241 MPI_Allreduce 1
297928338 MPI_Allreduce 0
297928338 MPI_Allreduce 1
297928436 MPI_Allreduce 0
297928436 MPI_Allreduce 1
297928533 MPI_Allreduce 0
297928533 MPI_Allreduce 1
297928631 MPI_Allreduce 0
297928631 MPI_Allreduce 1
297928728 MPI_Allreduce 0
297928728 MPI_Allreduce 1
297928826 MPI_Allreduce 0
297928826 MPI_Allreduce 1
297928923 MPI_Allreduce 0
297928923 MPI_Allreduce 1
297929020 MPI_Allreduce 0
297929020 MPI_Allreduce 1
297929118 MPI_Allreduce 0
297929118 MPI_Allreduce 1
297929215 MPI_Allreduce 0
297929215 MPI_Allreduce 1
297929313 MPI_Allreduce 0
297929313 MPI_Allreduce 1
297929410 MPI_Allreduce 0
297929410 MPI_Allreduce 1
297929507 MPI_Allreduce 0
297929507 MPI_Allreduce 1
297929605 MPI_Allreduce 0
297929605 MPI_Allreduce 1
297929702 MPI_Allreduce 0
297929702 MPI_Allreduce 1
297929799 MPI_Allreduce 0
297929799 MPI_Allreduce 1
297929897 MPI_Allreduce 0
297929897 MPI_Allreduce 1
297929994 MPI_Allreduce 0
297929994 MPI_Allreduce 1
297930092 MPI_Allreduce 0
297930092 MPI_Allreduce 1
297930189 MPI_Allreduce 0
297930189 MPI_Allreduce 1
297930286 MPI_Allreduce 0
297930286 MPI_Allreduce 1
297930384 MPI_Allreduce 0
297930384 MPI_Allreduce 1
297930481 MPI_Allreduce 0
297930481 MPI_Allreduce 1
297930578 MPI_Allreduce 0
297930578 MPI_Allreduce 1
297930676 MPI_Allreduce 0
297930676 MPI_Allreduce 1
297930773 MPI_Allreduce 0
297930773 MPI_Allreduce 1
297930871 MPI_Allreduce 0
297930871 MPI_Allreduce 1
297930968 MPI_Allreduce 0
297930968 MPI_Allreduce 1
297931066 MPI_Allreduce 0
297931066 MPI_Allreduce 1
297931163 MPI_Allreduce 0
297931163 MPI_Allreduce 1
297931261 MPI_Allreduce 0
297931261 MPI_Allreduce 1
297931358 MPI_Allreduce 0
297931358 MPI_Allreduce 1
297931456 MPI_Allreduce 0
297931456 MPI_Allreduce 1
297931553 MPI_Allreduce 0
297931553 MPI_Allreduce 1
297931651 MPI_Allreduce 0
297931651 MPI_Allreduce 1
297931749 MPI_Allreduce 0
297931749 MPI_Allreduce 1
297931846 MPI_Allreduce 0
297931846 MPI_Allreduce 1
297931943 MPI_Allreduce 0
297931943 MPI_Allreduce 1
297932040 MPI_Allreduce 0
297932040 MPI_Allreduce 1
297932138 MPI_Allreduce 0
297932138 MPI_Allreduce 1
297932235 MPI_Allreduce 0
297932235 MPI_Allreduce 1
297932332 MPI_Allreduce 0
297932332 MPI_Allreduce 1
297932430 MPI_Allreduce 0
297932430 MPI_Allreduce 1
297932527 MPI_Allreduce 0
297932527 MPI_Allreduce 1
297932625 MPI_Allreduce 0
297932625 MPI_Allreduce 1
297932723 MPI_Allreduce 0
297932723 MPI_Allreduce 1
297932820 MPI_Allreduce 0
297932820 MPI_Allreduce 1
297932917 MPI_Allreduce 0
297932917 MPI_Allreduce 1
297933015 MPI_Allreduce 0
297933015 MPI_Allreduce 1
297933112 MPI_Allreduce 0
297933112 MPI_Allreduce 1
297933210 MPI_Allreduce 0
297933210 MPI_Allreduce 1
297933307 MPI_Allreduce 0
297933307 MPI_Allreduce 1
297933404 MPI_Allreduce 0
297933404 MPI_Allreduce 1
297933502 MPI_Allreduce 0
297933502 MPI_Allreduce 1
297933600 MPI_Allreduce 0
297933600 MPI_Allreduce 1
297933697 MPI_Allreduce 0
297933697 MPI_Allreduce 1
297933795 MPI_Allreduce 0
297933795 MPI_Allreduce 1
297933892 MPI_Allreduce 0
297933892 MPI_Allreduce 1
297933990 MPI_Allreduce 0
297933990 MPI_Allreduce 1
297934087 MPI_Allreduce 0
297934087 MPI_Allreduce 1
297934185 MPI_Allreduce 0
297934185 MPI_Allreduce 1
297934282 MPI_Allreduce 0
297934282 MPI_Allreduce 1
297934380 MPI_Allreduce 0
297934380 MPI_Allreduce 1
297934477 MPI_Allreduce 0
297934477 MPI_Allreduce 1
297934575 MPI_Allreduce 0
297934575 MPI_Allreduce 1
297934672 MPI_Allreduce 0
297934672 MPI_Allreduce 1
297934770 MPI_Allreduce 0
297934770 MPI_Allreduce 1
297934867 MPI_Allreduce 0
297934867 MPI_Allreduce 1
297934965 MPI_Allreduce 0
297934965 MPI_Allreduce 1
297935063 MPI_Allreduce 0
297935063 MPI_Allreduce 1
297935160 MPI_Allreduce 0
297935160 MPI_Allreduce 1
297935258 MPI_Allreduce 0
297935258 MPI_Allreduce 1
297935356 MPI_Allreduce 0
297935356 MPI_Allreduce 1
297935453 MPI_Allreduce 0
297935453 MPI_Allreduce 1
297935551 MPI_Allreduce 0
297935551 MPI_Allreduce 1
297935649 MPI_Allreduce 0
297935649 MPI_Allreduce 1
297935746 MPI_Allreduce 0
297935746 MPI_Allreduce 1
297935844 MPI_Allreduce 0
297935844 MPI_Allreduce 1
297935942 MPI_Allreduce 0
297935942 MPI_Allreduce 1
297936039 MPI_Allreduce 0
297936039 MPI_Allreduce 1
297936137 MPI_Allreduce 0
297936137 MPI_Allreduce 1
297936235 MPI_Allreduce 0
297936235 MPI_Allreduce 1
297936332 MPI_Allreduce 0
297936332 MPI_Allreduce 1
297936430 MPI_Allreduce 0
297936430 MPI_Allreduce 1
297936527 MPI_Allreduce 0
297936527 MPI_Allreduce 1
297936624 MPI_Allreduce 0
297936624 MPI_Allreduce 1
297936722 MPI_Allreduce 0
297936722 MPI_Allreduce 1
297936819 MPI_Allreduce 0
297936819 MPI_Allreduce 1
297936917 MPI_Allreduce 0
297936917 MPI_Allreduce 1
297937014 MPI_Allreduce 0
297937014 MPI_Allreduce 1
297937112 MPI_Allreduce 0
297937112 MPI_Allreduce 1
297937210 MPI_Allreduce 0
297937210 MPI_Allreduce 1
297937307 MPI_Allreduce 0
297937307 MPI_Allreduce 1
297937405 MPI_Allreduce 0
297937405 MPI_Allreduce 1
297937502 MPI_Allreduce 0
297937502 MPI_Allreduce 1
297937600 MPI_Allreduce 0
297937600 MPI_Allreduce 1
297937697 MPI_Allreduce 0
297937697 MPI_Allreduce 1
297937795 MPI_Allreduce 0
297937795 MPI_Allreduce 1
297937893 MPI_Allreduce 0
297937893 MPI_Allreduce 1
297937990 MPI_Allreduce 0
297937990 MPI_Allreduce 1
297938087 MPI_Allreduce 0
297938087 MPI_Allreduce 1
297938185 MPI_Allreduce 0
297938185 MPI_Allreduce 1
297938283 MPI_Allreduce 0
297938283 MPI_Allreduce 1
297938381 MPI_Allreduce 0
297938381 MPI_Allreduce 1
297938478 MPI_Allreduce 0
297938478 MPI_Allreduce 1
297938576 MPI_Allreduce 0
297938576 MPI_Allreduce 1
297938673 MPI_Allreduce 0
297938673 MPI_Allreduce 1
297938771 MPI_Allreduce 0
297938771 MPI_Allreduce 1
297938868 MPI_Allreduce 0
297938868 MPI_Allreduce 1
297938965 MPI_Allreduce 0
297938965 MPI_Allreduce 1
297939063 MPI_Allreduce 0
297939063 MPI_Allreduce 1
297939161 MPI_Allreduce 0
297939161 MPI_Allreduce 1
297939258 MPI_Allreduce 0
297939258 MPI_Allreduce 1
297939356 MPI_Allreduce 0
297939356 MPI_Allreduce 1
297939453 MPI_Allreduce 0
297939453 MPI_Allreduce 1
297939551 MPI_Allreduce 0
297939551 MPI_Allreduce 1
297939649 MPI_Allreduce 0
297939649 MPI_Allreduce 1
297939746 MPI_Allreduce 0
297939746 MPI_Allreduce 1
297939844 MPI_Allreduce 0
297939844 MPI_Allreduce 1
297939942 MPI_Allreduce 0
297939942 MPI_Allreduce 1
297940040 MPI_Allreduce 0
297940040 MPI_Allreduce 1
297940137 MPI_Allreduce 0
297940137 MPI_Allreduce 1
297940234 MPI_Allreduce 0
297940234 MPI_Allreduce 1
297940332 MPI_Allreduce 0
297940332 MPI_Allreduce 1
297940430 MPI_Allreduce 0
297940430 MPI_Allreduce 1
297940528 MPI_Allreduce 0
297940528 MPI_Allreduce 1
297940625 MPI_Allreduce 0
297940625 MPI_Allreduce 1
297940723 MPI_Allreduce 0
297940723 MPI_Allreduce 1
297940820 MPI_Allreduce 0
297940820 MPI_Allreduce 1
297940918 MPI_Allreduce 0
297940918 MPI_Allreduce 1
297941015 MPI_Allreduce 0
297941015 MPI_Allreduce 1
297941112 MPI_Allreduce 0
297941112 MPI_Allreduce 1
297941210 MPI_Allreduce 0
297941210 MPI_Allreduce 1
297941307 MPI_Allreduce 0
297941307 MPI_Allreduce 1
297941405 MPI_Allreduce 0
297941405 MPI_Allreduce 1
297941503 MPI_Allreduce 0
297941503 MPI_Allreduce 1
297941600 MPI_Allreduce 0
297941600 MPI_Allreduce 1
297941698 MPI_Allreduce 0
297941698 MPI_Allreduce 1
297941795 MPI_Allreduce 0
297941795 MPI_Allreduce 1
297941892 MPI_Allreduce 0
297941892 MPI_Allreduce 1
297941990 MPI_Allreduce 0
297941990 MPI_Allreduce 1
297942088 MPI_Allreduce 0
297942088 MPI_Allreduce 1
297942185 MPI_Allreduce 0
297942185 MPI_Allreduce 1
297942283 MPI_Allreduce 0
297942283 MPI_Allreduce 1
297942381 MPI_Allreduce 0
297942381 MPI_Allreduce 1
297942478 MPI_Allreduce 0
297942478 MPI_Allreduce 1
297942576 MPI_Allreduce 0
297942576 MPI_Allreduce 1
297942673 MPI_Allreduce 0
297942673 MPI_Allreduce 1
297942771 MPI_Allreduce 0
297942771 MPI_Allreduce 1
297942868 MPI_Allreduce 0
297942868 MPI_Allreduce 1
297942966 MPI_Allreduce 0
297942966 MPI_Allreduce 1
297943064 MPI_Allreduce 0
297943064 MPI_Allreduce 1
297943161 MPI_Allreduce 0
297943161 MPI_Allreduce 1
297943259 MPI_Allreduce 0
297943259 MPI_Allreduce 1
297943357 MPI_Allreduce 0
297943357 MPI_Allreduce 1
297943454 MPI_Allreduce 0
297943454 MPI_Allreduce 1
297943556 MPI_Allreduce 0
297943556 MPI_Allreduce 1
297943654 MPI_Allreduce 0
297943654 MPI_Allreduce 1
297943752 MPI_Allreduce 0
297943752 MPI_Allreduce 1
297943850 MPI_Allreduce 0
297943850 MPI_Allreduce 1
297943947 MPI_Allreduce 0
297943947 MPI_Allreduce 1
297944045 MPI_Allreduce 0
297944045 MPI_Allreduce 1
297944143 MPI_Allreduce 0
297944143 MPI_Allreduce 1
297944240 MPI_Allreduce 0
297944240 MPI_Allreduce 1
297944338 MPI_Allreduce 0
297944338 MPI_Allreduce 1
297944436 MPI_Allreduce 0
297944436 MPI_Allreduce 1
297944534 MPI_Allreduce 0
297944534 MPI_Allreduce 1
297944631 MPI_Allreduce 0
297944631 MPI_Allreduce 1
297944729 MPI_Allreduce 0
297944729 MPI_Allreduce 1
297944826 MPI_Allreduce 0
297944826 MPI_Allreduce 1
297944924 MPI_Allreduce 0
297944924 MPI_Allreduce 1
297945022 MPI_Allreduce 0
297945022 MPI_Allreduce 1
297945119 MPI_Allreduce 0
297945119 MPI_Allreduce 1
297945217 MPI_Allreduce 0
297945217 MPI_Allreduce 1
297945315 MPI_Allreduce 0
297945315 MPI_Allreduce 1
297945412 MPI_Allreduce 0
297945412 MPI_Allreduce 1
297945510 MPI_Allreduce 0
297945510 MPI_Allreduce 1
297945607 MPI_Allreduce 0
297945607 MPI_Allreduce 1
297945705 MPI_Allreduce 0
297945705 MPI_Allreduce 1
297945803 MPI_Allreduce 0
297945803 MPI_Allreduce 1
297945901 MPI_Allreduce 0
297945901 MPI_Allreduce 1
297945998 MPI_Allreduce 0
297945998 MPI_Allreduce 1
297946096 MPI_Allreduce 0
297946096 MPI_Allreduce 1
297946193 MPI_Allreduce 0
297946193 MPI_Allreduce 1
297946291 MPI_Allreduce 0
297946291 MPI_Allreduce 1
297946389 MPI_Allreduce 0
297946389 MPI_Allreduce 1
297946486 MPI_Allreduce 0
297946486 MPI_Allreduce 1
297946584 MPI_Allreduce 0
297946584 MPI_Allreduce 1
297946682 MPI_Allreduce 0
297946682 MPI_Allreduce 1
297946779 MPI_Allreduce 0
297946779 MPI_Allreduce 1
297946877 MPI_Allreduce 0
297946877 MPI_Allreduce 1
297946975 MPI_Allreduce 0
297946975 MPI_Allreduce 1
297947073 MPI_Allreduce 0
297947073 MPI_Allreduce 1
297947170 MPI_Allreduce 0
297947170 MPI_Allreduce 1
297947268 MPI_Allreduce 0
297947268 MPI_Allreduce 1
297947366 MPI_Allreduce 0
297947366 MPI_Allreduce 1
297947463 MPI_Allreduce 0
297947463 MPI_Allreduce 1
297947561 MPI_Allreduce 0
297947561 MPI_Allreduce 1
297947659 MPI_Allreduce 0
297947659 MPI_Allreduce 1
297947757 MPI_Allreduce 0
297947757 MPI_Allreduce 1
297947854 MPI_Allreduce 0
297947854 MPI_Allreduce 1
297947952 MPI_Allreduce 0
297947952 MPI_Allreduce 1
297948050 MPI_Allreduce 0
297948050 MPI_Allreduce 1
297948148 MPI_Allreduce 0
297948148 MPI_Allreduce 1
297948246 MPI_Allreduce 0
297948246 MPI_Allreduce 1
297948343 MPI_Allreduce 0
297948343 MPI_Allreduce 1
297948441 MPI_Allreduce 0
297948441 MPI_Allreduce 1
297948539 MPI_Allreduce 0
297948539 MPI_Allreduce 1
297948637 MPI_Allreduce 0
297948637 MPI_Allreduce 1
297948734 MPI_Allreduce 0
297948734 MPI_Allreduce 1
297948832 MPI_Allreduce 0
297948832 MPI_Allreduce 1
297948930 MPI_Allreduce 0
297948930 MPI_Allreduce 1
297949027 MPI_Allreduce 0
297949027 MPI_Allreduce 1
297949125 MPI_Allreduce 0
297949125 MPI_Allreduce 1
297949222 MPI_Allreduce 0
297949222 MPI_Allreduce 1
297949320 MPI_Allreduce 0
297949320 MPI_Allreduce 1
297949417 MPI_Allreduce 0
297949417 MPI_Allreduce 1
297949515 MPI_Allreduce 0
297949515 MPI_Allreduce 1
297949613 MPI_Allreduce 0
297949613 MPI_Allreduce 1
297949710 MPI_Allreduce 0
297949710 MPI_Allreduce 1
297949808 MPI_Allreduce 0
297949808 MPI_Allreduce 1
297949906 MPI_Allreduce 0
297949906 MPI_Allreduce 1
297950004 MPI_Allreduce 0
297950004 MPI_Allreduce 1
297950101 MPI_Allreduce 0
297950101 MPI_Allreduce 1
297950199 MPI_Allreduce 0
297950199 MPI_Allreduce 1
297950297 MPI_Allreduce 0
297950297 MPI_Allreduce 1
297950395 MPI_Allreduce 0
297950395 MPI_Allreduce 1
297950492 MPI_Allreduce 0
297950492 MPI_Allreduce 1
297950590 MPI_Allreduce 0
297950590 MPI_Allreduce 1
297950688 MPI_Allreduce 0
297950688 MPI_Allreduce 1
297950786 MPI_Allreduce 0
297950786 MPI_Allreduce 1
297950883 MPI_Allreduce 0
297950883 MPI_Allreduce 1
297950981 MPI_Allreduce 0
297950981 MPI_Allreduce 1
297951079 MPI_Allreduce 0
297951079 MPI_Allreduce 1
297951176 MPI_Allreduce 0
297951176 MPI_Allreduce 1
297951274 MPI_Allreduce 0
297951274 MPI_Allreduce 1
297951372 MPI_Allreduce 0
297951372 MPI_Allreduce 1
297951470 MPI_Allreduce 0
297951470 MPI_Allreduce 1
297951567 MPI_Allreduce 0
297951567 MPI_Allreduce 1
297951665 MPI_Allreduce 0
297951665 MPI_Allreduce 1
297951763 MPI_Allreduce 0
297951763 MPI_Allreduce 1
297951860 MPI_Allreduce 0
297951860 MPI_Allreduce 1
297951958 MPI_Allreduce 0
297951958 MPI_Allreduce 1
297952056 MPI_Allreduce 0
297952056 MPI_Allreduce 1
297952154 MPI_Allreduce 0
297952154 MPI_Allreduce 1
297952252 MPI_Allreduce 0
297952252 MPI_Allreduce 1
297952349 MPI_Allreduce 0
297952349 MPI_Allreduce 1
297952447 MPI_Allreduce 0
297952447 MPI_Allreduce 1
297952545 MPI_Allreduce 0
297952545 MPI_Allreduce 1
297952643 MPI_Allreduce 0
297952643 MPI_Allreduce 1
297952741 MPI_Allreduce 0
297952741 MPI_Allreduce 1
297952839 MPI_Allreduce 0
297952839 MPI_Allreduce 1
297952937 MPI_Allreduce 0
297952937 MPI_Allreduce 1
297953034 MPI_Allreduce 0
297953034 MPI_Allreduce 1
297953132 MPI_Allreduce 0
297953132 MPI_Allreduce 1
297953230 MPI_Allreduce 0
297953230 MPI_Allreduce 1
297953327 MPI_Allreduce 0
297953327 MPI_Allreduce 1
297953425 MPI_Allreduce 0
297953425 MPI_Allreduce 1
297953523 MPI_Allreduce 0
297953523 MPI_Allreduce 1
297953621 MPI_Allreduce 0
297953621 MPI_Allreduce 1
297953719 MPI_Allreduce 0
297953719 MPI_Allreduce 1
297953817 MPI_Allreduce 0
297953817 MPI_Allreduce 1
297953914 MPI_Allreduce 0
297953914 MPI_Allreduce 1
297954012 MPI_Allreduce 0
297954012 MPI_Allreduce 1
297954110 MPI_Allreduce 0
297954110 MPI_Allreduce 1
297954208 MPI_Allreduce 0
297954208 MPI_Allreduce 1
297954306 MPI_Allreduce 0
297954306 MPI_Allreduce 1
297954404 MPI_Allreduce 0
297954404 MPI_Allreduce 1
297954502 MPI_Allreduce 0
297954502 MPI_Allreduce 1
297954599 MPI_Allreduce 0
297954599 MPI_Allreduce 1
297954697 MPI_Allreduce 0
297954697 MPI_Allreduce 1
297954795 MPI_Allreduce 0
297954795 MPI_Allreduce 1
297954892 MPI_Allreduce 0
297954892 MPI_Allreduce 1
297954990 MPI_Allreduce 0
297954990 MPI_Allreduce 1
297955088 MPI_Allreduce 0
297955088 MPI_Allreduce 1
297955186 MPI_Allreduce 0
297955186 MPI_Allreduce 1
297955283 MPI_Allreduce 0
297955284 MPI_Allreduce 1
297955381 MPI_Allreduce 0
297955381 MPI_Allreduce 1
297955479 MPI_Allreduce 0
297955479 MPI_Allreduce 1
297955577 MPI_Allreduce 0
297955577 MPI_Allreduce 1
297955675 MPI_Allreduce 0
297955675 MPI_Allreduce 1
297955773 MPI_Allreduce 0
297955773 MPI_Allreduce 1
297955871 MPI_Allreduce 0
297955871 MPI_Allreduce 1
297955969 MPI_Allreduce 0
297955969 MPI_Allreduce 1
297956067 MPI_Allreduce 0
297956067 MPI_Allreduce 1
297956164 MPI_Allreduce 0
297956164 MPI_Allreduce 1
297956262 MPI_Allreduce 0
297956262 MPI_Allreduce 1
297956361 MPI_Allreduce 0
297956361 MPI_Allreduce 1
297956458 MPI_Allreduce 0
297956458 MPI_Allreduce 1
297956556 MPI_Allreduce 0
297956556 MPI_Allreduce 1
297956654 MPI_Allreduce 0
297956654 MPI_Allreduce 1
297956752 MPI_Allreduce 0
297956752 MPI_Allreduce 1
297956850 MPI_Allreduce 0
297956850 MPI_Allreduce 1
297956948 MPI_Allreduce 0
297956948 MPI_Allreduce 1
297957046 MPI_Allreduce 0
297957046 MPI_Allreduce 1
297957144 MPI_Allreduce 0
297957144 MPI_Allreduce 1
297957242 MPI_Allreduce 0
297957242 MPI_Allreduce 1
297957340 MPI_Allreduce 0
297957340 MPI_Allreduce 1
297957438 MPI_Allreduce 0
297957438 MPI_Allreduce 1
297957536 MPI_Allreduce 0
297957536 MPI_Allreduce 1
297957633 MPI_Allreduce 0
297957634 MPI_Allreduce 1
297957732 MPI_Allreduce 0
297957732 MPI_Allreduce 1
297957830 MPI_Allreduce 0
297957830 MPI_Allreduce 1
297957928 MPI_Allreduce 0
297957928 MPI_Allreduce 1
297958025 MPI_Allreduce 0
297958025 MPI_Allreduce 1
297958123 MPI_Allreduce 0
297958123 MPI_Allreduce 1
297958221 MPI_Allreduce 0
297958221 MPI_Allreduce 1
297958319 MPI_Allreduce 0
297958319 MPI_Allreduce 1
297958417 MPI_Allreduce 0
297958417 MPI_Allreduce 1
297958515 MPI_Allreduce 0
297958515 MPI_Allreduce 1
297958613 MPI_Allreduce 0
297958613 MPI_Allreduce 1
297958711 MPI_Allreduce 0
297958711 MPI_Allreduce 1
297958808 MPI_Allreduce 0
297958808 MPI_Allreduce 1
297958906 MPI_Allreduce 0
297958906 MPI_Allreduce 1
297959004 MPI_Allreduce 0
297959004 MPI_Allreduce 1
297959102 MPI_Allreduce 0
297959102 MPI_Allreduce 1
297959200 MPI_Allreduce 0
297959200 MPI_Allreduce 1
297959298 MPI_Allreduce 0
297959298 MPI_Allreduce 1
297959396 MPI_Allreduce 0
297959396 MPI_Allreduce 1
297959494 MPI_Allreduce 0
297959494 MPI_Allreduce 1
297959592 MPI_Allreduce 0
297959592 MPI_Allreduce 1
297959690 MPI_Allreduce 0
297959690 MPI_Allreduce 1
297959788 MPI_Allreduce 0
297959788 MPI_Allreduce 1
297959886 MPI_Allreduce 0
297959886 MPI_Allreduce 1
297959983 MPI_Allreduce 0
297959983 MPI_Allreduce 1
297960082 MPI_Allreduce 0
297960082 MPI_Allreduce 1
297960180 MPI_Allreduce 0
297960180 MPI_Allreduce 1
297960277 MPI_Allreduce 0
297960277 MPI_Allreduce 1
297960375 MPI_Allreduce 0
297960375 MPI_Allreduce 1
297960473 MPI_Allreduce 0
297960473 MPI_Allreduce 1
297960571 MPI_Allreduce 0
297960571 MPI_Allreduce 1
297960669 MPI_Allreduce 0
297960669 MPI_Allreduce 1
297960767 MPI_Allreduce 0
297960767 MPI_Allreduce 1
297960865 MPI_Allreduce 0
297960865 MPI_Allreduce 1
297960963 MPI_Allreduce 0
297960963 MPI_Allreduce 1
297961061 MPI_Allreduce 0
297961061 MPI_Allreduce 1
297961159 MPI_Allreduce 0
297961159 MPI_Allreduce 1
297961256 MPI_Allreduce 0
297961256 MPI_Allreduce 1
297961354 MPI_Allreduce 0
297961354 MPI_Allreduce 1
297961453 MPI_Allreduce 0
297961453 MPI_Allreduce 1
297961551 MPI_Allreduce 0
297961551 MPI_Allreduce 1
297961649 MPI_Allreduce 0
297961649 MPI_Allreduce 1
297961747 MPI_Allreduce 0
297961747 MPI_Allreduce 1
297961844 MPI_Allreduce 0
297961845 MPI_Allreduce 1
297961942 MPI_Allreduce 0
297961942 MPI_Allreduce 1
297962040 MPI_Allreduce 0
297962040 MPI_Allreduce 1
297962138 MPI_Allreduce 0
297962138 MPI_Allreduce 1
297962236 MPI_Allreduce 0
297962236 MPI_Allreduce 1
297962334 MPI_Allreduce 0
297962334 MPI_Allreduce 1
297962432 MPI_Allreduce 0
297962432 MPI_Allreduce 1
297962530 MPI_Allreduce 0
297962530 MPI_Allreduce 1
297962627 MPI_Allreduce 0
297962627 MPI_Allreduce 1
297962725 MPI_Allreduce 0
297962725 MPI_Allreduce 1
297962824 MPI_Allreduce 0
297962824 MPI_Allreduce 1
297962921 MPI_Allreduce 0
297962921 MPI_Allreduce 1
297963019 MPI_Allreduce 0
297963019 MPI_Allreduce 1
297963117 MPI_Allreduce 0
297963117 MPI_Allreduce 1
297963215 MPI_Allreduce 0
297963215 MPI_Allreduce 1
297963313 MPI_Allreduce 0
297963313 MPI_Allreduce 1
297963411 MPI_Allreduce 0
297963411 MPI_Allreduce 1
297963509 MPI_Allreduce 0
297963509 MPI_Allreduce 1
297963607 MPI_Allreduce 0
297963607 MPI_Allreduce 1
297963705 MPI_Allreduce 0
297963705 MPI_Allreduce 1
297963802 MPI_Allreduce 0
297963802 MPI_Allreduce 1
297963901 MPI_Allreduce 0
297963901 MPI_Allreduce 1
297963998 MPI_Allreduce 0
297963998 MPI_Allreduce 1
297964096 MPI_Allreduce 0
297964096 MPI_Allreduce 1
297964194 MPI_Allreduce 0
297964194 MPI_Allreduce 1
297964292 MPI_Allreduce 0
297964292 MPI_Allreduce 1
297964389 MPI_Allreduce 0
297964389 MPI_Allreduce 1
297964487 MPI_Allreduce 0
297964487 MPI_Allreduce 1
297964586 MPI_Allreduce 0
297964586 MPI_Allreduce 1
297964683 MPI_Allreduce 0
297964683 MPI_Allreduce 1
297964781 MPI_Allreduce 0
297964781 MPI_Allreduce 1
297964879 MPI_Allreduce 0
297964879 MPI_Allreduce 1
297964977 MPI_Allreduce 0
297964977 MPI_Allreduce 1
297965075 MPI_Allreduce 0
297965075 MPI_Allreduce 1
297965173 MPI_Allreduce 0
297965173 MPI_Allreduce 1
297965271 MPI_Allreduce 0
297965271 MPI_Allreduce 1
297965368 MPI_Allreduce 0
297965368 MPI_Allreduce 1
297965466 MPI_Allreduce 0
297965466 MPI_Allreduce 1
297965564 MPI_Allreduce 0
297965564 MPI_Allreduce 1
297965662 MPI_Allreduce 0
297965662 MPI_Allreduce 1
297965760 MPI_Allreduce 0
297965760 MPI_Allreduce 1
297965858 MPI_Allreduce 0
297965858 MPI_Allreduce 1
297965956 MPI_Allreduce 0
297965956 MPI_Allreduce 1
297966054 MPI_Allreduce 0
297966054 MPI_Allreduce 1
297966152 MPI_Allreduce 0
297966152 MPI_Allreduce 1
297966250 MPI_Allreduce 0
297966250 MPI_Allreduce 1
297966348 MPI_Allreduce 0
297966348 MPI_Allreduce 1
297966446 MPI_Allreduce 0
297966446 MPI_Allreduce 1
297966544 MPI_Allreduce 0
297966544 MPI_Allreduce 1
297966642 MPI_Allreduce 0
297966642 MPI_Allreduce 1
297966739 MPI_Allreduce 0
297966740 MPI_Allreduce 1
297966838 MPI_Allreduce 0
297966838 MPI_Allreduce 1
297966936 MPI_Allreduce 0
297966936 MPI_Allreduce 1
297967034 MPI_Allreduce 0
297967034 MPI_Allreduce 1
297967132 MPI_Allreduce 0
297967132 MPI_Allreduce 1
297967229 MPI_Allreduce 0
297967229 MPI_Allreduce 1
297967327 MPI_Allreduce 0
297967327 MPI_Allreduce 1
297967425 MPI_Allreduce 0
297967425 MPI_Allreduce 1
297967523 MPI_Allreduce 0
297967523 MPI_Allreduce 1
297967621 MPI_Allreduce 0
297967621 MPI_Allreduce 1
297967719 MPI_Allreduce 0
297967719 MPI_Allreduce 1
297967816 MPI_Allreduce 0
297967816 MPI_Allreduce 1
297967914 MPI_Allreduce 0
297967914 MPI_Allreduce 1
297968012 MPI_Allreduce 0
297968012 MPI_Allreduce 1
297968110 MPI_Allreduce 0
297968110 MPI_Allreduce 1
297968208 MPI_Allreduce 0
297968208 MPI_Allreduce 1
297968306 MPI_Allreduce 0
297968306 MPI_Allreduce 1
297968404 MPI_Allreduce 0
297968404 MPI_Allreduce 1
297968501 MPI_Allreduce 0
297968501 MPI_Allreduce 1
297968599 MPI_Allreduce 0
297968599 MPI_Allreduce 1
297968697 MPI_Allreduce 0
297968697 MPI_Allreduce 1
297968795 MPI_Allreduce 0
297968795 MPI_Allreduce 1
297968893 MPI_Allreduce 0
297968893 MPI_Allreduce 1
297968991 MPI_Allreduce 0
297968991 MPI_Allreduce 1
297969089 MPI_Allreduce 0
297969089 MPI_Allreduce 1
297969186 MPI_Allreduce 0
297969186 MPI_Allreduce 1
297969284 MPI_Allreduce 0
297969284 MPI_Allreduce 1
297969383 MPI_Allreduce 0
297969383 MPI_Allreduce 1
297969480 MPI_Allreduce 0
297969480 MPI_Allreduce 1
297969578 MPI_Allreduce 0
297969578 MPI_Allreduce 1
297969676 MPI_Allreduce 0
297969676 MPI_Allreduce 1
297969774 MPI_Allreduce 0
297969774 MPI_Allreduce 1
297969872 MPI_Allreduce 0
297969872 MPI_Allreduce 1
297969970 MPI_Allreduce 0
297969970 MPI_Allreduce 1
297970068 MPI_Allreduce 0
297970068 MPI_Allreduce 1
297970166 MPI_Allreduce 0
297970166 MPI_Allreduce 1
297970264 MPI_Allreduce 0
297970264 MPI_Allreduce 1
297970361 MPI_Allreduce 0
297970361 MPI_Allreduce 1
297970459 MPI_Allreduce 0
297970459 MPI_Allreduce 1
297970557 MPI_Allreduce 0
297970557 MPI_Allreduce 1
297970655 MPI_Allreduce 0
297970655 MPI_Allreduce 1
297970753 MPI_Allreduce 0
297970753 MPI_Allreduce 1
297970851 MPI_Allreduce 0
297970851 MPI_Allreduce 1
297970949 MPI_Allreduce 0
297970949 MPI_Allreduce 1
297971047 MPI_Allreduce 0
297971047 MPI_Allreduce 1
297971145 MPI_Allreduce 0
297971145 MPI_Allreduce 1
297971243 MPI_Allreduce 0
297971243 MPI_Allreduce 1
297971341 MPI_Allreduce 0
297971341 MPI_Allreduce 1
297971439 MPI_Allreduce 0
297971439 MPI_Allreduce 1
297971537 MPI_Allreduce 0
297971537 MPI_Allreduce 1
297971635 MPI_Allreduce 0
297971635 MPI_Allreduce 1
297971733 MPI_Allreduce 0
297971733 MPI_Allreduce 1
297971830 MPI_Allreduce 0
297971830 MPI_Allreduce 1
297971928 MPI_Allreduce 0
297971928 MPI_Allreduce 1
297972026 MPI_Allreduce 0
297972026 MPI_Allreduce 1
297972124 MPI_Allreduce 0
297972124 MPI_Allreduce 1
297972222 MPI_Allreduce 0
297972222 MPI_Allreduce 1
297972320 MPI_Allreduce 0
297972320 MPI_Allreduce 1
297972418 MPI_Allreduce 0
297972418 MPI_Allreduce 1
297972516 MPI_Allreduce 0
297972516 MPI_Allreduce 1
297972614 MPI_Allreduce 0
297972614 MPI_Allreduce 1
297972712 MPI_Allreduce 0
297972712 MPI_Allreduce 1
297972810 MPI_Allreduce 0
297972810 MPI_Allreduce 1
297972907 MPI_Allreduce 0
297972907 MPI_Allreduce 1
297973005 MPI_Allreduce 0
297973005 MPI_Allreduce 1
297973103 MPI_Allreduce 0
297973103 MPI_Allreduce 1
297973201 MPI_Allreduce 0
297973201 MPI_Allreduce 1
297973299 MPI_Allreduce 0
297973299 MPI_Allreduce 1
297973397 MPI_Allreduce 0
297973397 MPI_Allreduce 1
297973495 MPI_Allreduce 0
297973495 MPI_Allreduce 1
297973593 MPI_Allreduce 0
297973593 MPI_Allreduce 1
297973691 MPI_Allreduce 0
297973691 MPI_Allreduce 1
297973789 MPI_Allreduce 0
297973789 MPI_Allreduce 1
297973886 MPI_Allreduce 0
297973886 MPI_Allreduce 1
297973984 MPI_Allreduce 0
297973984 MPI_Allreduce 1
297974082 MPI_Allreduce 0
297974082 MPI_Allreduce 1
297974180 MPI_Allreduce 0
297974180 MPI_Allreduce 1
297974278 MPI_Allreduce 0
297974278 MPI_Allreduce 1
297974376 MPI_Allreduce 0
297974376 MPI_Allreduce 1
297974474 MPI_Allreduce 0
297974474 MPI_Allreduce 1
297974571 MPI_Allreduce 0
297974571 MPI_Allreduce 1
297974669 MPI_Allreduce 0
297974669 MPI_Allreduce 1
297974767 MPI_Allreduce 0
297974767 MPI_Allreduce 1
297974865 MPI_Allreduce 0
297974865 MPI_Allreduce 1
297974963 MPI_Allreduce 0
297974963 MPI_Allreduce 1
297975061 MPI_Allreduce 0
297975061 MPI_Allreduce 1
297975159 MPI_Allreduce 0
297975159 MPI_Allreduce 1
297975257 MPI_Allreduce 0
297975257 MPI_Allreduce 1
297975355 MPI_Allreduce 0
297975355 MPI_Allreduce 1
297975453 MPI_Allreduce 0
297975453 MPI_Allreduce 1
297975551 MPI_Allreduce 0
297975551 MPI_Allreduce 1
297975649 MPI_Allreduce 0
297975649 MPI_Allreduce 1
297975747 MPI_Allreduce 0
297975747 MPI_Allreduce 1
297975845 MPI_Allreduce 0
297975845 MPI_Allreduce 1
297975943 MPI_Allreduce 0
297975943 MPI_Allreduce 1
297976041 MPI_Allreduce 0
297976041 MPI_Allreduce 1
297976139 MPI_Allreduce 0
297976139 MPI_Allreduce 1
297976237 MPI_Allreduce 0
297976237 MPI_Allreduce 1
297976335 MPI_Allreduce 0
297976335 MPI_Allreduce 1
297976433 MPI_Allreduce 0
297976433 MPI_Allreduce 1
297976530 MPI_Allreduce 0
297976530 MPI_Allreduce 1
297976628 MPI_Allreduce 0
297976628 MPI_Allreduce 1
297976726 MPI_Allreduce 0
297976726 MPI_Allreduce 1
297976824 MPI_Allreduce 0
297976824 MPI_Allreduce 1
297976922 MPI_Allreduce 0
297976922 MPI_Allreduce 1
297977019 MPI_Allreduce 0
297977019 MPI_Allreduce 1
297977118 MPI_Allreduce 0
297977118 MPI_Allreduce 1
297977215 MPI_Allreduce 0
297977215 MPI_Allreduce 1
297977313 MPI_Allreduce 0
297977313 MPI_Allreduce 1
297977411 MPI_Allreduce 0
297977411 MPI_Allreduce 1
297977509 MPI_Allreduce 0
297977509 MPI_Allreduce 1
297977606 MPI_Allreduce 0
297977606 MPI_Allreduce 1
297977704 MPI_Allreduce 0
297977704 MPI_Allreduce 1
297977802 MPI_Allreduce 0
297977802 MPI_Allreduce 1
297977900 MPI_Allreduce 0
297977900 MPI_Allreduce 1
297977998 MPI_Allreduce 0
297977998 MPI_Allreduce 1
297978096 MPI_Allreduce 0
297978096 MPI_Allreduce 1
297978194 MPI_Allreduce 0
297978194 MPI_Allreduce 1
297978291 MPI_Allreduce 0
297978291 MPI_Allreduce 1
297978389 MPI_Allreduce 0
297978389 MPI_Allreduce 1
297978487 MPI_Allreduce 0
297978487 MPI_Allreduce 1
297978585 MPI_Allreduce 0
297978585 MPI_Allreduce 1
297978684 MPI_Allreduce 0
297978684 MPI_Allreduce 1
297978781 MPI_Allreduce 0
297978781 MPI_Allreduce 1
297978879 MPI_Allreduce 0
297978879 MPI_Allreduce 1
297978977 MPI_Allreduce 0
297978977 MPI_Allreduce 1
297979074 MPI_Allreduce 0
297979074 MPI_Allreduce 1
297979173 MPI_Allreduce 0
297979173 MPI_Allreduce 1
297979270 MPI_Allreduce 0
297979270 MPI_Allreduce 1
297979368 MPI_Allreduce 0
297979368 MPI_Allreduce 1
297979466 MPI_Allreduce 0
297979466 MPI_Allreduce 1
297979564 MPI_Allreduce 0
297979564 MPI_Allreduce 1
297979662 MPI_Allreduce 0
297979662 MPI_Allreduce 1
297979759 MPI_Allreduce 0
297979759 MPI_Allreduce 1
297979858 MPI_Allreduce 0
297979858 MPI_Allreduce 1
297979955 MPI_Allreduce 0
297979955 MPI_Allreduce 1
297980053 MPI_Allreduce 0
297980053 MPI_Allreduce 1
297980151 MPI_Allreduce 0
297980151 MPI_Allreduce 1
297980249 MPI_Allreduce 0
297980249 MPI_Allreduce 1
297980347 MPI_Allreduce 0
297980347 MPI_Allreduce 1
297980445 MPI_Allreduce 0
297980445 MPI_Allreduce 1
297980543 MPI_Allreduce 0
297980543 MPI_Allreduce 1
297980641 MPI_Allreduce 0
297980641 MPI_Allreduce 1
297980738 MPI_Allreduce 0
297980738 MPI_Allreduce 1
297980836 MPI_Allreduce 0
297980836 MPI_Allreduce 1
297980934 MPI_Allreduce 0
297980934 MPI_Allreduce 1
297981032 MPI_Allreduce 0
297981032 MPI_Allreduce 1
297981130 MPI_Allreduce 0
297981130 MPI_Allreduce 1
297981228 MPI_Allreduce 0
297981228 MPI_Allreduce 1
297981325 MPI_Allreduce 0
297981325 MPI_Allreduce 1
297981423 MPI_Allreduce 0
297981423 MPI_Allreduce 1
297981521 MPI_Allreduce 0
297981521 MPI_Allreduce 1
297981619 MPI_Allreduce 0
297981619 MPI_Allreduce 1
297981716 MPI_Allreduce 0
297981716 MPI_Allreduce 1
297981814 MPI_Allreduce 0
297981814 MPI_Allreduce 1
297981912 MPI_Allreduce 0
297981912 MPI_Allreduce 1
297982010 MPI_Allreduce 0
297982010 MPI_Allreduce 1
297982108 MPI_Allreduce 0
297982108 MPI_Allreduce 1
297982206 MPI_Allreduce 0
297982206 MPI_Allreduce 1
297982304 MPI_Allreduce 0
297982304 MPI_Allreduce 1
297982402 MPI_Allreduce 0
297982402 MPI_Allreduce 1
297982499 MPI_Allreduce 0
297982499 MPI_Allreduce 1
297982598 MPI_Allreduce 0
297982598 MPI_Allreduce 1
297982695 MPI_Allreduce 0
297982695 MPI_Allreduce 1
297982793 MPI_Allreduce 0
297982793 MPI_Allreduce 1
297982891 MPI_Allreduce 0
297982891 MPI_Allreduce 1
297982989 MPI_Allreduce 0
297982989 MPI_Allreduce 1
297983087 MPI_Allreduce 0
297983087 MPI_Allreduce 1
297983185 MPI_Allreduce 0
297983185 MPI_Allreduce 1
297983283 MPI_Allreduce 0
297983283 MPI_Allreduce 1
297983380 MPI_Allreduce 0
297983380 MPI_Allreduce 1
297983478 MPI_Allreduce 0
297983478 MPI_Allreduce 1
297983576 MPI_Allreduce 0
297983576 MPI_Allreduce 1
297983674 MPI_Allreduce 0
297983674 MPI_Allreduce 1
297983772 MPI_Allreduce 0
297983772 MPI_Allreduce 1
297983870 MPI_Allreduce 0
297983870 MPI_Allreduce 1
297983968 MPI_Allreduce 0
297983968 MPI_Allreduce 1
297984066 MPI_Allreduce 0
297984066 MPI_Allreduce 1
297984164 MPI_Allreduce 0
297984164 MPI_Allreduce 1
297984262 MPI_Allreduce 0
297984262 MPI_Allreduce 1
297984360 MPI_Allreduce 0
297984360 MPI_Allreduce 1
297984458 MPI_Allreduce 0
297984458 MPI_Allreduce 1
297984556 MPI_Allreduce 0
297984556 MPI_Allreduce 1
297984654 MPI_Allreduce 0
297984654 MPI_Allreduce 1
297984752 MPI_Allreduce 0
297984752 MPI_Allreduce 1
297984850 MPI_Allreduce 0
297984850 MPI_Allreduce 1
297984948 MPI_Allreduce 0
297984948 MPI_Allreduce 1
297985046 MPI_Allreduce 0
297985046 MPI_Allreduce 1
297985144 MPI_Allreduce 0
297985144 MPI_Allreduce 1
297985242 MPI_Allreduce 0
297985242 MPI_Allreduce 1
297985340 MPI_Allreduce 0
297985340 MPI_Allreduce 1
297985438 MPI_Allreduce 0
297985438 MPI_Allreduce 1
297985536 MPI_Allreduce 0
297985536 MPI_Allreduce 1
297985634 MPI_Allreduce 0
297985634 MPI_Allreduce 1
297985731 MPI_Allreduce 0
297985731 MPI_Allreduce 1
297985829 MPI_Allreduce 0
297985829 MPI_Allreduce 1
297985927 MPI_Allreduce 0
297985927 MPI_Allreduce 1
297986025 MPI_Allreduce 0
297986025 MPI_Allreduce 1
297986123 MPI_Allreduce 0
297986123 MPI_Allreduce 1
297986221 MPI_Allreduce 0
297986221 MPI_Allreduce 1
297986319 MPI_Allreduce 0
297986319 MPI_Allreduce 1
297986417 MPI_Allreduce 0
297986417 MPI_Allreduce 1
297986515 MPI_Allreduce 0
297986515 MPI_Allreduce 1
297986613 MPI_Allreduce 0
297986613 MPI_Allreduce 1
297986711 MPI_Allreduce 0
297986711 MPI_Allreduce 1
297986808 MPI_Allreduce 0
297986808 MPI_Allreduce 1
297986907 MPI_Allreduce 0
297986907 MPI_Allreduce 1
297987005 MPI_Allreduce 0
297987005 MPI_Allreduce 1
297987102 MPI_Allreduce 0
297987102 MPI_Allreduce 1
297987200 MPI_Allreduce 0
297987200 MPI_Allreduce 1
297987298 MPI_Allreduce 0
297987298 MPI_Allreduce 1
297987396 MPI_Allreduce 0
297987396 MPI_Allreduce 1
297987494 MPI_Allreduce 0
297987494 MPI_Allreduce 1
297987592 MPI_Allreduce 0
297987592 MPI_Allreduce 1
297987690 MPI_Allreduce 0
297987690 MPI_Allreduce 1
297987788 MPI_Allreduce 0
297987788 MPI_Allreduce 1
297987886 MPI_Allreduce 0
297987886 MPI_Allreduce 1
297987984 MPI_Allreduce 0
297987984 MPI_Allreduce 1
297988082 MPI_Allreduce 0
297988082 MPI_Allreduce 1
297988180 MPI_Allreduce 0
297988180 MPI_Allreduce 1
297988278 MPI_Allreduce 0
297988278 MPI_Allreduce 1
297988376 MPI_Allreduce 0
297988376 MPI_Allreduce 1
297988474 MPI_Allreduce 0
297988474 MPI_Allreduce 1
297988571 MPI_Allreduce 0
297988571 MPI_Allreduce 1
297988669 MPI_Allreduce 0
297988669 MPI_Allreduce 1
297988767 MPI_Allreduce 0
297988767 MPI_Allreduce 1
297988865 MPI_Allreduce 0
297988865 MPI_Allreduce 1
297988963 MPI_Allreduce 0
297988963 MPI_Allreduce 1
297989061 MPI_Allreduce 0
297989061 MPI_Allreduce 1
297989159 MPI_Allreduce 0
297989159 MPI_Allreduce 1
297989257 MPI_Allreduce 0
297989257 MPI_Allreduce 1
297989355 MPI_Allreduce 0
297989355 MPI_Allreduce 1
297989453 MPI_Allreduce 0
297989453 MPI_Allreduce 1
297989551 MPI_Allreduce 0
297989551 MPI_Allreduce 1
297989649 MPI_Allreduce 0
297989649 MPI_Allreduce 1
297989747 MPI_Allreduce 0
297989747 MPI_Allreduce 1
297989845 MPI_Allreduce 0
297989845 MPI_Allreduce 1
297989943 MPI_Allreduce 0
297989943 MPI_Allreduce 1
297990041 MPI_Allreduce 0
297990041 MPI_Allreduce 1
297990139 MPI_Allreduce 0
297990139 MPI_Allreduce 1
297990237 MPI_Allreduce 0
297990237 MPI_Allreduce 1
297990335 MPI_Allreduce 0
297990335 MPI_Allreduce 1
297990432 MPI_Allreduce 0
297990433 MPI_Allreduce 1
297990530 MPI_Allreduce 0
297990530 MPI_Allreduce 1
297990628 MPI_Allreduce 0
297990628 MPI_Allreduce 1
297990726 MPI_Allreduce 0
297990726 MPI_Allreduce 1
297990824 MPI_Allreduce 0
297990824 MPI_Allreduce 1
297990922 MPI_Allreduce 0
297990922 MPI_Allreduce 1
297991020 MPI_Allreduce 0
297991020 MPI_Allreduce 1
297991118 MPI_Allreduce 0
297991118 MPI_Allreduce 1
297991216 MPI_Allreduce 0
297991216 MPI_Allreduce 1
297991314 MPI_Allreduce 0
297991314 MPI_Allreduce 1
297991412 MPI_Allreduce 0
297991412 MPI_Allreduce 1
297991510 MPI_Allreduce 0
297991510 MPI_Allreduce 1
297991608 MPI_Allreduce 0
297991608 MPI_Allreduce 1
297991706 MPI_Allreduce 0
297991706 MPI_Allreduce 1
297991803 MPI_Allreduce 0
297991803 MPI_Allreduce 1
297991901 MPI_Allreduce 0
297991901 MPI_Allreduce 1
297991999 MPI_Allreduce 0
297991999 MPI_Allreduce 1
297992097 MPI_Allreduce 0
297992097 MPI_Allreduce 1
297992195 MPI_Allreduce 0
297992195 MPI_Allreduce 1
297992293 MPI_Allreduce 0
297992293 MPI_Allreduce 1
297992391 MPI_Allreduce 0
297992391 MPI_Allreduce 1
297992489 MPI_Allreduce 0
297992489 MPI_Allreduce 1
297992587 MPI_Allreduce 0
297992587 MPI_Allreduce 1
297992685 MPI_Allreduce 0
297992685 MPI_Allreduce 1
297992783 MPI_Allreduce 0
297992783 MPI_Allreduce 1
297992881 MPI_Allreduce 0
297992881 MPI_Allreduce 1
297992979 MPI_Allreduce 0
297992979 MPI_Allreduce 1
297993077 MPI_Allreduce 0
297993077 MPI_Allreduce 1
297993175 MPI_Allreduce 0
297993175 MPI_Allreduce 1
297993273 MPI_Allreduce 0
297993273 MPI_Allreduce 1
297993370 MPI_Allreduce 0
297993370 MPI_Allreduce 1
297993468 MPI_Allreduce 0
297993468 MPI_Allreduce 1
297993566 MPI_Allreduce 0
297993566 MPI_Allreduce 1
297993664 MPI_Allreduce 0
297993664 MPI_Allreduce 1
297993762 MPI_Allreduce 0
297993762 MPI_Allreduce 1
297993860 MPI_Allreduce 0
297993860 MPI_Allreduce 1
297993959 MPI_Allreduce 0
297993959 MPI_Allreduce 1
297994057 MPI_Allreduce 0
297994057 MPI_Allreduce 1
297994154 MPI_Allreduce 0
297994154 MPI_Allreduce 1
297994252 MPI_Allreduce 0
297994252 MPI_Allreduce 1
297994350 MPI_Allreduce 0
297994350 MPI_Allreduce 1
297994448 MPI_Allreduce 0
297994448 MPI_Allreduce 1
297994546 MPI_Allreduce 0
297994546 MPI_Allreduce 1
297994645 MPI_Allreduce 0
297994645 MPI_Allreduce 1
297994742 MPI_Allreduce 0
297994742 MPI_Allreduce 1
297994840 MPI_Allreduce 0
297994840 MPI_Allreduce 1
297994938 MPI_Allreduce 0
297994938 MPI_Allreduce 1
297995036 MPI_Allreduce 0
297995036 MPI_Allreduce 1
297995134 MPI_Allreduce 0
297995134 MPI_Allreduce 1
297995232 MPI_Allreduce 0
297995232 MPI_Allreduce 1
297995330 MPI_Allreduce 0
297995330 MPI_Allreduce 1
297995428 MPI_Allreduce 0
297995428 MPI_Allreduce 1
297995526 MPI_Allreduce 0
297995526 MPI_Allreduce 1
297995624 MPI_Allreduce 0
297995624 MPI_Allreduce 1
297995722 MPI_Allreduce 0
297995722 MPI_Allreduce 1
297995820 MPI_Allreduce 0
297995820 MPI_Allreduce 1
297995918 MPI_Allreduce 0
297995918 MPI_Allreduce 1
297996016 MPI_Allreduce 0
297996016 MPI_Allreduce 1
297996113 MPI_Allreduce 0
297996113 MPI_Allreduce 1
297996211 MPI_Allreduce 0
297996211 MPI_Allreduce 1
297996310 MPI_Allreduce 0
297996310 MPI_Allreduce 1
297996408 MPI_Allreduce 0
297996408 MPI_Allreduce 1
297996506 MPI_Allreduce 0
297996506 MPI_Allreduce 1
297996604 MPI_Allreduce 0
297996604 MPI_Allreduce 1
297996701 MPI_Allreduce 0
297996701 MPI_Allreduce 1
297996799 MPI_Allreduce 0
297996799 MPI_Allreduce 1
297996897 MPI_Allreduce 0
297996897 MPI_Allreduce 1
297996996 MPI_Allreduce 0
297996996 MPI_Allreduce 1
297997093 MPI_Allreduce 0
297997093 MPI_Allreduce 1
297997191 MPI_Allreduce 0
297997191 MPI_Allreduce 1
297997289 MPI_Allreduce 0
297997289 MPI_Allreduce 1
297997387 MPI_Allreduce 0
297997387 MPI_Allreduce 1
297997485 MPI_Allreduce 0
297997485 MPI_Allreduce 1
297997583 MPI_Allreduce 0
297997583 MPI_Allreduce 1
297997681 MPI_Allreduce 0
297997681 MPI_Allreduce 1
297997779 MPI_Allreduce 0
297997779 MPI_Allreduce 1
297997877 MPI_Allreduce 0
297997877 MPI_Allreduce 1
297997974 MPI_Allreduce 0
297997974 MPI_Allreduce 1
297998072 MPI_Allreduce 0
297998072 MPI_Allreduce 1
297998170 MPI_Allreduce 0
297998170 MPI_Allreduce 1
297998268 MPI_Allreduce 0
297998268 MPI_Allreduce 1
297998366 MPI_Allreduce 0
297998366 MPI_Allreduce 1
297998464 MPI_Allreduce 0
297998464 MPI_Allreduce 1
297998563 MPI_Allreduce 0
297998563 MPI_Allreduce 1
297998661 MPI_Allreduce 0
297998661 MPI_Allreduce 1
297998759 MPI_Allreduce 0
297998759 MPI_Allreduce 1
297998856 MPI_Allreduce 0
297998856 MPI_Allreduce 1
297998954 MPI_Allreduce 0
297998954 MPI_Allreduce 1
297999053 MPI_Allreduce 0
297999053 MPI_Allreduce 1
297999150 MPI_Allreduce 0
297999150 MPI_Allreduce 1
297999249 MPI_Allreduce 0
297999249 MPI_Allreduce 1
297999347 MPI_Allreduce 0
297999347 MPI_Allreduce 1
297999445 MPI_Allreduce 0
297999445 MPI_Allreduce 1
297999543 MPI_Allreduce 0
297999543 MPI_Allreduce 1
297999641 MPI_Allreduce 0
297999641 MPI_Allreduce 1
297999738 MPI_Allreduce 0
297999738 MPI_Allreduce 1
297999836 MPI_Allreduce 0
297999836 MPI_Allreduce 1
297999935 MPI_Allreduce 0
297999935 MPI_Allreduce 1
298000033 MPI_Allreduce 0
298000033 MPI_Allreduce 1
298000131 MPI_Allreduce 0
298000131 MPI_Allreduce 1
298000229 MPI_Allreduce 0
298000229 MPI_Allreduce 1
298000327 MPI_Allreduce 0
298000327 MPI_Allreduce 1
298000425 MPI_Allreduce 0
298000425 MPI_Allreduce 1
298000523 MPI_Allreduce 0
298000523 MPI_Allreduce 1
298000621 MPI_Allreduce 0
298000621 MPI_Allreduce 1
298000719 MPI_Allreduce 0
298000719 MPI_Allreduce 1
298000817 MPI_Allreduce 0
298000817 MPI_Allreduce 1
298000915 MPI_Allreduce 0
298000915 MPI_Allreduce 1
298001012 MPI_Allreduce 0
298001012 MPI_Allreduce 1
298001111 MPI_Allreduce 0
298001111 MPI_Allreduce 1
298001209 MPI_Allreduce 0
298001209 MPI_Allreduce 1
298001307 MPI_Allreduce 0
298001307 MPI_Allreduce 1
298001405 MPI_Allreduce 0
298001405 MPI_Allreduce 1
298001503 MPI_Allreduce 0
298001503 MPI_Allreduce 1
298001601 MPI_Allreduce 0
298001601 MPI_Allreduce 1
298001699 MPI_Allreduce 0
298001699 MPI_Allreduce 1
298001797 MPI_Allreduce 0
298001797 MPI_Allreduce 1
298001895 MPI_Allreduce 0
298001895 MPI_Allreduce 1
298001993 MPI_Allreduce 0
298001993 MPI_Allreduce 1
298002091 MPI_Allreduce 0
298002091 MPI_Allreduce 1
298002189 MPI_Allreduce 0
298002189 MPI_Allreduce 1
298002287 MPI_Allreduce 0
298002287 MPI_Allreduce 1
298002386 MPI_Allreduce 0
298002386 MPI_Allreduce 1
298002484 MPI_Allreduce 0
298002484 MPI_Allreduce 1
298002582 MPI_Allreduce 0
298002582 MPI_Allreduce 1
298002680 MPI_Allreduce 0
298002680 MPI_Allreduce 1
298002778 MPI_Allreduce 0
298002778 MPI_Allreduce 1
298002876 MPI_Allreduce 0
298002876 MPI_Allreduce 1
298002974 MPI_Allreduce 0
298002974 MPI_Allreduce 1
298003072 MPI_Allreduce 0
298003072 MPI_Allreduce 1
298003170 MPI_Allreduce 0
298003170 MPI_Allreduce 1
298003268 MPI_Allreduce 0
298003268 MPI_Allreduce 1
298003366 MPI_Allreduce 0
298003366 MPI_Allreduce 1
298003464 MPI_Allreduce 0
298003464 MPI_Allreduce 1
298003562 MPI_Allreduce 0
298003562 MPI_Allreduce 1
298003661 MPI_Allreduce 0
298003661 MPI_Allreduce 1
298003759 MPI_Allreduce 0
298003759 MPI_Allreduce 1
298003857 MPI_Allreduce 0
298003857 MPI_Allreduce 1
298003955 MPI_Allreduce 0
298003955 MPI_Allreduce 1
298004053 MPI_Allreduce 0
298004053 MPI_Allreduce 1
298004151 MPI_Allreduce 0
298004151 MPI_Allreduce 1
298004249 MPI_Allreduce 0
298004249 MPI_Allreduce 1
298004348 MPI_Allreduce 0
298004348 MPI_Allreduce 1
298004446 MPI_Allreduce 0
298004446 MPI_Allreduce 1
298004544 MPI_Allreduce 0
298004544 MPI_Allreduce 1
298004642 MPI_Allreduce 0
298004642 MPI_Allreduce 1
298004740 MPI_Allreduce 0
298004740 MPI_Allreduce 1
298004838 MPI_Allreduce 0
298004838 MPI_Allreduce 1
298004936 MPI_Allreduce 0
298004936 MPI_Allreduce 1
298005035 MPI_Allreduce 0
298005035 MPI_Allreduce 1
298005132 MPI_Allreduce 0
298005132 MPI_Allreduce 1
298005231 MPI_Allreduce 0
298005231 MPI_Allreduce 1
298005329 MPI_Allreduce 0
298005329 MPI_Allreduce 1
298005427 MPI_Allreduce 0
298005427 MPI_Allreduce 1
298005525 MPI_Allreduce 0
298005525 MPI_Allreduce 1
298005623 MPI_Allreduce 0
298005623 MPI_Allreduce 1
298005721 MPI_Allreduce 0
298005721 MPI_Allreduce 1
298005819 MPI_Allreduce 0
298005819 MPI_Allreduce 1
298005917 MPI_Allreduce 0
298005917 MPI_Allreduce 1
298006015 MPI_Allreduce 0
298006015 MPI_Allreduce 1
298006113 MPI_Allreduce 0
298006113 MPI_Allreduce 1
298006211 MPI_Allreduce 0
298006211 MPI_Allreduce 1
298006309 MPI_Allreduce 0
298006309 MPI_Allreduce 1
298006407 MPI_Allreduce 0
298006407 MPI_Allreduce 1
298006505 MPI_Allreduce 0
298006505 MPI_Allreduce 1
298006603 MPI_Allreduce 0
298006603 MPI_Allreduce 1
298006701 MPI_Allreduce 0
298006701 MPI_Allreduce 1
298006799 MPI_Allreduce 0
298006799 MPI_Allreduce 1
298006897 MPI_Allreduce 0
298006897 MPI_Allreduce 1
298006995 MPI_Allreduce 0
298006995 MPI_Allreduce 1
298007093 MPI_Allreduce 0
298007093 MPI_Allreduce 1
298007191 MPI_Allreduce 0
298007191 MPI_Allreduce 1
298007289 MPI_Allreduce 0
298007289 MPI_Allreduce 1
298007387 MPI_Allreduce 0
298007387 MPI_Allreduce 1
298007485 MPI_Allreduce 0
298007485 MPI_Allreduce 1
298007583 MPI_Allreduce 0
298007583 MPI_Allreduce 1
298007681 MPI_Allreduce 0
298007681 MPI_Allreduce 1
298007779 MPI_Allreduce 0
298007779 MPI_Allreduce 1
298007877 MPI_Allreduce 0
298007877 MPI_Allreduce 1
298007975 MPI_Allreduce 0
298007975 MPI_Allreduce 1
298008073 MPI_Allreduce 0
298008073 MPI_Allreduce 1
298008171 MPI_Allreduce 0
298008171 MPI_Allreduce 1
298008269 MPI_Allreduce 0
298008269 MPI_Allreduce 1
298008367 MPI_Allreduce 0
298008367 MPI_Allreduce 1
298008465 MPI_Allreduce 0
298008465 MPI_Allreduce 1
298008563 MPI_Allreduce 0
298008563 MPI_Allreduce 1
298008661 MPI_Allreduce 0
298008661 MPI_Allreduce 1
298008760 MPI_Allreduce 0
298008760 MPI_Allreduce 1
298008858 MPI_Allreduce 0
298008858 MPI_Allreduce 1
298008956 MPI_Allreduce 0
298008956 MPI_Allreduce 1
298009054 MPI_Allreduce 0
298009054 MPI_Allreduce 1
298009152 MPI_Allreduce 0
298009152 MPI_Allreduce 1
298009250 MPI_Allreduce 0
298009250 MPI_Allreduce 1
298009349 MPI_Allreduce 0
298009349 MPI_Allreduce 1
298009447 MPI_Allreduce 0
298009447 MPI_Allreduce 1
298009545 MPI_Allreduce 0
298009545 MPI_Allreduce 1
298009643 MPI_Allreduce 0
298009643 MPI_Allreduce 1
298009741 MPI_Allreduce 0
298009741 MPI_Allreduce 1
298009839 MPI_Allreduce 0
298009839 MPI_Allreduce 1
298009938 MPI_Allreduce 0
298009938 MPI_Allreduce 1
298010036 MPI_Allreduce 0
298010036 MPI_Allreduce 1
298010134 MPI_Allreduce 0
298010134 MPI_Allreduce 1
298010232 MPI_Allreduce 0
298010232 MPI_Allreduce 1
298010330 MPI_Allreduce 0
298010330 MPI_Allreduce 1
298010428 MPI_Allreduce 0
298010428 MPI_Allreduce 1
298010526 MPI_Allreduce 0
298010526 MPI_Allreduce 1
298010625 MPI_Allreduce 0
298010625 MPI_Allreduce 1
298010723 MPI_Allreduce 0
298010723 MPI_Allreduce 1
298010820 MPI_Allreduce 0
298010820 MPI_Allreduce 1
298010918 MPI_Allreduce 0
298010918 MPI_Allreduce 1
298011017 MPI_Allreduce 0
298011017 MPI_Allreduce 1
298011114 MPI_Allreduce 0
298011114 MPI_Allreduce 1
298011213 MPI_Allreduce 0
298011213 MPI_Allreduce 1
298011311 MPI_Allreduce 0
298011311 MPI_Allreduce 1
298011409 MPI_Allreduce 0
298011409 MPI_Allreduce 1
298011507 MPI_Allreduce 0
298011507 MPI_Allreduce 1
298011605 MPI_Allreduce 0
298011605 MPI_Allreduce 1
298011703 MPI_Allreduce 0
298011703 MPI_Allreduce 1
298011801 MPI_Allreduce 0
298011801 MPI_Allreduce 1
298011899 MPI_Allreduce 0
298011899 MPI_Allreduce 1
298011997 MPI_Allreduce 0
298011997 MPI_Allreduce 1
298012095 MPI_Allreduce 0
298012095 MPI_Allreduce 1
298012193 MPI_Allreduce 0
298012193 MPI_Allreduce 1
298012291 MPI_Allreduce 0
298012291 MPI_Allreduce 1
298012389 MPI_Allreduce 0
298012389 MPI_Allreduce 1
298012487 MPI_Allreduce 0
298012487 MPI_Allreduce 1
298012585 MPI_Allreduce 0
298012585 MPI_Allreduce 1
298012683 MPI_Allreduce 0
298012683 MPI_Allreduce 1
298012781 MPI_Allreduce 0
298012781 MPI_Allreduce 1
298012879 MPI_Allreduce 0
298012879 MPI_Allreduce 1
298012977 MPI_Allreduce 0
298012977 MPI_Allreduce 1
298013075 MPI_Allreduce 0
298013075 MPI_Allreduce 1
298013173 MPI_Allreduce 0
298013173 MPI_Allreduce 1
298013271 MPI_Allreduce 0
298013271 MPI_Allreduce 1
298013369 MPI_Allreduce 0
298013369 MPI_Allreduce 1
298013467 MPI_Allreduce 0
298013467 MPI_Allreduce 1
298013565 MPI_Allreduce 0
298013565 MPI_Allreduce 1
298013663 MPI_Allreduce 0
298013663 MPI_Allreduce 1
298013762 MPI_Allreduce 0
298013762 MPI_Allreduce 1
298013860 MPI_Allreduce 0
298013860 MPI_Allreduce 1
298013958 MPI_Allreduce 0
298013958 MPI_Allreduce 1
298014056 MPI_Allreduce 0
298014056 MPI_Allreduce 1
298014154 MPI_Allreduce 0
298014154 MPI_Allreduce 1
298014252 MPI_Allreduce 0
298014252 MPI_Allreduce 1
298014350 MPI_Allreduce 0
298014350 MPI_Allreduce 1
298014449 MPI_Allreduce 0
298014449 MPI_Allreduce 1
298014547 MPI_Allreduce 0
298014547 MPI_Allreduce 1
298014645 MPI_Allreduce 0
298014645 MPI_Allreduce 1
298014743 MPI_Allreduce 0
298014743 MPI_Allreduce 1
298014841 MPI_Allreduce 0
298014841 MPI_Allreduce 1
298014939 MPI_Allreduce 0
298014939 MPI_Allreduce 1
298015037 MPI_Allreduce 0
298015037 MPI_Allreduce 1
298015136 MPI_Allreduce 0
298015136 MPI_Allreduce 1
298015234 MPI_Allreduce 0
298015234 MPI_Allreduce 1
298015332 MPI_Allreduce 0
298015332 MPI_Allreduce 1
298015430 MPI_Allreduce 0
298015430 MPI_Allreduce 1
298015528 MPI_Allreduce 0
298015528 MPI_Allreduce 1
298015626 MPI_Allreduce 0
298015626 MPI_Allreduce 1
298015724 MPI_Allreduce 0
298015724 MPI_Allreduce 1
298015822 MPI_Allreduce 0
298015822 MPI_Allreduce 1
298015920 MPI_Allreduce 0
298015920 MPI_Allreduce 1
298016018 MPI_Allreduce 0
298016018 MPI_Allreduce 1
298016116 MPI_Allreduce 0
298016116 MPI_Allreduce 1
298016215 MPI_Allreduce 0
298016215 MPI_Allreduce 1
298016313 MPI_Allreduce 0
298016313 MPI_Allreduce 1
298016411 MPI_Allreduce 0
298016411 MPI_Allreduce 1
298016509 MPI_Allreduce 0
298016509 MPI_Allreduce 1
298016607 MPI_Allreduce 0
298016607 MPI_Allreduce 1
298016705 MPI_Allreduce 0
298016705 MPI_Allreduce 1
298016804 MPI_Allreduce 0
298016804 MPI_Allreduce 1
298016902 MPI_Allreduce 0
298016902 MPI_Allreduce 1
298017000 MPI_Allreduce 0
298017000 MPI_Allreduce 1
298017098 MPI_Allreduce 0
298017098 MPI_Allreduce 1
298017196 MPI_Allreduce 0
298017196 MPI_Allreduce 1
298017294 MPI_Allreduce 0
298017294 MPI_Allreduce 1
298017392 MPI_Allreduce 0
298017392 MPI_Allreduce 1
298017490 MPI_Allreduce 0
298017490 MPI_Allreduce 1
298017588 MPI_Allreduce 0
298017588 MPI_Allreduce 1
298017686 MPI_Allreduce 0
298017686 MPI_Allreduce 1
298017784 MPI_Allreduce 0
298017784 MPI_Allreduce 1
298017882 MPI_Allreduce 0
298017882 MPI_Allreduce 1
298017980 MPI_Allreduce 0
298017980 MPI_Allreduce 1
298018078 MPI_Allreduce 0
298018078 MPI_Allreduce 1
298018176 MPI_Allreduce 0
298018176 MPI_Allreduce 1
298018274 MPI_Allreduce 0
298018274 MPI_Allreduce 1
298018372 MPI_Allreduce 0
298018372 MPI_Allreduce 1
298018470 MPI_Allreduce 0
298018470 MPI_Allreduce 1
298018568 MPI_Allreduce 0
298018568 MPI_Allreduce 1
298018666 MPI_Allreduce 0
298018666 MPI_Allreduce 1
298018765 MPI_Allreduce 0
298018765 MPI_Allreduce 1
298018863 MPI_Allreduce 0
298018863 MPI_Allreduce 1
298018961 MPI_Allreduce 0
298018961 MPI_Allreduce 1
298019059 MPI_Allreduce 0
298019059 MPI_Allreduce 1
298019157 MPI_Allreduce 0
298019157 MPI_Allreduce 1
298019255 MPI_Allreduce 0
298019255 MPI_Allreduce 1
298019353 MPI_Allreduce 0
298019353 MPI_Allreduce 1
298019451 MPI_Allreduce 0
298019451 MPI_Allreduce 1
298019550 MPI_Allreduce 0
298019550 MPI_Allreduce 1
298019648 MPI_Allreduce 0
298019648 MPI_Allreduce 1
298019747 MPI_Allreduce 0
298019747 MPI_Allreduce 1
298019844 MPI_Allreduce 0
298019844 MPI_Allreduce 1
298019943 MPI_Allreduce 0
298019943 MPI_Allreduce 1
298020041 MPI_Allreduce 0
298020041 MPI_Allreduce 1
298020139 MPI_Allreduce 0
298020139 MPI_Allreduce 1
298020237 MPI_Allreduce 0
298020237 MPI_Allreduce 1
298020335 MPI_Allreduce 0
298020335 MPI_Allreduce 1
298020434 MPI_Allreduce 0
298020434 MPI_Allreduce 1
298020532 MPI_Allreduce 0
298020532 MPI_Allreduce 1
298020630 MPI_Allreduce 0
298020630 MPI_Allreduce 1
298020728 MPI_Allreduce 0
298020728 MPI_Allreduce 1
298020826 MPI_Allreduce 0
298020826 MPI_Allreduce 1
298020925 MPI_Allreduce 0
298020925 MPI_Allreduce 1
298021023 MPI_Allreduce 0
298021023 MPI_Allreduce 1
298021121 MPI_Allreduce 0
298021121 MPI_Allreduce 1
298021219 MPI_Allreduce 0
298021219 MPI_Allreduce 1
298021317 MPI_Allreduce 0
298021317 MPI_Allreduce 1
298021415 MPI_Allreduce 0
298021415 MPI_Allreduce 1
298021513 MPI_Allreduce 0
298021513 MPI_Allreduce 1
298021611 MPI_Allreduce 0
298021611 MPI_Allreduce 1
298021709 MPI_Allreduce 0
298021709 MPI_Allreduce 1
298021807 MPI_Allreduce 0
298021807 MPI_Allreduce 1
298021906 MPI_Allreduce 0
298021906 MPI_Allreduce 1
298022004 MPI_Allreduce 0
298022004 MPI_Allreduce 1
298022102 MPI_Allreduce 0
298022102 MPI_Allreduce 1
298022200 MPI_Allreduce 0
298022200 MPI_Allreduce 1
298022298 MPI_Allreduce 0
298022298 MPI_Allreduce 1
298022396 MPI_Allreduce 0
298022396 MPI_Allreduce 1
298022494 MPI_Allreduce 0
298022494 MPI_Allreduce 1
298022592 MPI_Allreduce 0
298022592 MPI_Allreduce 1
298022690 MPI_Allreduce 0
298022690 MPI_Allreduce 1
298022788 MPI_Allreduce 0
298022788 MPI_Allreduce 1
298022886 MPI_Allreduce 0
298022886 MPI_Allreduce 1
298022984 MPI_Allreduce 0
298022984 MPI_Allreduce 1
298023082 MPI_Allreduce 0
298023082 MPI_Allreduce 1
298023180 MPI_Allreduce 0
298023180 MPI_Allreduce 1
298023278 MPI_Allreduce 0
298023278 MPI_Allreduce 1
298023377 MPI_Allreduce 0
298023377 MPI_Allreduce 1
298023475 MPI_Allreduce 0
298023475 MPI_Allreduce 1
298023573 MPI_Allreduce 0
298023573 MPI_Allreduce 1
298023671 MPI_Allreduce 0
298023671 MPI_Allreduce 1
298023769 MPI_Allreduce 0
298023769 MPI_Allreduce 1
298023867 MPI_Allreduce 0
298023867 MPI_Allreduce 1
298023965 MPI_Allreduce 0
298023965 MPI_Allreduce 1
298024063 MPI_Allreduce 0
298024063 MPI_Allreduce 1
298024161 MPI_Allreduce 0
298024161 MPI_Allreduce 1
298024260 MPI_Allreduce 0
298024260 MPI_Allreduce 1
298024358 MPI_Allreduce 0
298024358 MPI_Allreduce 1
298024456 MPI_Allreduce 0
298024456 MPI_Allreduce 1
298024554 MPI_Allreduce 0
298024554 MPI_Allreduce 1
298024653 MPI_Allreduce 0
298024653 MPI_Allreduce 1
298024751 MPI_Allreduce 0
298024751 MPI_Allreduce 1
298024849 MPI_Allreduce 0
298024849 MPI_Allreduce 1
298024947 MPI_Allreduce 0
298024947 MPI_Allreduce 1
298025046 MPI_Allreduce 0
298025046 MPI_Allreduce 1
298025144 MPI_Allreduce 0
298025144 MPI_Allreduce 1
298025243 MPI_Allreduce 0
298025243 MPI_Allreduce 1
298025340 MPI_Allreduce 0
298025340 MPI_Allreduce 1
298025439 MPI_Allreduce 0
298025439 MPI_Allreduce 1
298025537 MPI_Allreduce 0
298025537 MPI_Allreduce 1
298025635 MPI_Allreduce 0
298025635 MPI_Allreduce 1
298025733 MPI_Allreduce 0
298025733 MPI_Allreduce 1
298025831 MPI_Allreduce 0
298025831 MPI_Allreduce 1
298025929 MPI_Allreduce 0
298025929 MPI_Allreduce 1
298026027 MPI_Allreduce 0
298026027 MPI_Allreduce 1
298026125 MPI_Allreduce 0
298026125 MPI_Allreduce 1
298026224 MPI_Allreduce 0
298026224 MPI_Allreduce 1
298026322 MPI_Allreduce 0
298026322 MPI_Allreduce 1
298026420 MPI_Allreduce 0
298026420 MPI_Allreduce 1
298026518 MPI_Allreduce 0
298026518 MPI_Allreduce 1
298026616 MPI_Allreduce 0
298026616 MPI_Allreduce 1
298026714 MPI_Allreduce 0
298026714 MPI_Allreduce 1
298026812 MPI_Allreduce 0
298026812 MPI_Allreduce 1
298026910 MPI_Allreduce 0
298026910 MPI_Allreduce 1
298027008 MPI_Allreduce 0
298027008 MPI_Allreduce 1
298027106 MPI_Allreduce 0
298027106 MPI_Allreduce 1
298027204 MPI_Allreduce 0
298027204 MPI_Allreduce 1
298027302 MPI_Allreduce 0
298027302 MPI_Allreduce 1
298027400 MPI_Allreduce 0
298027400 MPI_Allreduce 1
298027498 MPI_Allreduce 0
298027498 MPI_Allreduce 1
298027597 MPI_Allreduce 0
298027597 MPI_Allreduce 1
298027695 MPI_Allreduce 0
298027695 MPI_Allreduce 1
298027793 MPI_Allreduce 0
298027793 MPI_Allreduce 1
298027891 MPI_Allreduce 0
298027891 MPI_Allreduce 1
298027989 MPI_Allreduce 0
298027989 MPI_Allreduce 1
298028088 MPI_Allreduce 0
298028088 MPI_Allreduce 1
298028186 MPI_Allreduce 0
298028186 MPI_Allreduce 1
298028284 MPI_Allreduce 0
298028284 MPI_Allreduce 1
298028382 MPI_Allreduce 0
298028382 MPI_Allreduce 1
298028481 MPI_Allreduce 0
298028481 MPI_Allreduce 1
298028579 MPI_Allreduce 0
298028579 MPI_Allreduce 1
298028677 MPI_Allreduce 0
298028677 MPI_Allreduce 1
298028775 MPI_Allreduce 0
298028775 MPI_Allreduce 1
298028873 MPI_Allreduce 0
298028873 MPI_Allreduce 1
298028971 MPI_Allreduce 0
298028971 MPI_Allreduce 1
298029070 MPI_Allreduce 0
298029070 MPI_Allreduce 1
298029168 MPI_Allreduce 0
298029168 MPI_Allreduce 1
298029266 MPI_Allreduce 0
298029266 MPI_Allreduce 1
298029364 MPI_Allreduce 0
298029364 MPI_Allreduce 1
298029463 MPI_Allreduce 0
298029463 MPI_Allreduce 1
298029561 MPI_Allreduce 0
298029561 MPI_Allreduce 1
298029659 MPI_Allreduce 0
298029659 MPI_Allreduce 1
298029757 MPI_Allreduce 0
298029757 MPI_Allreduce 1
298029855 MPI_Allreduce 0
298029855 MPI_Allreduce 1
298029953 MPI_Allreduce 0
298029953 MPI_Allreduce 1
298030052 MPI_Allreduce 0
298030052 MPI_Allreduce 1
298030150 MPI_Allreduce 0
298030150 MPI_Allreduce 1
298030248 MPI_Allreduce 0
298030248 MPI_Allreduce 1
298030346 MPI_Allreduce 0
298030346 MPI_Allreduce 1
298030445 MPI_Allreduce 0
298030445 MPI_Allreduce 1
298030543 MPI_Allreduce 0
298030543 MPI_Allreduce 1
298030641 MPI_Allreduce 0
298030641 MPI_Allreduce 1
298030739 MPI_Allreduce 0
298030739 MPI_Allreduce 1
298030838 MPI_Allreduce 0
298030838 MPI_Allreduce 1
298030936 MPI_Allreduce 0
298030936 MPI_Allreduce 1
298031034 MPI_Allreduce 0
298031034 MPI_Allreduce 1
298031132 MPI_Allreduce 0
298031132 MPI_Allreduce 1
298031230 MPI_Allreduce 0
298031230 MPI_Allreduce 1
298031329 MPI_Allreduce 0
298031329 MPI_Allreduce 1
298031427 MPI_Allreduce 0
298031427 MPI_Allreduce 1
298031525 MPI_Allreduce 0
298031525 MPI_Allreduce 1
298031623 MPI_Allreduce 0
298031623 MPI_Allreduce 1
298031722 MPI_Allreduce 0
298031722 MPI_Allreduce 1
298031820 MPI_Allreduce 0
298031820 MPI_Allreduce 1
298031918 MPI_Allreduce 0
298031918 MPI_Allreduce 1
298032016 MPI_Allreduce 0
298032016 MPI_Allreduce 1
298032114 MPI_Allreduce 0
298032114 MPI_Allreduce 1
298032212 MPI_Allreduce 0
298032212 MPI_Allreduce 1
298032311 MPI_Allreduce 0
298032311 MPI_Allreduce 1
298032409 MPI_Allreduce 0
298032409 MPI_Allreduce 1
298032507 MPI_Allreduce 0
298032507 MPI_Allreduce 1
298032605 MPI_Allreduce 0
298032605 MPI_Allreduce 1
298032704 MPI_Allreduce 0
298032704 MPI_Allreduce 1
298032802 MPI_Allreduce 0
298032802 MPI_Allreduce 1
298032900 MPI_Allreduce 0
298032900 MPI_Allreduce 1
298032999 MPI_Allreduce 0
298032999 MPI_Allreduce 1
298033096 MPI_Allreduce 0
298033096 MPI_Allreduce 1
298033195 MPI_Allreduce 0
298033195 MPI_Allreduce 1
298033293 MPI_Allreduce 0
298033293 MPI_Allreduce 1
298033392 MPI_Allreduce 0
298033392 MPI_Allreduce 1
298033490 MPI_Allreduce 0
298033490 MPI_Allreduce 1
298033588 MPI_Allreduce 0
298033588 MPI_Allreduce 1
298033686 MPI_Allreduce 0
298033686 MPI_Allreduce 1
298033784 MPI_Allreduce 0
298033784 MPI_Allreduce 1
298033882 MPI_Allreduce 0
298033882 MPI_Allreduce 1
298033980 MPI_Allreduce 0
298033980 MPI_Allreduce 1
298034079 MPI_Allreduce 0
298034079 MPI_Allreduce 1
298034177 MPI_Allreduce 0
298034177 MPI_Allreduce 1
298034275 MPI_Allreduce 0
298034275 MPI_Allreduce 1
298034373 MPI_Allreduce 0
298034373 MPI_Allreduce 1
298034471 MPI_Allreduce 0
298034471 MPI_Allreduce 1
298034570 MPI_Allreduce 0
298034570 MPI_Allreduce 1
298034668 MPI_Allreduce 0
298034668 MPI_Allreduce 1
298034766 MPI_Allreduce 0
298034766 MPI_Allreduce 1
298034864 MPI_Allreduce 0
298034864 MPI_Allreduce 1
298034962 MPI_Allreduce 0
298034962 MPI_Allreduce 1
298035060 MPI_Allreduce 0
298035060 MPI_Allreduce 1
298035159 MPI_Allreduce 0
298035159 MPI_Allreduce 1
298035257 MPI_Allreduce 0
298035257 MPI_Allreduce 1
298035355 MPI_Allreduce 0
298035355 MPI_Allreduce 1
298035453 MPI_Allreduce 0
298035453 MPI_Allreduce 1
298035552 MPI_Allreduce 0
298035552 MPI_Allreduce 1
298035650 MPI_Allreduce 0
298035650 MPI_Allreduce 1
298035748 MPI_Allreduce 0
298035748 MPI_Allreduce 1
298035847 MPI_Allreduce 0
298035847 MPI_Allreduce 1
298035945 MPI_Allreduce 0
298035945 MPI_Allreduce 1
298036043 MPI_Allreduce 0
298036043 MPI_Allreduce 1
298036141 MPI_Allreduce 0
298036141 MPI_Allreduce 1
298036240 MPI_Allreduce 0
298036240 MPI_Allreduce 1
298036338 MPI_Allreduce 0
298036338 MPI_Allreduce 1
298036436 MPI_Allreduce 0
298036436 MPI_Allreduce 1
298036534 MPI_Allreduce 0
298036534 MPI_Allreduce 1
298036633 MPI_Allreduce 0
298036633 MPI_Allreduce 1
298036731 MPI_Allreduce 0
298036731 MPI_Allreduce 1
298036829 MPI_Allreduce 0
298036829 MPI_Allreduce 1
298036927 MPI_Allreduce 0
298036927 MPI_Allreduce 1
298037025 MPI_Allreduce 0
298037025 MPI_Allreduce 1
298037123 MPI_Allreduce 0
298037123 MPI_Allreduce 1
298037222 MPI_Allreduce 0
298037222 MPI_Allreduce 1
298037320 MPI_Allreduce 0
298037320 MPI_Allreduce 1
298037418 MPI_Allreduce 0
298037418 MPI_Allreduce 1
298037516 MPI_Allreduce 0
298037516 MPI_Allreduce 1
298037614 MPI_Allreduce 0
298037614 MPI_Allreduce 1
298037712 MPI_Allreduce 0
298037712 MPI_Allreduce 1
298037811 MPI_Allreduce 0
298037811 MPI_Allreduce 1
298037909 MPI_Allreduce 0
298037909 MPI_Allreduce 1
298038007 MPI_Allreduce 0
298038007 MPI_Allreduce 1
298038105 MPI_Allreduce 0
298038105 MPI_Allreduce 1
298038204 MPI_Allreduce 0
298038204 MPI_Allreduce 1
298038302 MPI_Allreduce 0
298038302 MPI_Allreduce 1
298038400 MPI_Allreduce 0
298038400 MPI_Allreduce 1
298038499 MPI_Allreduce 0
298038499 MPI_Allreduce 1
298038597 MPI_Allreduce 0
298038597 MPI_Allreduce 1
298038696 MPI_Allreduce 0
298038696 MPI_Allreduce 1
298038794 MPI_Allreduce 0
298038794 MPI_Allreduce 1
298038892 MPI_Allreduce 0
298038892 MPI_Allreduce 1
298038990 MPI_Allreduce 0
298038990 MPI_Allreduce 1
298039088 MPI_Allreduce 0
298039088 MPI_Allreduce 1
298039187 MPI_Allreduce 0
298039187 MPI_Allreduce 1
298039285 MPI_Allreduce 0
298039285 MPI_Allreduce 1
298039383 MPI_Allreduce 0
298039383 MPI_Allreduce 1
298039481 MPI_Allreduce 0
298039481 MPI_Allreduce 1
298039579 MPI_Allreduce 0
298039579 MPI_Allreduce 1
298039678 MPI_Allreduce 0
298039678 MPI_Allreduce 1
298039775 MPI_Allreduce 0
298039775 MPI_Allreduce 1
298039874 MPI_Allreduce 0
298039874 MPI_Allreduce 1
298039972 MPI_Allreduce 0
298039972 MPI_Allreduce 1
298040070 MPI_Allreduce 0
298040070 MPI_Allreduce 1
298040168 MPI_Allreduce 0
298040168 MPI_Allreduce 1
298040267 MPI_Allreduce 0
298040267 MPI_Allreduce 1
298040365 MPI_Allreduce 0
298040365 MPI_Allreduce 1
298040463 MPI_Allreduce 0
298040463 MPI_Allreduce 1
298040562 MPI_Allreduce 0
298040562 MPI_Allreduce 1
298040660 MPI_Allreduce 0
298040660 MPI_Allreduce 1
298040759 MPI_Allreduce 0
298040759 MPI_Allreduce 1
298040857 MPI_Allreduce 0
298040857 MPI_Allreduce 1
298040955 MPI_Allreduce 0
298040955 MPI_Allreduce 1
298041054 MPI_Allreduce 0
298041054 MPI_Allreduce 1
298041152 MPI_Allreduce 0
298041152 MPI_Allreduce 1
298041251 MPI_Allreduce 0
298041251 MPI_Allreduce 1
298041349 MPI_Allreduce 0
298041349 MPI_Allreduce 1
298041447 MPI_Allreduce 0
298041447 MPI_Allreduce 1
298041546 MPI_Allreduce 0
298041546 MPI_Allreduce 1
298041644 MPI_Allreduce 0
298041644 MPI_Allreduce 1
298041743 MPI_Allreduce 0
298041743 MPI_Allreduce 1
298041841 MPI_Allreduce 0
298041841 MPI_Allreduce 1
298041939 MPI_Allreduce 0
298041939 MPI_Allreduce 1
298042038 MPI_Allreduce 0
298042038 MPI_Allreduce 1
298042136 MPI_Allreduce 0
298042136 MPI_Allreduce 1
298042234 MPI_Allreduce 0
298042234 MPI_Allreduce 1
298042332 MPI_Allreduce 0
298042332 MPI_Allreduce 1
298042431 MPI_Allreduce 0
298042431 MPI_Allreduce 1
298042529 MPI_Allreduce 0
298042529 MPI_Allreduce 1
298042627 MPI_Allreduce 0
298042627 MPI_Allreduce 1
298042726 MPI_Allreduce 0
298042726 MPI_Allreduce 1
298042824 MPI_Allreduce 0
298042824 MPI_Allreduce 1
298042922 MPI_Allreduce 0
298042922 MPI_Allreduce 1
298043021 MPI_Allreduce 0
298043021 MPI_Allreduce 1
298043119 MPI_Allreduce 0
298043119 MPI_Allreduce 1
298043218 MPI_Allreduce 0
298043218 MPI_Allreduce 1
298043316 MPI_Allreduce 0
298043316 MPI_Allreduce 1
298043414 MPI_Allreduce 0
298043414 MPI_Allreduce 1
298043513 MPI_Allreduce 0
298043513 MPI_Allreduce 1
298043611 MPI_Allreduce 0
298043611 MPI_Allreduce 1
298043710 MPI_Allreduce 0
298043710 MPI_Allreduce 1
298043808 MPI_Allreduce 0
298043808 MPI_Allreduce 1
298043906 MPI_Allreduce 0
298043906 MPI_Allreduce 1
298044004 MPI_Allreduce 0
298044004 MPI_Allreduce 1
298044103 MPI_Allreduce 0
298044103 MPI_Allreduce 1
298044201 MPI_Allreduce 0
298044201 MPI_Allreduce 1
298044300 MPI_Allreduce 0
298044300 MPI_Allreduce 1
298044398 MPI_Allreduce 0
298044398 MPI_Allreduce 1
298044496 MPI_Allreduce 0
298044496 MPI_Allreduce 1
298044594 MPI_Allreduce 0
298044594 MPI_Allreduce 1
298044693 MPI_Allreduce 0
298044693 MPI_Allreduce 1
298044791 MPI_Allreduce 0
298044791 MPI_Allreduce 1
298044890 MPI_Allreduce 0
298044890 MPI_Allreduce 1
298044988 MPI_Allreduce 0
298044988 MPI_Allreduce 1
298045086 MPI_Allreduce 0
298045086 MPI_Allreduce 1
298045185 MPI_Allreduce 0
298045185 MPI_Allreduce 1
298045283 MPI_Allreduce 0
298045283 MPI_Allreduce 1
298045381 MPI_Allreduce 0
298045381 MPI_Allreduce 1
298045480 MPI_Allreduce 0
298045480 MPI_Allreduce 1
298045578 MPI_Allreduce 0
298045578 MPI_Allreduce 1
298045677 MPI_Allreduce 0
298045677 MPI_Allreduce 1
298045775 MPI_Allreduce 0
298045775 MPI_Allreduce 1
298045873 MPI_Allreduce 0
298045873 MPI_Allreduce 1
298045971 MPI_Allreduce 0
298045971 MPI_Allreduce 1
298046069 MPI_Allreduce 0
298046069 MPI_Allreduce 1
298046168 MPI_Allreduce 0
298046168 MPI_Allreduce 1
298046266 MPI_Allreduce 0
298046266 MPI_Allreduce 1
298046365 MPI_Allreduce 0
298046365 MPI_Allreduce 1
298046463 MPI_Allreduce 0
298046463 MPI_Allreduce 1
298046562 MPI_Allreduce 0
298046562 MPI_Allreduce 1
298046660 MPI_Allreduce 0
298046660 MPI_Allreduce 1
298046759 MPI_Allreduce 0
298046759 MPI_Allreduce 1
298046857 MPI_Allreduce 0
298046857 MPI_Allreduce 1
298046956 MPI_Allreduce 0
298046956 MPI_Allreduce 1
298047054 MPI_Allreduce 0
298047054 MPI_Allreduce 1
298047153 MPI_Allreduce 0
298047153 MPI_Allreduce 1
298047251 MPI_Allreduce 0
298047251 MPI_Allreduce 1
298047350 MPI_Allreduce 0
298047350 MPI_Allreduce 1
298047448 MPI_Allreduce 0
298047448 MPI_Allreduce 1
298047546 MPI_Allreduce 0
298047546 MPI_Allreduce 1
298047645 MPI_Allreduce 0
298047645 MPI_Allreduce 1
298047743 MPI_Allreduce 0
298047743 MPI_Allreduce 1
298047841 MPI_Allreduce 0
298047841 MPI_Allreduce 1
298047939 MPI_Allreduce 0
298047939 MPI_Allreduce 1
298048038 MPI_Allreduce 0
298048038 MPI_Allreduce 1
298048136 MPI_Allreduce 0
298048136 MPI_Allreduce 1
298048235 MPI_Allreduce 0
298048235 MPI_Allreduce 1
298048333 MPI_Allreduce 0
298048333 MPI_Allreduce 1
298048431 MPI_Allreduce 0
298048431 MPI_Allreduce 1
298048530 MPI_Allreduce 0
298048530 MPI_Allreduce 1
298048628 MPI_Allreduce 0
298048628 MPI_Allreduce 1
298048726 MPI_Allreduce 0
298048726 MPI_Allreduce 1
298048824 MPI_Allreduce 0
298048824 MPI_Allreduce 1
298048923 MPI_Allreduce 0
298048923 MPI_Allreduce 1
298049021 MPI_Allreduce 0
298049021 MPI_Allreduce 1
298049119 MPI_Allreduce 0
298049119 MPI_Allreduce 1
298049218 MPI_Allreduce 0
298049218 MPI_Allreduce 1
298049316 MPI_Allreduce 0
298049316 MPI_Allreduce 1
298049414 MPI_Allreduce 0
298049414 MPI_Allreduce 1
298049512 MPI_Allreduce 0
298049512 MPI_Allreduce 1
298049611 MPI_Allreduce 0
298049611 MPI_Allreduce 1
298049709 MPI_Allreduce 0
298049709 MPI_Allreduce 1
298049807 MPI_Allreduce 0
298049807 MPI_Allreduce 1
298049906 MPI_Allreduce 0
298049906 MPI_Allreduce 1
298050004 MPI_Allreduce 0
298050004 MPI_Allreduce 1
298050102 MPI_Allreduce 0
298050102 MPI_Allreduce 1
298050200 MPI_Allreduce 0
298050200 MPI_Allreduce 1
298050298 MPI_Allreduce 0
298050298 MPI_Allreduce 1
298050397 MPI_Allreduce 0
298050397 MPI_Allreduce 1
298050495 MPI_Allreduce 0
298050495 MPI_Allreduce 1
298050593 MPI_Allreduce 0
298050593 MPI_Allreduce 1
298050691 MPI_Allreduce 0
298050691 MPI_Allreduce 1
298050790 MPI_Allreduce 0
298050790 MPI_Allreduce 1
298050888 MPI_Allreduce 0
298050888 MPI_Allreduce 1
298050986 MPI_Allreduce 0
298050986 MPI_Allreduce 1
298051085 MPI_Allreduce 0
298051085 MPI_Allreduce 1
298051183 MPI_Allreduce 0
298051183 MPI_Allreduce 1
298051281 MPI_Allreduce 0
298051281 MPI_Allreduce 1
298051379 MPI_Allreduce 0
298051379 MPI_Allreduce 1
298051478 MPI_Allreduce 0
298051478 MPI_Allreduce 1
298051576 MPI_Allreduce 0
298051576 MPI_Allreduce 1
298051674 MPI_Allreduce 0
298051674 MPI_Allreduce 1
298051773 MPI_Allreduce 0
298051773 MPI_Allreduce 1
298051871 MPI_Allreduce 0
298051871 MPI_Allreduce 1
298051969 MPI_Allreduce 0
298051969 MPI_Allreduce 1
298052067 MPI_Allreduce 0
298052067 MPI_Allreduce 1
298052165 MPI_Allreduce 0
298052165 MPI_Allreduce 1
298052264 MPI_Allreduce 0
298052264 MPI_Allreduce 1
298052362 MPI_Allreduce 0
298052362 MPI_Allreduce 1
298052461 MPI_Allreduce 0
298052461 MPI_Allreduce 1
298052559 MPI_Allreduce 0
298052559 MPI_Allreduce 1
298052658 MPI_Allreduce 0
298052658 MPI_Allreduce 1
298052756 MPI_Allreduce 0
298052756 MPI_Allreduce 1
298052854 MPI_Allreduce 0
298052854 MPI_Allreduce 1
298052952 MPI_Allreduce 0
298052952 MPI_Allreduce 1
298053050 MPI_Allreduce 0
298053050 MPI_Allreduce 1
298053149 MPI_Allreduce 0
298053149 MPI_Allreduce 1
298053247 MPI_Allreduce 0
298053247 MPI_Allreduce 1
298053346 MPI_Allreduce 0
298053346 MPI_Allreduce 1
298053444 MPI_Allreduce 0
298053444 MPI_Allreduce 1
298053542 MPI_Allreduce 0
298053542 MPI_Allreduce 1
298053641 MPI_Allreduce 0
298053641 MPI_Allreduce 1
298053739 MPI_Allreduce 0
298053739 MPI_Allreduce 1
298053838 MPI_Allreduce 0
298053838 MPI_Allreduce 1
298053936 MPI_Allreduce 0
298053936 MPI_Allreduce 1
298054035 MPI_Allreduce 0
298054035 MPI_Allreduce 1
298054133 MPI_Allreduce 0
298054133 MPI_Allreduce 1
298054231 MPI_Allreduce 0
298054231 MPI_Allreduce 1
298054330 MPI_Allreduce 0
298054330 MPI_Allreduce 1
298054428 MPI_Allreduce 0
298054428 MPI_Allreduce 1
298054526 MPI_Allreduce 0
298054526 MPI_Allreduce 1
298054625 MPI_Allreduce 0
298054625 MPI_Allreduce 1
298054723 MPI_Allreduce 0
298054723 MPI_Allreduce 1
298054821 MPI_Allreduce 0
298054821 MPI_Allreduce 1
298054919 MPI_Allreduce 0
298054919 MPI_Allreduce 1
298055018 MPI_Allreduce 0
298055018 MPI_Allreduce 1
298055116 MPI_Allreduce 0
298055116 MPI_Allreduce 1
298055214 MPI_Allreduce 0
298055214 MPI_Allreduce 1
298055312 MPI_Allreduce 0
298055312 MPI_Allreduce 1
298055411 MPI_Allreduce 0
298055411 MPI_Allreduce 1
298055509 MPI_Allreduce 0
298055509 MPI_Allreduce 1
298055607 MPI_Allreduce 0
298055607 MPI_Allreduce 1
298055706 MPI_Allreduce 0
298055706 MPI_Allreduce 1
298055804 MPI_Allreduce 0
298055804 MPI_Allreduce 1
298055902 MPI_Allreduce 0
298055902 MPI_Allreduce 1
298056000 MPI_Allreduce 0
298056000 MPI_Allreduce 1
298056099 MPI_Allreduce 0
298056099 MPI_Allreduce 1
298056197 MPI_Allreduce 0
298056197 MPI_Allreduce 1
298056296 MPI_Allreduce 0
298056296 MPI_Allreduce 1
298056394 MPI_Allreduce 0
298056394 MPI_Allreduce 1
298056492 MPI_Allreduce 0
298056492 MPI_Allreduce 1
298056590 MPI_Allreduce 0
298056590 MPI_Allreduce 1
298056688 MPI_Allreduce 0
298056688 MPI_Allreduce 1
298056787 MPI_Allreduce 0
298056787 MPI_Allreduce 1
298056885 MPI_Allreduce 0
298056885 MPI_Allreduce 1
298056983 MPI_Allreduce 0
298056983 MPI_Allreduce 1
298057082 MPI_Allreduce 0
298057082 MPI_Allreduce 1
298057180 MPI_Allreduce 0
298057180 MPI_Allreduce 1
298057278 MPI_Allreduce 0
298057278 MPI_Allreduce 1
298057376 MPI_Allreduce 0
298057376 MPI_Allreduce 1
298057474 MPI_Allreduce 0
298057474 MPI_Allreduce 1
298057573 MPI_Allreduce 0
298057573 MPI_Allreduce 1
298057671 MPI_Allreduce 0
298057671 MPI_Allreduce 1
298057769 MPI_Allreduce 0
298057769 MPI_Allreduce 1
298057867 MPI_Allreduce 0
298057867 MPI_Allreduce 1
298057966 MPI_Allreduce 0
298057966 MPI_Allreduce 1
298058064 MPI_Allreduce 0
298058064 MPI_Allreduce 1
298058162 MPI_Allreduce 0
298058162 MPI_Allreduce 1
298058261 MPI_Allreduce 0
298058261 MPI_Allreduce 1
298058359 MPI_Allreduce 0
298058359 MPI_Allreduce 1
298058458 MPI_Allreduce 0
298058458 MPI_Allreduce 1
298058556 MPI_Allreduce 0
298058556 MPI_Allreduce 1
298058654 MPI_Allreduce 0
298058654 MPI_Allreduce 1
298058753 MPI_Allreduce 0
298058753 MPI_Allreduce 1
298058851 MPI_Allreduce 0
298058851 MPI_Allreduce 1
298058950 MPI_Allreduce 0
298058950 MPI_Allreduce 1
298059048 MPI_Allreduce 0
298059048 MPI_Allreduce 1
298059146 MPI_Allreduce 0
298059146 MPI_Allreduce 1
298059244 MPI_Allreduce 0
298059244 MPI_Allreduce 1
298059343 MPI_Allreduce 0
298059343 MPI_Allreduce 1
298059441 MPI_Allreduce 0
298059441 MPI_Allreduce 1
298059539 MPI_Allreduce 0
298059539 MPI_Allreduce 1
298059638 MPI_Allreduce 0
298059638 MPI_Allreduce 1
298059736 MPI_Allreduce 0
298059736 MPI_Allreduce 1
298059834 MPI_Allreduce 0
298059834 MPI_Allreduce 1
298059933 MPI_Allreduce 0
298059933 MPI_Allreduce 1
298060031 MPI_Allreduce 0
298060031 MPI_Allreduce 1
298060129 MPI_Allreduce 0
298060129 MPI_Allreduce 1
298060228 MPI_Allreduce 0
298060228 MPI_Allreduce 1
298060326 MPI_Allreduce 0
298060326 MPI_Allreduce 1
298060424 MPI_Allreduce 0
298060424 MPI_Allreduce 1
298060522 MPI_Allreduce 0
298060522 MPI_Allreduce 1
298060621 MPI_Allreduce 0
298060621 MPI_Allreduce 1
298060719 MPI_Allreduce 0
298060719 MPI_Allreduce 1
298060817 MPI_Allreduce 0
298060817 MPI_Allreduce 1
298060916 MPI_Allreduce 0
298060916 MPI_Allreduce 1
298061014 MPI_Allreduce 0
298061014 MPI_Allreduce 1
298061113 MPI_Allreduce 0
298061113 MPI_Allreduce 1
298061211 MPI_Allreduce 0
298061211 MPI_Allreduce 1
298061309 MPI_Allreduce 0
298061309 MPI_Allreduce 1
298061408 MPI_Allreduce 0
298061408 MPI_Allreduce 1
298061506 MPI_Allreduce 0
298061506 MPI_Allreduce 1
298061604 MPI_Allreduce 0
298061604 MPI_Allreduce 1
298061702 MPI_Allreduce 0
298061702 MPI_Allreduce 1
298061801 MPI_Allreduce 0
298061801 MPI_Allreduce 1
298061899 MPI_Allreduce 0
298061899 MPI_Allreduce 1
298061997 MPI_Allreduce 0
298061997 MPI_Allreduce 1
298062095 MPI_Allreduce 0
298062095 MPI_Allreduce 1
298062193 MPI_Allreduce 0
298062193 MPI_Allreduce 1
298062292 MPI_Allreduce 0
298062292 MPI_Allreduce 1
298062390 MPI_Allreduce 0
298062390 MPI_Allreduce 1
298062489 MPI_Allreduce 0
298062489 MPI_Allreduce 1
298062587 MPI_Allreduce 0
298062587 MPI_Allreduce 1
298062685 MPI_Allreduce 0
298062685 MPI_Allreduce 1
298062783 MPI_Allreduce 0
298062783 MPI_Allreduce 1
298062881 MPI_Allreduce 0
298062881 MPI_Allreduce 1
298062979 MPI_Allreduce 0
298062979 MPI_Allreduce 1
298063078 MPI_Allreduce 0
298063078 MPI_Allreduce 1
298063176 MPI_Allreduce 0
298063176 MPI_Allreduce 1
298063274 MPI_Allreduce 0
298063274 MPI_Allreduce 1
298063373 MPI_Allreduce 0
298063373 MPI_Allreduce 1
298063471 MPI_Allreduce 0
298063471 MPI_Allreduce 1
298063569 MPI_Allreduce 0
298063569 MPI_Allreduce 1
298063667 MPI_Allreduce 0
298063667 MPI_Allreduce 1
298063766 MPI_Allreduce 0
298063766 MPI_Allreduce 1
298063865 MPI_Allreduce 0
298063865 MPI_Allreduce 1
298063963 MPI_Allreduce 0
298063963 MPI_Allreduce 1
298064061 MPI_Allreduce 0
298064061 MPI_Allreduce 1
298064160 MPI_Allreduce 0
298064160 MPI_Allreduce 1
298064258 MPI_Allreduce 0
298064258 MPI_Allreduce 1
298064356 MPI_Allreduce 0
298064356 MPI_Allreduce 1
298064454 MPI_Allreduce 0
298064454 MPI_Allreduce 1
298064553 MPI_Allreduce 0
298064553 MPI_Allreduce 1
298064651 MPI_Allreduce 0
298064651 MPI_Allreduce 1
298064750 MPI_Allreduce 0
298064750 MPI_Allreduce 1
298064848 MPI_Allreduce 0
298064848 MPI_Allreduce 1
298064946 MPI_Allreduce 0
298064946 MPI_Allreduce 1
298065045 MPI_Allreduce 0
298065045 MPI_Allreduce 1
298065143 MPI_Allreduce 0
298065143 MPI_Allreduce 1
298065241 MPI_Allreduce 0
298065241 MPI_Allreduce 1
298065340 MPI_Allreduce 0
298065340 MPI_Allreduce 1
298065438 MPI_Allreduce 0
298065438 MPI_Allreduce 1
298065536 MPI_Allreduce 0
298065536 MPI_Allreduce 1
298065635 MPI_Allreduce 0
298065635 MPI_Allreduce 1
298065733 MPI_Allreduce 0
298065733 MPI_Allreduce 1
298065831 MPI_Allreduce 0
298065831 MPI_Allreduce 1
298065930 MPI_Allreduce 0
298065930 MPI_Allreduce 1
298066028 MPI_Allreduce 0
298066028 MPI_Allreduce 1
298066126 MPI_Allreduce 0
298066126 MPI_Allreduce 1
298066224 MPI_Allreduce 0
298066224 MPI_Allreduce 1
298066323 MPI_Allreduce 0
298066323 MPI_Allreduce 1
298066421 MPI_Allreduce 0
298066421 MPI_Allreduce 1
298066519 MPI_Allreduce 0
298066519 MPI_Allreduce 1
298066617 MPI_Allreduce 0
298066617 MPI_Allreduce 1
298066715 MPI_Allreduce 0
298066715 MPI_Allreduce 1
298066813 MPI_Allreduce 0
298066813 MPI_Allreduce 1
298066912 MPI_Allreduce 0
298066912 MPI_Allreduce 1
298067010 MPI_Allreduce 0
298067010 MPI_Allreduce 1
298067109 MPI_Allreduce 0
298067109 MPI_Allreduce 1
298067207 MPI_Allreduce 0
298067207 MPI_Allreduce 1
298067305 MPI_Allreduce 0
298067305 MPI_Allreduce 1
298067403 MPI_Allreduce 0
298067403 MPI_Allreduce 1
298067502 MPI_Allreduce 0
298067502 MPI_Allreduce 1
298067600 MPI_Allreduce 0
298067600 MPI_Allreduce 1
298067699 MPI_Allreduce 0
298067699 MPI_Allreduce 1
298067797 MPI_Allreduce 0
298067797 MPI_Allreduce 1
298067895 MPI_Allreduce 0
298067895 MPI_Allreduce 1
298067993 MPI_Allreduce 0
298067993 MPI_Allreduce 1
298068091 MPI_Allreduce 0
298068091 MPI_Allreduce 1
298068190 MPI_Allreduce 0
298068190 MPI_Allreduce 1
298068288 MPI_Allreduce 0
298068288 MPI_Allreduce 1
298068387 MPI_Allreduce 0
298068387 MPI_Allreduce 1
298068485 MPI_Allreduce 0
298068485 MPI_Allreduce 1
298068584 MPI_Allreduce 0
298068584 MPI_Allreduce 1
298068682 MPI_Allreduce 0
298068682 MPI_Allreduce 1
298068780 MPI_Allreduce 0
298068780 MPI_Allreduce 1
298068878 MPI_Allreduce 0
298068878 MPI_Allreduce 1
298068976 MPI_Allreduce 0
298068976 MPI_Allreduce 1
298069074 MPI_Allreduce 0
298069074 MPI_Allreduce 1
298069173 MPI_Allreduce 0
298069173 MPI_Allreduce 1
298069271 MPI_Allreduce 0
298069271 MPI_Allreduce 1
298069369 MPI_Allreduce 0
298069369 MPI_Allreduce 1
298069468 MPI_Allreduce 0
298069468 MPI_Allreduce 1
298069566 MPI_Allreduce 0
298069566 MPI_Allreduce 1
298069664 MPI_Allreduce 0
298069664 MPI_Allreduce 1
298069762 MPI_Allreduce 0
298069762 MPI_Allreduce 1
298069861 MPI_Allreduce 0
298069861 MPI_Allreduce 1
298069959 MPI_Reduce 0
298069959 MPI_Reduce 1
