------------
Profiler Configuration
output path: /home/tc/pwr2018_data/output_fixed/miniFE_proc2/cap_10-5/nowrapper-1
monitoring frequency: 100000000 nano seconds
------------
MiniFE Mini-App, OpenMP Peer Implementation
Creating OpenMP Thread Pool...
Counted: 4 threads.
Running MiniFE Mini-App...
      creating/filling mesh...0.108523s, total time: 0.108523
generating matrix structure...3.94571s, total time: 4.05424
         assembling FE data...14.3791s, total time: 18.4333
      imposing Dirichlet BC...4.54222s, total time: 22.9756
      imposing Dirichlet BC...1.7351s, total time: 24.7107
making matrix indices local...0.583534s, total time: 25.2942
Starting CG solver ... 
Initial Residual = 231.002
Iteration = 20   Residual = 0.0570243
Iteration = 40   Residual = 0.0264371
Iteration = 60   Residual = 0.0154225
Iteration = 80   Residual = 0.0103041
Iteration = 100   Residual = 0.0172837
Iteration = 120   Residual = 0.00539683
Iteration = 140   Residual = 0.00394315
Iteration = 160   Residual = 0.00283027
Iteration = 180   Residual = 0.00200107
Iteration = 200   Residual = 0.00264971
Final Resid Norm: 0.00264971
