------------
Profiler Configuration
output path: /home/tc/pwr2018_data/output_fixed/graph500_proc2/cap_9-5/profiler-3
monitoring frequency: 100000000 nano seconds
------------
SCALE:                          20
edgefactor:                     16
NBFS:                           64
graph_generation:               3.90698
num_mpi_processes:              2
construction_time:              1.04612
bfs  min_time:                  0.353206
bfs  firstquartile_time:        0.371982
bfs  median_time:               0.38793
bfs  thirdquartile_time:        0.389213
bfs  max_time:                  0.393548
bfs  mean_time:                 0.380387
bfs  stddev_time:               0.0149298
min_nedge:                      16775818
firstquartile_nedge:            16775818
median_nedge:                   16775818
thirdquartile_nedge:            16775818
max_nedge:                      16775818
mean_nedge:                     16775818
stddev_nedge:                   0
bfs  min_TEPS:                  4.26271e+07
bfs  firstquartile_TEPS:        4.31019e+07
bfs  median_TEPS:               4.32444e+07
bfs  thirdquartile_TEPS:        4.50984e+07
bfs  max_TEPS:                  4.74958e+07
bfs  harmonic_mean_TEPS:     !  4.4102e+07
bfs  harmonic_stddev_TEPS:      218080
bfs  min_validate:              1.35224
bfs  firstquartile_validate:    1.37003
bfs  median_validate:           1.37182
bfs  thirdquartile_validate:    1.38496
bfs  max_validate:              1.39616
bfs  mean_validate:             1.37534
bfs  stddev_validate:           0.0097804
