/dev/cpu/msr_batch: No such file or directory
graph_generation:               6.445297 s
construction_time:              1.042893 s
Running BFS 0
Time for BFS 0 is 0.259244
TEPS for BFS 0 is 6.47105e+07
Validating BFS 0
Validate time for BFS 0 is 1.606273
Running BFS 1
Time for BFS 1 is 0.259318
TEPS for BFS 1 is 6.46922e+07
Validating BFS 1
Validate time for BFS 1 is 1.604043
Running BFS 2
Time for BFS 2 is 0.259264
TEPS for BFS 2 is 6.47055e+07
Validating BFS 2
Validate time for BFS 2 is 1.605395
Running BFS 3
Time for BFS 3 is 0.259149
TEPS for BFS 3 is 6.47342e+07
Validating BFS 3
Validate time for BFS 3 is 1.599601
Running BFS 4
Time for BFS 4 is 0.259209
TEPS for BFS 4 is 6.47194e+07
Validating BFS 4
Validate time for BFS 4 is 1.597628
Running BFS 5
Time for BFS 5 is 0.259379
TEPS for BFS 5 is 6.46769e+07
Validating BFS 5
Validate time for BFS 5 is 1.603685
Running BFS 6
Time for BFS 6 is 0.259258
TEPS for BFS 6 is 6.47071e+07
Validating BFS 6
Validate time for BFS 6 is 1.598603
Running BFS 7
Time for BFS 7 is 0.259171
TEPS for BFS 7 is 6.47288e+07
Validating BFS 7
Validate time for BFS 7 is 1.602795
Running BFS 8
Time for BFS 8 is 0.259242
TEPS for BFS 8 is 6.47111e+07
Validating BFS 8
Validate time for BFS 8 is 1.597580
Running BFS 9
Time for BFS 9 is 0.259313
TEPS for BFS 9 is 6.46933e+07
Validating BFS 9
Validate time for BFS 9 is 1.597445
Running BFS 10
Time for BFS 10 is 0.259364
TEPS for BFS 10 is 6.46806e+07
Validating BFS 10
Validate time for BFS 10 is 1.604825
Running BFS 11
Time for BFS 11 is 0.259216
TEPS for BFS 11 is 6.47175e+07
Validating BFS 11
Validate time for BFS 11 is 1.598800
Running BFS 12
Time for BFS 12 is 0.259180
TEPS for BFS 12 is 6.47265e+07
Validating BFS 12
Validate time for BFS 12 is 1.602943
Running BFS 13
Time for BFS 13 is 0.259208
TEPS for BFS 13 is 6.47195e+07
Validating BFS 13
Validate time for BFS 13 is 1.599337
Running BFS 14
Time for BFS 14 is 0.259337
TEPS for BFS 14 is 6.46874e+07
Validating BFS 14
Validate time for BFS 14 is 1.599208
Running BFS 15
Time for BFS 15 is 0.259452
TEPS for BFS 15 is 6.46586e+07
Validating BFS 15
Validate time for BFS 15 is 1.606505
Running BFS 16
Time for BFS 16 is 0.259168
TEPS for BFS 16 is 6.47294e+07
Validating BFS 16
Validate time for BFS 16 is 1.599276
Running BFS 17
Time for BFS 17 is 0.259240
TEPS for BFS 17 is 6.47116e+07
Validating BFS 17
Validate time for BFS 17 is 1.605331
Running BFS 18
Time for BFS 18 is 0.259310
TEPS for BFS 18 is 6.4694e+07
Validating BFS 18
Validate time for BFS 18 is 1.604753
Running BFS 19
Time for BFS 19 is 0.259350
TEPS for BFS 19 is 6.4684e+07
Validating BFS 19
Validate time for BFS 19 is 1.607331
Running BFS 20
Time for BFS 20 is 0.259345
TEPS for BFS 20 is 6.46853e+07
Validating BFS 20
Validate time for BFS 20 is 1.595927
Running BFS 21
Time for BFS 21 is 0.259289
TEPS for BFS 21 is 6.46993e+07
Validating BFS 21
Validate time for BFS 21 is 1.602550
Running BFS 22
Time for BFS 22 is 0.259363
TEPS for BFS 22 is 6.46809e+07
Validating BFS 22
Validate time for BFS 22 is 1.603168
Running BFS 23
Time for BFS 23 is 0.259324
TEPS for BFS 23 is 6.46905e+07
Validating BFS 23
Validate time for BFS 23 is 1.605615
Running BFS 24
Time for BFS 24 is 0.259318
TEPS for BFS 24 is 6.46921e+07
Validating BFS 24
Validate time for BFS 24 is 1.599922
Running BFS 25
Time for BFS 25 is 0.259198
TEPS for BFS 25 is 6.47219e+07
Validating BFS 25
Validate time for BFS 25 is 1.606566
Running BFS 26
Time for BFS 26 is 0.259264
TEPS for BFS 26 is 6.47055e+07
Validating BFS 26
Validate time for BFS 26 is 1.606281
Running BFS 27
Time for BFS 27 is 0.259327
TEPS for BFS 27 is 6.46899e+07
Validating BFS 27
Validate time for BFS 27 is 1.598904
Running BFS 28
Time for BFS 28 is 0.259356
TEPS for BFS 28 is 6.46827e+07
Validating BFS 28
Validate time for BFS 28 is 1.606600
Running BFS 29
Time for BFS 29 is 0.259416
TEPS for BFS 29 is 6.46677e+07
Validating BFS 29
Validate time for BFS 29 is 1.607161
Running BFS 30
Time for BFS 30 is 0.259553
TEPS for BFS 30 is 6.46334e+07
Validating BFS 30
Validate time for BFS 30 is 1.606353
Running BFS 31
Time for BFS 31 is 0.259324
TEPS for BFS 31 is 6.46907e+07
Validating BFS 31
Validate time for BFS 31 is 1.599352
Running BFS 32
Time for BFS 32 is 0.259300
TEPS for BFS 32 is 6.46964e+07
Validating BFS 32
Validate time for BFS 32 is 1.597434
Running BFS 33
Time for BFS 33 is 0.259209
TEPS for BFS 33 is 6.47192e+07
Validating BFS 33
Validate time for BFS 33 is 1.605022
Running BFS 34
Time for BFS 34 is 0.259325
TEPS for BFS 34 is 6.46902e+07
Validating BFS 34
Validate time for BFS 34 is 1.599800
Running BFS 35
Time for BFS 35 is 0.259323
TEPS for BFS 35 is 6.46908e+07
Validating BFS 35
Validate time for BFS 35 is 1.598610
Running BFS 36
Time for BFS 36 is 0.259317
TEPS for BFS 36 is 6.46923e+07
Validating BFS 36
Validate time for BFS 36 is 1.599772
Running BFS 37
Time for BFS 37 is 0.259345
TEPS for BFS 37 is 6.46853e+07
Validating BFS 37
Validate time for BFS 37 is 1.604332
Running BFS 38
Time for BFS 38 is 0.259386
TEPS for BFS 38 is 6.46752e+07
Validating BFS 38
Validate time for BFS 38 is 1.597731
Running BFS 39
Time for BFS 39 is 0.259466
TEPS for BFS 39 is 6.46552e+07
Validating BFS 39
Validate time for BFS 39 is 1.597217
Running BFS 40
Time for BFS 40 is 0.259218
TEPS for BFS 40 is 6.47169e+07
Validating BFS 40
Validate time for BFS 40 is 1.597394
Running BFS 41
Time for BFS 41 is 0.259357
TEPS for BFS 41 is 6.46823e+07
Validating BFS 41
Validate time for BFS 41 is 1.605507
Running BFS 42
Time for BFS 42 is 0.259247
TEPS for BFS 42 is 6.47099e+07
Validating BFS 42
Validate time for BFS 42 is 1.598465
Running BFS 43
Time for BFS 43 is 0.259327
TEPS for BFS 43 is 6.46899e+07
Validating BFS 43
Validate time for BFS 43 is 1.599537
Running BFS 44
Time for BFS 44 is 0.259391
TEPS for BFS 44 is 6.46738e+07
Validating BFS 44
Validate time for BFS 44 is 1.604792
Running BFS 45
Time for BFS 45 is 0.259288
TEPS for BFS 45 is 6.46994e+07
Validating BFS 45
Validate time for BFS 45 is 1.596808
Running BFS 46
Time for BFS 46 is 0.259449
TEPS for BFS 46 is 6.46593e+07
Validating BFS 46
Validate time for BFS 46 is 1.602584
Running BFS 47
Time for BFS 47 is 0.259282
TEPS for BFS 47 is 6.47011e+07
Validating BFS 47
Validate time for BFS 47 is 1.599780
Running BFS 48
Time for BFS 48 is 0.259282
TEPS for BFS 48 is 6.47009e+07
Validating BFS 48
Validate time for BFS 48 is 1.605073
Running BFS 49
Time for BFS 49 is 0.259258
TEPS for BFS 49 is 6.47071e+07
Validating BFS 49
Validate time for BFS 49 is 1.599464
Running BFS 50
Time for BFS 50 is 0.259244
TEPS for BFS 50 is 6.47105e+07
Validating BFS 50
Validate time for BFS 50 is 1.596039
Running BFS 51
Time for BFS 51 is 0.259334
TEPS for BFS 51 is 6.46882e+07
Validating BFS 51
Validate time for BFS 51 is 1.606531
Running BFS 52
Time for BFS 52 is 0.259389
TEPS for BFS 52 is 6.46744e+07
Validating BFS 52
Validate time for BFS 52 is 1.606403
Running BFS 53
Time for BFS 53 is 0.259281
TEPS for BFS 53 is 6.47012e+07
Validating BFS 53
Validate time for BFS 53 is 1.598213
Running BFS 54
Time for BFS 54 is 0.259176
TEPS for BFS 54 is 6.47274e+07
Validating BFS 54
Validate time for BFS 54 is 1.605173
Running BFS 55
Time for BFS 55 is 0.259240
TEPS for BFS 55 is 6.47116e+07
Validating BFS 55
Validate time for BFS 55 is 1.599801
Running BFS 56
Time for BFS 56 is 0.259265
TEPS for BFS 56 is 6.47054e+07
Validating BFS 56
Validate time for BFS 56 is 1.598914
Running BFS 57
Time for BFS 57 is 0.259273
TEPS for BFS 57 is 6.47032e+07
Validating BFS 57
Validate time for BFS 57 is 1.606389
Running BFS 58
Time for BFS 58 is 0.259302
TEPS for BFS 58 is 6.46961e+07
Validating BFS 58
Validate time for BFS 58 is 1.603224
Running BFS 59
Time for BFS 59 is 0.259531
TEPS for BFS 59 is 6.4639e+07
Validating BFS 59
Validate time for BFS 59 is 1.606214
Running BFS 60
Time for BFS 60 is 0.259464
TEPS for BFS 60 is 6.46556e+07
Validating BFS 60
Validate time for BFS 60 is 1.599789
Running BFS 61
Time for BFS 61 is 0.259303
TEPS for BFS 61 is 6.46959e+07
Validating BFS 61
Validate time for BFS 61 is 1.604142
Running BFS 62
Time for BFS 62 is 0.259261
TEPS for BFS 62 is 6.47064e+07
Validating BFS 62
Validate time for BFS 62 is 1.605325
Running BFS 63
Time for BFS 63 is 0.259252
TEPS for BFS 63 is 6.47087e+07
Validating BFS 63
Validate time for BFS 63 is 1.597145
real	2m 18.12s
user	2m 18.03s
sys	0m 0.07s
