------------
Profiler Configuration
output path: /home/tc/pwr2018_data/output_fixed/graph500_proc2/cap_12/nowrapper-5
monitoring frequency: 100000000 nano seconds
------------
SCALE:                          20
edgefactor:                     16
NBFS:                           64
graph_generation:               3.47225
num_mpi_processes:              2
construction_time:              0.922021
bfs  min_time:                  0.32976
bfs  firstquartile_time:        0.330851
bfs  median_time:               0.331438
bfs  thirdquartile_time:        0.331905
bfs  max_time:                  0.335317
bfs  mean_time:                 0.331526
bfs  stddev_time:               0.00100184
min_nedge:                      16775818
firstquartile_nedge:            16775818
median_nedge:                   16775818
thirdquartile_nedge:            16775818
max_nedge:                      16775818
mean_nedge:                     16775818
stddev_nedge:                   0
bfs  min_TEPS:                  5.00297e+07
bfs  firstquartile_TEPS:        5.05441e+07
bfs  median_TEPS:               5.06152e+07
bfs  thirdquartile_TEPS:        5.0705e+07
bfs  max_TEPS:                  5.08727e+07
bfs  harmonic_mean_TEPS:     !  5.06018e+07
bfs  harmonic_stddev_TEPS:      19265.3
bfs  min_validate:              1.13504
bfs  firstquartile_validate:    1.13967
bfs  median_validate:           1.18282
bfs  thirdquartile_validate:    1.189
bfs  max_validate:              1.20825
bfs  mean_validate:             1.16941
bfs  stddev_validate:           0.0235429
