------------
Profiler Configuration
output path: /home/tc/pwr2018_data/output_fixed/graph500_proc2/cap_10/profiler-3
monitoring frequency: 100000000 nano seconds
------------
SCALE:                          20
edgefactor:                     16
NBFS:                           64
graph_generation:               3.78847
num_mpi_processes:              2
construction_time:              0.993367
bfs  min_time:                  0.36944
bfs  firstquartile_time:        0.369807
bfs  median_time:               0.370024
bfs  thirdquartile_time:        0.370485
bfs  max_time:                  0.372581
bfs  mean_time:                 0.370283
bfs  stddev_time:               0.000726413
min_nedge:                      16775818
firstquartile_nedge:            16775818
median_nedge:                   16775818
thirdquartile_nedge:            16775818
max_nedge:                      16775818
mean_nedge:                     16775818
stddev_nedge:                   0
bfs  min_TEPS:                  4.5026e+07
bfs  firstquartile_TEPS:        4.52808e+07
bfs  median_TEPS:               4.53371e+07
bfs  thirdquartile_TEPS:        4.53637e+07
bfs  max_TEPS:                  4.54088e+07
bfs  harmonic_mean_TEPS:     !  4.53054e+07
bfs  harmonic_stddev_TEPS:      11197.7
bfs  min_validate:              1.27431
bfs  firstquartile_validate:    1.27634
bfs  median_validate:           1.27764
bfs  thirdquartile_validate:    1.27857
bfs  max_validate:              1.2908
bfs  mean_validate:             1.27773
bfs  stddev_validate:           0.0024725
