/dev/cpu/msr_batch: No such file or directory
graph_generation:               3.234462 s
construction_time:              0.865802 s
Running BFS 0
Time for BFS 0 is 0.295744
TEPS for BFS 0 is 5.67242e+07
Validating BFS 0
Validate time for BFS 0 is 1.085863
Running BFS 1
Time for BFS 1 is 0.297683
TEPS for BFS 1 is 5.63547e+07
Validating BFS 1
Validate time for BFS 1 is 1.087975
Running BFS 2
Time for BFS 2 is 0.297115
TEPS for BFS 2 is 5.64625e+07
Validating BFS 2
Validate time for BFS 2 is 1.088313
Running BFS 3
Time for BFS 3 is 0.296845
TEPS for BFS 3 is 5.65137e+07
Validating BFS 3
Validate time for BFS 3 is 1.085871
Running BFS 4
Time for BFS 4 is 0.296463
TEPS for BFS 4 is 5.65866e+07
Validating BFS 4
Validate time for BFS 4 is 1.082786
Running BFS 5
Time for BFS 5 is 0.297170
TEPS for BFS 5 is 5.64519e+07
Validating BFS 5
Validate time for BFS 5 is 1.084260
Running BFS 6
Time for BFS 6 is 0.294831
TEPS for BFS 6 is 5.68998e+07
Validating BFS 6
Validate time for BFS 6 is 1.086259
Running BFS 7
Time for BFS 7 is 0.297379
TEPS for BFS 7 is 5.64123e+07
Validating BFS 7
Validate time for BFS 7 is 1.087262
Running BFS 8
Time for BFS 8 is 0.297239
TEPS for BFS 8 is 5.64389e+07
Validating BFS 8
Validate time for BFS 8 is 1.083573
Running BFS 9
Time for BFS 9 is 0.296999
TEPS for BFS 9 is 5.64844e+07
Validating BFS 9
Validate time for BFS 9 is 1.075974
Running BFS 10
Time for BFS 10 is 0.297352
TEPS for BFS 10 is 5.64173e+07
Validating BFS 10
Validate time for BFS 10 is 1.077446
Running BFS 11
Time for BFS 11 is 0.296500
TEPS for BFS 11 is 5.65796e+07
Validating BFS 11
Validate time for BFS 11 is 1.071019
Running BFS 12
Time for BFS 12 is 0.294866
TEPS for BFS 12 is 5.6893e+07
Validating BFS 12
Validate time for BFS 12 is 1.073485
Running BFS 13
Time for BFS 13 is 0.296820
TEPS for BFS 13 is 5.65185e+07
Validating BFS 13
Validate time for BFS 13 is 1.070835
Running BFS 14
Time for BFS 14 is 0.296239
TEPS for BFS 14 is 5.66294e+07
Validating BFS 14
Validate time for BFS 14 is 1.077019
Running BFS 15
Time for BFS 15 is 0.297697
TEPS for BFS 15 is 5.63521e+07
Validating BFS 15
Validate time for BFS 15 is 1.075034
Running BFS 16
Time for BFS 16 is 0.297499
TEPS for BFS 16 is 5.63895e+07
Validating BFS 16
Validate time for BFS 16 is 1.067009
Running BFS 17
Time for BFS 17 is 0.296837
TEPS for BFS 17 is 5.65153e+07
Validating BFS 17
Validate time for BFS 17 is 1.068191
Running BFS 18
Time for BFS 18 is 0.296477
TEPS for BFS 18 is 5.65838e+07
Validating BFS 18
Validate time for BFS 18 is 1.068201
Running BFS 19
Time for BFS 19 is 0.296858
TEPS for BFS 19 is 5.65112e+07
Validating BFS 19
Validate time for BFS 19 is 1.067791
Running BFS 20
Time for BFS 20 is 0.296633
TEPS for BFS 20 is 5.65541e+07
Validating BFS 20
Validate time for BFS 20 is 1.066337
Running BFS 21
Time for BFS 21 is 0.296753
TEPS for BFS 21 is 5.65312e+07
Validating BFS 21
Validate time for BFS 21 is 1.068178
Running BFS 22
Time for BFS 22 is 0.296575
TEPS for BFS 22 is 5.65653e+07
Validating BFS 22
Validate time for BFS 22 is 1.068026
Running BFS 23
Time for BFS 23 is 0.296895
TEPS for BFS 23 is 5.65043e+07
Validating BFS 23
Validate time for BFS 23 is 1.069733
Running BFS 24
Time for BFS 24 is 0.296716
TEPS for BFS 24 is 5.65382e+07
Validating BFS 24
Validate time for BFS 24 is 1.067020
Running BFS 25
Time for BFS 25 is 0.296754
TEPS for BFS 25 is 5.65311e+07
Validating BFS 25
Validate time for BFS 25 is 1.069580
Running BFS 26
Time for BFS 26 is 0.296850
TEPS for BFS 26 is 5.65128e+07
Validating BFS 26
Validate time for BFS 26 is 1.068031
Running BFS 27
Time for BFS 27 is 0.297098
TEPS for BFS 27 is 5.64655e+07
Validating BFS 27
Validate time for BFS 27 is 1.066873
Running BFS 28
Time for BFS 28 is 0.297444
TEPS for BFS 28 is 5.64e+07
Validating BFS 28
Validate time for BFS 28 is 1.069842
Running BFS 29
Time for BFS 29 is 0.296477
TEPS for BFS 29 is 5.65839e+07
Validating BFS 29
Validate time for BFS 29 is 1.070100
Running BFS 30
Time for BFS 30 is 0.297730
TEPS for BFS 30 is 5.63458e+07
Validating BFS 30
Validate time for BFS 30 is 1.068938
Running BFS 31
Time for BFS 31 is 0.296911
TEPS for BFS 31 is 5.65011e+07
Validating BFS 31
Validate time for BFS 31 is 1.067558
Running BFS 32
Time for BFS 32 is 0.298260
TEPS for BFS 32 is 5.62456e+07
Validating BFS 32
Validate time for BFS 32 is 1.068141
Running BFS 33
Time for BFS 33 is 0.298222
TEPS for BFS 33 is 5.62528e+07
Validating BFS 33
Validate time for BFS 33 is 1.069220
Running BFS 34
Time for BFS 34 is 0.296588
TEPS for BFS 34 is 5.65626e+07
Validating BFS 34
Validate time for BFS 34 is 1.066160
Running BFS 35
Time for BFS 35 is 0.297062
TEPS for BFS 35 is 5.64724e+07
Validating BFS 35
Validate time for BFS 35 is 1.067424
Running BFS 36
Time for BFS 36 is 0.297547
TEPS for BFS 36 is 5.63804e+07
Validating BFS 36
Validate time for BFS 36 is 1.067875
Running BFS 37
Time for BFS 37 is 0.297049
TEPS for BFS 37 is 5.64749e+07
Validating BFS 37
Validate time for BFS 37 is 1.066997
Running BFS 38
Time for BFS 38 is 0.296831
TEPS for BFS 38 is 5.65165e+07
Validating BFS 38
Validate time for BFS 38 is 1.067010
Running BFS 39
Time for BFS 39 is 0.296795
TEPS for BFS 39 is 5.65232e+07
Validating BFS 39
Validate time for BFS 39 is 1.066822
Running BFS 40
Time for BFS 40 is 0.298324
TEPS for BFS 40 is 5.62336e+07
Validating BFS 40
Validate time for BFS 40 is 1.067824
Running BFS 41
Time for BFS 41 is 0.297676
TEPS for BFS 41 is 5.63559e+07
Validating BFS 41
Validate time for BFS 41 is 1.068884
Running BFS 42
Time for BFS 42 is 0.297049
TEPS for BFS 42 is 5.64749e+07
Validating BFS 42
Validate time for BFS 42 is 1.067077
Running BFS 43
Time for BFS 43 is 0.297157
TEPS for BFS 43 is 5.64544e+07
Validating BFS 43
Validate time for BFS 43 is 1.067864
Running BFS 44
Time for BFS 44 is 0.298249
TEPS for BFS 44 is 5.62477e+07
Validating BFS 44
Validate time for BFS 44 is 1.068517
Running BFS 45
Time for BFS 45 is 0.298167
TEPS for BFS 45 is 5.62632e+07
Validating BFS 45
Validate time for BFS 45 is 1.067929
Running BFS 46
Time for BFS 46 is 0.297098
TEPS for BFS 46 is 5.64656e+07
Validating BFS 46
Validate time for BFS 46 is 1.068041
Running BFS 47
Time for BFS 47 is 0.297990
TEPS for BFS 47 is 5.62965e+07
Validating BFS 47
Validate time for BFS 47 is 1.066751
Running BFS 48
Time for BFS 48 is 0.297549
TEPS for BFS 48 is 5.638e+07
Validating BFS 48
Validate time for BFS 48 is 1.069106
Running BFS 49
Time for BFS 49 is 0.297018
TEPS for BFS 49 is 5.64808e+07
Validating BFS 49
Validate time for BFS 49 is 1.066557
Running BFS 50
Time for BFS 50 is 0.297828
TEPS for BFS 50 is 5.63272e+07
Validating BFS 50
Validate time for BFS 50 is 1.067903
Running BFS 51
Time for BFS 51 is 0.298414
TEPS for BFS 51 is 5.62167e+07
Validating BFS 51
Validate time for BFS 51 is 1.067487
Running BFS 52
Time for BFS 52 is 0.296890
TEPS for BFS 52 is 5.65052e+07
Validating BFS 52
Validate time for BFS 52 is 1.068433
Running BFS 53
Time for BFS 53 is 0.297081
TEPS for BFS 53 is 5.64688e+07
Validating BFS 53
Validate time for BFS 53 is 1.067755
Running BFS 54
Time for BFS 54 is 0.297131
TEPS for BFS 54 is 5.64593e+07
Validating BFS 54
Validate time for BFS 54 is 1.068435
Running BFS 55
Time for BFS 55 is 0.296966
TEPS for BFS 55 is 5.64907e+07
Validating BFS 55
Validate time for BFS 55 is 1.066550
Running BFS 56
Time for BFS 56 is 0.299042
TEPS for BFS 56 is 5.60986e+07
Validating BFS 56
Validate time for BFS 56 is 1.066542
Running BFS 57
Time for BFS 57 is 0.298397
TEPS for BFS 57 is 5.62198e+07
Validating BFS 57
Validate time for BFS 57 is 1.069962
Running BFS 58
Time for BFS 58 is 0.296554
TEPS for BFS 58 is 5.65693e+07
Validating BFS 58
Validate time for BFS 58 is 1.068731
Running BFS 59
Time for BFS 59 is 0.299248
TEPS for BFS 59 is 5.60598e+07
Validating BFS 59
Validate time for BFS 59 is 1.067922
Running BFS 60
Time for BFS 60 is 0.297392
TEPS for BFS 60 is 5.64098e+07
Validating BFS 60
Validate time for BFS 60 is 1.067999
Running BFS 61
Time for BFS 61 is 0.297370
TEPS for BFS 61 is 5.6414e+07
Validating BFS 61
Validate time for BFS 61 is 1.069106
Running BFS 62
Time for BFS 62 is 0.296777
TEPS for BFS 62 is 5.65267e+07
Validating BFS 62
Validate time for BFS 62 is 1.069294
Running BFS 63
Time for BFS 63 is 0.297636
TEPS for BFS 63 is 5.63635e+07
Validating BFS 63
Validate time for BFS 63 is 1.067011
real	1m 38.31s
user	3m 10.28s
sys	0m 6.24s
