time(ms) energy(J) hostname
286984798 0.000000 box
286984898 1.140137 box
286984998 1.153564 box
286985098 1.160095 box
286985198 1.165161 box
286985298 1.160461 box
286985398 1.157898 box
286985498 1.152405 box
286985598 1.175964 box
286985698 1.176636 box
286985798 1.160767 box
286985898 1.156921 box
286985998 1.166931 box
286986098 1.157654 box
286986198 1.184753 box
286986298 1.175293 box
286986398 1.153015 box
286986498 1.148621 box
286986598 1.178589 box
286986698 1.180908 box
286986798 1.159729 box
286986898 1.161804 box
286986998 1.155579 box
286987098 1.160889 box
286987198 1.159363 box
286987298 1.157471 box
286987398 1.154358 box
286987498 1.155212 box
286987598 1.154297 box
286987698 1.162781 box
286987798 1.159363 box
286987898 1.167480 box
286987998 1.156067 box
286988098 1.168091 box
286988198 1.153320 box
286988298 1.151733 box
286988398 1.173645 box
286988498 1.176453 box
286988598 1.178589 box
286988698 1.182617 box
286988798 1.171448 box
286988898 1.156006 box
286988998 1.167358 box
286989098 1.154053 box
286989198 1.155945 box
286989298 1.142883 box
286989398 1.158142 box
286989498 1.177979 box
286989598 1.183594 box
286989698 1.163635 box
286989798 1.156189 box
286989898 1.163635 box
286989998 1.163879 box
286990098 1.160583 box
286990198 1.155579 box
286990298 1.159485 box
286990398 1.157959 box
286990498 1.158020 box
286990598 1.174622 box
286990698 1.194031 box
286990798 1.159241 box
286990898 1.169983 box
286990998 1.160034 box
286991098 1.153931 box
286991198 1.149780 box
286991298 1.154053 box
286991398 1.156311 box
286991498 1.154724 box
286991598 1.157410 box
286991698 1.165710 box
286991798 1.160461 box
286991898 1.164001 box
286991998 1.159180 box
286992098 1.158081 box
286992198 1.155212 box
286992298 1.158936 box
286992398 1.159973 box
286992498 1.155884 box
286992598 1.167236 box
286992698 1.158875 box
286992798 1.162537 box
286992898 1.154419 box
286992998 1.147766 box
286993098 1.152283 box
286993198 1.152710 box
286993298 1.158142 box
286993398 1.158691 box
286993498 1.162903 box
286993598 1.168884 box
286993698 1.159424 box
286993798 1.171143 box
286993898 1.159851 box
286993998 1.161438 box
286994098 1.148438 box
286994198 1.152039 box
286994298 1.153870 box
286994398 1.154419 box
286994498 1.161987 box
286994598 1.158203 box
286994698 1.186279 box
286994798 1.174377 box
286994898 1.154297 box
286994998 1.157288 box
286995098 1.155029 box
286995198 1.166321 box
286995298 1.177551 box
286995398 1.164307 box
286995498 1.164734 box
286995598 1.156189 box
286995698 1.169373 box
286995798 1.157593 box
286995898 1.182007 box
286995998 1.180298 box
286996098 1.157837 box
286996198 1.159119 box
286996298 1.157227 box
286996398 1.170044 box
286996498 1.196350 box
286996598 1.177002 box
286996698 1.152344 box
286996798 1.158936 box
286996898 1.178101 box
286996998 1.176025 box
286997098 1.163025 box
286997198 1.158081 box
286997298 1.161560 box
286997398 1.161499 box
286997498 1.162964 box
286997598 1.161316 box
286997698 1.153137 box
286997798 1.152039 box
286997898 1.152283 box
286997998 1.154114 box
286998098 1.154114 box
286998198 1.158020 box
286998298 1.168152 box
286998398 1.161133 box
286998498 1.169434 box
286998598 1.157532 box
286998698 1.158997 box
286998798 1.154602 box
286998898 1.157715 box
286998998 1.159912 box
286999098 1.158875 box
286999198 1.154846 box
286999298 1.161560 box
286999398 1.157593 box
286999498 1.158447 box
286999598 1.162292 box
286999698 1.156372 box
286999798 1.155029 box
286999898 1.156128 box
286999998 1.159973 box
287000098 1.161865 box
287000198 1.158508 box
287000298 1.164978 box
287000398 1.161865 box
287000498 1.163330 box
287000598 1.151367 box
287000698 1.177673 box
287000798 1.177856 box
287000898 1.158508 box
287000998 1.155212 box
287001098 1.155212 box
287001198 1.162415 box
287001298 1.156372 box
287001398 1.163818 box
287001498 1.159058 box
287001598 1.159485 box
287001698 1.144897 box
287001798 1.157288 box
287001898 1.168945 box
287001998 1.180176 box
287002098 1.163147 box
287002198 1.162903 box
287002298 1.164978 box
287002398 1.164429 box
287002498 1.158752 box
287002598 1.178772 box
287002698 1.173279 box
287002798 1.158325 box
287002898 1.155640 box
287002998 1.157776 box
287003098 1.166504 box
287003198 1.158264 box
287003298 1.164307 box
287003398 1.171265 box
287003498 1.175232 box
287003598 1.148987 box
287003698 1.155701 box
287003798 1.162170 box
287003898 1.152832 box
287003998 1.163086 box
287004098 1.157593 box
287004198 1.172058 box
287004298 1.160828 box
287004398 1.158142 box
287004498 1.161743 box
287004598 1.153687 box
287004698 1.154480 box
287004798 1.163025 box
287004898 1.161133 box
287004998 1.167114 box
287005098 1.158264 box
287005198 1.163940 box
287005298 1.172241 box
287005398 1.173706 box
287005498 1.144836 box
287005598 1.157776 box
287005698 1.157654 box
287005798 1.157654 box
287005898 1.155884 box
287005998 1.165466 box
287006098 1.162292 box
287006198 1.161682 box
287006298 1.161438 box
287006398 1.150452 box
287006498 1.154297 box
287006598 1.159668 box
287006698 1.159180 box
287006798 1.160278 box
287006898 1.168274 box
287006998 1.195435 box
287007098 1.177002 box
287007198 1.157349 box
287007298 1.151062 box
287007398 1.175110 box
287007498 1.173645 box
287007598 1.161255 box
287007698 1.156250 box
287007798 1.160156 box
287007898 1.157104 box
287007998 1.161560 box
287008098 1.158447 box
287008198 1.181519 box
287008298 1.176758 box
287008398 1.153259 box
287008498 1.153381 box
287008598 1.153748 box
287008698 1.166748 box
287008798 1.197266 box
287008898 1.170593 box
287008998 1.154907 box
287009098 1.180420 box
287009198 1.173279 box
287009298 1.155518 box
287009398 1.153564 box
287009498 1.171448 box
287009598 1.191528 box
287009698 1.161438 box
287009798 1.163025 box
287009898 1.177307 box
287009998 1.176880 box
287010098 1.147278 box
287010198 1.154053 box
287010298 1.156860 box
287010398 1.153564 box
287010498 1.155090 box
287010598 1.168274 box
287010698 1.156616 box
287010798 1.166687 box
287010898 1.154236 box
287010998 1.159607 box
287011098 1.152710 box
287011198 1.181641 box
287011298 1.176636 box
287011398 1.161804 box
287011498 1.160889 box
287011598 1.161682 box
287011698 1.164429 box
287011798 1.159973 box
287011898 1.154724 box
287011998 1.152405 box
287012098 1.150940 box
287012198 1.156738 box
287012298 1.170471 box
287012398 1.187805 box
287012498 1.165771 box
287012598 1.155396 box
287012698 1.159851 box
287012798 1.154785 box
287012898 1.178589 box
287012998 1.175781 box
287013098 1.158142 box
287013198 1.152283 box
287013298 1.151794 box
287013398 1.167358 box
287013498 1.154358 box
287013598 1.184509 box
287013698 1.176880 box
287013798 1.157349 box
287013898 1.148132 box
287013998 1.157288 box
287014098 1.163147 box
287014198 1.156128 box
287014298 1.169128 box
287014398 1.164612 box
287014498 1.170532 box
287014598 1.156372 box
287014698 1.155396 box
287014798 1.154419 box
287014898 1.151367 box
287014998 1.154846 box
287015098 1.152466 box
287015198 1.153015 box
287015298 1.159668 box
287015398 1.164917 box
287015498 1.163513 box
287015598 1.178162 box
287015698 1.172424 box
287015798 1.166565 box
287015898 1.171570 box
287015998 1.174255 box
287016098 1.164673 box
287016198 1.181580 box
287016298 1.162476 box
287016398 1.153564 box
287016498 1.157959 box
287016598 1.156128 box
287016698 1.155396 box
287016798 1.152222 box
287016898 1.157166 box
287016998 1.156738 box
287017098 1.172241 box
287017198 1.161133 box
287017298 1.195007 box
287017398 1.160522 box
287017498 1.161865 box
287017598 1.174683 box
287017698 1.177856 box
287017798 1.143860 box
287017898 1.177979 box
287017998 1.178589 box
287018098 1.158936 box
287018198 1.155701 box
287018298 1.168274 box
287018398 1.159058 box
287018498 1.165710 box
287018598 1.155151 box
287018698 1.148499 box
287018798 1.148621 box
287018898 1.158203 box
287018998 1.157471 box
287019098 1.157288 box
287019198 1.176270 box
287019298 1.195984 box
287019398 1.163818 box
287019498 1.167053 box
287019598 1.155884 box
287019698 1.147034 box
287019798 1.146179 box
287019898 1.155090 box
287019998 1.153625 box
287020098 1.156067 box
287020198 1.156738 box
287020298 1.167542 box
287020398 1.156921 box
287020498 1.164246 box
287020598 1.150696 box
287020698 1.148865 box
287020798 1.156372 box
287020898 1.154968 box
287020998 1.159119 box
287021098 1.159241 box
287021198 1.156616 box
287021298 1.162109 box
287021398 1.156921 box
287021498 1.158325 box
287021598 1.163269 box
287021698 1.156921 box
287021798 1.159180 box
287021898 1.151672 box
287021998 1.158630 box
287022098 1.158508 box
287022198 1.154602 box
287022298 1.154175 box
287022398 1.161804 box
287022498 1.157593 box
287022598 1.166077 box
287022698 1.157166 box
287022798 1.155151 box
287022898 1.152588 box
287022998 1.154053 box
287023098 1.152466 box
287023198 1.153809 box
287023298 1.156616 box
287023398 1.164978 box
287023498 1.159485 box
287023598 1.166260 box
287023698 1.158508 box
287023798 1.147827 box
287023898 1.147339 box
287023998 1.152771 box
287024098 1.160461 box
287024198 1.156006 box
287024298 1.159180 box
287024398 1.165039 box
287024498 1.158997 box
287024598 1.161255 box
287024698 1.154602 box
287024798 1.149902 box
287024898 1.154785 box
287024998 1.154419 box
287025098 1.154175 box
287025198 1.160095 box
287025298 1.173157 box
287025398 1.161804 box
287025498 1.191772 box
287025598 1.172668 box
287025698 1.155396 box
287025798 1.172180 box
287025898 1.172791 box
287025998 1.149597 box
287026098 1.157043 box
287026198 1.154602 box
287026298 1.157532 box
287026398 1.165894 box
287026498 1.161316 box
287026598 1.163391 box
287026698 1.175293 box
287026798 1.171692 box
287026898 1.173889 box
287026998 1.150269 box
287027098 1.157104 box
287027198 1.153076 box
287027298 1.154724 box
287027398 1.163818 box
287027498 1.161621 box
287027598 1.164551 box
287027698 1.160278 box
287027798 1.153015 box
287027898 1.148926 box
287027998 1.151123 box
287028098 1.154236 box
287028198 1.161194 box
287028298 1.157288 box
287028398 1.160767 box
287028498 1.160706 box
287028598 1.157715 box
287028698 1.157959 box
287028798 1.152161 box
287028898 1.150757 box
287028998 1.150940 box
287029098 1.160339 box
287029198 1.160034 box
287029298 1.158508 box
287029398 1.159180 box
287029498 1.160645 box
287029598 1.151733 box
287029698 1.177917 box
287029798 1.166748 box
287029898 1.153748 box
287029998 1.153809 box
287030098 1.157471 box
287030198 1.158875 box
287030298 1.157715 box
287030398 1.157288 box
287030498 1.159363 box
287030598 1.151611 box
287030698 1.160156 box
287030798 1.170898 box
287030898 1.175232 box
287030998 1.175720 box
287031098 1.156250 box
287031198 1.154053 box
287031298 1.160889 box
287031398 1.156738 box
287031498 1.165466 box
287031598 1.150940 box
287031698 1.160339 box
287031798 1.155823 box
287031898 1.166443 box
287031998 1.173035 box
287032098 1.170959 box
287032198 1.159485 box
287032298 1.160339 box
287032398 1.172546 box
287032498 1.169922 box
287032598 1.184998 box
287032698 1.174377 box
287032798 1.157532 box
287032898 1.155701 box
287032998 1.147827 box
287033098 1.155151 box
287033198 1.154907 box
287033298 1.153809 box
287033398 1.160217 box
287033498 1.169373 box
287033598 1.159302 box
287033698 1.165649 box
287033798 1.156250 box
287033898 1.165466 box
287033998 1.166809 box
287034098 1.171692 box
287034198 1.167358 box
287034298 1.177795 box
287034398 1.163025 box
287034498 1.172729 box
287034598 1.185547 box
287034698 1.169495 box
287034798 1.164368 box
287034898 1.169128 box
287034998 1.169678 box
287035098 1.177063 box
287035198 1.164612 box
287035298 1.159180 box
287035398 1.156555 box
287035498 1.158447 box
287035598 1.160828 box
287035698 1.158569 box
287035798 1.155151 box
287035898 1.150269 box
287035998 1.154602 box
287036098 1.171936 box
287036198 1.166382 box
287036298 1.165710 box
287036398 1.184448 box
287036498 1.156250 box
287036598 1.162842 box
287036698 1.155762 box
287036798 1.181274 box
287036898 1.179382 box
287036998 1.154724 box
287037098 1.165100 box
287037198 1.183594 box
287037298 1.167297 box
287037398 1.155579 box
287037498 1.185364 box
287037598 1.169922 box
287037698 1.147583 box
287037798 1.147705 box
287037898 1.170776 box
287037998 1.167542 box
287038098 1.154846 box
287038198 1.155762 box
287038298 1.167480 box
287038398 1.160034 box
287038498 1.165222 box
287038598 1.156921 box
287038698 1.167603 box
287038798 1.168030 box
287038898 1.178284 box
287038998 1.156799 box
287039098 1.161377 box
287039198 1.185608 box
287039298 1.162231 box
287039398 1.153503 box
287039498 1.159119 box
287039598 1.156555 box
287039698 1.155823 box
287039798 1.153137 box
287039898 1.160339 box
287039998 1.174316 box
287040098 1.162598 box
287040198 1.190674 box
287040298 1.162415 box
287040398 1.157043 box
287040498 1.156982 box
287040598 1.154785 box
287040698 1.152039 box
287040798 1.152954 box
287040898 1.160461 box
287040998 1.160522 box
287041098 1.157959 box
287041198 1.161072 box
287041298 1.162354 box
287041398 1.152161 box
287041498 1.157837 box
287041598 1.157288 box
287041698 1.155090 box
287041798 1.156067 box
287041898 1.156677 box
287041998 1.157410 box
287042098 1.155029 box
287042198 1.153015 box
287042298 1.158203 box
287042398 1.157959 box
287042498 1.166443 box
287042598 1.161621 box
287042698 1.155640 box
287042798 1.155640 box
287042898 1.151550 box
287042998 1.157471 box
287043098 1.150757 box
287043198 1.153748 box
287043298 1.158813 box
287043398 1.162842 box
287043498 1.165466 box
287043598 1.160828 box
287043698 1.153259 box
287043798 1.166016 box
287043898 1.173462 box
287043998 1.176880 box
287044098 1.161255 box
287044198 1.152222 box
287044298 1.161072 box
287044398 1.153809 box
287044498 1.162720 box
287044598 1.162415 box
287044698 1.154602 box
287044798 1.155945 box
287044898 1.157532 box
287044998 1.157227 box
287045098 1.153748 box
287045198 1.153442 box
287045298 1.156738 box
287045398 1.161804 box
287045498 1.162048 box
287045598 1.160828 box
287045698 1.157288 box
287045798 1.154663 box
287045898 1.149719 box
287045998 1.151978 box
287046098 1.175415 box
287046198 1.164978 box
287046298 1.160217 box
287046398 1.160156 box
287046498 1.164551 box
287046598 1.162903 box
287046698 1.155334 box
287046798 1.157043 box
287046898 1.149231 box
287046998 1.152344 box
287047098 1.153992 box
287047198 1.154968 box
287047298 1.157593 box
287047398 1.165283 box
287047498 1.159363 box
287047598 1.165710 box
287047698 1.157593 box
287047798 1.150574 box
287047898 1.144470 box
287047998 1.156921 box
287048098 1.152954 box
287048198 1.157837 box
287048298 1.154968 box
287048398 1.167969 box
287048498 1.160400 box
287048598 1.168518 box
287048698 1.153809 box
287048798 1.148315 box
287048898 1.151367 box
287048998 1.154541 box
287049098 1.157593 box
287049198 1.177185 box
287049298 1.166748 box
287049398 1.169434 box
287049498 1.157471 box
287049598 1.167847 box
287049698 1.152649 box
287049798 1.147034 box
287049898 1.149048 box
287049998 1.155945 box
287050098 1.160889 box
287050198 1.156006 box
287050298 1.157532 box
287050398 1.161804 box
287050498 1.155151 box
287050598 1.161255 box
287050698 1.156189 box
287050798 1.153259 box
287050898 1.153992 box
287050998 1.154785 box
287051098 1.159790 box
287051198 1.158752 box
287051298 1.157776 box
287051398 1.160645 box
287051498 1.156555 box
287051598 1.158691 box
287051698 1.161865 box
287051798 1.157043 box
287051898 1.181458 box
287051998 1.178955 box
287052098 1.157532 box
287052198 1.161499 box
287052298 1.186646 box
287052398 1.168396 box
287052498 1.156250 box
287052598 1.168823 box
287052698 1.155090 box
287052798 1.149658 box
287052898 1.149048 box
287052998 1.155151 box
287053098 1.161499 box
287053198 1.159424 box
287053298 1.162842 box
287053398 1.163147 box
287053498 1.162231 box
287053598 1.162720 box
287053698 1.157043 box
287053798 1.152161 box
287053898 1.154053 box
287053998 1.156067 box
287054098 1.157043 box
287054198 1.160583 box
287054298 1.159729 box
287054398 1.165527 box
287054498 1.196777 box
287054598 1.179077 box
287054698 1.157104 box
287054798 1.152771 box
287054898 1.148499 box
287054998 1.154236 box
287055098 1.157715 box
287055198 1.154480 box
287055298 1.158997 box
287055398 1.163757 box
287055498 1.161926 box
287055598 1.166992 box
287055698 1.159790 box
287055798 1.154114 box
287055898 1.148193 box
287055998 1.151672 box
287056098 1.156067 box
287056198 1.157288 box
287056298 1.171936 box
287056398 1.177185 box
287056498 1.164734 box
287056598 1.163940 box
287056698 1.160889 box
287056798 1.171814 box
287056898 1.170349 box
287056998 1.150879 box
287057098 1.157288 box
287057198 1.152405 box
287057298 1.153992 box
287057398 1.162231 box
287057498 1.160767 box
287057598 1.167725 box
287057698 1.157410 box
287057798 1.170898 box
287057898 1.171448 box
287057998 1.180054 box
287058098 1.175415 box
287058198 1.157776 box
287058298 1.158264 box
287058398 1.164551 box
287058498 1.155762 box
287058598 1.162231 box
287058698 1.154602 box
287058798 1.154541 box
287058898 1.154785 box
287058998 1.158569 box
287059098 1.160522 box
287059198 1.174805 box
287059298 1.174133 box
287059398 1.168823 box
287059498 1.156982 box
287059598 1.162354 box
287059698 1.151123 box
287059798 1.151978 box
287059898 1.146851 box
287059998 1.158691 box
287060098 1.156799 box
287060198 1.162109 box
287060298 1.169128 box
287060398 1.183044 box
287060498 1.156799 box
287060598 1.163879 box
287060698 1.154297 box
287060798 1.150513 box
287060898 1.147888 box
287060998 1.157471 box
287061098 1.156799 box
287061198 1.161011 box
287061298 1.161560 box
287061398 1.164612 box
287061498 1.157288 box
287061598 1.185425 box
287061698 1.169373 box
287061798 1.148071 box
287061898 1.151428 box
287061998 1.174011 box
287062098 1.168701 box
287062198 1.158386 box
287062298 1.155884 box
287062398 1.168091 box
287062498 1.160339 box
287062598 1.187439 box
287062698 1.172302 box
287062798 1.173218 box
287062898 1.149231 box
287062998 1.154236 box
287063098 1.157898 box
287063198 1.153442 box
287063298 1.156799 box
287063398 1.163025 box
287063498 1.161316 box
287063598 1.164856 box
287063698 1.157959 box
287063798 1.155579 box
287063898 1.168091 box
287063998 1.168335 box
287064098 1.163269 box
287064198 1.170471 box
287064298 1.162659 box
287064398 1.191223 box
287064498 1.165649 box
287064598 1.163940 box
287064698 1.151733 box
287064798 1.145874 box
287064898 1.154846 box
287064998 1.156067 box
287065098 1.156921 box
287065198 1.158325 box
287065298 1.160645 box
287065398 1.159790 box
287065498 1.168701 box
287065598 1.158142 box
287065698 1.154480 box
287065798 1.148682 box
287065898 1.154602 box
287065998 1.155151 box
287066098 1.150696 box
287066198 1.159546 box
287066298 1.164246 box
287066398 1.157104 box
287066498 1.169128 box
287066598 1.157959 box
287066698 1.157715 box
287066798 1.163269 box
287066898 1.174255 box
287066998 1.175354 box
287067098 1.160339 box
287067198 1.160522 box
287067298 1.157043 box
287067398 1.178894 box
287067498 1.175293 box
287067598 1.167297 box
287067698 1.147034 box
287067798 1.151001 box
287067898 1.173584 box
287067998 1.166016 box
287068098 1.159668 box
287068198 1.160217 box
287068298 1.186279 box
287068398 1.169067 box
287068498 1.155640 box
287068598 1.171082 box
287068698 1.173645 box
287068798 1.156494 box
287068898 1.158020 box
287068998 1.161499 box
287069098 1.160583 box
287069198 1.189636 box
287069298 1.169495 box
287069398 1.182617 box
287069498 1.180786 box
287069598 1.149780 box
287069698 1.157776 box
287069798 1.159180 box
287069898 1.154236 box
287069998 1.153931 box
287070098 1.163574 box
287070198 1.155273 box
287070298 1.166016 box
287070398 1.161316 box
287070498 1.156128 box
287070598 1.156616 box
287070698 1.153503 box
287070798 1.158997 box
287070898 1.154663 box
287070998 1.153870 box
287071098 1.159241 box
287071198 1.154724 box
287071298 1.193237 box
287071398 1.175903 box
287071498 1.150757 box
287071598 1.169922 box
287071698 1.178955 box
287071798 1.163879 box
287071898 1.156982 box
287071998 1.160095 box
287072098 1.162964 box
287072198 1.164490 box
287072298 1.158752 box
287072398 1.157715 box
287072498 1.152832 box
287072598 1.153259 box
287072698 1.153259 box
287072798 1.154663 box
287072898 1.152344 box
287072998 1.159912 box
287073098 1.162537 box
287073198 1.165771 box
287073298 1.162354 box
287073398 1.182129 box
287073498 1.179321 box
287073598 1.154846 box
287073698 1.164734 box
287073798 1.178772 box
287073898 1.163757 box
287073998 1.166260 box
287074098 1.158813 box
287074198 1.163696 box
287074298 1.153015 box
287074398 1.154480 box
287074498 1.149048 box
287074598 1.155823 box
287074698 1.157471 box
287074798 1.158386 box
287074898 1.162781 box
287074998 1.197815 box
287075098 1.170105 box
287075198 1.163452 box
287075298 1.169250 box
287075398 1.174438 box
287075498 1.155151 box
287075598 1.156006 box
287075698 1.172852 box
287075798 1.159607 box
287075898 1.194641 box
287075998 1.157349 box
287076098 1.164307 box
287076198 1.153320 box
287076298 1.148804 box
287076398 1.154175 box
287076498 1.154480 box
287076598 1.153809 box
287076698 1.157715 box
287076798 1.159241 box
287076898 1.166992 box
287076998 1.156738 box
287077098 1.163025 box
287077198 1.156006 box
287077298 1.149902 box
287077398 1.152710 box
287077498 1.154175 box
287077598 1.158325 box
287077698 1.156250 box
287077798 1.156677 box
287077898 1.165588 box
287077998 1.158142 box
287078098 1.163513 box
287078198 1.154175 box
287078298 1.166748 box
287078398 1.165771 box
287078498 1.153748 box
287078598 1.157288 box
287078698 1.158325 box
287078798 1.160339 box
287078898 1.168396 box
287078998 1.158752 box
287079098 1.165771 box
287079198 1.154053 box
287079298 1.146790 box
287079398 1.146912 box
287079498 1.154053 box
287079598 1.156860 box
287079698 1.158569 box
287079798 1.159424 box
287079898 1.169250 box
287079998 1.158386 box
287080098 1.164307 box
287080198 1.154968 box
287080298 1.162415 box
287080398 1.162537 box
287080498 1.151672 box
287080598 1.156555 box
287080698 1.154663 box
287080798 1.158142 box
287080898 1.164734 box
287080998 1.156433 box
287081098 1.166870 box
287081198 1.157043 box
287081298 1.151428 box
287081398 1.146973 box
287081498 1.151794 box
287081598 1.155884 box
287081698 1.157898 box
287081798 1.155151 box
287081898 1.165833 box
287081998 1.159546 box
287082098 1.166992 box
287082198 1.159058 box
287082298 1.149719 box
287082398 1.150696 box
287082498 1.151855 box
287082598 1.157837 box
287082698 1.153564 box
287082798 1.153503 box
287082898 1.165833 box
287082998 1.160461 box
287083098 1.183533 box
287083198 1.171204 box
287083298 1.155884 box
287083398 1.152893 box
287083498 1.170898 box
287083598 1.165466 box
287083698 1.179138 box
287083798 1.162842 box
287083898 1.161865 box
287083998 1.157410 box
287084098 1.155579 box
287084198 1.156128 box
287084298 1.153809 box
287084398 1.151489 box
287084498 1.157532 box
287084598 1.161865 box
287084698 1.159729 box
287084798 1.160583 box
287084898 1.164185 box
287084998 1.157227 box
287085098 1.158447 box
287085198 1.154968 box
287085298 1.151123 box
287085398 1.151489 box
287085498 1.156006 box
287085598 1.178345 box
287085698 1.171631 box
287085798 1.162842 box
287085898 1.160522 box
287085998 1.159607 box
287086098 1.159729 box
287086198 1.152527 box
287086298 1.146423 box
287086398 1.151428 box
287086498 1.155823 box
287086598 1.159790 box
287086698 1.170166 box
287086798 1.160156 box
287086898 1.192871 box
287086998 1.169067 box
287087098 1.160156 box
287087198 1.157410 box
287087298 1.153992 box
287087398 1.154297 box
287087498 1.158020 box
287087598 1.155090 box
287087698 1.153503 box
287087798 1.154236 box
287087898 1.159912 box
287087998 1.167236 box
287088098 1.158142 box
287088198 1.158630 box
287088298 1.155396 box
287088398 1.156006 box
287088498 1.156250 box
287088598 1.155945 box
287088698 1.153137 box
287088798 1.157410 box
287088898 1.159973 box
287088998 1.164978 box
287089098 1.158936 box
287089198 1.160767 box
287089298 1.154846 box
287089398 1.157837 box
287089498 1.158203 box
287089598 1.155762 box
287089698 1.155396 box
287089798 1.157104 box
287089898 1.157593 box
287089998 1.163696 box
287090098 1.157593 box
287090198 1.156677 box
287090298 1.153076 box
287090398 1.156799 box
287090498 1.158569 box
287090598 1.156677 box
287090698 1.157166 box
287090798 1.161499 box
287090898 1.171326 box
287090998 1.187683 box
287091098 1.170471 box
287091198 1.150269 box
287091298 1.144592 box
287091398 1.158508 box
287091498 1.153931 box
287091598 1.155151 box
287091698 1.157410 box
287091798 1.172119 box
287091898 1.184875 box
287091998 1.173340 box
287092098 1.150208 box
287092198 1.169739 box
287092298 1.168640 box
287092398 1.162659 box
287092498 1.159363 box
287092598 1.157593 box
287092698 1.167297 box
287092798 1.195251 box
287092898 1.173645 box
287092998 1.157166 box
287093098 1.151978 box
287093198 1.146301 box
287093298 1.153625 box
287093398 1.154968 box
287093498 1.173462 box
287093598 1.170593 box
287093698 1.168091 box
287093798 1.157349 box
287093898 1.165894 box
287093998 1.161865 box
287094098 1.156738 box
287094198 1.150146 box
287094298 1.157043 box
287094398 1.154724 box
287094498 1.168762 box
287094598 1.173035 box
287094698 1.158508 box
287094798 1.180603 box
287094898 1.165039 box
287094998 1.151306 box
287095098 1.150940 box
287095198 1.155762 box
287095298 1.159363 box
287095398 1.158325 box
287095498 1.160461 box
287095598 1.167114 box
287095698 1.159729 box
287095798 1.167114 box
287095898 1.156616 box
287095998 1.151001 box
287096098 1.163147 box
287096198 1.168640 box
287096298 1.158569 box
287096398 1.155884 box
287096498 1.156372 box
287096598 1.165405 box
287096698 1.160400 box
287096798 1.168335 box
287096898 1.158447 box
287096998 1.168579 box
287097098 1.170593 box
287097198 1.155029 box
287097298 1.153503 box
287097398 1.155762 box
287097498 1.155334 box
287097598 1.162354 box
287097698 1.157410 box
287097798 1.181091 box
287097898 1.171570 box
287097998 1.180054 box
287098098 1.152405 box
287098198 1.156311 box
287098298 1.180298 box
287098398 1.159546 box
287098498 1.193909 box
287098598 1.170227 box
287098698 1.167236 box
287098798 1.170410 box
287098898 1.172913 box
287098998 1.174744 box
287099098 1.157959 box
287099198 1.160339 box
287099298 1.157104 box
287099398 1.161377 box
287099498 1.161926 box
287099598 1.155823 box
287099698 1.158569 box
287099798 1.156738 box
287099898 1.153503 box
287099998 1.148499 box
287100098 1.176514 box
287100198 1.171692 box
287100298 1.172485 box
287100398 1.175781 box
287100498 1.164673 box
287100598 1.167480 box
287100698 1.161194 box
287100798 1.154724 box
287100898 1.152954 box
287100998 1.153687 box
287101098 1.153809 box
287101198 1.152771 box
287101298 1.157471 box
287101398 1.162903 box
287101498 1.162842 box
287101598 1.165955 box
287101698 1.157837 box
287101798 1.155579 box
287101898 1.156006 box
287101998 1.152710 box
287102098 1.157532 box
287102198 1.155640 box
287102298 1.164612 box
287102398 1.178040 box
287102498 1.157349 box
287102598 1.162781 box
287102698 1.157043 box
287102798 1.154236 box
287102898 1.163757 box
287102998 1.173035 box
287103098 1.162109 box
287103198 1.155212 box
287103298 1.158508 box
287103398 1.167358 box
287103498 1.157837 box
287103598 1.164917 box
287103698 1.151794 box
287103798 1.151733 box
287103898 1.148682 box
287103998 1.157593 box
287104098 1.158875 box
287104198 1.155457 box
287104298 1.173035 box
287104398 1.186340 box
287104498 1.162659 box
287104598 1.166504 box
287104698 1.159729 box
287104798 1.152466 box
287104898 1.167847 box
287104998 1.171387 box
287105098 1.176697 box
287105198 1.159363 box
287105298 1.164368 box
287105398 1.157776 box
287105498 1.162292 box
287105598 1.155762 box
287105698 1.150452 box
287105798 1.160339 box
287105898 1.178894 box
287105998 1.173279 box
287106098 1.160095 box
287106198 1.159851 box
287106298 1.170227 box
287106398 1.158142 box
287106498 1.166199 box
287106598 1.156433 box
287106698 1.156555 box
287106798 1.150085 box
287106898 1.156128 box
287106998 1.156067 box
287107098 1.154175 box
287107198 1.155823 box
287107298 1.167297 box
287107398 1.160950 box
287107498 1.161560 box
287107598 1.172974 box
287107698 1.170898 box
287107798 1.155823 box
287107898 1.155945 box
287107998 1.162903 box
287108098 1.156616 box
287108198 1.163086 box
287108298 1.157227 box
287108398 1.161072 box
287108498 1.156128 box
287108598 1.154663 box
287108698 1.157349 box
287108798 1.153748 box
287108898 1.155823 box
287108998 1.158203 box
287109098 1.159912 box
287109198 1.167664 box
287109298 1.161072 box
287109398 1.164612 box
287109498 1.154968 box
287109598 1.167542 box
287109698 1.165527 box
287109798 1.152527 box
287109898 1.155396 box
287109998 1.156006 box
287110098 1.156860 box
287110198 1.166077 box
287110298 1.157471 box
287110398 1.166077 box
287110498 1.158630 box
287110598 1.159607 box
287110698 1.151306 box
287110798 1.154419 box
287110898 1.174744 box
287110998 1.160706 box
287111098 1.189453 box
287111198 1.159302 box
287111298 1.161499 box
287111398 1.156311 box
287111498 1.154846 box
287111598 1.153870 box
287111698 1.154114 box
287111798 1.155518 box
287111898 1.159851 box
287111998 1.161743 box
287112098 1.163452 box
287112198 1.163391 box
287112298 1.183350 box
287112398 1.174805 box
287112498 1.179688 box
287112598 1.152527 box
287112698 1.158081 box
287112798 1.160156 box
287112898 1.156128 box
287112998 1.157349 box
287113098 1.162170 box
287113198 1.157898 box
287113298 1.166016 box
287113398 1.155701 box
287113498 1.166382 box
287113598 1.173096 box
287113698 1.158813 box
287113798 1.161682 box
287113898 1.160461 box
287113998 1.164978 box
287114098 1.165955 box
287114198 1.161987 box
287114298 1.156555 box
287114398 1.152039 box
287114498 1.150635 box
287114598 1.171082 box
287114698 1.168945 box
287114798 1.157471 box
287114898 1.158447 box
287114998 1.161316 box
287115098 1.162415 box
287115198 1.183472 box
287115298 1.172668 box
287115398 1.153320 box
287115498 1.154846 box
287115598 1.169739 box
287115698 1.174988 box
287115798 1.161377 box
287115898 1.160889 box
287115998 1.166809 box
287116098 1.162598 box
287116198 1.159180 box
287116298 1.153564 box
287116398 1.150635 box
287116498 1.170227 box
287116598 1.168152 box
287116698 1.154907 box
287116798 1.153992 box
287116898 1.164001 box
287116998 1.159546 box
287117098 1.170166 box
287117198 1.159119 box
287117298 1.171265 box
287117398 1.178467 box
287117498 1.156799 box
287117598 1.158447 box
287117698 1.160400 box
287117798 1.159912 box
287117898 1.164307 box
287117998 1.155518 box
287118098 1.193787 box
287118198 1.175781 box
287118298 1.151367 box
287118398 1.148743 box
287118498 1.173706 box
287118598 1.168274 box
287118698 1.161377 box
287118798 1.161865 box
287118898 1.153992 box
287118998 1.184021 box
287119098 1.166504 box
287119198 1.154724 box
287119298 1.163147 box
287119398 1.178101 box
287119498 1.181152 box
287119598 1.162109 box
287119698 1.161072 box
287119798 1.195190 box
287119898 1.165710 box
287119998 1.154968 box
287120098 1.154358 box
287120198 1.155884 box
287120298 1.158264 box
287120398 1.161011 box
287120498 1.158752 box
287120598 1.158936 box
287120698 1.165527 box
287120798 1.158997 box
287120898 1.166504 box
287120998 1.155457 box
287121098 1.152344 box
287121198 1.151001 box
287121298 1.172241 box
287121398 1.167603 box
287121498 1.159851 box
287121598 1.158325 box
287121698 1.168762 box
287121798 1.161194 box
287121898 1.169861 box
287121998 1.162842 box
287122098 1.155701 box
287122198 1.151123 box
287122298 1.159546 box
287122398 1.175781 box
287122498 1.160095 box
287122598 1.191223 box
287122698 1.160645 box
287122798 1.167908 box
287122898 1.156311 box
287122998 1.166321 box
287123098 1.168213 box
287123198 1.155090 box
287123298 1.166199 box
287123398 1.183167 box
287123498 1.161682 box
287123598 1.157837 box
287123698 1.188232 box
287123798 1.172485 box
287123898 1.151428 box
287123998 1.171692 box
287124098 1.177307 box
287124198 1.157471 box
287124298 1.161804 box
287124398 1.186218 box
287124498 1.169373 box
287124598 1.157532 box
287124698 1.157532 box
287124798 1.157898 box
287124898 1.157104 box
287124998 1.155029 box
287125098 1.160889 box
287125198 1.163208 box
287125298 1.160095 box
287125398 1.166260 box
287125498 1.160828 box
287125598 1.183838 box
287125698 1.172729 box
287125798 1.178467 box
287125898 1.151245 box
287125998 1.159119 box
287126098 1.158264 box
287126198 1.153503 box
287126298 1.156494 box
287126398 1.164795 box
287126498 1.181213 box
287126598 1.170044 box
287126698 1.156006 box
287126798 1.157104 box
287126898 1.154053 box
287126998 1.156372 box
287127098 1.163025 box
287127198 1.160889 box
287127298 1.164124 box
287127398 1.164001 box
287127498 1.165283 box
287127598 1.158020 box
287127698 1.150574 box
287127798 1.147461 box
287127898 1.155457 box
287127998 1.158875 box
287128098 1.158203 box
287128198 1.158325 box
287128298 1.165710 box
287128398 1.163452 box
287128498 1.168884 box
287128598 1.159790 box
287128698 1.157349 box
287128798 1.164612 box
287128898 1.174194 box
287128998 1.174133 box
287129098 1.162170 box
287129198 1.158264 box
287129298 1.193542 box
287129398 1.172241 box
287129498 1.160095 box
287129598 1.167786 box
287129698 1.174133 box
287129798 1.155884 box
287129898 1.157959 box
287129998 1.158569 box
287130098 1.155945 box
287130198 1.159485 box
287130298 1.154785 box
287130398 1.165100 box
287130498 1.168884 box
287130598 1.168945 box
287130698 1.149963 box
287130798 1.159729 box
287130898 1.160461 box
287130998 1.160400 box
287131098 1.162720 box
287131198 1.167603 box
287131298 1.161499 box
287131398 1.164001 box
287131498 1.157227 box
287131598 1.153687 box
287131698 1.175781 box
287131798 1.174683 box
287131898 1.158691 box
287131998 1.157898 box
287132098 1.160950 box
287132198 1.156250 box
287132298 1.163818 box
287132398 1.169250 box
287132498 1.174561 box
287132598 1.170837 box
287132698 1.155518 box
287132798 1.155823 box
287132898 1.152710 box
287132998 1.158875 box
287133098 1.166077 box
287133198 1.165527 box
287133298 1.163513 box
287133398 1.181946 box
287133498 1.182129 box
287133598 1.157898 box
287133698 1.153748 box
287133798 1.160706 box
287133898 1.160400 box
287133998 1.166504 box
287134098 1.158936 box
287134198 1.187195 box
287134298 1.172363 box
287134398 1.175781 box
287134498 1.151184 box
287134598 1.155762 box
287134698 1.157593 box
287134798 1.157410 box
287134898 1.161682 box
287134998 1.157043 box
287135098 1.161316 box
287135198 1.172729 box
287135298 1.172363 box
287135398 1.151001 box
287135498 1.155945 box
287135598 1.178528 box
287135698 1.164856 box
287135798 1.160889 box
287135898 1.167419 box
287135998 1.185181 box
287136098 1.178406 box
287136198 1.159424 box
287136298 1.156616 box
287136398 1.156494 box
287136498 1.182068 box
287136598 1.183228 box
287136698 1.163879 box
287136798 1.167053 box
287136898 1.156494 box
287136998 1.170471 box
287137098 1.172791 box
287137198 1.170776 box
287137298 1.173889 box
287137398 1.153931 box
287137498 1.167480 box
287137598 1.183533 box
287137698 1.168152 box
287137798 1.159119 box
287137898 1.168274 box
287137998 1.158447 box
287138098 1.151001 box
287138198 1.150635 box
287138298 1.171448 box
287138398 1.168701 box
287138498 1.170227 box
287138598 1.176025 box
287138698 1.157715 box
287138798 1.163086 box
287138898 1.177612 box
287138998 1.165283 box
287139098 1.153625 box
287139198 1.154114 box
287139298 1.159485 box
287139398 1.157593 box
287139498 1.158997 box
287139598 1.169617 box
287139698 1.163269 box
287139798 1.169617 box
287139898 1.161438 box
287139998 1.170349 box
287140098 1.168945 box
287140198 1.157837 box
287140298 1.177063 box
287140398 1.162842 box
287140498 1.193726 box
287140598 1.166199 box
287140698 1.166748 box
287140798 1.158203 box
287140898 1.151367 box
287140998 1.150085 box
287141098 1.153564 box
287141198 1.160461 box
287141298 1.169861 box
287141398 1.173218 box
287141498 1.168335 box
287141598 1.154968 box
287141698 1.182617 box
287141798 1.177490 box
287141898 1.148682 box
287141998 1.173889 box
287142098 1.175293 box
287142198 1.156616 box
287142298 1.156494 box
287142398 1.164673 box
287142498 1.174988 box
287142598 1.181335 box
287142698 1.173523 box
287142798 1.148071 box
287142898 1.173584 box
287142998 1.174316 box
287143098 1.155823 box
287143198 1.166626 box
287143298 1.170349 box
287143398 1.187500 box
287143498 1.173523 box
287143598 1.157166 box
287143698 1.165649 box
287143798 1.175720 box
287143898 1.173218 box
287143998 1.175415 box
287144098 1.194519 box
287144198 1.167786 box
287144298 1.163208 box
287144398 1.164978 box
287144498 1.156799 box
287144598 1.152771 box
287144698 1.153870 box
287144798 1.155945 box
287144898 1.169861 box
287144998 1.169861 box
287145098 1.163696 box
287145198 1.154846 box
287145298 1.164368 box
287145398 1.156616 box
287145498 1.154175 box
287145598 1.153259 box
287145698 1.158813 box
287145798 1.159363 box
287145898 1.161072 box
287145998 1.169373 box
287146098 1.174072 box
287146198 1.184387 box
287146298 1.174316 box
287146398 1.156799 box
287146498 1.158997 box
287146598 1.155762 box
287146698 1.159363 box
287146798 1.160400 box
287146898 1.158325 box
287146998 1.167236 box
287147098 1.155884 box
287147198 1.164001 box
287147298 1.153198 box
287147398 1.150696 box
287147498 1.151733 box
287147598 1.159058 box
287147698 1.159729 box
287147798 1.158508 box
287147898 1.160645 box
287147998 1.169739 box
287148098 1.178345 box
287148198 1.179382 box
287148298 1.182190 box
287148398 1.153015 box
287148498 1.158813 box
287148598 1.162109 box
287148698 1.159546 box
287148798 1.160950 box
287148898 1.167358 box
287148998 1.196228 box
287149098 1.179993 box
287149198 1.159119 box
287149298 1.153748 box
287149398 1.155579 box
287149498 1.157043 box
287149598 1.158691 box
287149698 1.173035 box
287149798 1.166565 box
287149898 1.187134 box
287149998 1.175110 box
287150098 1.160278 box
287150198 1.176819 box
287150298 1.177917 box
287150398 1.156555 box
287150498 1.157898 box
287150598 1.160461 box
287150698 1.164551 box
287150798 1.158508 box
287150898 1.163696 box
287150998 1.156189 box
287151098 1.167236 box
287151198 1.162659 box
287151298 1.174683 box
287151398 1.167908 box
287151498 1.158203 box
287151598 1.165344 box
287151698 1.168335 box
287151798 1.189636 box
287151898 1.173462 box
287151998 1.152893 box
287152098 1.168335 box
287152198 1.176697 box
287152298 1.158386 box
287152398 1.158997 box
287152498 1.160095 box
287152598 1.159851 box
287152698 1.183838 box
287152798 1.168518 box
287152898 1.166565 box
287152998 1.169739 box
287153098 1.171143 box
287153198 1.159180 box
287153298 1.157410 box
287153398 1.165100 box
287153498 1.186707 box
287153598 1.167786 box
287153698 1.156372 box
287153798 1.153320 box
287153898 1.164795 box
287153998 1.174683 box
287154098 1.175781 box
287154198 1.159363 box
287154298 1.162659 box
287154398 1.160828 box
287154498 1.163086 box
287154598 1.174805 box
287154698 1.174255 box
287154798 1.170349 box
287154898 1.154785 box
287154998 1.155762 box
287155098 1.153198 box
287155198 1.155945 box
287155298 1.163025 box
287155398 1.157898 box
287155498 1.163757 box
287155598 1.155212 box
287155698 1.158081 box
287155798 1.154053 box
287155898 1.159851 box
287155998 1.164612 box
287156098 1.161560 box
287156198 1.167175 box
287156298 1.160645 box
287156398 1.196472 box
287156498 1.177185 box
287156598 1.154907 box
287156698 1.153809 box
287156798 1.176941 box
287156898 1.169495 box
287156998 1.161865 box
287157098 1.160400 box
287157198 1.164795 box
287157298 1.185547 box
287157398 1.175781 box
287157498 1.172424 box
287157598 1.170410 box
287157698 1.171997 box
287157798 1.167664 box
287157898 1.186340 box
287157998 1.169189 box
287158098 1.162048 box
287158198 1.166687 box
287158298 1.164307 box
287158398 1.156006 box
287158498 1.159607 box
287158598 1.153137 box
287158698 1.157349 box
287158798 1.154175 box
287158898 1.165405 box
287158998 1.181519 box
287159098 1.156006 box
287159198 1.160400 box
287159298 1.157166 box
287159398 1.155701 box
287159498 1.168152 box
287159598 1.168762 box
287159698 1.160339 box
287159798 1.156982 box
287159898 1.170227 box
287159998 1.196960 box
287160098 1.168457 box
287160198 1.158386 box
287160298 1.157532 box
287160398 1.158081 box
287160498 1.178711 box
287160598 1.168945 box
287160698 1.165405 box
287160798 1.162781 box
287160898 1.166992 box
287160998 1.161194 box
287161098 1.167603 box
287161198 1.159058 box
287161298 1.151489 box
287161398 1.173096 box
287161498 1.168152 box
287161598 1.157898 box
287161698 1.155212 box
287161798 1.163269 box
287161898 1.156494 box
287161998 1.181763 box
287162098 1.170593 box
287162198 1.152222 box
287162298 1.172607 box
287162398 1.177124 box
287162498 1.160095 box
287162598 1.160950 box
287162698 1.194336 box
287162798 1.161743 box
287162898 1.167969 box
287162998 1.153137 box
287163098 1.152527 box
287163198 1.151978 box
287163298 1.159302 box
287163398 1.174438 box
287163498 1.166199 box
287163598 1.168762 box
287163698 1.195374 box
287163798 1.175415 box
287163898 1.155396 box
287163998 1.177734 box
287164098 1.165039 box
287164198 1.156860 box
287164298 1.160095 box
287164398 1.157898 box
287164498 1.158508 box
287164598 1.159912 box
287164698 1.181946 box
287164798 1.166992 box
287164898 1.168884 box
287164998 1.169922 box
287165098 1.174011 box
287165198 1.161865 box
287165298 1.156067 box
287165398 1.165955 box
287165498 1.195557 box
287165598 1.171143 box
287165698 1.158630 box
287165798 1.150635 box
287165898 1.147644 box
287165998 1.156494 box
287166098 1.177429 box
287166198 1.166321 box
287166298 1.160583 box
287166398 1.165771 box
287166498 1.161987 box
287166598 1.163513 box
287166698 1.158081 box
287166798 1.159302 box
287166898 1.172974 box
287166998 1.166138 box
287167098 1.186218 box
287167198 1.163208 box
287167298 1.163330 box
287167398 1.160767 box
287167498 1.167236 box
287167598 1.175537 box
287167698 1.174988 box
287167798 1.155823 box
287167898 1.157227 box
287167998 1.179626 box
287168098 1.187561 box
287168198 1.171204 box
287168298 1.158997 box
287168398 1.172607 box
287168498 1.162048 box
287168598 1.157776 box
287168698 1.154785 box
287168798 1.159546 box
287168898 1.177185 box
287168998 1.168701 box
287169098 1.164124 box
287169198 1.160828 box
287169298 1.179993 box
287169398 1.180115 box
287169498 1.173279 box
287169598 1.166809 box
287169698 1.173645 box
287169798 1.182922 box
287169898 1.164856 box
287169998 1.167053 box
287170098 1.163879 box
287170198 1.169617 box
287170298 1.159973 box
287170398 1.155457 box
287170498 1.150696 box
287170598 1.155029 box
287170698 1.176270 box
287170798 1.165161 box
287170898 1.188110 box
287170998 1.165161 box
287171098 1.163757 box
287171198 1.177551 box
287171298 1.172729 box
287171398 1.174988 box
287171498 1.159424 box
287171598 1.157532 box
287171698 1.160217 box
287171798 1.159546 box
287171898 1.162354 box
287171998 1.158691 box
287172098 1.160095 box
287172198 1.154663 box
287172298 1.153687 box
287172398 1.172546 box
287172498 1.170959 box
287172598 1.159485 box
287172698 1.161377 box
287172798 1.196289 box
287172898 1.164368 box
287172998 1.163513 box
287173098 1.159668 box
287173198 1.158569 box
287173298 1.154541 box
287173398 1.159851 box
287173498 1.163452 box
287173598 1.160278 box
287173698 1.172485 box
287173798 1.196411 box
287173898 1.177429 box
287173998 1.153931 box
287174098 1.156677 box
287174198 1.159851 box
287174298 1.157898 box
287174398 1.162781 box
287174498 1.174194 box
287174598 1.161621 box
287174698 1.197815 box
287174798 1.173218 box
287174898 1.164001 box
287174998 1.158997 box
287175098 1.158691 box
287175198 1.156555 box
287175298 1.157593 box
287175398 1.158325 box
287175498 1.156738 box
287175598 1.163330 box
287175698 1.157349 box
287175798 1.163574 box
287175898 1.182068 box
287175998 1.172729 box
287176098 1.170166 box
287176198 1.171021 box
287176298 1.180664 box
287176398 1.163635 box
287176498 1.166809 box
287176598 1.158264 box
287176698 1.188721 box
287176798 1.170227 box
287176898 1.155212 box
287176998 1.152283 box
287177098 1.178406 box
287177198 1.173645 box
287177298 1.180725 box
287177398 1.168701 box
287177498 1.160583 box
287177598 1.170105 box
287177698 1.156555 box
287177798 1.168335 box
287177898 1.172852 box
287177998 1.175537 box
287178098 1.163818 box
287178198 1.159790 box
287178298 1.168213 box
287178398 1.161316 box
287178498 1.164612 box
287178599 0.852966 box
