------------
Profiler Configuration
output path: /home/tc/pwr2018_data/output_fixed/miniFE_proc1/cap_14/nowrapper-5
monitoring frequency: 100000000 nano seconds
------------
MiniFE Mini-App, OpenMP Peer Implementation
Creating OpenMP Thread Pool...
Counted: 2 threads.
Running MiniFE Mini-App...
      creating/filling mesh...0.105558s, total time: 0.105559
generating matrix structure...4.55131s, total time: 4.65686
         assembling FE data...20.6762s, total time: 25.333
      imposing Dirichlet BC...9.41583s, total time: 34.7489
      imposing Dirichlet BC...2.92148s, total time: 37.6703
making matrix indices local...9.53674e-07s, total time: 37.6703
Starting CG solver ... 
Initial Residual = 231.002
Iteration = 20   Residual = 0.0570243
Iteration = 40   Residual = 0.0263608
Iteration = 60   Residual = 0.0171981
Iteration = 80   Residual = 0.0105281
Iteration = 100   Residual = 0.00757859
Iteration = 120   Residual = 0.0058583
Iteration = 140   Residual = 0.00469717
Iteration = 160   Residual = 0.00300328
Iteration = 180   Residual = 0.00217112
Iteration = 200   Residual = 0.00161861
Final Resid Norm: 0.00161861
