/dev/cpu/msr_batch: No such file or directory
graph_generation:               6.445619 s
construction_time:              1.053441 s
Running BFS 0
Time for BFS 0 is 0.260581
TEPS for BFS 0 is 6.43785e+07
Validating BFS 0
Validate time for BFS 0 is 1.607332
Running BFS 1
Time for BFS 1 is 0.260669
TEPS for BFS 1 is 6.43569e+07
Validating BFS 1
Validate time for BFS 1 is 1.606272
Running BFS 2
Time for BFS 2 is 0.260699
TEPS for BFS 2 is 6.43495e+07
Validating BFS 2
Validate time for BFS 2 is 1.606526
Running BFS 3
Time for BFS 3 is 0.260574
TEPS for BFS 3 is 6.43803e+07
Validating BFS 3
Validate time for BFS 3 is 1.600153
Running BFS 4
Time for BFS 4 is 0.260670
TEPS for BFS 4 is 6.43565e+07
Validating BFS 4
Validate time for BFS 4 is 1.599222
Running BFS 5
Time for BFS 5 is 0.260743
TEPS for BFS 5 is 6.43386e+07
Validating BFS 5
Validate time for BFS 5 is 1.605100
Running BFS 6
Time for BFS 6 is 0.260672
TEPS for BFS 6 is 6.43561e+07
Validating BFS 6
Validate time for BFS 6 is 1.599453
Running BFS 7
Time for BFS 7 is 0.260590
TEPS for BFS 7 is 6.43762e+07
Validating BFS 7
Validate time for BFS 7 is 1.603940
Running BFS 8
Time for BFS 8 is 0.260790
TEPS for BFS 8 is 6.43268e+07
Validating BFS 8
Validate time for BFS 8 is 1.598509
Running BFS 9
Time for BFS 9 is 0.260821
TEPS for BFS 9 is 6.43192e+07
Validating BFS 9
Validate time for BFS 9 is 1.600419
Running BFS 10
Time for BFS 10 is 0.260628
TEPS for BFS 10 is 6.4367e+07
Validating BFS 10
Validate time for BFS 10 is 1.607044
Running BFS 11
Time for BFS 11 is 0.260766
TEPS for BFS 11 is 6.43328e+07
Validating BFS 11
Validate time for BFS 11 is 1.599494
Running BFS 12
Time for BFS 12 is 0.260744
TEPS for BFS 12 is 6.43382e+07
Validating BFS 12
Validate time for BFS 12 is 1.604408
Running BFS 13
Time for BFS 13 is 0.260780
TEPS for BFS 13 is 6.43295e+07
Validating BFS 13
Validate time for BFS 13 is 1.601193
Running BFS 14
Time for BFS 14 is 0.260709
TEPS for BFS 14 is 6.4347e+07
Validating BFS 14
Validate time for BFS 14 is 1.601118
Running BFS 15
Time for BFS 15 is 0.260725
TEPS for BFS 15 is 6.4343e+07
Validating BFS 15
Validate time for BFS 15 is 1.607267
Running BFS 16
Time for BFS 16 is 0.260730
TEPS for BFS 16 is 6.43418e+07
Validating BFS 16
Validate time for BFS 16 is 1.600634
Running BFS 17
Time for BFS 17 is 0.260749
TEPS for BFS 17 is 6.4337e+07
Validating BFS 17
Validate time for BFS 17 is 1.606563
Running BFS 18
Time for BFS 18 is 0.260877
TEPS for BFS 18 is 6.43055e+07
Validating BFS 18
Validate time for BFS 18 is 1.605937
Running BFS 19
Time for BFS 19 is 0.260825
TEPS for BFS 19 is 6.43182e+07
Validating BFS 19
Validate time for BFS 19 is 1.608112
Running BFS 20
Time for BFS 20 is 0.260829
TEPS for BFS 20 is 6.43172e+07
Validating BFS 20
Validate time for BFS 20 is 1.597508
Running BFS 21
Time for BFS 21 is 0.260690
TEPS for BFS 21 is 6.43517e+07
Validating BFS 21
Validate time for BFS 21 is 1.603200
Running BFS 22
Time for BFS 22 is 0.260852
TEPS for BFS 22 is 6.43117e+07
Validating BFS 22
Validate time for BFS 22 is 1.605199
Running BFS 23
Time for BFS 23 is 0.260863
TEPS for BFS 23 is 6.43088e+07
Validating BFS 23
Validate time for BFS 23 is 1.606005
Running BFS 24
Time for BFS 24 is 0.260685
TEPS for BFS 24 is 6.43528e+07
Validating BFS 24
Validate time for BFS 24 is 1.600223
Running BFS 25
Time for BFS 25 is 0.260877
TEPS for BFS 25 is 6.43054e+07
Validating BFS 25
Validate time for BFS 25 is 1.607139
Running BFS 26
Time for BFS 26 is 0.260745
TEPS for BFS 26 is 6.4338e+07
Validating BFS 26
Validate time for BFS 26 is 1.606995
Running BFS 27
Time for BFS 27 is 0.260778
TEPS for BFS 27 is 6.43299e+07
Validating BFS 27
Validate time for BFS 27 is 1.600000
Running BFS 28
Time for BFS 28 is 0.260772
TEPS for BFS 28 is 6.43314e+07
Validating BFS 28
Validate time for BFS 28 is 1.607952
Running BFS 29
Time for BFS 29 is 0.260686
TEPS for BFS 29 is 6.43526e+07
Validating BFS 29
Validate time for BFS 29 is 1.607755
Running BFS 30
Time for BFS 30 is 0.260746
TEPS for BFS 30 is 6.43378e+07
Validating BFS 30
Validate time for BFS 30 is 1.607337
Running BFS 31
Time for BFS 31 is 0.260797
TEPS for BFS 31 is 6.43252e+07
Validating BFS 31
Validate time for BFS 31 is 1.599956
Running BFS 32
Time for BFS 32 is 0.260656
TEPS for BFS 32 is 6.43599e+07
Validating BFS 32
Validate time for BFS 32 is 1.600656
Running BFS 33
Time for BFS 33 is 0.260773
TEPS for BFS 33 is 6.43312e+07
Validating BFS 33
Validate time for BFS 33 is 1.606529
Running BFS 34
Time for BFS 34 is 0.260673
TEPS for BFS 34 is 6.43557e+07
Validating BFS 34
Validate time for BFS 34 is 1.599909
Running BFS 35
Time for BFS 35 is 0.260641
TEPS for BFS 35 is 6.43637e+07
Validating BFS 35
Validate time for BFS 35 is 1.599222
Running BFS 36
Time for BFS 36 is 0.260706
TEPS for BFS 36 is 6.43476e+07
Validating BFS 36
Validate time for BFS 36 is 1.600275
Running BFS 37
Time for BFS 37 is 0.260783
TEPS for BFS 37 is 6.43286e+07
Validating BFS 37
Validate time for BFS 37 is 1.604798
Running BFS 38
Time for BFS 38 is 0.260790
TEPS for BFS 38 is 6.43268e+07
Validating BFS 38
Validate time for BFS 38 is 1.598631
Running BFS 39
Time for BFS 39 is 0.260763
TEPS for BFS 39 is 6.43336e+07
Validating BFS 39
Validate time for BFS 39 is 1.598639
Running BFS 40
Time for BFS 40 is 0.260821
TEPS for BFS 40 is 6.43193e+07
Validating BFS 40
Validate time for BFS 40 is 1.598958
Running BFS 41
Time for BFS 41 is 0.260678
TEPS for BFS 41 is 6.43547e+07
Validating BFS 41
Validate time for BFS 41 is 1.606553
Running BFS 42
Time for BFS 42 is 0.260612
TEPS for BFS 42 is 6.43708e+07
Validating BFS 42
Validate time for BFS 42 is 1.599848
Running BFS 43
Time for BFS 43 is 0.260695
TEPS for BFS 43 is 6.43503e+07
Validating BFS 43
Validate time for BFS 43 is 1.601526
Running BFS 44
Time for BFS 44 is 0.260676
TEPS for BFS 44 is 6.4355e+07
Validating BFS 44
Validate time for BFS 44 is 1.605893
Running BFS 45
Time for BFS 45 is 0.260711
TEPS for BFS 45 is 6.43464e+07
Validating BFS 45
Validate time for BFS 45 is 1.597914
Running BFS 46
Time for BFS 46 is 0.260825
TEPS for BFS 46 is 6.43182e+07
Validating BFS 46
Validate time for BFS 46 is 1.604007
Running BFS 47
Time for BFS 47 is 0.260695
TEPS for BFS 47 is 6.43504e+07
Validating BFS 47
Validate time for BFS 47 is 1.600749
Running BFS 48
Time for BFS 48 is 0.260657
TEPS for BFS 48 is 6.43598e+07
Validating BFS 48
Validate time for BFS 48 is 1.607077
Running BFS 49
Time for BFS 49 is 0.260711
TEPS for BFS 49 is 6.43465e+07
Validating BFS 49
Validate time for BFS 49 is 1.600749
Running BFS 50
Time for BFS 50 is 0.260643
TEPS for BFS 50 is 6.43633e+07
Validating BFS 50
Validate time for BFS 50 is 1.597093
Running BFS 51
Time for BFS 51 is 0.260685
TEPS for BFS 51 is 6.43529e+07
Validating BFS 51
Validate time for BFS 51 is 1.606580
Running BFS 52
Time for BFS 52 is 0.260769
TEPS for BFS 52 is 6.4332e+07
Validating BFS 52
Validate time for BFS 52 is 1.606585
Running BFS 53
Time for BFS 53 is 0.260681
TEPS for BFS 53 is 6.43538e+07
Validating BFS 53
Validate time for BFS 53 is 1.599061
Running BFS 54
Time for BFS 54 is 0.260785
TEPS for BFS 54 is 6.43282e+07
Validating BFS 54
Validate time for BFS 54 is 1.606158
Running BFS 55
Time for BFS 55 is 0.260782
TEPS for BFS 55 is 6.43288e+07
Validating BFS 55
Validate time for BFS 55 is 1.599867
Running BFS 56
Time for BFS 56 is 0.260657
TEPS for BFS 56 is 6.43597e+07
Validating BFS 56
Validate time for BFS 56 is 1.599787
Running BFS 57
Time for BFS 57 is 0.260667
TEPS for BFS 57 is 6.43572e+07
Validating BFS 57
Validate time for BFS 57 is 1.606967
Running BFS 58
Time for BFS 58 is 0.260731
TEPS for BFS 58 is 6.43415e+07
Validating BFS 58
Validate time for BFS 58 is 1.604846
Running BFS 59
Time for BFS 59 is 0.260790
TEPS for BFS 59 is 6.43269e+07
Validating BFS 59
Validate time for BFS 59 is 1.606824
Running BFS 60
Time for BFS 60 is 0.260760
TEPS for BFS 60 is 6.43343e+07
Validating BFS 60
Validate time for BFS 60 is 1.600506
Running BFS 61
Time for BFS 61 is 0.260706
TEPS for BFS 61 is 6.43475e+07
Validating BFS 61
Validate time for BFS 61 is 1.605642
Running BFS 62
Time for BFS 62 is 0.260544
TEPS for BFS 62 is 6.43878e+07
Validating BFS 62
Validate time for BFS 62 is 1.607139
Running BFS 63
Time for BFS 63 is 0.260541
TEPS for BFS 63 is 6.43883e+07
Validating BFS 63
Validate time for BFS 63 is 1.598809
real	2m 18.30s
user	2m 18.18s
sys	0m 0.10s
