/dev/cpu/msr_batch: No such file or directory
terminate called after throwing an instance of 'std::bad_alloc'
  what():  std::bad_alloc
[box:04728] *** Process received signal ***
[box:04728] Signal: Aborted (6)
[box:04728] Signal code:  (-6)
[box:04728] [ 0] /lib/libpthread.so.0(+0x10030)[0x7fbeee6b0030]
[box:04728] [ 1] /lib/libc.so.6(gsignal+0xbb)[0x7fbeee35685e]
[box:04728] [ 2] /lib/libc.so.6(abort+0x139)[0x7fbeee35799d]
[box:04728] [ 3] /usr/lib/libstdc++.so.6(_ZN9__gnu_cxx27__verbose_terminate_handlerEv+0xbc)[0x7fbeeee919ad]
[box:04728] [ 4] /usr/lib/libstdc++.so.6(+0x94081)[0x7fbeeee90081]
[box:04728] [ 5] /usr/lib/libstdc++.so.6(+0x940ba)[0x7fbeeee900ba]
[box:04728] [ 6] /usr/lib/libstdc++.so.6(__cxa_rethrow+0x0)[0x7fbeeee9029c]
[box:04728] [ 7] /usr/lib/libstdc++.so.6(_Znwm+0x53)[0x7fbeeee9063a]
[box:04728] [ 8] /mnt/sda1/miniFE/src/miniFE.x[0x412849]
[box:04728] [ 9] /mnt/sda1/miniFE/src/miniFE.x[0x419c53]
[box:04728] [10] /mnt/sda1/miniFE/src/miniFE.x[0x404d2a]
[box:04728] [11] /lib/libc.so.6(__libc_start_main+0x15a)[0x7fbeee34709d]
[box:04728] [12] /mnt/sda1/miniFE/src/miniFE.x[0x406b6a]
[box:04728] *** End of error message ***
--------------------------------------------------------------------------
mpirun noticed that process rank 0 with PID 0 on node box exited on signal 6 (Aborted).
--------------------------------------------------------------------------
Command exited with non-zero status 134
real	0m 58.46s
user	1m 36.70s
sys	0m 7.06s
