/dev/cpu/msr_batch: No such file or directory
graph_generation:               6.444145 s
construction_time:              1.038187 s
Running BFS 0
Time for BFS 0 is 0.257384
TEPS for BFS 0 is 6.51783e+07
Validating BFS 0
Validate time for BFS 0 is 1.613449
Running BFS 1
Time for BFS 1 is 0.261496
TEPS for BFS 1 is 6.41533e+07
Validating BFS 1
Validate time for BFS 1 is 1.608618
Running BFS 2
Time for BFS 2 is 0.261400
TEPS for BFS 2 is 6.41769e+07
Validating BFS 2
Validate time for BFS 2 is 1.610172
Running BFS 3
Time for BFS 3 is 0.261428
TEPS for BFS 3 is 6.41699e+07
Validating BFS 3
Validate time for BFS 3 is 1.602837
Running BFS 4
Time for BFS 4 is 0.261554
TEPS for BFS 4 is 6.4139e+07
Validating BFS 4
Validate time for BFS 4 is 1.601260
Running BFS 5
Time for BFS 5 is 0.261434
TEPS for BFS 5 is 6.41685e+07
Validating BFS 5
Validate time for BFS 5 is 1.608119
Running BFS 6
Time for BFS 6 is 0.261475
TEPS for BFS 6 is 6.41583e+07
Validating BFS 6
Validate time for BFS 6 is 1.602400
Running BFS 7
Time for BFS 7 is 0.261476
TEPS for BFS 7 is 6.41583e+07
Validating BFS 7
Validate time for BFS 7 is 1.606834
Running BFS 8
Time for BFS 8 is 0.261311
TEPS for BFS 8 is 6.41987e+07
Validating BFS 8
Validate time for BFS 8 is 1.601863
Running BFS 9
Time for BFS 9 is 0.261500
TEPS for BFS 9 is 6.41524e+07
Validating BFS 9
Validate time for BFS 9 is 1.602365
Running BFS 10
Time for BFS 10 is 0.261487
TEPS for BFS 10 is 6.41554e+07
Validating BFS 10
Validate time for BFS 10 is 1.608671
Running BFS 11
Time for BFS 11 is 0.261601
TEPS for BFS 11 is 6.41275e+07
Validating BFS 11
Validate time for BFS 11 is 1.602447
Running BFS 12
Time for BFS 12 is 0.261377
TEPS for BFS 12 is 6.41825e+07
Validating BFS 12
Validate time for BFS 12 is 1.606810
Running BFS 13
Time for BFS 13 is 0.261468
TEPS for BFS 13 is 6.41601e+07
Validating BFS 13
Validate time for BFS 13 is 1.603195
Running BFS 14
Time for BFS 14 is 0.261467
TEPS for BFS 14 is 6.41604e+07
Validating BFS 14
Validate time for BFS 14 is 1.603312
Running BFS 15
Time for BFS 15 is 0.261441
TEPS for BFS 15 is 6.41667e+07
Validating BFS 15
Validate time for BFS 15 is 1.610068
Running BFS 16
Time for BFS 16 is 0.261410
TEPS for BFS 16 is 6.41743e+07
Validating BFS 16
Validate time for BFS 16 is 1.603020
Running BFS 17
Time for BFS 17 is 0.261458
TEPS for BFS 17 is 6.41625e+07
Validating BFS 17
Validate time for BFS 17 is 1.609818
Running BFS 18
Time for BFS 18 is 0.261493
TEPS for BFS 18 is 6.41541e+07
Validating BFS 18
Validate time for BFS 18 is 1.609472
Running BFS 19
Time for BFS 19 is 0.261504
TEPS for BFS 19 is 6.41512e+07
Validating BFS 19
Validate time for BFS 19 is 1.610994
Running BFS 20
Time for BFS 20 is 0.261563
TEPS for BFS 20 is 6.41369e+07
Validating BFS 20
Validate time for BFS 20 is 1.599985
Running BFS 21
Time for BFS 21 is 0.261391
TEPS for BFS 21 is 6.41791e+07
Validating BFS 21
Validate time for BFS 21 is 1.606131
Running BFS 22
Time for BFS 22 is 0.261324
TEPS for BFS 22 is 6.41955e+07
Validating BFS 22
Validate time for BFS 22 is 1.607880
Running BFS 23
Time for BFS 23 is 0.261522
TEPS for BFS 23 is 6.41468e+07
Validating BFS 23
Validate time for BFS 23 is 1.608849
Running BFS 24
Time for BFS 24 is 0.261489
TEPS for BFS 24 is 6.41549e+07
Validating BFS 24
Validate time for BFS 24 is 1.603586
Running BFS 25
Time for BFS 25 is 0.261454
TEPS for BFS 25 is 6.41637e+07
Validating BFS 25
Validate time for BFS 25 is 1.610359
Running BFS 26
Time for BFS 26 is 0.261449
TEPS for BFS 26 is 6.41647e+07
Validating BFS 26
Validate time for BFS 26 is 1.609894
Running BFS 27
Time for BFS 27 is 0.261513
TEPS for BFS 27 is 6.41491e+07
Validating BFS 27
Validate time for BFS 27 is 1.603067
Running BFS 28
Time for BFS 28 is 0.261450
TEPS for BFS 28 is 6.41647e+07
Validating BFS 28
Validate time for BFS 28 is 1.611458
Running BFS 29
Time for BFS 29 is 0.261543
TEPS for BFS 29 is 6.41416e+07
Validating BFS 29
Validate time for BFS 29 is 1.609769
Running BFS 30
Time for BFS 30 is 0.261516
TEPS for BFS 30 is 6.41483e+07
Validating BFS 30
Validate time for BFS 30 is 1.609775
Running BFS 31
Time for BFS 31 is 0.261395
TEPS for BFS 31 is 6.41779e+07
Validating BFS 31
Validate time for BFS 31 is 1.605281
Running BFS 32
Time for BFS 32 is 0.261489
TEPS for BFS 32 is 6.41549e+07
Validating BFS 32
Validate time for BFS 32 is 1.601307
Running BFS 33
Time for BFS 33 is 0.261518
TEPS for BFS 33 is 6.41479e+07
Validating BFS 33
Validate time for BFS 33 is 1.609482
Running BFS 34
Time for BFS 34 is 0.261420
TEPS for BFS 34 is 6.41719e+07
Validating BFS 34
Validate time for BFS 34 is 1.602805
Running BFS 35
Time for BFS 35 is 0.261352
TEPS for BFS 35 is 6.41886e+07
Validating BFS 35
Validate time for BFS 35 is 1.601885
Running BFS 36
Time for BFS 36 is 0.261426
TEPS for BFS 36 is 6.41704e+07
Validating BFS 36
Validate time for BFS 36 is 1.603624
Running BFS 37
Time for BFS 37 is 0.261495
TEPS for BFS 37 is 6.41535e+07
Validating BFS 37
Validate time for BFS 37 is 1.608033
Running BFS 38
Time for BFS 38 is 0.261559
TEPS for BFS 38 is 6.41377e+07
Validating BFS 38
Validate time for BFS 38 is 1.601823
Running BFS 39
Time for BFS 39 is 0.261538
TEPS for BFS 39 is 6.41429e+07
Validating BFS 39
Validate time for BFS 39 is 1.602237
Running BFS 40
Time for BFS 40 is 0.261434
TEPS for BFS 40 is 6.41686e+07
Validating BFS 40
Validate time for BFS 40 is 1.600976
Running BFS 41
Time for BFS 41 is 0.261518
TEPS for BFS 41 is 6.41479e+07
Validating BFS 41
Validate time for BFS 41 is 1.609842
Running BFS 42
Time for BFS 42 is 0.261484
TEPS for BFS 42 is 6.41561e+07
Validating BFS 42
Validate time for BFS 42 is 1.602527
Running BFS 43
Time for BFS 43 is 0.261457
TEPS for BFS 43 is 6.41629e+07
Validating BFS 43
Validate time for BFS 43 is 1.604668
Running BFS 44
Time for BFS 44 is 0.261486
TEPS for BFS 44 is 6.41556e+07
Validating BFS 44
Validate time for BFS 44 is 1.609183
Running BFS 45
Time for BFS 45 is 0.261434
TEPS for BFS 45 is 6.41685e+07
Validating BFS 45
Validate time for BFS 45 is 1.601097
Running BFS 46
Time for BFS 46 is 0.261484
TEPS for BFS 46 is 6.41561e+07
Validating BFS 46
Validate time for BFS 46 is 1.606489
Running BFS 47
Time for BFS 47 is 0.261496
TEPS for BFS 47 is 6.41533e+07
Validating BFS 47
Validate time for BFS 47 is 1.603016
Running BFS 48
Time for BFS 48 is 0.261551
TEPS for BFS 48 is 6.41398e+07
Validating BFS 48
Validate time for BFS 48 is 1.609002
Running BFS 49
Time for BFS 49 is 0.261512
TEPS for BFS 49 is 6.41493e+07
Validating BFS 49
Validate time for BFS 49 is 1.602571
Running BFS 50
Time for BFS 50 is 0.261447
TEPS for BFS 50 is 6.41652e+07
Validating BFS 50
Validate time for BFS 50 is 1.599872
Running BFS 51
Time for BFS 51 is 0.261463
TEPS for BFS 51 is 6.41614e+07
Validating BFS 51
Validate time for BFS 51 is 1.609227
Running BFS 52
Time for BFS 52 is 0.261572
TEPS for BFS 52 is 6.41345e+07
Validating BFS 52
Validate time for BFS 52 is 1.610057
Running BFS 53
Time for BFS 53 is 0.261478
TEPS for BFS 53 is 6.41577e+07
Validating BFS 53
Validate time for BFS 53 is 1.601985
Running BFS 54
Time for BFS 54 is 0.261506
TEPS for BFS 54 is 6.41507e+07
Validating BFS 54
Validate time for BFS 54 is 1.609029
Running BFS 55
Time for BFS 55 is 0.261425
TEPS for BFS 55 is 6.41707e+07
Validating BFS 55
Validate time for BFS 55 is 1.602563
Running BFS 56
Time for BFS 56 is 0.261363
TEPS for BFS 56 is 6.41858e+07
Validating BFS 56
Validate time for BFS 56 is 1.602157
Running BFS 57
Time for BFS 57 is 0.261382
TEPS for BFS 57 is 6.41812e+07
Validating BFS 57
Validate time for BFS 57 is 1.609823
Running BFS 58
Time for BFS 58 is 0.261335
TEPS for BFS 58 is 6.41929e+07
Validating BFS 58
Validate time for BFS 58 is 1.606889
Running BFS 59
Time for BFS 59 is 0.261403
TEPS for BFS 59 is 6.41762e+07
Validating BFS 59
Validate time for BFS 59 is 1.609684
Running BFS 60
Time for BFS 60 is 0.261426
TEPS for BFS 60 is 6.41705e+07
Validating BFS 60
Validate time for BFS 60 is 1.602920
Running BFS 61
Time for BFS 61 is 0.261438
TEPS for BFS 61 is 6.41674e+07
Validating BFS 61
Validate time for BFS 61 is 1.608472
Running BFS 62
Time for BFS 62 is 0.261505
TEPS for BFS 62 is 6.41511e+07
Validating BFS 62
Validate time for BFS 62 is 1.610251
Running BFS 63
Time for BFS 63 is 0.261280
TEPS for BFS 63 is 6.42063e+07
Validating BFS 63
Validate time for BFS 63 is 1.600415
real	2m 18.23s
user	2m 18.14s
sys	0m 0.08s
