time(ms) energy(J) hostname
282090209 0.000000 box
282090309 1.118347 box
282090409 1.128357 box
282090509 1.125549 box
282090609 1.135742 box
282090709 1.132935 box
282090809 1.133423 box
282090909 1.134338 box
282091009 1.123779 box
282091109 1.121460 box
282091209 1.130432 box
282091309 1.147522 box
282091409 1.130859 box
282091509 1.129700 box
282091609 1.122925 box
282091709 1.122803 box
282091809 1.135620 box
282091909 1.133545 box
282092009 1.126892 box
282092109 1.128052 box
282092209 1.132141 box
282092309 1.129883 box
282092409 1.130798 box
282092509 1.126526 box
282092609 1.135925 box
282092709 1.129150 box
282092809 1.124084 box
282092909 1.123840 box
282093009 1.129822 box
282093109 1.130859 box
282093209 1.129822 box
282093309 1.131226 box
282093409 1.126221 box
282093509 1.136719 box
282093609 1.136353 box
282093709 1.124817 box
282093809 1.124756 box
282093909 1.129028 box
282094009 1.133850 box
282094109 1.147705 box
282094209 1.135132 box
282094309 1.126526 box
282094409 1.131409 box
282094509 1.133179 box
282094609 1.137878 box
282094709 1.138000 box
282094809 1.133484 box
282094909 1.126770 box
282095009 1.131104 box
282095109 1.140503 box
282095209 1.135071 box
282095309 1.123474 box
282095409 1.125305 box
282095509 1.125000 box
282095609 1.135925 box
282095709 1.147095 box
282095809 1.128296 box
282095909 1.129272 box
282096009 1.134644 box
282096109 1.131226 box
282096209 1.135132 box
282096309 1.137024 box
282096409 1.127991 box
282096509 1.130920 box
282096609 1.126953 box
282096709 1.147949 box
282096809 1.130432 box
282096909 1.133240 box
282097009 1.134949 box
282097109 1.127747 box
282097209 1.133423 box
282097309 1.144104 box
282097409 1.127502 box
282097509 1.135986 box
282097609 1.130920 box
282097709 1.122498 box
282097809 1.119507 box
282097909 1.139282 box
282098009 1.135132 box
282098109 1.128784 box
282098209 1.133728 box
282098309 1.125366 box
282098409 1.149780 box
282098509 1.135437 box
282098609 1.134705 box
282098709 1.134644 box
282098809 1.127930 box
282098909 1.127258 box
282099009 1.142212 box
282099109 1.128540 box
282099209 1.135742 box
282099309 1.139404 box
282099409 1.132385 box
282099509 1.136902 box
282099609 1.134155 box
282099709 1.135315 box
282099809 1.131592 box
282099909 1.125854 box
282100009 1.144409 box
282100109 1.127136 box
282100209 1.127991 box
282100309 1.121887 box
282100409 1.125305 box
282100509 1.127686 box
282100609 1.124390 box
282100709 1.130371 box
282100809 1.126221 box
282100909 1.134155 box
282101009 1.124146 box
282101109 1.137512 box
282101209 1.131531 box
282101309 1.121094 box
282101409 1.126770 box
282101509 1.126038 box
282101609 1.132874 box
282101709 1.127258 box
282101809 1.147583 box
282101909 1.133240 box
282102009 1.132751 box
282102109 1.135620 box
282102209 1.133301 box
282102309 1.132202 box
282102409 1.141663 box
282102509 1.130249 box
282102609 1.134399 box
282102709 1.130432 box
282102809 1.135254 box
282102909 1.136047 box
282103009 1.132874 box
282103109 1.128174 box
282103209 1.126160 box
282103309 1.136292 box
282103409 1.144836 box
282103509 1.132874 box
282103609 1.136719 box
282103709 1.128906 box
282103809 1.133972 box
282103909 1.134155 box
282104009 1.131470 box
282104109 1.149475 box
282104209 1.132629 box
282104309 1.129211 box
282104409 1.124207 box
282104509 1.121826 box
282104609 1.122253 box
282104709 1.125427 box
282104809 1.124268 box
282104909 1.127319 box
282105009 1.128357 box
282105109 1.147339 box
282105209 1.133301 box
282105309 1.129578 box
282105409 1.124023 box
282105509 1.138123 box
282105609 1.130432 box
282105709 1.135742 box
282105809 1.137146 box
282105909 1.125671 box
282106009 1.142395 box
282106109 1.135864 box
282106209 1.132874 box
282106309 1.137207 box
282106409 1.122925 box
282106509 1.125366 box
282106609 1.128967 box
282106709 1.129761 box
282106809 1.132263 box
282106909 1.132385 box
282107009 1.125183 box
282107109 1.125549 box
282107209 1.120544 box
282107309 1.126160 box
282107409 1.125000 box
282107509 1.131714 box
282107609 1.147461 box
282107709 1.133240 box
282107809 1.129639 box
282107909 1.131958 box
282108009 1.127380 box
282108109 1.135437 box
282108209 1.136414 box
282108309 1.139709 box
282108409 1.132141 box
282108509 1.127686 box
282108609 1.140686 box
282108709 1.127747 box
282108809 1.125305 box
282108909 1.122864 box
282109009 1.125732 box
282109109 1.128723 box
282109209 1.127197 box
282109309 1.132874 box
282109409 1.127380 box
282109509 1.131165 box
282109609 1.125732 box
282109709 1.122864 box
282109809 1.123535 box
282109909 1.125061 box
282110009 1.122803 box
282110109 1.124084 box
282110209 1.127258 box
282110309 1.123413 box
282110409 1.130432 box
282110509 1.140503 box
282110609 1.135437 box
282110709 1.122192 box
282110809 1.125671 box
282110909 1.135803 box
282111009 1.138062 box
282111109 1.133667 box
282111209 1.128479 box
282111309 1.133240 box
282111409 1.128967 box
282111509 1.122192 box
282111609 1.133545 box
282111709 1.135559 box
282111809 1.128418 box
282111909 1.125610 box
282112009 1.131714 box
282112109 1.123352 box
282112209 1.134094 box
282112309 1.127441 box
282112409 1.124268 box
282112509 1.120728 box
282112609 1.125854 box
282112709 1.126526 box
282112809 1.124023 box
282112909 1.127563 box
282113009 1.126526 box
282113109 1.128357 box
282113209 1.128174 box
282113309 1.125061 box
282113409 1.127075 box
282113509 1.132996 box
282113609 1.130676 box
282113709 1.135559 box
282113809 1.140564 box
282113909 1.129333 box
282114009 1.130615 box
282114109 1.125854 box
282114209 1.124146 box
282114309 1.127563 box
282114409 1.127197 box
282114509 1.125793 box
282114609 1.138550 box
282114709 1.122498 box
282114809 1.142822 box
282114909 1.141296 box
282115009 1.139160 box
282115109 1.134705 box
282115209 1.126526 box
282115309 1.125061 box
282115409 1.126404 box
282115509 1.125122 box
282115609 1.124817 box
282115709 1.136719 box
282115809 1.143982 box
282115909 1.134949 box
282116009 1.124939 box
282116109 1.119568 box
282116209 1.132690 box
282116309 1.135010 box
282116409 1.130005 box
282116509 1.138977 box
282116609 1.139038 box
282116709 1.142090 box
282116809 1.136230 box
282116909 1.129822 box
282117009 1.133606 box
282117109 1.125610 box
282117209 1.124512 box
282117309 1.126282 box
282117409 1.125427 box
282117509 1.128174 box
282117609 1.136475 box
282117709 1.135376 box
282117809 1.127869 box
282117909 1.127258 box
282118009 1.124268 box
282118109 1.127380 box
282118209 1.129211 box
282118309 1.126831 box
282118409 1.127258 box
282118509 1.126709 box
282118609 1.121094 box
282118709 1.119873 box
282118809 1.126160 box
282118909 1.125732 box
282119009 1.139465 box
282119109 1.125488 box
282119209 1.148376 box
282119309 1.124268 box
282119409 1.138062 box
282119509 1.134827 box
282119609 1.132996 box
282119709 1.120483 box
282119809 1.124329 box
282119909 1.123474 box
282120009 1.124329 box
282120109 1.128723 box
282120209 1.125183 box
282120309 1.129883 box
282120409 1.128296 box
282120509 1.126282 box
282120609 1.123779 box
282120709 1.128479 box
282120809 1.128967 box
282120909 1.125244 box
282121009 1.132507 box
282121109 1.128235 box
282121209 1.130920 box
282121309 1.129944 box
282121409 1.132324 box
282121509 1.129822 box
282121609 1.132141 box
282121709 1.135010 box
282121809 1.139343 box
282121909 1.128845 box
282122009 1.135437 box
282122109 1.130920 box
282122209 1.135803 box
282122309 1.134705 box
282122409 1.135620 box
282122509 1.130554 box
282122609 1.131592 box
282122709 1.133240 box
282122809 1.137207 box
282122909 1.142761 box
282123009 1.135559 box
282123109 1.130249 box
282123209 1.123413 box
282123309 1.124695 box
282123409 1.128784 box
282123509 1.124695 box
282123609 1.129395 box
282123709 1.130615 box
282123809 1.132751 box
282123909 1.128662 box
282124009 1.125793 box
282124109 1.125427 box
282124209 1.124878 box
282124309 1.125916 box
282124409 1.124390 box
282124509 1.126160 box
282124609 1.128723 box
282124709 1.132263 box
282124809 1.144165 box
282124909 1.131714 box
282125009 1.133606 box
282125109 1.132141 box
282125209 1.131409 box
282125309 1.138428 box
282125409 1.125732 box
282125509 1.140259 box
282125609 1.144226 box
282125709 1.132141 box
282125809 1.133423 box
282125909 1.122620 box
282126009 1.134399 box
282126109 1.130493 box
282126209 1.137146 box
282126309 1.132751 box
282126409 1.136963 box
282126509 1.139526 box
282126609 1.135193 box
282126709 1.128662 box
282126809 1.130676 box
282126909 1.126831 box
282127009 1.125244 box
282127109 1.126038 box
282127209 1.133057 box
282127309 1.127808 box
282127409 1.141296 box
282127509 1.132141 box
282127609 1.134644 box
282127709 1.135193 box
282127809 1.133728 box
282127909 1.138000 box
282128009 1.128540 box
282128109 1.138062 box
282128209 1.144104 box
282128309 1.128418 box
282128409 1.131409 box
282128509 1.133911 box
282128609 1.132690 box
282128709 1.136353 box
282128809 1.128113 box
282128909 1.133362 box
282129009 1.131714 box
282129109 1.132751 box
282129209 1.125854 box
282129309 1.130493 box
282129409 1.128723 box
282129509 1.130920 box
282129609 1.127991 box
282129709 1.125244 box
282129809 1.132874 box
282129909 1.124390 box
282130009 1.144836 box
282130109 1.133850 box
282130209 1.133057 box
282130309 1.130798 box
282130409 1.131165 box
282130509 1.125549 box
282130609 1.122803 box
282130709 1.141479 box
282130809 1.144531 box
282130909 1.132019 box
282131009 1.132935 box
282131109 1.119934 box
282131209 1.136963 box
282131309 1.132874 box
282131409 1.130371 box
282131509 1.140808 box
282131609 1.140686 box
282131709 1.140381 box
282131809 1.126831 box
282131909 1.125427 box
282132009 1.137024 box
282132109 1.131165 box
282132209 1.135864 box
282132309 1.135498 box
282132409 1.125793 box
282132509 1.134155 box
282132609 1.133850 box
282132709 1.132507 box
282132809 1.135986 box
282132909 1.134583 box
282133009 1.127991 box
282133109 1.123596 box
282133209 1.129517 box
282133309 1.124695 box
282133409 1.128723 box
282133509 1.124084 box
282133609 1.123657 box
282133709 1.135498 box
282133809 1.134460 box
282133909 1.136169 box
282134009 1.127441 box
282134109 1.129150 box
282134209 1.127258 box
282134309 1.139221 box
282134409 1.133301 box
282134509 1.121582 box
282134609 1.122803 box
282134709 1.126099 box
282134809 1.121948 box
282134909 1.125122 box
282135009 1.136780 box
282135109 1.142944 box
282135209 1.134583 box
282135309 1.133240 box
282135409 1.116577 box
282135509 1.130554 box
282135609 1.124207 box
282135709 1.126465 box
282135809 1.131470 box
282135909 1.129761 box
282136009 1.129456 box
282136109 1.127625 box
282136209 1.121277 box
282136309 1.126770 box
282136409 1.136047 box
282136509 1.130371 box
282136609 1.137146 box
282136709 1.130249 box
282136809 1.130493 box
282136909 1.130005 box
282137009 1.139221 box
282137109 1.132751 box
282137209 1.128723 box
282137309 1.132874 box
282137409 1.131775 box
282137509 1.126892 box
282137609 1.130676 box
282137709 1.127991 box
282137809 1.129700 box
282137909 1.128052 box
282138009 1.125793 box
282138109 1.126221 box
282138209 1.120483 box
282138309 1.125854 box
282138409 1.125305 box
282138509 1.125366 box
282138609 1.125610 box
282138709 1.137390 box
282138809 1.129761 box
282138909 1.127136 box
282139009 1.130066 box
282139109 1.133789 box
282139209 1.135315 box
282139309 1.125000 box
282139409 1.126831 box
282139509 1.129761 box
282139609 1.137329 box
282139709 1.142700 box
282139809 1.133911 box
282139909 1.124084 box
282140009 1.122742 box
282140109 1.125610 box
282140209 1.126831 box
282140309 1.124695 box
282140409 1.130005 box
282140509 1.124268 box
282140609 1.129883 box
282140709 1.121887 box
282140809 1.123596 box
282140909 1.118225 box
282141009 1.127625 box
282141109 1.126892 box
282141209 1.126282 box
282141309 1.127075 box
282141409 1.133240 box
282141509 1.138306 box
282141609 1.123352 box
282141709 1.119690 box
282141809 1.114868 box
282141909 1.129089 box
282142009 1.123657 box
282142109 1.125305 box
282142209 1.125488 box
282142309 1.131592 box
282142409 1.129395 box
282142509 1.131104 box
282142609 1.127075 box
282142709 1.123169 box
282142809 1.129028 box
282142909 1.126892 box
282143009 1.124268 box
282143109 1.125427 box
282143209 1.134399 box
282143309 1.122498 box
282143409 1.136353 box
282143509 1.134338 box
282143609 1.133179 box
282143709 1.132263 box
282143809 1.127563 box
282143909 1.139282 box
282144009 1.123108 box
282144109 1.141724 box
282144209 1.127380 box
282144309 1.135498 box
282144409 1.134155 box
282144509 1.128113 box
282144609 1.135742 box
282144709 1.129639 box
282144809 1.127502 box
282144909 1.150085 box
282145009 1.124573 box
282145109 1.128845 box
282145209 1.123901 box
282145309 1.127808 box
282145409 1.125244 box
282145509 1.137634 box
282145609 1.128174 box
282145709 1.130920 box
282145809 1.138855 box
282145909 1.131958 box
282146009 1.124084 box
282146109 1.122620 box
282146209 1.115723 box
282146309 1.125061 box
282146409 1.126526 box
282146509 1.122803 box
282146609 1.124023 box
282146709 1.130249 box
282146809 1.123840 box
282146909 1.130005 box
282147009 1.124939 box
282147109 1.128479 box
282147209 1.138367 box
282147309 1.132812 box
282147409 1.132385 box
282147509 1.127441 box
282147609 1.137207 box
282147709 1.142578 box
282147809 1.132996 box
282147909 1.123230 box
282148009 1.134216 box
282148109 1.127930 box
282148209 1.120972 box
282148309 1.135071 box
282148409 1.138062 box
282148509 1.124451 box
282148609 1.136414 box
282148709 1.127319 box
282148809 1.134521 box
282148909 1.121277 box
282149009 1.122559 box
282149109 1.132446 box
282149209 1.126587 box
282149309 1.148438 box
282149409 1.131958 box
282149509 1.130432 box
282149609 1.123535 box
282149709 1.121826 box
282149809 1.124329 box
282149909 1.124878 box
282150009 1.124817 box
282150109 1.126099 box
282150209 1.127808 box
282150309 1.127441 box
282150409 1.127380 box
282150509 1.122742 box
282150609 1.122681 box
282150709 1.123413 box
282150809 1.122559 box
282150909 1.121216 box
282151009 1.124084 box
282151109 1.129944 box
282151209 1.131165 box
282151309 1.142456 box
282151409 1.133362 box
282151509 1.125061 box
282151609 1.132629 box
282151709 1.132263 box
282151809 1.131165 box
282151909 1.135132 box
282152009 1.137390 box
282152109 1.143372 box
282152209 1.134460 box
282152309 1.126709 box
282152409 1.121643 box
282152509 1.124695 box
282152609 1.124268 box
282152709 1.124268 box
282152809 1.127930 box
282152909 1.124268 box
282153009 1.128540 box
282153109 1.123230 box
282153209 1.118774 box
282153309 1.123108 box
282153409 1.124756 box
282153509 1.121582 box
282153609 1.133118 box
282153709 1.129333 box
282153809 1.141357 box
282153909 1.135010 box
282154009 1.125488 box
282154109 1.124146 box
282154209 1.121399 box
282154309 1.125000 box
282154409 1.123840 box
282154509 1.122437 box
282154609 1.127869 box
282154709 1.121277 box
282154809 1.127991 box
282154909 1.122742 box
282155009 1.123169 box
282155109 1.120667 box
282155209 1.127441 box
282155309 1.126343 box
282155409 1.126404 box
282155509 1.128357 box
282155609 1.128784 box
282155709 1.128296 box
282155809 1.128296 box
282155909 1.126099 box
282156009 1.124207 box
282156109 1.127930 box
282156209 1.140747 box
282156309 1.127625 box
282156409 1.131714 box
282156509 1.139465 box
282156609 1.142639 box
282156709 1.133667 box
282156809 1.125549 box
282156909 1.124207 box
282157009 1.133789 box
282157109 1.123718 box
282157209 1.127014 box
282157309 1.132385 box
282157409 1.125977 box
282157509 1.134583 box
282157609 1.125366 box
282157709 1.123962 box
282157809 1.115295 box
282157909 1.123779 box
282158009 1.126343 box
282158109 1.120789 box
282158209 1.124268 box
282158309 1.146729 box
282158409 1.131287 box
282158509 1.126770 box
282158609 1.123474 box
282158709 1.120789 box
282158809 1.126648 box
282158909 1.125244 box
282159009 1.123718 box
282159109 1.126526 box
282159209 1.124268 box
282159309 1.129089 box
282159409 1.125122 box
282159509 1.121887 box
282159609 1.116455 box
282159709 1.126709 box
282159809 1.122559 box
282159909 1.124390 box
282160009 1.123718 box
282160109 1.133545 box
282160209 1.125488 box
282160309 1.132629 box
282160409 1.124390 box
282160509 1.121521 box
282160609 1.125183 box
282160709 1.132141 box
282160809 1.134949 box
282160909 1.141541 box
282161009 1.124756 box
282161109 1.145691 box
282161209 1.132019 box
282161309 1.129944 box
282161409 1.118164 box
282161509 1.125793 box
282161609 1.126465 box
282161709 1.125366 box
282161809 1.128845 box
282161909 1.125366 box
282162009 1.129822 box
282162109 1.127136 box
282162209 1.121704 box
282162309 1.117798 box
282162409 1.124023 box
282162509 1.125916 box
282162609 1.122375 box
282162709 1.124756 box
282162809 1.128906 box
282162909 1.125305 box
282163009 1.128052 box
282163109 1.125183 box
282163209 1.129089 box
282163309 1.137573 box
282163409 1.131714 box
282163509 1.135864 box
282163609 1.131653 box
282163709 1.126221 box
282163809 1.133484 box
282163909 1.129028 box
282164009 1.124512 box
282164109 1.122314 box
282164209 1.123108 box
282164309 1.127502 box
282164409 1.125671 box
282164509 1.126953 box
282164609 1.128662 box
282164709 1.126282 box
282164809 1.140625 box
282164909 1.134583 box
282165009 1.127930 box
282165109 1.129822 box
282165209 1.136292 box
282165309 1.136719 box
282165409 1.128540 box
282165509 1.124084 box
282165609 1.128967 box
282165709 1.122498 box
282165809 1.120239 box
282165909 1.125000 box
282166009 1.125061 box
282166109 1.124512 box
282166209 1.124084 box
282166309 1.129272 box
282166409 1.126709 box
282166509 1.129700 box
282166609 1.130310 box
282166709 1.126831 box
282166809 1.119080 box
282166909 1.131409 box
282167009 1.126282 box
282167109 1.127808 box
282167209 1.128540 box
282167309 1.127686 box
282167409 1.129944 box
282167509 1.130310 box
282167609 1.123962 box
282167709 1.127197 box
282167809 1.123718 box
282167909 1.126099 box
282168009 1.126953 box
282168109 1.127869 box
282168209 1.132324 box
282168309 1.127625 box
282168409 1.131958 box
282168509 1.135925 box
282168609 1.131775 box
282168709 1.131836 box
282168809 1.133240 box
282168909 1.135986 box
282169009 1.134277 box
282169109 1.122559 box
282169209 1.128723 box
282169309 1.123718 box
282169409 1.124695 box
282169509 1.121033 box
282169609 1.130554 box
282169709 1.129089 box
282169809 1.126526 box
282169909 1.126587 box
282170009 1.142639 box
282170109 1.138367 box
282170209 1.134033 box
282170309 1.135620 box
282170409 1.117859 box
282170509 1.135315 box
282170609 1.131104 box
282170709 1.135986 box
282170809 1.131531 box
282170909 1.135803 box
282171009 1.132507 box
282171109 1.123047 box
282171209 1.125549 box
282171309 1.122803 box
282171409 1.124512 box
282171509 1.137451 box
282171609 1.121582 box
282171709 1.133911 box
282171809 1.128967 box
282171909 1.146606 box
282172009 1.130554 box
282172109 1.134583 box
282172209 1.135986 box
282172309 1.133728 box
282172409 1.134094 box
282172509 1.134155 box
282172609 1.134583 box
282172709 1.134888 box
282172809 1.131104 box
282172909 1.124023 box
282173009 1.131470 box
282173109 1.131775 box
282173209 1.132385 box
282173309 1.131836 box
282173409 1.140137 box
282173509 1.143982 box
282173609 1.124939 box
282173709 1.132874 box
282173809 1.131287 box
282173909 1.129639 box
282174009 1.134216 box
282174109 1.137451 box
282174209 1.131348 box
282174309 1.135254 box
282174409 1.130737 box
282174509 1.132324 box
282174609 1.132996 box
282174709 1.133240 box
282174809 1.126709 box
282174909 1.125671 box
282175009 1.129517 box
282175109 1.126526 box
282175209 1.131042 box
282175309 1.125854 box
282175409 1.122498 box
282175509 1.119324 box
282175609 1.124878 box
282175709 1.135437 box
282175809 1.129272 box
282175909 1.137756 box
282176009 1.127747 box
282176109 1.132935 box
282176209 1.126953 box
282176309 1.120728 box
282176409 1.119446 box
282176509 1.123291 box
282176609 1.123779 box
282176709 1.124329 box
282176809 1.124939 box
282176909 1.128845 box
282177009 1.126343 box
282177109 1.126343 box
282177209 1.124023 box
282177309 1.123535 box
282177409 1.127197 box
282177509 1.127197 box
282177609 1.136475 box
282177709 1.123535 box
282177809 1.136597 box
282177909 1.125793 box
282178009 1.140808 box
282178109 1.135559 box
282178209 1.128357 box
282178309 1.133057 box
282178409 1.135315 box
282178509 1.133606 box
282178609 1.138123 box
282178709 1.140076 box
282178809 1.129211 box
282178909 1.133484 box
282179009 1.131287 box
282179109 1.132324 box
282179209 1.133423 box
282179309 1.133362 box
282179409 1.137024 box
282179509 1.127563 box
282179609 1.137634 box
282179709 1.134705 box
282179809 1.136780 box
282179909 1.122009 box
282180009 1.127686 box
282180109 1.126343 box
282180209 1.127075 box
282180309 1.127686 box
282180409 1.127258 box
282180509 1.140320 box
282180609 1.132690 box
282180709 1.134766 box
282180809 1.124817 box
282180909 1.138184 box
282181009 1.128479 box
282181109 1.135986 box
282181209 1.136597 box
282181309 1.143127 box
282181409 1.134583 box
282181509 1.125427 box
282181609 1.130432 box
282181709 1.132202 box
282181809 1.130981 box
282181909 1.134460 box
282182009 1.138428 box
282182109 1.144348 box
282182209 1.135986 box
282182309 1.123901 box
282182409 1.121399 box
282182509 1.127686 box
282182609 1.123413 box
282182709 1.122009 box
282182809 1.129211 box
282182909 1.123718 box
282183009 1.128235 box
282183109 1.122925 box
282183209 1.121948 box
282183309 1.121521 box
282183409 1.124268 box
282183509 1.126343 box
282183609 1.124329 box
282183709 1.129944 box
282183809 1.126282 box
282183909 1.130920 box
282184009 1.132996 box
282184109 1.136108 box
282184209 1.132141 box
282184309 1.126892 box
282184409 1.124268 box
282184509 1.122559 box
282184609 1.128906 box
282184709 1.122620 box
282184809 1.129700 box
282184909 1.124207 box
282185009 1.122375 box
282185109 1.128723 box
282185209 1.135071 box
282185309 1.132751 box
282185409 1.135193 box
282185509 1.132568 box
282185609 1.126526 box
282185709 1.142334 box
282185809 1.131714 box
282185909 1.132935 box
282186009 1.135559 box
282186109 1.134094 box
282186209 1.136902 box
282186309 1.133728 box
282186409 1.123535 box
282186509 1.138245 box
282186609 1.128113 box
282186709 1.124695 box
282186809 1.120850 box
282186909 1.124756 box
282187009 1.128784 box
282187109 1.123901 box
282187209 1.126343 box
282187309 1.127930 box
282187409 1.146606 box
282187509 1.131775 box
282187609 1.134888 box
282187709 1.122742 box
282187809 1.124634 box
282187909 1.127502 box
282188009 1.123352 box
282188109 1.132812 box
282188209 1.127563 box
282188309 1.135132 box
282188409 1.128174 box
282188509 1.122314 box
282188609 1.121033 box
282188709 1.126282 box
282188809 1.125061 box
282188909 1.123413 box
282189009 1.131531 box
282189109 1.131226 box
282189209 1.134277 box
282189309 1.126892 box
282189409 1.125305 box
282189509 1.115723 box
282189609 1.125610 box
282189709 1.123657 box
282189809 1.126099 box
282189909 1.126831 box
282190009 1.125854 box
282190109 1.129517 box
282190209 1.138123 box
282190309 1.123535 box
282190409 1.127747 box
282190509 1.133606 box
282190609 1.132446 box
282190709 1.130066 box
282190809 1.140808 box
282190909 1.140747 box
282191009 1.138428 box
282191109 1.137329 box
282191209 1.118469 box
282191309 1.128784 box
282191409 1.124817 box
282191509 1.126343 box
282191609 1.129639 box
282191709 1.125793 box
282191809 1.132568 box
282191909 1.128784 box
282192009 1.120605 box
282192109 1.122253 box
282192209 1.123230 box
282192309 1.124756 box
282192409 1.120422 box
282192509 1.124146 box
282192609 1.127930 box
282192709 1.126831 box
282192809 1.139343 box
282192909 1.132874 box
282193009 1.131409 box
282193109 1.127319 box
282193209 1.133911 box
282193309 1.137207 box
282193409 1.127747 box
282193509 1.137512 box
282193609 1.143127 box
282193709 1.130554 box
282193809 1.122314 box
282193909 1.121460 box
282194009 1.126526 box
282194109 1.133057 box
282194209 1.129456 box
282194309 1.148682 box
282194409 1.130737 box
282194509 1.126587 box
282194609 1.127441 box
282194709 1.128479 box
282194809 1.134583 box
282194909 1.133179 box
282195009 1.133484 box
282195109 1.146790 box
282195209 1.127808 box
282195309 1.131226 box
282195409 1.121582 box
282195509 1.132629 box
282195609 1.123108 box
282195709 1.127380 box
282195809 1.127197 box
282195909 1.134338 box
282196009 1.134949 box
282196109 1.132874 box
282196209 1.132874 box
282196309 1.125427 box
282196409 1.126099 box
282196509 1.122131 box
282196609 1.129517 box
282196709 1.124207 box
282196809 1.131165 box
282196909 1.134277 box
282197009 1.143494 box
282197109 1.135925 box
282197209 1.132202 box
282197309 1.128052 box
282197409 1.134277 box
282197509 1.136658 box
282197609 1.131104 box
282197709 1.130249 box
282197809 1.124084 box
282197909 1.129517 box
282198009 1.123901 box
282198109 1.120667 box
282198209 1.121948 box
282198309 1.134766 box
282198409 1.130615 box
282198509 1.138000 box
282198609 1.133301 box
282198709 1.126526 box
282198809 1.135864 box
282198909 1.126709 box
282199009 1.126221 box
282199109 1.132202 box
282199209 1.131897 box
282199309 1.137939 box
282199409 1.127502 box
282199509 1.129517 box
282199609 1.130310 box
282199709 1.130615 box
282199809 1.124695 box
282199909 1.127930 box
282200009 1.133484 box
282200109 1.130310 box
282200209 1.130127 box
282200309 1.129517 box
282200409 1.128784 box
282200509 1.129272 box
282200609 1.128418 box
282200709 1.125549 box
282200809 1.123962 box
282200909 1.129639 box
282201009 1.126648 box
282201109 1.123352 box
282201209 1.126099 box
282201309 1.134216 box
282201409 1.126892 box
282201509 1.132446 box
282201609 1.135437 box
282201709 1.123657 box
282201809 1.132996 box
282201909 1.126038 box
282202009 1.130798 box
282202109 1.127136 box
282202209 1.136230 box
282202309 1.137024 box
282202409 1.129456 box
282202509 1.125610 box
282202609 1.130371 box
282202709 1.125183 box
282202809 1.141235 box
282202909 1.122375 box
282203009 1.141663 box
282203109 1.138794 box
282203209 1.141174 box
282203309 1.135254 box
282203409 1.129456 box
282203509 1.137390 box
282203609 1.129761 box
282203709 1.130920 box
282203809 1.142334 box
282203909 1.144775 box
282204009 1.131775 box
282204109 1.134216 box
282204209 1.129089 box
282204309 1.131470 box
282204409 1.134583 box
282204509 1.131348 box
282204609 1.139709 box
282204709 1.144836 box
282204809 1.135803 box
282204909 1.124451 box
282205009 1.121338 box
282205109 1.134277 box
282205209 1.131775 box
282205309 1.131470 box
282205409 1.131836 box
282205509 1.134338 box
282205609 1.142151 box
282205709 1.136902 box
282205809 1.133911 box
282205909 1.124390 box
282206009 1.125916 box
282206109 1.123474 box
282206209 1.128906 box
282206309 1.129150 box
282206409 1.128784 box
282206509 1.125061 box
282206609 1.122559 box
282206709 1.120361 box
282206809 1.122620 box
282206909 1.132019 box
282207009 1.134949 box
282207109 1.130981 box
282207209 1.128418 box
282207309 1.133057 box
282207409 1.127808 box
282207509 1.136108 box
282207609 1.123108 box
282207709 1.132690 box
282207809 1.132324 box
282207909 1.131226 box
282208009 1.134521 box
282208109 1.126038 box
282208209 1.132080 box
282208309 1.127319 box
282208409 1.128540 box
282208509 1.120850 box
282208609 1.128723 box
282208709 1.125244 box
282208809 1.124756 box
282208909 1.130859 box
282209009 1.128601 box
282209109 1.133911 box
282209209 1.137207 box
282209309 1.123840 box
282209409 1.123718 box
282209509 1.134094 box
282209609 1.125183 box
282209709 1.127808 box
282209809 1.130127 box
282209909 1.128052 box
282210009 1.132568 box
282210109 1.129944 box
282210209 1.122986 box
282210309 1.125488 box
282210409 1.125793 box
282210509 1.127014 box
282210609 1.127136 box
282210709 1.129883 box
282210809 1.132385 box
282210909 1.131836 box
282211009 1.138428 box
282211109 1.134521 box
282211209 1.130249 box
282211309 1.136902 box
282211409 1.134155 box
282211509 1.139343 box
282211609 1.132202 box
282211709 1.141357 box
282211809 1.135864 box
282211909 1.133728 box
282212009 1.128723 box
282212109 1.133728 box
282212209 1.130310 box
282212309 1.128662 box
282212409 1.140015 box
282212509 1.141968 box
282212609 1.136230 box
282212709 1.134705 box
282212809 1.133179 box
282212909 1.126831 box
282213009 1.125305 box
282213109 1.133057 box
282213209 1.134338 box
282213309 1.128479 box
282213409 1.130676 box
282213509 1.128174 box
282213609 1.125732 box
282213709 1.124451 box
282213809 1.125793 box
282213909 1.127197 box
282214009 1.126831 box
282214109 1.131897 box
282214209 1.127625 box
282214309 1.133789 box
282214409 1.127991 box
282214509 1.130981 box
282214609 1.125000 box
282214709 1.125183 box
282214809 1.136841 box
282214909 1.127197 box
282215009 1.142517 box
282215109 1.129395 box
282215209 1.140442 box
282215309 1.123169 box
282215409 1.132080 box
282215509 1.136841 box
282215609 1.132385 box
282215709 1.129578 box
282215809 1.126892 box
282215909 1.124634 box
282216009 1.130493 box
282216109 1.125488 box
282216209 1.138367 box
282216309 1.130371 box
282216409 1.133667 box
282216509 1.138611 box
282216609 1.124268 box
282216709 1.139954 box
282216809 1.134094 box
282216909 1.129944 box
282217009 1.128540 box
282217109 1.122314 box
282217209 1.129700 box
282217309 1.128967 box
282217409 1.130188 box
282217509 1.136841 box
282217609 1.130066 box
282217709 1.141479 box
282217809 1.133606 box
282217909 1.132935 box
282218009 1.129211 box
282218109 1.134583 box
282218209 1.133179 box
282218309 1.129333 box
282218409 1.141785 box
282218509 1.144714 box
282218609 1.125122 box
282218709 1.134460 box
282218809 1.132141 box
282218909 1.132202 box
282219009 1.134766 box
282219109 1.132263 box
282219209 1.140503 box
282219309 1.130005 box
282219409 1.126038 box
282219509 1.123596 box
282219609 1.118774 box
282219709 1.135010 box
282219809 1.130737 box
282219909 1.130554 box
282220009 1.139465 box
282220109 1.139221 box
282220209 1.140381 box
282220309 1.134521 box
282220409 1.116882 box
282220509 1.128296 box
282220609 1.126160 box
282220709 1.124084 box
282220809 1.128601 box
282220909 1.125977 box
282221009 1.131409 box
282221109 1.127380 box
282221209 1.121704 box
282221309 1.120239 box
282221409 1.125122 box
282221509 1.125671 box
282221609 1.123413 box
282221709 1.126221 box
282221809 1.131165 box
282221909 1.127747 box
282222009 1.127075 box
282222109 1.124573 box
282222209 1.120361 box
282222309 1.124817 box
282222409 1.126282 box
282222509 1.120728 box
282222609 1.125610 box
282222709 1.127625 box
282222809 1.127075 box
282222909 1.138123 box
282223009 1.135498 box
282223109 1.128357 box
282223209 1.136047 box
282223309 1.136169 box
282223409 1.131958 box
282223509 1.138184 box
282223609 1.132751 box
282223709 1.129883 box
282223809 1.124878 box
282223909 1.124329 box
282224009 1.126404 box
282224109 1.125549 box
282224209 1.126221 box
282224309 1.127686 box
282224409 1.129211 box
282224509 1.130249 box
282224609 1.130798 box
282224709 1.122192 box
282224809 1.122925 box
282224909 1.123352 box
282225009 1.128113 box
282225109 1.124451 box
282225209 1.127136 box
282225309 1.128113 box
282225409 1.130310 box
282225509 1.131714 box
282225609 1.122314 box
282225709 1.122192 box
282225809 1.123047 box
282225909 1.128113 box
282226009 1.124878 box
282226109 1.125427 box
282226209 1.128235 box
282226309 1.129089 box
282226409 1.129944 box
282226509 1.127136 box
282226609 1.122131 box
282226709 1.123718 box
282226809 1.125977 box
282226909 1.124146 box
282227009 1.124451 box
282227109 1.128967 box
282227209 1.122437 box
282227309 1.131348 box
282227409 1.138245 box
282227509 1.132080 box
282227609 1.124146 box
282227709 1.126404 box
282227809 1.125488 box
282227909 1.135010 box
282228009 1.134521 box
282228109 1.135986 box
282228209 1.133850 box
282228309 1.133606 box
282228409 1.132019 box
282228509 1.129211 box
282228609 1.124695 box
282228709 1.124146 box
282228809 1.127686 box
282228909 1.124756 box
282229009 1.130493 box
282229109 1.125916 box
282229209 1.124146 box
282229309 1.120483 box
282229409 1.134521 box
282229509 1.131897 box
282229609 1.130737 box
282229709 1.141357 box
282229809 1.135071 box
282229909 1.132141 box
282230009 1.131165 box
282230109 1.132263 box
282230209 1.128418 box
282230309 1.125366 box
282230409 1.124268 box
282230509 1.129333 box
282230609 1.125610 box
282230709 1.133789 box
282230809 1.126221 box
282230909 1.124939 box
282231009 1.133240 box
282231109 1.132812 box
282231209 1.130798 box
282231309 1.133179 box
282231409 1.139526 box
282231509 1.134460 box
282231609 1.134949 box
282231709 1.135620 box
282231809 1.119812 box
282231909 1.125610 box
282232009 1.126099 box
282232109 1.125061 box
282232209 1.131409 box
282232309 1.126892 box
282232409 1.136841 box
282232509 1.126709 box
282232609 1.125305 box
282232709 1.118774 box
282232809 1.125793 box
282232909 1.127686 box
282233009 1.125061 box
282233109 1.130920 box
282233209 1.127014 box
282233309 1.135864 box
282233409 1.127380 box
282233509 1.134949 box
282233609 1.121216 box
282233709 1.136475 box
282233809 1.125244 box
282233909 1.137939 box
282234009 1.132874 box
282234109 1.137756 box
282234209 1.141663 box
282234309 1.130127 box
282234409 1.130859 box
282234509 1.133972 box
282234609 1.137146 box
282234709 1.129456 box
282234809 1.143127 box
282234909 1.143555 box
282235009 1.132935 box
282235109 1.123047 box
282235209 1.121338 box
282235309 1.135498 box
282235409 1.124390 box
282235509 1.124939 box
282235609 1.131226 box
282235709 1.129150 box
282235809 1.133362 box
282235909 1.128174 box
282236009 1.126648 box
282236109 1.119263 box
282236209 1.129822 box
282236309 1.124878 box
282236409 1.127563 box
282236509 1.130554 box
282236609 1.127502 box
282236709 1.133423 box
282236809 1.138184 box
282236909 1.131165 box
282237009 1.132446 box
282237109 1.136963 box
282237209 1.130127 box
282237309 1.131470 box
282237409 1.143127 box
282237509 1.131104 box
282237609 1.128174 box
282237709 1.135620 box
282237809 1.129211 box
282237909 1.134583 box
282238009 1.140259 box
282238109 1.125793 box
282238209 1.138977 box
282238309 1.144653 box
282238409 1.135376 box
282238509 1.133362 box
282238609 1.124817 box
282238709 1.135071 box
282238809 1.129883 box
282238909 1.128174 box
282239009 1.131897 box
282239109 1.129456 box
282239209 1.135193 box
282239309 1.129822 box
282239409 1.123169 box
282239509 1.122803 box
282239609 1.127502 box
282239709 1.127930 box
282239809 1.129822 box
282239909 1.128723 box
282240009 1.132263 box
282240109 1.130249 box
282240209 1.129883 box
282240309 1.128784 box
282240409 1.129333 box
282240509 1.134583 box
282240609 1.135193 box
282240709 1.139771 box
282240809 1.130432 box
282240909 1.130920 box
282241009 1.131165 box
282241109 1.127014 box
282241209 1.125366 box
282241309 1.122375 box
282241409 1.126099 box
282241509 1.135864 box
282241609 1.130371 box
282241709 1.139221 box
282241809 1.142212 box
282241909 1.134827 box
282242009 1.132935 box
282242109 1.122803 box
282242209 1.129700 box
282242309 1.128418 box
282242409 1.130920 box
282242509 1.133057 box
282242609 1.139954 box
282242709 1.129150 box
282242809 1.134155 box
282242909 1.122681 box
282243009 1.133057 box
282243109 1.133728 box
282243209 1.125122 box
282243309 1.129333 box
282243409 1.130615 box
282243509 1.137878 box
282243609 1.131287 box
282243709 1.132751 box
282243809 1.125305 box
282243909 1.126343 box
282244009 1.122559 box
282244109 1.124390 box
282244209 1.129089 box
282244309 1.126465 box
282244409 1.144043 box
282244509 1.132446 box
282244609 1.132385 box
282244709 1.133606 box
282244809 1.137329 box
282244909 1.130798 box
282245009 1.133240 box
282245109 1.138489 box
282245209 1.135376 box
282245309 1.133850 box
282245409 1.128967 box
282245509 1.133118 box
282245609 1.132874 box
282245709 1.127869 box
282245809 1.127747 box
282245909 1.131226 box
282246009 1.141235 box
282246109 1.132141 box
282246209 1.133850 box
282246309 1.131958 box
282246409 1.129822 box
282246509 1.136169 box
282246609 1.135254 box
282246709 1.144775 box
282246809 1.137146 box
282246909 1.136108 box
282247009 1.132141 box
282247109 1.135986 box
282247209 1.135376 box
282247309 1.129883 box
282247409 1.128479 box
282247509 1.133850 box
282247609 1.144592 box
282247709 1.135803 box
282247809 1.130615 box
282247909 1.138245 box
282248009 1.136292 box
282248109 1.133362 box
282248209 1.145630 box
282248309 1.127380 box
282248409 1.135864 box
282248509 1.134521 box
282248609 1.136536 box
282248709 1.136353 box
282248809 1.132690 box
282248909 1.129883 box
282249009 1.141479 box
282249109 1.128296 box
282249209 1.133606 box
282249309 1.134460 box
282249409 1.134644 box
282249509 1.132385 box
282249609 1.136353 box
282249709 1.129700 box
282249809 1.134216 box
282249909 1.134399 box
282250009 1.136719 box
282250109 1.127625 box
282250209 1.125122 box
282250309 1.127869 box
282250409 1.136169 box
282250509 1.132141 box
282250609 1.131714 box
282250709 1.139954 box
282250809 1.144897 box
282250909 1.128723 box
282251009 1.125977 box
282251109 1.122070 box
282251209 1.136902 box
282251309 1.130005 box
282251409 1.132996 box
282251509 1.139160 box
282251609 1.146240 box
282251709 1.128662 box
282251809 1.133484 box
282251909 1.130859 box
282252009 1.133118 box
282252109 1.134827 box
282252209 1.143005 box
282252309 1.130371 box
282252409 1.135010 box
282252509 1.129578 box
282252609 1.126404 box
282252709 1.119446 box
282252809 1.134583 box
282252909 1.127136 box
282253009 1.127075 box
282253109 1.133057 box
282253209 1.128784 box
282253309 1.133362 box
282253409 1.128845 box
282253509 1.131287 box
282253609 1.135681 box
282253709 1.134766 box
282253809 1.134644 box
282253909 1.131958 box
282254009 1.136780 box
282254109 1.144043 box
282254209 1.128235 box
282254309 1.134399 box
282254409 1.132690 box
282254509 1.134583 box
282254609 1.130981 box
282254709 1.136963 box
282254809 1.134277 box
282254909 1.131714 box
282255009 1.135498 box
282255109 1.134216 box
282255209 1.132996 box
282255309 1.133484 box
282255409 1.132324 box
282255509 1.132324 box
282255609 1.128906 box
282255709 1.141968 box
282255809 1.136108 box
282255909 1.135010 box
282256009 1.130981 box
282256109 1.135803 box
282256209 1.129150 box
282256309 1.130371 box
282256409 1.135193 box
282256509 1.141968 box
282256609 1.130188 box
282256709 1.125488 box
282256809 1.127380 box
282256909 1.135986 box
282257009 1.130066 box
282257109 1.141357 box
282257209 1.130432 box
282257309 1.144165 box
282257409 1.130066 box
282257509 1.133179 box
282257609 1.133362 box
282257709 1.135132 box
282257809 1.127869 box
282257909 1.131653 box
282258009 1.129700 box
282258109 1.144836 box
282258209 1.136292 box
282258309 1.128052 box
282258409 1.122009 box
282258509 1.127625 box
282258609 1.127563 box
282258709 1.126953 box
282258809 1.130554 box
282258909 1.130554 box
282259009 1.141968 box
282259109 1.136841 box
282259209 1.136963 box
282259309 1.134583 box
282259409 1.130615 box
282259509 1.137207 box
282259609 1.133606 box
282259709 1.129944 box
282259809 1.133423 box
282259909 1.132690 box
282260009 1.126465 box
282260109 1.123413 box
282260209 1.130493 box
282260309 1.130249 box
282260409 1.126221 box
282260509 1.127747 box
282260609 1.133118 box
282260709 1.129150 box
282260809 1.130066 box
282260909 1.133057 box
282261009 1.133911 box
282261109 1.132874 box
282261209 1.126526 box
282261309 1.128906 box
282261409 1.131470 box
282261509 1.133484 box
282261609 1.140869 box
282261709 1.133179 box
282261809 1.132324 box
282261909 1.136108 box
282262009 1.124390 box
282262109 1.126099 box
282262209 1.131653 box
282262309 1.137756 box
282262409 1.141846 box
282262509 1.132935 box
282262609 1.134338 box
282262709 1.128174 box
282262809 1.133667 box
282262909 1.130676 box
282263009 1.142639 box
282263109 1.131958 box
282263209 1.134399 box
282263309 1.128601 box
282263409 1.125854 box
282263509 1.134644 box
282263609 1.130127 box
282263709 1.135986 box
282263809 1.134521 box
282263909 1.126282 box
282264009 1.130615 box
282264109 1.127075 box
282264209 1.124084 box
282264309 1.131653 box
282264409 1.133667 box
282264509 1.138123 box
282264609 1.130310 box
282264709 1.134705 box
282264809 1.129761 box
282264909 1.139832 box
282265009 1.137634 box
282265109 1.131531 box
282265209 1.137024 box
282265309 1.128235 box
282265409 1.136414 box
282265509 1.135071 box
282265609 1.126648 box
282265709 1.134888 box
282265809 1.127075 box
282265909 1.123596 box
282266009 1.125549 box
282266109 1.126587 box
282266209 1.127869 box
282266309 1.136414 box
282266409 1.134949 box
282266509 1.138916 box
282266609 1.140259 box
282266709 1.133301 box
282266809 1.131104 box
282266909 1.137817 box
282267009 1.130859 box
282267109 1.132080 box
282267209 1.141724 box
282267309 1.131287 box
282267409 1.138611 box
282267509 1.134094 box
282267609 1.132996 box
282267709 1.137451 box
282267809 1.135559 box
282267909 1.131592 box
282268009 1.126831 box
282268109 1.131836 box
282268209 1.127197 box
282268309 1.127075 box
282268409 1.122009 box
282268509 1.127258 box
282268609 1.128479 box
282268709 1.137024 box
282268809 1.132019 box
282268909 1.127930 box
282269009 1.142761 box
282269109 1.134766 box
282269209 1.125977 box
282269309 1.134033 box
282269409 1.125610 box
282269509 1.125549 box
282269609 1.128235 box
282269709 1.125610 box
282269809 1.134216 box
282269909 1.129517 box
282270009 1.125183 box
282270109 1.124695 box
282270209 1.131897 box
282270309 1.126526 box
282270409 1.127869 box
282270509 1.136047 box
282270609 1.134338 box
282270709 1.142883 box
282270809 1.129272 box
282270909 1.129822 box
282271009 1.131714 box
282271109 1.135071 box
282271209 1.131287 box
282271309 1.138672 box
282271409 1.137268 box
282271509 1.143677 box
282271609 1.138306 box
282271709 1.120850 box
282271809 1.130737 box
282271909 1.138245 box
282272009 1.124146 box
282272109 1.130981 box
282272209 1.131714 box
282272309 1.132385 box
282272409 1.131409 box
282272509 1.133240 box
282272609 1.134949 box
282272709 1.135315 box
282272809 1.129456 box
282272909 1.131165 box
282273009 1.135620 box
282273109 1.142273 box
282273209 1.135315 box
282273309 1.135437 box
282273409 1.131287 box
282273509 1.128784 box
282273609 1.130188 box
282273709 1.134705 box
282273809 1.139954 box
282273909 1.138794 box
282274009 1.132690 box
282274109 1.133728 box
282274209 1.136108 box
282274309 1.133179 box
282274409 1.137695 box
282274509 1.134521 box
282274609 1.130066 box
282274709 1.132996 box
282274809 1.131165 box
282274909 1.125122 box
282275009 1.125732 box
282275109 1.128540 box
282275209 1.138123 box
282275309 1.128540 box
282275409 1.137390 box
282275509 1.136841 box
282275609 1.129761 box
282275709 1.138306 box
282275809 1.131775 box
282275909 1.133667 box
282276009 1.129883 box
282276109 1.127136 box
282276209 1.130554 box
282276309 1.132751 box
282276409 1.132019 box
282276509 1.128967 box
282276609 1.130005 box
282276709 1.130127 box
282276809 1.136780 box
282276909 1.136658 box
282277009 1.130981 box
282277109 1.133972 box
282277209 1.141052 box
282277309 1.138428 box
282277409 1.136536 box
282277509 1.133118 box
282277609 1.132568 box
282277709 1.133057 box
282277809 1.135010 box
282277909 1.139282 box
282278009 1.144592 box
282278109 1.136169 box
282278209 1.133484 box
282278309 1.127075 box
282278409 1.138489 box
282278509 1.130005 box
282278609 1.135559 box
282278709 1.138611 box
282278809 1.144348 box
282278909 1.136047 box
282279009 1.130493 box
282279109 1.138550 box
282279209 1.135315 box
282279309 1.129883 box
282279409 1.127075 box
282279509 1.125366 box
282279609 1.134216 box
282279709 1.137634 box
282279809 1.132812 box
282279909 1.129822 box
282280009 1.135925 box
282280109 1.131775 box
282280209 1.126526 box
282280309 1.129822 box
282280409 1.132507 box
282280509 1.135437 box
282280609 1.134644 box
282280709 1.125671 box
282280809 1.135620 box
282280909 1.126709 box
282281009 1.138611 box
282281109 1.133972 box
282281209 1.140076 box
282281309 1.140320 box
282281409 1.125916 box
282281509 1.119690 box
282281609 1.126831 box
282281709 1.129211 box
282281809 1.128113 box
282281909 1.133118 box
282282009 1.135559 box
282282109 1.144104 box
282282209 1.134949 box
282282309 1.134216 box
282282409 1.132874 box
282282509 1.134766 box
282282609 1.128540 box
282282709 1.135803 box
282282809 1.125977 box
282282909 1.135376 box
282283009 1.130798 box
282283109 1.127991 box
282283209 1.128174 box
282283309 1.143738 box
282283409 1.128479 box
282283509 1.133606 box
282283609 1.130859 box
282283709 1.145630 box
282283809 1.132080 box
282283909 1.135681 box
282284009 1.129761 box
282284109 1.127930 box
282284209 1.130127 box
282284309 1.127563 box
282284409 1.136719 box
282284509 1.130981 box
282284609 1.135010 box
282284709 1.125549 box
282284809 1.124878 box
282284909 1.129333 box
282285009 1.131226 box
282285109 1.128723 box
282285209 1.134338 box
282285309 1.130127 box
282285409 1.145569 box
282285509 1.136536 box
282285609 1.127808 box
282285709 1.123474 box
282285809 1.126038 box
282285909 1.142212 box
282286009 1.128723 box
282286109 1.139709 box
282286209 1.144226 box
282286309 1.135437 box
282286409 1.127625 box
282286509 1.120178 box
282286609 1.119629 box
282089247 1.135010 box
282089347 1.136963 box
282089447 1.129395 box
282089547 1.136536 box
282089647 1.134949 box
282089747 1.135132 box
282089847 1.130432 box
282089947 1.131287 box
282090047 1.129944 box
