time(ms) energy(J) hostname
348059596 0.000000 box
348059696 1.179871 box
348059796 1.190857 box
348059896 1.196350 box
348059996 1.183899 box
348060096 1.196533 box
348060196 1.193848 box
348060296 1.193909 box
348060396 1.188049 box
348060496 1.195923 box
348060596 1.194824 box
348060696 1.190979 box
348060796 1.200745 box
348060896 1.192505 box
348060996 1.193909 box
348061096 1.186340 box
348061196 1.199890 box
348061296 1.195007 box
348061396 1.197693 box
348061496 1.189026 box
348061596 1.199158 box
348061696 1.189514 box
348061796 1.200745 box
348061896 1.186462 box
348061996 1.194214 box
348062096 1.188904 box
348062196 1.198975 box
348062296 1.191528 box
348062396 1.197876 box
348062496 1.188110 box
348062596 1.195618 box
348062696 1.191040 box
348062796 1.196289 box
348062896 1.184937 box
348062996 1.197510 box
348063096 1.193481 box
348063196 1.197021 box
348063296 1.185425 box
348063396 1.194702 box
348063496 1.193665 box
348063596 1.191467 box
348063696 1.194092 box
348063796 1.194641 box
348063896 1.195435 box
348063996 1.187988 box
348064096 1.201416 box
348064196 1.194580 box
348064296 1.195007 box
348064396 1.187622 box
348064496 1.198242 box
348064596 1.192627 box
348064696 1.197266 box
348064796 1.188965 box
348064896 1.197510 box
348064996 1.189270 box
348065096 1.198486 box
348065196 1.190552 box
348065296 1.194336 box
348065396 1.188477 box
348065496 1.194824 box
348065596 1.189941 box
348065696 1.196411 box
348065796 1.188965 box
348065896 1.195007 box
348065996 1.193359 box
348066096 1.194580 box
348066196 1.184448 box
348066296 1.194641 box
348066396 1.193420 box
348066496 1.194458 box
348066596 1.185669 box
348066696 1.195374 box
348066796 1.193726 box
348066896 1.190247 box
348066996 1.202026 box
348067096 1.196777 box
348067196 1.194580 box
348067296 1.192200 box
348067396 1.200012 box
348067496 1.193970 box
348067596 1.193970 box
348067696 1.186646 box
348067796 1.200317 box
348067896 1.192749 box
348067996 1.196411 box
348068096 1.186890 box
348068196 1.200012 box
348068296 1.190186 box
348068396 1.201538 box
348068496 1.186096 box
348068596 1.194397 box
348068696 1.189575 box
348068796 1.197754 box
348068896 1.191345 box
348068996 1.193665 box
348069096 1.187805 box
348069196 1.197449 box
348069296 1.188965 box
348069396 1.194824 box
348069496 1.187256 box
348069596 1.196533 box
348069696 1.192200 box
348069796 1.196716 box
348069896 1.184326 box
348069996 1.196655 box
348070096 1.190308 box
348070196 1.195984 box
348070296 1.184570 box
348070396 1.195557 box
348070496 1.194214 box
348070596 1.190735 box
348070696 1.201721 box
348070796 1.194885 box
348070896 1.192810 box
348070996 1.187256 box
348071096 1.201172 box
348071196 1.195190 box
348071296 1.196167 box
348071396 1.187256 box
348071496 1.200928 box
348071596 1.192383 box
348071696 1.198120 box
348071796 1.188171 box
348071896 1.199707 box
348071996 1.189941 box
348072096 1.198608 box
348072196 1.188904 box
348072296 1.194946 box
348072396 1.190613 box
348072496 1.199219 box
348072596 1.189697 box
348072696 1.193237 box
348072796 1.186951 box
348072896 1.197021 box
348072996 1.192993 box
348073096 1.194580 box
348073196 1.187134 box
348073296 1.196960 box
348073396 1.193054 box
348073496 1.194092 box
348073596 1.186707 box
348073696 1.196350 box
348073796 1.192810 box
348073896 1.196350 box
348073996 1.186279 box
348074096 1.193909 box
348074196 1.194946 box
348074296 1.192566 box
348074396 1.200317 box
348074496 1.195129 box
348074596 1.193604 box
348074696 1.190247 box
348074796 1.203918 box
348074896 1.194702 box
348074996 1.193176 box
348075096 1.188904 box
348075196 1.200439 box
348075296 1.193298 box
348075396 1.197205 box
348075496 1.187744 box
348075596 1.200500 box
348075696 1.190979 box
348075796 1.197449 box
348075896 1.190369 box
348075996 1.199585 box
348076096 1.190491 box
348076196 1.200745 box
348076296 1.186401 box
348076396 1.197266 box
348076496 1.191650 box
348076596 1.200684 box
348076696 1.190063 box
348076796 1.194519 box
348076896 1.190186 box
348076996 1.198303 box
348077096 1.192810 box
348077196 1.197021 box
348077296 1.188599 box
348077396 1.196777 box
348077496 1.193542 box
348077596 1.193726 box
348077696 1.200928 box
348077796 1.194519 box
348077896 1.195984 box
348077996 1.190430 box
348078096 1.200989 box
348078196 1.192383 box
348078296 1.198303 box
348078396 1.188354 box
348078496 1.196167 box
348078596 1.189941 box
348078696 1.196106 box
348078796 1.190979 box
348078896 1.197083 box
348078996 1.184448 box
348079096 1.194641 box
348079196 1.193481 box
348079296 1.191162 box
348079396 1.204102 box
348079496 1.194336 box
348079596 1.194946 box
348079696 1.188721 box
348079796 1.201355 box
348079896 1.187805 box
348079996 1.200623 box
348080096 1.191772 box
348080196 1.197388 box
348080296 1.188660 box
348080396 1.195312 box
348080496 1.196045 box
348080596 1.196472 box
348080696 1.186951 box
348080796 1.195374 box
348080896 1.195312 box
348080996 1.188232 box
348081096 1.203430 box
348081196 1.192871 box
348081296 1.196350 box
348081396 1.189453 box
348081496 1.197021 box
348081596 1.190308 box
348081696 1.198975 box
348081796 1.193176 box
348081896 1.196289 box
348081996 1.187927 box
348082096 1.195374 box
348082196 1.194824 box
348082296 1.194092 box
348082396 1.202576 box
348082496 1.194824 box
348082596 1.195923 box
348082696 1.188049 box
348082796 1.201416 box
348082896 1.192200 box
348082996 1.199097 box
348083096 1.187439 box
348083196 1.195618 box
348083296 1.187622 box
348083396 1.197144 box
348083496 1.195068 box
348083596 1.196594 box
348083696 1.185120 box
348083796 1.195740 box
348083896 1.194275 box
348083996 1.189697 box
348084096 1.203430 box
348084196 1.194458 box
348084296 1.197754 box
348084396 1.188660 box
348084496 1.199646 box
348084596 1.190613 box
348084696 1.199158 box
348084796 1.191833 box
348084896 1.195923 box
348084996 1.187622 box
348085096 1.196228 box
348085196 1.194641 box
348085296 1.196533 box
348085396 1.186646 box
348085496 1.196289 box
348085596 1.195618 box
348085696 1.189880 box
348085796 1.203186 box
348085896 1.193359 box
348085996 1.197754 box
348086096 1.189636 box
348086196 1.198364 box
348086296 1.190674 box
348086396 1.201782 box
348086496 1.192261 box
348086596 1.195801 box
348086696 1.189270 box
348086796 1.197510 box
348086896 1.199158 box
348086996 1.197144 box
348087096 1.186157 box
348087196 1.194458 box
348087296 1.194580 box
348087396 1.190247 box
348087496 1.201660 box
348087596 1.191772 box
348087696 1.198547 box
348087796 1.188110 box
348087896 1.197632 box
348087996 1.189392 box
348088096 1.206726 box
348088196 1.192810 box
348088296 1.196045 box
348088396 1.186829 box
348088496 1.196777 box
348088596 1.193970 box
348088696 1.192139 box
348088796 1.201355 box
348088896 1.195251 box
348088996 1.196228 box
348089096 1.190979 box
348089196 1.202515 box
348089296 1.190308 box
348089396 1.200439 box
348089496 1.191223 box
348089596 1.197205 box
348089696 1.188904 box
348089796 1.196167 box
348089896 1.194336 box
348089996 1.195862 box
348090096 1.187317 box
348090196 1.195496 box
348090296 1.195129 box
348090396 1.193787 box
348090496 1.203918 box
348090596 1.192200 box
348090696 1.199036 box
348090796 1.188721 box
348090896 1.195984 box
348090996 1.189209 box
348091096 1.197632 box
348091196 1.191467 box
348091296 1.199036 box
348091396 1.187439 box
348091496 1.197693 box
348091596 1.198730 box
348091696 1.190491 box
348091796 1.205017 box
348091896 1.195068 box
348091996 1.197754 box
348092096 1.190063 box
348092196 1.200623 box
348092296 1.191101 box
348092396 1.199341 box
348092496 1.191895 box
348092596 1.197021 box
348092696 1.188721 box
348092796 1.199219 box
348092896 1.193298 box
348092996 1.195984 box
348093096 1.187927 box
348093196 1.195068 box
348093296 1.195984 box
348093396 1.189453 box
348093496 1.202759 box
348093596 1.191772 box
348093696 1.200989 box
348093796 1.188721 box
348093896 1.198364 box
348093996 1.190186 box
348094096 1.199158 box
348094196 1.191589 box
348094296 1.199158 box
348094396 1.186768 box
348094496 1.196228 box
348094596 1.195251 box
348094696 1.192261 box
348094796 1.204102 box
348094896 1.193420 box
348094996 1.197693 box
348095096 1.192017 box
348095196 1.201477 box
348095296 1.190125 box
348095396 1.200439 box
348095496 1.191895 box
348095596 1.196106 box
348095696 1.188721 box
348095796 1.197632 box
348095896 1.194397 box
348095996 1.198547 box
348096096 1.189148 box
348096196 1.195801 box
348096296 1.196899 box
348096396 1.191528 box
348096496 1.203552 box
348096596 1.193909 box
348096696 1.197754 box
348096796 1.190430 box
348096896 1.207031 box
348096996 1.192383 box
348097096 1.201538 box
348097196 1.192444 box
348097296 1.199341 box
348097396 1.191956 box
348097496 1.198608 box
348097596 1.197083 box
348097696 1.197754 box
348097796 1.188721 box
348097896 1.200317 box
348097996 1.198059 box
348098096 1.191895 box
348098196 1.202576 box
348098296 1.193542 box
348098396 1.203125 box
348098496 1.192444 box
348098596 1.197449 box
348098696 1.191772 box
348098796 1.198181 box
348098896 1.195557 box
348098996 1.198975 box
348099096 1.189514 box
348099196 1.198730 box
348099296 1.198547 box
348099396 1.191956 box
348099496 1.204773 box
348099596 1.194092 box
348099696 1.201477 box
348099796 1.190674 box
348099896 1.200439 box
348099996 1.193237 box
348100096 1.200073 box
348100196 1.194214 box
348100296 1.198730 box
348100396 1.191956 box
348100496 1.198059 box
348100596 1.195312 box
348100696 1.193176 box
348100796 1.202942 box
348100896 1.197083 box
348100996 1.197632 box
348101096 1.191040 box
348101196 1.202576 box
348101296 1.190186 box
348101396 1.200256 box
348101496 1.194702 box
348101596 1.202148 box
348101696 1.190796 box
348101796 1.199097 box
348101896 1.195435 box
348101996 1.198059 box
348102096 1.203186 box
348102196 1.197571 box
348102296 1.199646 box
348102396 1.192749 box
348102496 1.205811 box
348102596 1.194702 box
348102696 1.203979 box
348102796 1.191040 box
348102896 1.197693 box
348102996 1.190796 box
348103096 1.199951 box
348103196 1.194092 box
348103296 1.201233 box
348103396 1.189514 box
348103496 1.199402 box
348103596 1.196289 box
348103696 1.192749 box
348103796 1.206360 box
348103896 1.198059 box
348103996 1.199890 box
348104096 1.191223 box
348104196 1.201660 box
348104296 1.191223 box
348104396 1.201355 box
348104496 1.194031 box
348104596 1.198669 box
348104696 1.187927 box
348104796 1.198059 box
348104896 1.197876 box
348104996 1.196106 box
348105096 1.207153 box
348105196 1.197632 box
348105296 1.199280 box
348105396 1.191711 box
348105496 1.203125 box
348105596 1.194641 box
348105696 1.203186 box
348105796 1.192566 box
348105896 1.197693 box
348105996 1.191772 box
348106096 1.198242 box
348106196 1.199829 box
348106296 1.201843 box
348106396 1.189575 box
348106496 1.198547 box
348106596 1.197449 box
348106696 1.192688 box
348106796 1.207520 box
348106896 1.200073 box
348106996 1.205078 box
348107096 1.193054 box
348107196 1.200562 box
348107296 1.191589 box
348107396 1.202209 box
348107496 1.195374 box
348107596 1.200745 box
348107696 1.189270 box
348107796 1.199341 box
348107896 1.196411 box
348107996 1.196167 box
348108096 1.204712 box
348108196 1.198120 box
348108296 1.197083 box
348108396 1.191589 box
348108496 1.204102 box
348108596 1.192322 box
348108696 1.201782 box
348108796 1.194214 box
348108896 1.199036 box
348108996 1.191345 box
348109096 1.199463 box
348109196 1.197998 box
348109296 1.196777 box
348109396 1.202026 box
348109496 1.196960 box
348109596 1.198853 box
348109696 1.192078 box
348109796 1.203491 box
348109896 1.191467 box
348109996 1.204285 box
348110096 1.191406 box
348110196 1.198547 box
348110296 1.190857 box
348110396 1.199341 box
348110496 1.195801 box
348110596 1.198242 box
348110696 1.190063 box
348110796 1.199585 box
348110896 1.199341 box
348110996 1.191162 box
348111096 1.205139 box
348111196 1.193909 box
348111296 1.201782 box
348111396 1.191101 box
348111496 1.199341 box
348111596 1.190613 box
348111696 1.199951 box
348111796 1.196960 box
348111896 1.200745 box
348111996 1.189209 box
348112096 1.198303 box
348112196 1.198853 box
348112296 1.193237 box
348112396 1.206055 box
348112496 1.197021 box
348112596 1.200867 box
348112696 1.192444 box
348112796 1.203613 box
348112896 1.190918 box
348112996 1.200745 box
348113096 1.194580 box
348113196 1.200439 box
348113296 1.190186 box
348113396 1.198669 box
348113496 1.197571 box
348113596 1.195679 box
348113696 1.206909 box
348113796 1.198669 box
348113896 1.198120 box
348113996 1.190857 box
348114096 1.202637 box
348114196 1.191772 box
348114296 1.203064 box
348114396 1.194946 box
348114496 1.199402 box
348114596 1.191162 box
348114696 1.200195 box
348114796 1.197571 box
348114896 1.203186 box
348114996 1.191528 box
348115096 1.198303 box
348115196 1.198608 box
348115296 1.193176 box
348115396 1.205811 box
348115496 1.196167 box
348115596 1.201111 box
348115696 1.193420 box
348115796 1.199585 box
348115896 1.193054 box
348115996 1.201355 box
348116096 1.195068 box
348116196 1.200439 box
348116296 1.189331 box
348116396 1.199402 box
348116496 1.197021 box
348116596 1.196350 box
348116696 1.204773 box
348116796 1.197632 box
348116896 1.197205 box
348116996 1.194702 box
348117096 1.207397 box
348117196 1.197205 box
348117296 1.202637 box
348117396 1.192139 box
348117496 1.200684 box
348117596 1.193542 box
348117696 1.202209 box
348117796 1.195557 box
348117896 1.201172 box
348117996 1.189575 box
348118096 1.198975 box
348118196 1.201172 box
348118296 1.195618 box
348118396 1.208252 box
348118496 1.198547 box
348118596 1.199585 box
348118696 1.194946 box
348118796 1.203430 box
348118896 1.194031 box
348118996 1.202698 box
348119096 1.196777 box
348119196 1.200684 box
348119296 1.193054 box
348119396 1.199829 box
348119496 1.200562 box
348119596 1.201721 box
348119696 1.190125 box
348119796 1.202637 box
348119896 1.200928 box
348119996 1.194519 box
348120096 1.207825 box
348120196 1.197449 box
348120296 1.202576 box
348120396 1.194702 box
348120496 1.204407 box
348120596 1.193115 box
348120696 1.205383 box
348120796 1.196228 box
348120896 1.201233 box
348120996 1.193054 box
348121096 1.203186 box
348121196 1.198120 box
348121296 1.198730 box
348121396 1.191895 box
348121496 1.199097 box
348121596 1.199768 box
348121696 1.195068 box
348121796 1.209106 box
348121896 1.199524 box
348121996 1.204407 box
348122096 1.192444 box
348122196 1.204407 box
348122296 1.194519 box
348122396 1.203430 box
348122496 1.197144 box
348122596 1.202820 box
348122696 1.192993 box
348122796 1.200928 box
348122896 1.198975 box
348122996 1.201050 box
348123096 1.206787 box
348123196 1.200378 box
348123296 1.201599 box
348123396 1.194763 box
348123496 1.206543 box
348123596 1.197693 box
348123696 1.205627 box
348123796 1.195129 box
348123896 1.202881 box
348123996 1.196289 box
348124096 1.204102 box
348124196 1.196899 box
348124296 1.204346 box
348124396 1.192566 box
348124496 1.200500 box
348124596 1.200073 box
348124696 1.199341 box
348124796 1.193176 box
348124896 1.201111 box
348124996 1.201111 box
348125096 1.193237 box
348125196 1.202515 box
348125296 1.198608 box
348125396 1.204468 box
348125496 1.194641 box
348125596 1.204468 box
348125696 1.194641 box
348125796 1.204834 box
348125896 1.197998 box
348125996 1.203064 box
348126096 1.193359 box
348126196 1.201538 box
348126296 1.199158 box
348126396 1.199707 box
348126496 1.207092 box
348126596 1.198914 box
348126696 1.203186 box
348126796 1.194153 box
348126896 1.206421 box
348126996 1.197144 box
348127096 1.204041 box
348127196 1.195374 box
348127296 1.201538 box
348127396 1.194702 box
348127496 1.202271 box
348127596 1.198059 box
348127696 1.205566 box
348127796 1.191162 box
348127896 1.201416 box
348127996 1.201843 box
348128096 1.197693 box
348128196 1.212524 box
348128296 1.202515 box
348128396 1.205872 box
348128496 1.194641 box
348128596 1.204163 box
348128696 1.195923 box
348128796 1.205444 box
348128896 1.199524 box
348128996 1.203857 box
348129096 1.194153 box
348129196 1.202759 box
348129296 1.200500 box
348129396 1.202820 box
348129496 1.195251 box
348129596 1.201782 box
348129696 1.203979 box
348129796 1.195862 box
348129896 1.209717 box
348129996 1.200256 box
348130096 1.205688 box
348130196 1.196350 box
348130296 1.205017 box
348130396 1.196960 box
348130496 1.206909 box
348130596 1.197693 box
348130696 1.205627 box
348130796 1.196106 box
348130896 1.202209 box
348130996 1.200256 box
348131096 1.203613 box
348131196 1.193115 box
348131296 1.202454 box
348131396 1.202576 box
348131496 1.196228 box
348131596 1.207275 box
348131696 1.200073 box
348131796 1.206604 box
348131896 1.196472 box
348131996 1.205383 box
348132096 1.197144 box
348132196 1.206909 box
348132296 1.200378 box
348132396 1.204407 box
348132496 1.192810 box
348132596 1.203430 box
348132696 1.201111 box
348132796 1.201965 box
348132896 1.208557 box
348132996 1.204285 box
348133096 1.202820 box
348133196 1.196777 box
348133296 1.210754 box
348133396 1.199341 box
348133496 1.206238 box
348133596 1.197144 box
348133696 1.205444 box
348133796 1.197571 box
348133896 1.205505 box
348133996 1.197632 box
348134096 1.207031 box
348134196 1.194519 box
348134296 1.202454 box
348134396 1.201416 box
348134496 1.202393 box
348134596 1.195068 box
348134696 1.203003 box
348134796 1.202881 box
348134896 1.197083 box
348134996 1.211670 box
348135096 1.200012 box
348135196 1.206543 box
348135296 1.197449 box
348135396 1.209595 box
348135496 1.197754 box
348135596 1.208496 box
348135696 1.198242 box
348135796 1.205322 box
348135896 1.195740 box
348135996 1.205139 box
348136096 1.200928 box
348136196 1.205994 box
348136296 1.192505 box
348136396 1.204285 box
348136496 1.202454 box
348136596 1.198914 box
348136696 1.211304 box
348136796 1.199829 box
348136896 1.203735 box
348136996 1.197998 box
348137096 1.208679 box
