time(ms) energy(J) hostname
420546325 0.000000 box
420546425 1.041016 box
420546525 1.045166 box
420546625 1.041992 box
420546725 1.046997 box
420546825 1.042419 box
420546925 1.045227 box
420547025 1.044922 box
420547125 1.039856 box
420547225 1.042664 box
420547325 1.045166 box
420547425 1.044373 box
420547525 1.045044 box
420547625 1.043701 box
420547725 1.044739 box
420547825 1.043335 box
420547925 1.041443 box
420548025 1.043762 box
420548125 1.043823 box
420548225 1.045166 box
420548325 1.044922 box
420548425 1.044434 box
420548525 1.045532 box
420548625 1.043030 box
420548725 1.043823 box
420548825 1.042480 box
420548925 1.044556 box
420549025 1.046570 box
420549125 1.044861 box
420549225 1.044739 box
420549325 1.044312 box
420549425 1.042786 box
420549525 1.042908 box
420549625 1.042175 box
420549725 1.043823 box
420549825 1.045715 box
420549925 1.044250 box
420550025 1.043762 box
420550125 1.044922 box
420550225 1.043274 box
420550325 1.041321 box
420550425 1.043762 box
420550525 1.044067 box
420550625 1.046814 box
420550725 1.044983 box
420550825 1.043518 box
420550925 1.044678 box
420551025 1.042358 box
420551125 1.041992 box
420551225 1.042297 box
420551325 1.044312 box
420551425 1.044861 box
420551525 1.044861 box
420551625 1.044983 box
420551725 1.044495 box
420551825 1.042725 box
420551925 1.042786 box
420552025 1.043579 box
420552125 1.044250 box
420552225 1.045898 box
420552325 1.044800 box
420552425 1.043579 box
420552525 1.044434 box
420552625 1.043213 box
420552725 1.041199 box
420552825 1.042542 box
420552925 1.043579 box
420553025 1.045471 box
420553125 1.044922 box
420553225 1.043457 box
420553325 1.044617 box
420553425 1.043579 box
420553525 1.042236 box
420553625 1.044250 box
420553725 1.042175 box
420553825 1.045654 box
420553925 1.044922 box
420554025 1.042297 box
420554125 1.044678 box
420554225 1.045288 box
420554325 1.041626 box
420554425 1.042603 box
420554525 1.042725 box
420554625 1.046387 box
420554725 1.044434 box
420554825 1.044250 box
420554925 1.043884 box
420555025 1.042603 box
420555125 1.041504 box
420555225 1.042847 box
420555325 1.043213 box
420555425 1.047546 box
420555525 1.043213 box
420555625 1.044006 box
420555725 1.045471 box
420555825 1.041626 box
420555925 1.041931 box
420556025 1.044434 box
420556125 1.041016 box
420556225 1.046387 box
420556325 1.043030 box
420556425 1.045410 box
420556525 1.045105 box
420556625 1.039795 box
420556725 1.043030 box
420556825 1.043396 box
420556925 1.043274 box
420557025 1.045898 box
420557125 1.042847 box
420557225 1.046143 box
420557325 1.045105 box
420557425 1.040588 box
420557525 1.043762 box
420557625 1.045288 box
420557725 1.042297 box
420557825 1.045227 box
420557925 1.041626 box
420558025 1.046570 box
420558125 1.046021 box
420558225 1.039368 box
420558325 1.042542 box
420558425 1.045471 box
420558525 1.043396 box
420558625 1.044922 box
420558725 1.042969 box
420558825 1.046570 box
420558925 1.045288 box
420559025 1.039185 box
420559125 1.042297 box
420559225 1.044617 box
420559325 1.042786 box
420559425 1.045227 box
420559525 1.042969 box
420559625 1.045044 box
420559725 1.045227 box
420559825 1.040588 box
420559925 1.041260 box
420560025 1.046631 box
420560125 1.043396 box
420560225 1.045105 box
420560325 1.041809 box
420560425 1.046814 box
420560525 1.044861 box
420560625 1.040039 box
420560725 1.041687 box
420560825 1.046387 box
420560925 1.043884 box
420561025 1.044922 box
420561125 1.041199 box
420561225 1.047302 box
420561325 1.044189 box
420561425 1.044495 box
420561525 1.043152 box
420561625 1.042114 box
420561725 1.042419 box
420561825 1.043396 box
420561925 1.045959 box
420562025 1.046021 box
420562125 1.045166 box
420562225 1.043823 box
420562325 1.044800 box
420562425 1.042969 box
420562525 1.044128 box
420562625 1.042725 box
420562725 1.044739 box
420562825 1.044250 box
420562925 1.044128 box
420563025 1.044312 box
420563125 1.041870 box
420563225 1.045471 box
420563325 1.044983 box
420563425 1.041931 box
420563525 1.044556 box
420563625 1.042786 box
420563725 1.047913 box
420563825 1.042603 box
420563925 1.043518 box
420564025 1.043823 box
420564125 1.043823 box
420564225 1.044800 box
420564325 1.044128 box
420564425 1.044556 box
420564525 1.044434 box
420564625 1.043030 box
420564725 1.044067 box
420564825 1.044067 box
420564925 1.044495 box
420565025 1.043335 box
420565125 1.042053 box
420565225 1.044250 box
420565325 1.044128 box
420565425 1.045654 box
420565525 1.045105 box
420565625 1.042053 box
420565725 1.042664 box
420565825 1.044922 box
420565925 1.043030 box
420566025 1.043762 box
420566125 1.043335 box
420566225 1.046753 box
420566325 1.043030 box
420566425 1.044312 box
420566525 1.042419 box
420566625 1.044495 box
420566725 1.043762 box
420566825 1.042480 box
420566925 1.043762 box
420567025 1.045227 box
420567125 1.044617 box
420567225 1.042725 box
420567325 1.042114 box
420567425 1.043640 box
420567525 1.042358 box
420567625 1.044739 box
420567725 1.046448 box
420567825 1.045105 box
420567925 1.043335 box
420568025 1.044617 box
420568125 1.040039 box
420568225 1.045044 box
420568325 1.044861 box
420568425 1.044739 box
420568525 1.044250 box
420568625 1.041077 box
420568725 1.049805 box
420568825 1.043335 box
420568925 1.045044 box
420569025 1.046814 box
420569125 1.042542 box
420569225 1.041870 box
420569325 1.042114 box
420569425 1.044495 box
420569525 1.047180 box
420569625 1.042786 box
420569725 1.043945 box
420569825 1.042786 box
420569925 1.044617 box
420570025 1.044373 box
420570125 1.042358 box
420570225 1.044373 box
420570325 1.045471 box
420570425 1.043274 box
420570525 1.045288 box
420570625 1.041687 box
420570725 1.043945 box
420570825 1.042480 box
420570925 1.041260 box
420571025 1.046631 box
420571125 1.041260 box
420571225 1.046265 box
420571325 1.043396 box
420571425 1.040894 box
420571525 1.045227 box
420571625 1.043396 box
420571725 1.042419 box
420571825 1.041077 box
420571925 1.044128 box
420572025 1.046753 box
420572125 1.043030 box
420572225 1.045959 box
420572325 1.040100 box
420572425 1.042603 box
420572525 1.044189 box
420572625 1.041565 box
420572725 1.044250 box
420572825 1.044678 box
420572925 1.045898 box
420573025 1.045837 box
420573125 1.044495 box
420573225 1.045898 box
420573325 1.043823 box
420573425 1.044434 box
420573525 1.040833 box
420573625 1.044678 box
420573725 1.042603 box
420573825 1.046265 box
420573925 1.042664 box
420574025 1.042236 box
420574125 1.045166 box
420574225 1.042542 box
420574325 1.043335 box
420574425 1.042725 box
420574525 1.043335 box
420574625 1.046936 box
420574725 1.043640 box
420574825 1.042847 box
420574925 1.042236 box
420575025 1.041687 box
420575125 1.045959 box
420575225 1.044128 box
420575325 1.043396 box
420575425 1.044373 box
420575525 1.046143 box
420575625 1.044250 box
420575725 1.042664 box
420575825 1.045227 box
420575925 1.044617 box
420576025 1.042175 box
420576125 1.041077 box
420576225 1.044189 box
420576325 1.045410 box
420576425 1.045776 box
420576525 1.042603 box
420576625 1.042053 box
420576725 1.042847 box
420576825 1.041260 box
420576925 1.044006 box
420577025 1.044067 box
420577125 1.045410 box
420577225 1.045349 box
420577325 1.045227 box
420577425 1.044006 box
420577525 1.042725 box
420577625 1.045349 box
420577725 1.043945 box
420577825 1.042297 box
420577925 1.044495 box
420578025 1.041016 box
420578125 1.045288 box
420578225 1.042419 box
420578325 1.044983 box
420578425 1.043213 box
420578525 1.043762 box
420578625 1.043579 box
420578725 1.041443 box
420578825 1.045410 box
420578925 1.043396 box
420579025 1.045898 box
420579125 1.043640 box
420579225 1.043945 box
420579325 1.045410 box
420579425 1.045288 box
420579525 1.045044 box
420579625 1.043396 box
420579725 1.045288 box
420579825 1.044678 box
420579925 1.043701 box
420580025 1.043701 box
420580125 1.041504 box
420580225 1.044922 box
420580325 1.044250 box
420580425 1.042480 box
420580525 1.046143 box
420580625 1.041870 box
420580725 1.048340 box
420580825 1.042053 box
420580925 1.040588 box
420581025 1.044312 box
420581125 1.043518 box
420581225 1.043701 box
420581325 1.043579 box
420581425 1.045654 box
420581525 1.045044 box
420581625 1.045715 box
420581725 1.044128 box
420581825 1.040283 box
420581925 1.047058 box
420582025 1.043396 box
420582125 1.043701 box
420582225 1.041565 box
420582325 1.042236 box
420582425 1.046326 box
420582525 1.044006 box
420582625 1.044739 box
420582725 1.046143 box
420582825 1.042175 box
420582925 1.043091 box
420583025 1.041077 box
420583125 1.044128 box
420583225 1.040344 box
420583325 1.049011 box
420583425 1.043640 box
420583525 1.043579 box
420583625 1.045349 box
420583725 1.044434 box
420583825 1.044678 box
420583925 1.042908 box
420584025 1.046631 box
420584125 1.044189 box
420584225 1.045288 box
420584325 1.043518 box
420584425 1.039368 box
420584525 1.045410 box
420584625 1.044189 box
420584725 1.044983 box
420584825 1.043152 box
420584925 1.044006 box
420585025 1.046509 box
420585125 1.043640 box
420585225 1.043518 box
420585325 1.042114 box
420585425 1.043884 box
420585525 1.042603 box
420585625 1.043884 box
420585725 1.045959 box
420585825 1.042297 box
420585925 1.047302 box
420586025 1.045166 box
420586125 1.044189 box
420586225 1.045044 box
420586325 1.043640 box
420586425 1.041504 box
420586525 1.041931 box
420586625 1.044312 box
420586725 1.043701 box
420586825 1.044922 box
420586925 1.046021 box
420587025 1.040161 box
420587125 1.043945 box
420587225 1.043701 box
420587325 1.043335 box
420587425 1.042725 box
420587525 1.044495 box
420587625 1.046814 box
420587725 1.043945 box
420587825 1.044434 box
420587925 1.042542 box
420588025 1.044189 box
420588125 1.045715 box
420588225 1.043518 box
420588325 1.046509 box
420588425 1.042969 box
420588525 1.047058 box
420588625 1.044067 box
420588725 1.042908 box
420588825 1.043335 box
420588925 1.043701 box
420589025 1.042664 box
420589125 1.042847 box
420589225 1.044373 box
420589325 1.045227 box
420589425 1.044800 box
420589525 1.043823 box
420589625 1.039673 box
420589725 1.045166 box
420589825 1.041992 box
420589925 1.042358 box
420590025 1.042358 box
420590125 1.046509 box
420590225 1.046509 box
420590325 1.043945 box
420590425 1.045410 box
420590525 1.045044 box
420590625 1.043823 box
420590725 1.044312 box
420590825 1.041748 box
420590925 1.044861 box
420591025 1.043091 box
420591125 1.047607 box
420591225 1.044250 box
420591325 1.043274 box
420591425 1.042175 box
420591525 1.042297 box
420591625 1.043335 box
420591725 1.043457 box
420591825 1.043518 box
420591925 1.046021 box
420592025 1.044495 box
420592125 1.044983 box
420592225 1.041931 box
420592325 1.044434 box
420592425 1.046570 box
420592525 1.044006 box
420592625 1.044006 box
420592725 1.042358 box
420592825 1.046387 box
420592925 1.043213 box
420593025 1.041687 box
420593125 1.044128 box
420593225 1.043823 box
420593325 1.043335 box
420593425 1.042358 box
420593525 1.046021 box
420593625 1.044312 box
420593725 1.045654 box
420593825 1.042725 box
420593925 1.042358 box
420594025 1.046509 box
420594125 1.043945 box
420594225 1.043762 box
420594325 1.045227 box
420594425 1.046448 box
420594525 1.044617 box
420594625 1.044067 box
420594725 1.044800 box
420594825 1.041077 box
420594925 1.045410 box
420595025 1.043213 box
420595125 1.042480 box
420595225 1.045837 box
420595325 1.042358 box
420595425 1.047363 box
420595525 1.042725 box
420595625 1.043457 box
420595725 1.041321 box
420595825 1.041748 box
420595925 1.043945 box
420596025 1.044067 box
420596125 1.046021 box
420596225 1.044495 box
420596325 1.045471 box
420596425 1.043701 box
420596525 1.041382 box
420596625 1.045593 box
420596725 1.044067 box
420596825 1.042053 box
420596925 1.039917 box
420597025 1.043579 box
420597125 1.046814 box
420597225 1.044006 box
420597325 1.043213 box
420597425 1.043030 box
420597525 1.044800 box
420597625 1.042236 box
420597725 1.043518 box
420597825 1.045715 box
420597925 1.042603 box
420598025 1.048523 box
420598125 1.045654 box
420598225 1.042603 box
420598325 1.045715 box
420598425 1.044800 box
420598525 1.042053 box
420598625 1.043640 box
420598725 1.044739 box
420598825 1.045288 box
420598925 1.043213 box
420599025 1.045105 box
420599125 1.042053 box
420599225 1.043030 box
420599325 1.043762 box
420599425 1.042053 box
420599525 1.044312 box
420599625 1.041687 box
420599725 1.047485 box
420599825 1.045288 box
420599925 1.044739 box
420600025 1.043945 box
420600125 1.043945 box
420600225 1.043762 box
420600325 1.042358 box
420600425 1.044861 box
420600525 1.043640 box
420600625 1.045166 box
420600725 1.043213 box
420600825 1.041870 box
420600925 1.045105 box
420601025 1.040955 box
420601125 1.042786 box
420601225 1.047058 box
420601325 1.041870 box
420601425 1.046692 box
420601525 1.042297 box
420601625 1.042786 box
420601725 1.044617 box
420601825 1.041992 box
420601925 1.042297 box
420602025 1.044006 box
420602125 1.044983 box
420602225 1.046936 box
420602325 1.044006 box
420602425 1.044128 box
420602525 1.045288 box
420602625 1.042969 box
420602725 1.042603 box
420602825 1.042419 box
420602925 1.043457 box
420603025 1.046814 box
420603125 1.044495 box
420603225 1.043701 box
420603325 1.043579 box
420603425 1.043884 box
420603525 1.042786 box
420603625 1.041321 box
420603725 1.043945 box
420603825 1.045410 box
420603925 1.042847 box
420604025 1.042908 box
420604125 1.042053 box
420604225 1.043640 box
420604325 1.045471 box
420604425 1.043274 box
420604525 1.044128 box
420604625 1.043335 box
420604725 1.046570 box
420604825 1.043945 box
420604925 1.041626 box
420605025 1.044189 box
420605125 1.043945 box
420605225 1.044434 box
420605325 1.044434 box
420605425 1.045593 box
420605525 1.043823 box
420605625 1.042664 box
420605725 1.043335 box
420605825 1.044067 box
420605925 1.042969 box
420606025 1.043274 box
420606125 1.043823 box
420606225 1.044678 box
420606325 1.046021 box
420606425 1.044312 box
420606525 1.044312 box
420606625 1.043274 box
420606725 1.043274 box
420606825 1.043091 box
420606925 1.041870 box
420607025 1.045410 box
420607125 1.044922 box
420607225 1.044556 box
420607325 1.045532 box
420607425 1.041687 box
420607525 1.045105 box
420607625 1.043396 box
420607725 1.040833 box
420607825 1.044861 box
420607925 1.044861 box
420608025 1.045837 box
420608125 1.043030 box
420608225 1.042480 box
420608325 1.046265 box
420608425 1.044128 box
420608525 1.042664 box
420608625 1.043335 box
420608725 1.042175 box
420608825 1.048401 box
420608925 1.043030 box
420609025 1.044434 box
420609125 1.041687 box
420609225 1.044128 box
420609325 1.045227 box
420609425 1.044434 box
420609525 1.043640 box
420609625 1.044617 box
420609725 1.042664 box
420609825 1.044617 box
420609925 1.041565 box
420610025 1.043640 box
420610125 1.041748 box
420610225 1.043396 box
420610325 1.045898 box
420610425 1.044128 box
420610525 1.042419 box
420610625 1.044434 box
420610725 1.044006 box
420610825 1.043030 box
420610925 1.043213 box
420611025 1.043335 box
420611125 1.045593 box
420611225 1.044250 box
420611325 1.045776 box
420611425 1.043274 box
420611525 1.040649 box
420611625 1.044983 box
420611725 1.043701 box
420611825 1.041443 box
420611925 1.045837 box
420612025 1.041931 box
420612125 1.047302 box
420612225 1.047363 box
420612325 1.043396 box
420612425 1.045105 box
420612525 1.042419 box
420612625 1.043762 box
420612725 1.041992 box
420612825 1.041870 box
420612925 1.047852 box
420613025 1.044006 box
420613125 1.043274 box
420613225 1.044373 box
420613325 1.043213 box
420613425 1.043823 box
420613525 1.039795 box
420613625 1.044067 box
420613725 1.047302 box
420613825 1.042114 box
420613925 1.043579 box
420614025 1.043396 box
420614125 1.043335 box
420614225 1.045227 box
420614325 1.042603 box
420614425 1.043640 box
420614525 1.045349 box
420614625 1.044067 box
420614725 1.043640 box
420614825 1.040955 box
420614925 1.042786 box
420615025 1.043457 box
420615125 1.044617 box
420615225 1.045593 box
420615325 1.043945 box
420615425 1.044678 box
420615525 1.044495 box
420615625 1.040283 box
420615725 1.042664 box
420615825 1.043579 box
420615925 1.043762 box
420616025 1.045837 box
420616125 1.041809 box
420616225 1.046265 box
420616325 1.042786 box
420616425 1.042969 box
420616525 1.044067 box
420616625 1.041809 box
420616725 1.042847 box
420616825 1.043396 box
420616925 1.044006 box
420617025 1.047119 box
420617125 1.042908 box
420617225 1.043274 box
420617325 1.043518 box
420617425 1.042542 box
420617525 1.042969 box
420617625 1.042236 box
420617725 1.043945 box
420617825 1.045288 box
420617925 1.045166 box
420618025 1.043152 box
420618125 1.045349 box
420618225 1.043274 box
420618325 1.042114 box
420618425 1.041443 box
420618525 1.043396 box
420618625 1.046387 box
420618725 1.044067 box
420618825 1.043701 box
420618925 1.044067 box
420619025 1.044495 box
420619125 1.043518 box
420619225 1.041382 box
420619325 1.043518 box
420619425 1.044861 box
420619525 1.044006 box
420619625 1.044922 box
420619725 1.039856 box
420619825 1.044006 box
420619925 1.047363 box
420620025 1.043274 box
420620125 1.042480 box
420620225 1.042053 box
420620325 1.048096 box
420620425 1.043518 box
420620525 1.040466 box
420620625 1.044312 box
420620725 1.041565 box
420620825 1.045654 box
420620925 1.043518 box
420621025 1.043457 box
420621125 1.044495 box
420621225 1.043091 box
420621325 1.044250 box
420621425 1.042908 box
420621525 1.041931 box
420621625 1.043030 box
420621725 1.044434 box
420621825 1.046204 box
420621925 1.044922 box
420622025 1.042419 box
420622125 1.043213 box
420622225 1.044373 box
420622325 1.042969 box
420622425 1.040649 box
420622525 1.043030 box
420622625 1.046814 box
420622725 1.045288 box
420622825 1.042358 box
420622925 1.044495 box
420623025 1.042603 box
420623125 1.043762 box
420623225 1.041687 box
420623325 1.041992 box
420623425 1.043762 box
420623525 1.043945 box
420623625 1.046692 box
420623725 1.044983 box
420623825 1.041504 box
420623925 1.044006 box
420624025 1.046997 box
420624125 1.041504 box
420624225 1.044678 box
420624325 1.042297 box
420624425 1.047607 box
420624525 1.041931 box
420624625 1.043518 box
420624725 1.044739 box
420624825 1.044312 box
420624925 1.043396 box
420625025 1.043030 box
420625125 1.041992 box
420625225 1.048279 box
420625325 1.043152 box
420625425 1.040405 box
420625525 1.043762 box
420625625 1.044250 box
420625725 1.044434 box
420625825 1.044067 box
420625925 1.045410 box
420626025 1.043884 box
420626125 1.044556 box
420626225 1.042786 box
420626325 1.042419 box
420626425 1.041260 box
420626525 1.044189 box
420626625 1.044128 box
420626725 1.049133 box
420626825 1.044312 box
420626925 1.044250 box
420627025 1.044189 box
420627125 1.042664 box
420627225 1.043091 box
420627325 1.043457 box
420627425 1.040588 box
420627525 1.046509 box
420627625 1.042725 box
420627725 1.046265 box
420627825 1.044373 box
420627925 1.040955 box
420628025 1.043579 box
420628125 1.044067 box
420628225 1.041870 box
420628325 1.045166 box
420628425 1.041626 box
420628525 1.048096 box
420628625 1.043396 box
420628725 1.042419 box
420628825 1.043396 box
420628925 1.042725 box
420629025 1.042786 box
420629125 1.042236 box
420629225 1.043579 box
420629325 1.046997 box
420629425 1.043640 box
420629525 1.042725 box
420629625 1.045593 box
420629725 1.042236 box
420629825 1.042053 box
420629925 1.042175 box
420630025 1.043884 box
420630125 1.046814 box
420630225 1.042786 box
420630325 1.044128 box
420630425 1.043823 box
420630525 1.044983 box
420630625 1.043030 box
420630725 1.040039 box
420630825 1.045105 box
420630925 1.046326 box
420631025 1.042969 box
420631125 1.043579 box
420631225 1.042847 box
420631325 1.044189 box
420631425 1.044495 box
420631525 1.041565 box
420631625 1.045105 box
420631725 1.042603 box
420631825 1.045959 box
420631925 1.042480 box
420632025 1.040405 box
420632125 1.042175 box
420632225 1.046997 box
420632325 1.043762 box
420632425 1.045776 box
420632525 1.041260 box
420632625 1.047058 box
420632725 1.044128 box
420632825 1.042786 box
420632925 1.043884 box
420633025 1.042419 box
420633125 1.042358 box
420633225 1.045898 box
420633325 1.044861 box
420633425 1.045288 box
420633525 1.043579 box
420633625 1.043213 box
420633725 1.043762 box
420633825 1.041443 box
420633925 1.044189 box
420634025 1.041260 box
420634125 1.045288 box
420634225 1.045166 box
420634325 1.043762 box
420634425 1.042725 box
420634525 1.043152 box
420634625 1.043152 box
420634725 1.042603 box
420634825 1.042664 box
420634925 1.044739 box
420635025 1.046143 box
420635125 1.043640 box
420635225 1.045227 box
420635325 1.044800 box
420635425 1.042786 box
420635525 1.041992 box
420635625 1.042908 box
420635725 1.044495 box
420635825 1.043701 box
420635925 1.046021 box
420636025 1.044983 box
420636125 1.041687 box
420636225 1.046082 box
420636325 1.045288 box
420636425 1.041748 box
420636525 1.044861 box
420636625 1.044617 box
420636725 1.044006 box
420636825 1.044312 box
420636925 1.041687 box
420637025 1.044800 box
420637125 1.044495 box
420637225 1.043640 box
420637325 1.043030 box
420637425 1.042236 box
420637525 1.047241 box
420637625 1.042969 box
420637725 1.043518 box
420637825 1.043213 box
420637925 1.044556 box
420638025 1.044373 box
420638125 1.042297 box
420638225 1.042236 box
420638325 1.046509 box
420638425 1.044189 box
420638525 1.041077 box
420638625 1.042603 box
420638725 1.044312 box
420638825 1.043823 box
420638925 1.045166 box
420639025 1.046021 box
420639125 1.043640 box
420639225 1.043213 box
420639325 1.043823 box
420639425 1.043396 box
420639525 1.042053 box
420639625 1.043701 box
420639725 1.042358 box
420639825 1.046204 box
420639925 1.044983 box
420640025 1.044922 box
420640125 1.042908 box
420640225 1.042908 box
420640325 1.043884 box
420640425 1.042786 box
420640525 1.040771 box
420640625 1.045654 box
420640725 1.043457 box
420640825 1.045105 box
420640925 1.045288 box
420641025 1.041504 box
420641125 1.044006 box
420641225 1.046692 box
420641325 1.042114 box
420641425 1.044861 box
420641525 1.040833 box
420641625 1.048767 box
420641725 1.043091 box
420641825 1.041016 box
420641925 1.046631 box
420642025 1.042786 box
420642125 1.041626 box
420642225 1.043335 box
420642325 1.041199 box
420642425 1.049438 box
420642525 1.043762 box
420642625 1.044189 box
420642725 1.045105 box
420642825 1.042603 box
420642925 1.042297 box
420643025 1.042358 box
420643125 1.044067 box
420643225 1.047241 box
420643325 1.042358 box
420643425 1.044312 box
420643525 1.044861 box
420643625 1.043884 box
420643725 1.043762 box
420643825 1.039307 box
420643925 1.045227 box
420644025 1.046509 box
420644125 1.043152 box
420644225 1.041931 box
420644325 1.044800 box
420644425 1.044373 box
420644525 1.042297 box
420644625 1.042236 box
420644725 1.042358 box
420644825 1.046814 box
420644925 1.043396 box
420645025 1.042969 box
420645125 1.043213 box
420645225 1.043579 box
420645325 1.045471 box
420645425 1.042969 box
420645525 1.043518 box
420645625 1.042542 box
420645725 1.046021 box
420645825 1.043518 box
420645925 1.038879 box
420646025 1.044373 box
420646125 1.045227 box
420646225 1.043884 box
420646325 1.046021 box
420646425 1.043213 box
420646525 1.046265 box
420646625 1.045044 box
420646725 1.040710 box
420646825 1.044250 box
420646925 1.043335 box
420647025 1.044556 box
420647125 1.045959 box
420647225 1.041626 box
420647325 1.046570 box
420647425 1.043457 box
420647525 1.044312 box
420647625 1.041809 box
420647725 1.042236 box
420647825 1.044922 box
420647925 1.044373 box
420648025 1.043884 box
420648125 1.044922 box
420648225 1.042847 box
420648325 1.044312 box
420648425 1.043945 box
420648525 1.042542 box
420648625 1.042847 box
420648725 1.044067 box
420648825 1.045837 box
420648925 1.045044 box
420649025 1.043030 box
420649125 1.044373 box
420649225 1.044434 box
420649325 1.042297 box
420649425 1.043274 box
420649525 1.042908 box
420649625 1.045166 box
420649725 1.045959 box
420649825 1.045044 box
420649925 1.043396 box
420650025 1.042603 box
420650125 1.041931 box
420650225 1.043396 box
420650325 1.042480 box
420650425 1.045044 box
420650525 1.046753 box
420650625 1.044739 box
420650725 1.044067 box
420650825 1.044312 box
420650925 1.043396 box
420651025 1.043091 box
420651125 1.040894 box
420651225 1.045471 box
420651325 1.044250 box
420651425 1.044983 box
420651525 1.045532 box
420651625 1.041992 box
420651725 1.044617 box
420651825 1.043457 box
420651925 1.041321 box
420652025 1.044373 box
420652125 1.044189 box
420652225 1.046570 box
420652325 1.044312 box
420652425 1.041687 box
420652525 1.043579 box
420652625 1.046631 box
420652725 1.041382 box
420652825 1.044373 box
420652925 1.043457 box
420653025 1.046143 box
420653125 1.041931 box
420653225 1.043274 box
420653325 1.045776 box
420653425 1.045898 box
420653525 1.042358 box
420653625 1.043152 box
420653725 1.042847 box
420653825 1.047668 box
420653925 1.043030 box
420654025 1.044800 box
420654125 1.043945 box
420654225 1.046082 box
420654325 1.042419 box
420654425 1.041931 box
420654525 1.044250 box
420654625 1.046326 box
420654725 1.043396 box
420654825 1.041626 box
420654925 1.045227 box
420655025 1.046753 box
420655125 1.043396 box
420655225 1.039612 box
420655325 1.044067 box
420655425 1.047974 box
420655525 1.042358 box
420655625 1.042297 box
420655725 1.043396 box
420655825 1.043762 box
420655925 1.045471 box
420656025 1.041504 box
420656125 1.044678 box
420656225 1.046753 box
420656325 1.043152 box
420656425 1.043091 box
420656525 1.043518 box
420656625 1.043274 box
420656725 1.045288 box
420656825 1.043213 box
420656925 1.044739 box
420657025 1.044983 box
420657125 1.043457 box
420657225 1.043091 box
420657325 1.042053 box
420657425 1.043945 box
420657525 1.045410 box
420657625 1.043213 box
420657725 1.043457 box
420657825 1.045410 box
420657925 1.045166 box
420658025 1.044800 box
420658125 1.040588 box
420658225 1.044128 box
420658325 1.043213 box
420658425 1.042969 box
420658525 1.045349 box
420658625 1.043274 box
420658725 1.044983 box
420658825 1.044617 box
420658925 1.041016 box
420659025 1.044739 box
420659125 1.044861 box
420659225 1.043396 box
420659325 1.045959 box
420659425 1.042786 box
420659525 1.045837 box
420659625 1.044495 box
420659725 1.039734 box
420659825 1.044067 box
420659925 1.045166 box
420660025 1.043640 box
420660125 1.044983 box
420660225 1.042419 box
420660325 1.046509 box
420660425 1.045227 box
420660525 1.038757 box
420660625 1.043701 box
420660725 1.046143 box
420660825 1.045654 box
420660925 1.045776 box
420661025 1.042603 box
420661125 1.046509 box
420661225 1.043396 box
420661325 1.042053 box
420661425 1.044434 box
420661525 1.042664 box
420661625 1.045227 box
420661725 1.045349 box
420661825 1.041138 box
420661925 1.047119 box
420662025 1.043640 box
420662125 1.041199 box
420662225 1.043396 box
420662325 1.043579 box
420662425 1.043884 box
420662525 1.045471 box
420662625 1.040039 box
420662725 1.047302 box
420662825 1.044189 box
420662925 1.042725 box
420663025 1.044067 box
420663125 1.042358 box
420663225 1.045532 box
420663325 1.043884 box
420663425 1.045105 box
420663525 1.045898 box
420663625 1.043091 box
420663725 1.045227 box
420663825 1.042969 box
420663925 1.042053 box
420664025 1.044922 box
420664125 1.043457 box
420664225 1.045227 box
420664325 1.045105 box
420664425 1.043945 box
420664525 1.044373 box
420664625 1.044128 box
420664725 1.042236 box
420664825 1.043274 box
420664925 1.044922 box
420665025 1.045715 box
420665125 1.045166 box
420665225 1.044006 box
420665325 1.043457 box
420665425 1.044312 box
420665525 1.041382 box
420665625 1.042603 box
420665725 1.044617 box
420665825 1.046997 box
420665925 1.043213 box
420666025 1.043945 box
420666125 1.042542 box
420666225 1.044312 box
420666325 1.039917 box
420666425 1.043396 box
420666525 1.043762 box
420666625 1.047241 box
420666725 1.044617 box
420666825 1.043884 box
420666925 1.044678 box
420667025 1.043945 box
420667125 1.042114 box
420667225 1.042786 box
420667325 1.043518 box
420667425 1.046143 box
420667525 1.044373 box
420667625 1.043274 box
420667725 1.044006 box
420667825 1.043762 box
420667925 1.042786 box
420668025 1.043091 box
420668125 1.044678 box
420668225 1.046265 box
420668325 1.045227 box
420668425 1.041870 box
420668525 1.044617 box
420668625 1.043579 box
420668725 1.040344 box
420668825 1.043396 box
420668925 1.045532 box
420669025 1.047607 box
420669125 1.044678 box
420669225 1.043640 box
420669325 1.045532 box
420669425 1.041687 box
420669525 1.041687 box
420669625 1.045044 box
420669725 1.042175 box
420669825 1.046448 box
420669925 1.043457 box
420670025 1.044556 box
420670125 1.045715 box
420670225 1.040710 box
420670325 1.042725 box
420670425 1.044312 box
420670525 1.042114 box
420670625 1.046753 box
420670725 1.043762 box
420670825 1.045471 box
420670925 1.045471 box
420671025 1.039001 box
420671125 1.045227 box
420671225 1.043396 box
420671325 1.043701 box
420671425 1.044678 box
420671525 1.042969 box
420671625 1.045776 box
420671725 1.044678 box
420671825 1.040161 box
420671925 1.045105 box
420672025 1.044067 box
420672125 1.043274 box
420672225 1.045593 box
420672325 1.043640 box
420672425 1.045898 box
420672525 1.043945 box
420672625 1.041138 box
420672725 1.043091 box
420672825 1.044556 box
420672925 1.043396 box
420673025 1.046448 box
420673125 1.042114 box
420673225 1.046265 box
420673325 1.045898 box
420673425 1.039185 box
420673525 1.044067 box
420673625 1.046021 box
420673725 1.043335 box
420673825 1.044617 box
420673925 1.044434 box
420674025 1.046448 box
420674125 1.043823 box
420674225 1.039368 box
420674325 1.046082 box
420674425 1.044556 box
420674525 1.043701 box
420674625 1.043640 box
420674725 1.043152 box
420674825 1.046631 box
420674925 1.045044 box
420675025 1.039978 box
420675125 1.043152 box
420675225 1.046448 box
420675325 1.043030 box
420675425 1.044373 box
420675525 1.042847 box
420675625 1.045654 box
420675725 1.043945 box
420675825 1.040833 box
420675925 1.042908 box
420676025 1.046814 box
420676125 1.041992 box
420676225 1.043335 box
420676325 1.044800 box
420676425 1.045776 box
420676525 1.044128 box
420676625 1.041931 box
420676725 1.043640 box
420676825 1.046204 box
420676925 1.042847 box
420677025 1.043823 box
420677125 1.044434 box
420677225 1.043823 box
420677325 1.044312 box
420677425 1.041748 box
420677525 1.045105 box
420677625 1.045532 box
420677725 1.042664 box
420677825 1.044983 box
420677925 1.044373 box
420678025 1.045654 box
420678125 1.045654 box
420678225 1.041077 box
420678325 1.044800 box
420678425 1.045654 box
420678525 1.041992 box
420678625 1.043274 box
420678725 1.044617 box
420678825 1.046204 box
420678925 1.043396 box
420679025 1.041504 box
420679125 1.045532 box
420679225 1.045410 box
420679325 1.041626 box
420679425 1.044373 box
420679525 1.043823 box
420679625 1.045898 box
420679725 1.043518 box
420679825 1.043518 box
420679925 1.044861 box
420680025 1.044128 box
420680125 1.040588 box
420680225 1.044800 box
420680325 1.041260 box
420680425 1.047363 box
420680525 1.044312 box
420680625 1.042297 box
420680725 1.044373 box
420680825 1.044189 box
420680925 1.042480 box
420681025 1.043762 box
420681125 1.041565 box
420681225 1.047729 box
420681325 1.044250 box
420681425 1.044922 box
420681525 1.045471 box
420681625 1.043091 box
420681725 1.041321 box
420681825 1.044067 box
420681925 1.041870 box
420682025 1.049866 box
420682125 1.042419 box
420682225 1.042114 box
420682325 1.045837 box
420682425 1.044800 box
420682525 1.043030 box
420682625 1.044556 box
420682725 1.042297 box
420682825 1.048584 box
420682925 1.041931 box
420683025 1.041809 box
420683125 1.046143 box
420683225 1.042664 box
420683325 1.041626 box
420683425 1.044983 box
420683525 1.041443 box
420683625 1.050171 box
420683725 1.042297 box
420683825 1.042236 box
420683925 1.046509 box
420684025 1.042725 box
420684125 1.042053 box
420684225 1.046631 box
420684325 1.042053 box
420684425 1.047791 box
420684525 1.043396 box
420684625 1.041809 box
420684725 1.046082 box
420684825 1.042236 box
420684925 1.043396 box
420685025 1.044800 box
420685125 1.042847 box
420685225 1.047241 box
420685325 1.043335 box
420685425 1.042786 box
420685525 1.045471 box
420685625 1.041260 box
420685725 1.042969 box
420685825 1.045898 box
420685925 1.042236 box
420686025 1.046387 box
420686125 1.042969 box
420686225 1.044617 box
420686325 1.043274 box
420686425 1.042236 box
420686525 1.045166 box
420686625 1.044189 box
420686725 1.041992 box
420686825 1.048096 box
420686925 1.044495 box
420687025 1.042297 box
420687125 1.043640 box
420687225 1.044006 box
420687325 1.043274 box
420687425 1.046265 box
420687525 1.041626 box
420687625 1.046692 box
420687725 1.044739 box
420687825 1.042358 box
420687925 1.043884 box
420688025 1.044434 box
420688125 1.045654 box
420688225 1.045227 box
420688325 1.041870 box
420688425 1.047485 box
420688525 1.045105 box
420688625 1.041931 box
420688725 1.044067 box
420688825 1.043274 box
420688925 1.045776 box
420689025 1.042480 box
420689125 1.042053 box
420689225 1.047729 box
420689325 1.043762 box
420689425 1.043945 box
420689525 1.043152 box
420689625 1.043823 box
420689725 1.045349 box
420689825 1.043335 box
420689925 1.041321 box
420690025 1.048035 box
420690125 1.042725 box
420690225 1.043213 box
420690325 1.044495 box
420690425 1.044434 box
420690525 1.043579 box
420690625 1.043762 box
420690725 1.042908 box
420690825 1.047119 box
420690925 1.044678 box
420691025 1.042542 box
420691125 1.045166 box
420691225 1.045044 box
420691325 1.043091 box
420691425 1.041687 box
420691525 1.042847 box
420691625 1.047058 box
420691725 1.044312 box
420691825 1.042480 box
420691925 1.046021 box
420692025 1.044250 box
420692125 1.043579 box
420692225 1.044006 box
420692325 1.042297 box
420692425 1.047241 box
420692525 1.044128 box
420692625 1.042603 box
420692725 1.044434 box
420692825 1.046082 box
420692925 1.041992 box
420693025 1.045471 box
420693125 1.041748 box
420693225 1.047546 box
420693325 1.044250 box
420693425 1.041321 box
420693525 1.043152 box
420693625 1.045288 box
420693725 1.041077 box
420693825 1.046570 box
420693925 1.041931 box
420694025 1.046143 box
420694125 1.047668 box
420694225 1.040894 box
420694325 1.044678 box
420694425 1.046143 box
420694525 1.041260 box
420694625 1.046753 box
420694725 1.043335 box
420694825 1.048523 box
420694925 1.043335 box
420695025 1.041748 box
420695125 1.046631 box
420695225 1.043213 box
420695325 1.043335 box
420695425 1.046875 box
420695525 1.042664 box
420695625 1.045959 box
420695725 1.045227 box
420695825 1.041016 box
420695925 1.042603 box
420696025 1.044006 box
420696125 1.042603 box
420696225 1.048157 box
420696325 1.041809 box
420696425 1.045471 box
420696525 1.044250 box
420696625 1.041321 box
420696725 1.043518 box
420696825 1.044739 box
420696925 1.044678 box
420697025 1.046082 box
420697125 1.044373 box
420697225 1.046326 box
420697325 1.044006 box
420697425 1.041748 box
420697525 1.044067 box
420697625 1.044495 box
420697725 1.041504 box
420697825 1.043701 box
420697925 1.046814 box
420698025 1.043884 box
420698125 1.042969 box
420698225 1.042969 box
420698325 1.044739 box
420698425 1.044861 box
420698525 1.041138 box
420698625 1.044556 box
420698725 1.046936 box
420698825 1.042725 box
420698925 1.042786 box
420699025 1.045837 box
420699125 1.043579 box
420699225 1.043884 box
420699325 1.040039 box
420699425 1.045410 box
420699525 1.046326 box
420699625 1.043274 box
420699725 1.043701 box
420699825 1.045105 box
420699925 1.043579 box
420700025 1.041687 box
420700125 1.042603 box
420700225 1.044067 box
420700325 1.045715 box
420700425 1.044800 box
420700525 1.044312 box
420700625 1.043701 box
420700725 1.043091 box
420700825 1.044189 box
420700925 1.042603 box
420701025 1.044312 box
420701125 1.046631 box
420701225 1.044067 box
420701325 1.044312 box
420701425 1.043579 box
420701525 1.043274 box
420701625 1.044556 box
420701725 1.042480 box
420701825 1.045044 box
420701925 1.046143 box
420702025 1.043579 box
420702125 1.045593 box
420702225 1.042908 box
420702325 1.043518 box
420702425 1.044373 box
420702525 1.044128 box
420702625 1.046753 box
420702725 1.045227 box
420702825 1.042725 box
420702925 1.044128 box
420703025 1.042908 box
420703125 1.043640 box
420703225 1.043945 box
420703325 1.044617 box
420703425 1.046143 box
420703525 1.044556 box
420703625 1.044495 box
420703725 1.042847 box
420703825 1.044983 box
420703925 1.042542 box
420704025 1.044983 box
420704125 1.043152 box
420704225 1.044434 box
420704325 1.045227 box
420704425 1.044312 box
420704525 1.042786 box
420704625 1.044312 box
420704725 1.044312 box
420704825 1.044983 box
420704925 1.042297 box
420705025 1.042969 box
420705125 1.047241 box
420705225 1.044250 box
420705325 1.042603 box
420705425 1.046082 box
420705525 1.043945 box
420705625 1.042969 box
420705725 1.043030 box
420705825 1.041443 box
420705925 1.048218 box
420706025 1.043823 box
420706125 1.042725 box
420706225 1.045532 box
420706325 1.043762 box
420706425 1.042053 box
420706525 1.045105 box
420706625 1.043640 box
420706725 1.045959 box
420706825 1.045593 box
420706925 1.041077 box
420707025 1.046021 box
420707125 1.045593 box
420707225 1.042358 box
420707325 1.045654 box
420707425 1.042297 box
420707525 1.047119 box
420707625 1.044434 box
420707725 1.041443 box
420707825 1.045776 box
420707925 1.043640 box
420708025 1.044678 box
420708125 1.047180 box
420708225 1.042419 box
420708325 1.045349 box
420708425 1.045654 box
420708525 1.042114 box
420708625 1.042053 box
420708725 1.044617 box
420708825 1.044128 box
420708925 1.045227 box
420709025 1.046143 box
420709125 1.043640 box
420709225 1.043152 box
420709325 1.042603 box
420709425 1.044678 box
420709525 1.044006 box
420709625 1.041931 box
420709725 1.045532 box
420709825 1.046509 box
420709925 1.044250 box
420710025 1.043213 box
420710125 1.044250 box
420710225 1.044312 box
420710325 1.043762 box
420710425 1.041321 box
420710525 1.044922 box
420710625 1.046692 box
420710725 1.044800 box
420710825 1.043884 box
420710925 1.043457 box
420711025 1.042603 box
420711125 1.043945 box
420711225 1.042358 box
420711325 1.045532 box
420711425 1.046631 box
420711525 1.043152 box
420711625 1.044556 box
420711725 1.044250 box
420711825 1.042603 box
420711925 1.043030 box
420712025 1.045288 box
420712125 1.044189 box
420712225 1.046265 box
420712325 1.044250 box
420712425 1.043518 box
420712525 1.044067 box
420712625 1.041809 box
420712725 1.044617 box
420712825 1.046143 box
420712925 1.041687 box
420713025 1.046692 box
420713125 1.044556 box
420713225 1.041504 box
420713325 1.043396 box
420713425 1.045959 box
420713525 1.044495 box
420713625 1.044922 box
420713725 1.043152 box
420713825 1.046936 box
420713925 1.041931 box
420714025 1.041077 box
420714125 1.046021 box
420714225 1.045227 box
420714325 1.043213 box
420714425 1.045166 box
420714525 1.044495 box
420714625 1.045288 box
420714725 1.044922 box
420714825 1.044250 box
420714925 1.045837 box
420715025 1.042236 box
420715125 1.042419 box
420715225 1.045288 box
420715325 1.045532 box
420715425 1.043823 box
420715525 1.044067 box
420715625 1.043762 box
420715725 1.042053 box
420715825 1.043030 box
420715925 1.044006 box
420716025 1.046326 box
420716125 1.045715 box
420716225 1.044800 box
420716325 1.044250 box
420716425 1.043823 box
420716525 1.042908 box
420716625 1.045593 box
420716725 1.044189 box
420716825 1.044617 box
420716925 1.046021 box
420717025 1.044006 box
420717125 1.042969 box
420717225 1.044312 box
420717325 1.043091 box
420717425 1.045654 box
420717525 1.042725 box
420717625 1.041748 box
420717725 1.047729 box
420717825 1.043457 box
420717925 1.043457 box
420718025 1.045044 box
420718125 1.045410 box
420718225 1.042847 box
420718325 1.044006 box
420718425 1.041748 box
420718525 1.046631 box
420718625 1.043823 box
420718725 1.042419 box
420718825 1.043579 box
420718925 1.046143 box
420719025 1.042480 box
420719125 1.044800 box
420719225 1.042847 box
420719325 1.047119 box
420719425 1.045532 box
420719525 1.041992 box
420719625 1.044617 box
420719725 1.043701 box
420719825 1.042664 box
420719925 1.048645 box
420720025 1.043457 box
420720125 1.044861 box
420720225 1.044434 box
420720325 1.041870 box
420720425 1.042542 box
420720525 1.045715 box
420720625 1.043396 box
420720725 1.044373 box
420720825 1.046631 box
420720925 1.044312 box
420721025 1.044312 box
420721125 1.044128 box
420721225 1.044861 box
420721325 1.045227 box
420721425 1.041748 box
420721525 1.043762 box
420721625 1.046631 box
420721725 1.043884 box
420721825 1.042603 box
420721925 1.045715 box
420722025 1.043030 box
420722125 1.043457 box
420722225 1.042297 box
420722325 1.043335 box
420722425 1.047485 box
420722525 1.043030 box
420722625 1.043457 box
420722725 1.045471 box
420722825 1.042725 box
420722925 1.042053 box
420723025 1.046570 box
420723125 1.042542 box
420723225 1.046326 box
420723325 1.044861 box
420723425 1.041321 box
420723525 1.043457 box
420723625 1.045471 box
420723725 1.043701 box
420723825 1.045532 box
420723925 1.044556 box
420724025 1.047058 box
420724125 1.043579 box
420724225 1.039551 box
420724325 1.045837 box
420724425 1.044067 box
420724525 1.042908 box
420724625 1.043518 box
420724725 1.046997 box
420724825 1.043213 box
420724925 1.043640 box
420725025 1.044983 box
420725125 1.043884 box
420725225 1.043457 box
420725325 1.042847 box
420725425 1.046143 box
420725525 1.045654 box
420725625 1.043823 box
420725725 1.045288 box
420725825 1.043274 box
420725925 1.045410 box
420726025 1.043823 box
420726125 1.041748 box
420726225 1.046204 box
420726325 1.046570 box
420726425 1.043823 box
420726525 1.043945 box
420726625 1.044617 box
420726725 1.040894 box
420726825 1.043823 box
420726925 1.045471 box
420727025 1.041931 box
420727125 1.047302 box
420727225 1.044373 box
420727325 1.043823 box
420727425 1.044006 box
420727525 1.044250 box
420727625 1.045288 box
420727725 1.044739 box
420727825 1.041809 box
420727925 1.047424 box
420728025 1.043152 box
420728125 1.041443 box
420728225 1.045288 box
420728325 1.045898 box
420728425 1.041504 box
420728525 1.044739 box
420728625 1.045715 box
420728725 1.044617 box
420728825 1.046387 box
420728925 1.043762 box
420729025 1.045105 box
420729125 1.042175 box
420729225 1.042419 box
420729325 1.045776 box
420729425 1.045044 box
420729525 1.043396 box
420729625 1.043640 box
420729725 1.044250 box
420729825 1.043579 box
420729925 1.042542 box
420730025 1.044556 box
420730125 1.046814 box
420730225 1.044006 box
420730325 1.044006 box
420730425 1.044983 box
420730525 1.042603 box
420730625 1.043884 box
420730725 1.044067 box
420730825 1.045044 box
420730925 1.043945 box
420731025 1.045959 box
420731125 1.044800 box
420731225 1.042480 box
420731325 1.044617 box
420731425 1.045227 box
420731525 1.044556 box
420731625 1.041260 box
420731725 1.043091 box
420731825 1.047546 box
420731925 1.042664 box
420732025 1.043457 box
420732125 1.046387 box
420732225 1.043884 box
420732325 1.042480 box
420732425 1.045105 box
420732525 1.042908 box
420732625 1.048828 box
420732725 1.044250 box
420732825 1.042603 box
420732925 1.045044 box
420733025 1.044373 box
420733125 1.042358 box
420733225 1.045654 box
420733325 1.045227 box
420733425 1.046082 box
420733525 1.046570 box
420733625 1.043823 box
420733725 1.043884 box
420733825 1.042480 box
420733925 1.044189 box
420734025 1.046753 box
420734125 1.046204 box
420734225 1.044678 box
420734325 1.042847 box
420734425 1.043396 box
420734525 1.043701 box
420734625 1.045288 box
420734725 1.043152 box
420734825 1.044434 box
420734925 1.047302 box
420735025 1.042603 box
420735125 1.045227 box
420735225 1.044189 box
420735325 1.045227 box
420735425 1.043457 box
420735525 1.041382 box
420735625 1.044434 box
420735725 1.046021 box
420735825 1.044922 box
420735925 1.044373 box
420736025 1.043579 box
420736125 1.042480 box
420736225 1.043823 box
420736325 1.044128 box
420736425 1.041931 box
420736525 1.047974 box
420736625 1.044678 box
420736725 1.042053 box
420736825 1.043823 box
420736925 1.045288 box
420737025 1.043396 box
420737125 1.047424 box
420737225 1.042603 box
420737325 1.046143 box
420737425 1.046204 box
420737525 1.040344 box
420737625 1.044678 box
420737725 1.045044 box
420737825 1.045166 box
420737925 1.046082 box
420738025 1.043823 box
420738125 1.046875 box
420738225 1.043640 box
420738325 1.043457 box
420738425 1.044861 box
420738525 1.044128 box
420738625 1.040588 box
420738725 1.044617 box
420738825 1.047424 box
420738925 1.043823 box
420739025 1.044983 box
420739125 1.046082 box
420739225 1.043762 box
420739325 1.044128 box
420739425 1.042847 box
420739525 1.044983 box
420739625 1.045654 box
420739725 1.044861 box
420739825 1.044128 box
420739925 1.044312 box
420740025 1.042908 box
420740125 1.043030 box
420740225 1.045593 box
420740325 1.045776 box
420740425 1.044434 box
420740525 1.043945 box
420740625 1.044556 box
420740725 1.043762 box
420740825 1.042847 box
420740925 1.045166 box
420741025 1.044983 box
420741125 1.042542 box
420741225 1.048584 box
420741325 1.044861 box
420741425 1.040710 box
420741525 1.044861 box
420741625 1.047546 box
420741725 1.042236 box
420741825 1.045166 box
420741925 1.044861 box
420742025 1.045776 box
420742125 1.044495 box
420742225 1.043762 box
420742325 1.046387 box
420742425 1.043640 box
420742525 1.041687 box
420742625 1.045654 box
420742725 1.046936 box
420742825 1.043640 box
420742925 1.045471 box
420743025 1.043762 box
420743125 1.043030 box
420743225 1.043152 box
420743325 1.044617 box
420743425 1.046265 box
420743525 1.044739 box
420743625 1.045654 box
420743725 1.045166 box
420743825 1.042969 box
420743925 1.041992 box
420744025 1.045349 box
420744125 1.045532 box
420744225 1.044434 box
420545419 1.046204 box
420545519 1.044495 box
420545619 1.043823 box
420545719 1.045288 box
420545819 1.044800 box
420545919 1.047668 box
420546019 1.042664 box
420546119 1.043884 box
420546219 1.025574 box
