time(ms) energy(J) hostname
274383950 0.000000 box
274384050 1.007629 box
274384150 0.996643 box
274384250 0.997192 box
274384350 0.996033 box
274384450 0.996460 box
274384550 0.996277 box
274384650 0.994934 box
274384750 0.995483 box
274384850 0.996460 box
274384950 0.994690 box
274385050 0.998718 box
274385150 0.996277 box
274385250 0.993896 box
274385350 0.998352 box
274385450 0.995239 box
274385550 0.994629 box
274385650 0.997253 box
274385750 0.997559 box
274385850 0.996582 box
274385950 0.994568 box
274386050 0.997131 box
274386150 0.995361 box
274386250 0.995422 box
274386350 0.996887 box
274386450 0.995056 box
274386550 0.997986 box
274386650 0.996521 box
274386750 0.996094 box
274386850 0.995544 box
274386950 0.996033 box
274387050 0.995117 box
274387150 0.994446 box
274387250 0.999146 box
274387350 0.995605 box
274387450 0.994141 box
274387550 0.997437 box
274387650 0.995178 box
274387750 0.995361 box
274387850 0.997864 box
274387950 0.997131 box
274388050 0.996582 box
274388150 0.995056 box
274388250 0.996399 box
274388350 0.995178 box
274388450 0.995605 box
274388550 0.996765 box
274388650 0.994202 box
274388750 0.998718 box
274388850 0.997498 box
274388950 0.994629 box
274389050 0.995789 box
274389150 0.996887 box
274389250 0.994629 box
274389350 0.996277 box
274389450 0.997437 box
274389550 0.995972 box
274389650 0.994507 box
274389750 1.000244 box
274389850 0.995422 box
274389950 0.995178 box
274390050 0.998474 box
274390150 0.995789 box
274390250 0.996643 box
274390350 0.996338 box
274390450 0.996765 box
274390550 0.995361 box
274390650 0.996033 box
274390750 0.984741 box
274390850 1.007141 box
274390950 0.998962 box
274391050 0.997253 box
274391150 0.994507 box
274391250 0.985535 box
274391350 1.007080 box
274391450 0.995300 box
274391550 0.995361 box
274391650 0.997498 box
274391750 0.995911 box
274391850 0.994629 box
274391950 0.996094 box
274392050 0.996887 box
274392150 0.995911 box
274392250 0.997559 box
274392350 0.997192 box
274392450 0.996094 box
274392550 0.996338 box
274392650 0.996887 box
274392750 0.995117 box
274392850 0.995667 box
274392950 0.996582 box
274393050 0.995056 box
274393150 0.998291 box
274393250 0.997314 box
274393350 0.994507 box
274393450 0.995544 box
274393550 0.995850 box
274393650 0.995239 box
274393750 0.997314 box
274393850 0.997742 box
274393950 0.995178 box
274394050 0.996765 box
274394150 0.994385 box
274394250 0.996887 box
274394350 0.986450 box
274394450 1.006287 box
274394550 0.997009 box
274394650 0.995422 box
274394750 0.997070 box
274394850 0.996582 box
274394950 0.994629 box
274395050 0.995239 box
274395150 0.996277 box
274395250 0.994446 box
274395350 0.998596 box
274395450 0.997009 box
274395550 0.993958 box
274395650 0.997131 box
274395750 0.986267 box
274395850 1.004578 box
274395950 0.997742 box
274396050 0.997437 box
274396150 0.996399 box
274396250 0.996094 box
274396350 0.995239 box
274396450 0.995667 box
274396550 0.995300 box
274396650 0.998169 box
274396750 0.995850 box
274396850 0.996338 box
274396950 0.996033 box
274397050 0.987976 box
274397150 1.004150 box
274397250 0.994995 box
274397350 0.996216 box
274397450 0.995544 box
274397550 0.998840 box
274397650 0.996033 box
274397750 0.993591 box
274397850 0.997620 box
274397950 0.996094 box
274398050 0.993958 box
274398150 0.997620 box
274398250 0.996765 box
274398350 0.997253 box
274398450 0.995850 box
274398550 0.995911 box
274398650 0.985413 box
274398750 1.004944 box
274398850 0.996643 box
274398950 0.995728 box
274399050 0.997253 box
274399150 0.997437 box
274399250 0.996277 box
274399350 0.994019 box
274399450 0.996338 box
274399550 0.995422 box
274399650 0.995178 box
274399750 0.999207 box
274399850 0.995605 box
274399950 0.994446 box
274400050 0.998230 box
274400150 0.995483 box
274400250 0.995178 box
274400350 0.997192 box
274400450 0.997803 box
274400550 0.995117 box
274400650 0.996216 box
274400750 0.996155 box
274400850 0.995239 box
274400950 0.994507 box
274401050 0.995972 box
274401150 0.995483 box
274401250 0.997864 box
274401350 0.997192 box
274401450 0.995667 box
274401550 0.994446 box
274401650 0.996887 box
274401750 0.994873 box
274401850 0.997192 box
274401950 0.996704 box
274402050 0.995483 box
274402150 0.996460 box
274402250 0.996887 box
274402350 0.995850 box
274402450 0.994690 box
274402550 0.997009 box
274402650 0.994690 box
274402750 0.998230 box
274402850 0.996643 box
274402950 0.997375 box
274403050 0.996399 box
274403150 0.996094 box
274403250 0.994629 box
274403350 0.985168 box
274403450 1.010010 box
274403550 0.996033 box
274403650 0.995483 box
274403750 0.997498 box
274403850 0.996338 box
274403950 0.994019 box
274404050 0.998047 box
274404150 0.995300 box
274404250 0.998230 box
274404350 0.997925 box
274404450 0.993896 box
274404550 0.996765 box
274404650 0.995911 box
274404750 0.995056 box
274404850 0.996216 box
274404950 0.997681 box
274405050 0.995972 box
274405150 0.996216 box
274405250 0.996704 box
274405350 0.995483 box
274405450 0.995605 box
274405550 0.996704 box
274405650 0.996033 box
274405750 0.987976 box
274405850 1.006226 box
274405950 0.986023 box
274406050 1.005066 box
274406150 0.995972 box
274406250 0.986206 box
274406350 1.006287 box
274406450 0.998535 box
274406550 0.995239 box
274406650 0.995728 box
274406750 0.996094 box
274406850 0.996338 box
274406950 0.996033 box
274407050 0.997131 box
274407150 0.995361 box
274407250 0.997925 box
274407350 0.996216 box
274407450 0.995422 box
274407550 0.985840 box
274407650 1.006348 box
274407750 0.994446 box
274407850 0.997070 box
274407950 0.998169 box
274408050 0.995605 box
274408150 0.995422 box
274408250 0.995789 box
274408350 0.996826 box
274408450 0.994751 box
274408550 0.997437 box
274408650 0.996338 box
274408750 0.996521 box
274408850 0.997070 box
274408950 0.994995 box
274409050 0.996338 box
274409150 0.994995 box
274409250 0.994812 box
274409350 0.986145 box
274409450 0.999023 box
274409550 0.995728 box
274409650 1.004700 box
274409750 0.995789 box
274409850 0.987122 box
274409950 0.996033 box
274410050 1.006836 box
274410150 0.994507 box
274410250 0.997681 box
274410350 0.996582 box
274410450 0.996338 box
274410550 0.985962 box
274410650 1.004700 box
274410750 0.995911 box
274410850 0.986694 box
274410950 1.008240 box
274411050 0.995667 box
274411150 0.994690 box
274411250 0.987061 box
274411350 1.006958 box
274411450 0.995605 box
274411550 0.995911 box
274411650 0.995544 box
274411750 0.997742 box
274411850 0.997009 box
274411950 0.985535 box
274412050 1.004761 box
274412150 0.996399 box
274412250 0.985107 box
274412350 0.996948 box
274412450 1.006592 box
274412550 0.996155 box
274412650 0.997131 box
274412750 0.995789 box
274412850 0.994446 box
274412950 0.997375 box
274413050 0.995422 box
274413150 0.994629 box
274413250 0.999329 box
274413350 0.996582 box
274413450 0.993469 box
274413550 0.996338 box
274413650 0.997314 box
274413750 0.994324 box
274413850 0.997131 box
274413950 0.997681 box
274414050 0.996460 box
274414150 0.995667 box
274414250 0.995728 box
274414350 0.995422 box
274414450 0.996094 box
274414550 0.994995 box
274414650 0.997314 box
274414750 0.997192 box
274414850 0.995728 box
274414950 0.996216 box
274415050 0.996704 box
274415150 0.986023 box
274415250 1.005005 box
274415350 0.995605 box
274415450 0.994202 box
274415550 0.998657 box
274415650 0.997192 box
274415750 0.992981 box
274415850 0.997864 box
274415950 0.995605 box
274416050 0.996704 box
274416150 0.998230 box
274416250 0.984375 box
274416350 1.008240 box
274416450 0.995911 box
274416550 0.996704 box
274416650 0.995422 box
274416750 0.996460 box
274416850 0.995483 box
274416950 0.995667 box
274417050 0.997925 box
274417150 0.997375 box
274417250 0.995728 box
274417350 0.996155 box
274417450 0.996155 box
274417550 0.994873 box
274417650 0.996948 box
274417750 0.994263 box
274417850 0.997864 box
274417950 0.997314 box
274418050 0.993591 box
274418150 0.996399 box
274418250 0.996765 box
274418350 0.995056 box
274418450 0.987488 box
274418550 1.006653 box
274418650 0.997131 box
274418750 0.996277 box
274418850 0.996460 box
274418950 0.995422 box
274419050 0.996399 box
274419150 0.995300 box
274419250 0.994690 box
274419350 0.999329 box
274419450 0.996399 box
274419550 0.994568 box
274419650 0.986389 box
274419750 1.006897 box
274419850 0.995789 box
274419950 0.997070 box
274420050 0.995911 box
274420150 0.987793 box
274420250 1.005066 box
274420350 0.996704 box
274420450 0.994629 box
274420550 0.996277 box
274420650 0.994385 box
274420750 0.997437 box
274420850 0.997253 box
274420950 0.996399 box
274421050 0.995483 box
274421150 0.996948 box
274421250 0.995056 box
274421350 0.986328 box
274421450 1.006042 box
274421550 0.994324 box
274421650 0.989929 box
274421750 1.006897 box
274421850 0.992249 box
274421950 0.997375 box
274422050 0.996277 box
274422150 0.995178 box
274422250 0.987427 box
274422350 1.006409 box
274422450 0.986511 box
274422550 1.006836 box
274422650 0.995972 box
274422750 0.995178 box
274422850 0.996765 box
274422950 0.985535 box
274423050 1.006775 box
274423150 0.997131 box
274423250 0.995972 box
274423350 0.994934 box
274423450 0.995483 box
274423550 0.995972 box
274423650 0.995544 box
274423750 0.996765 box
274423850 0.995850 box
274423950 0.987793 box
274424050 1.006836 box
274424150 0.995361 box
274424250 0.996399 box
274424350 0.995728 box
274424450 0.995117 box
274424550 0.997437 box
274424650 0.996887 box
274424750 0.996460 box
274424850 0.996155 box
274424950 0.995483 box
274425050 0.994385 box
274425150 0.996277 box
274425250 0.995117 box
274425350 0.995728 box
274425450 0.998596 box
274425550 0.995117 box
274425650 0.994873 box
274425750 0.986572 box
274425850 1.007446 box
274425950 0.995361 box
274426050 0.996582 box
274426150 0.995056 box
274426250 0.988464 box
274426350 1.007019 box
274426450 0.994324 box
274426550 0.996399 box
274426650 0.994690 box
274426750 0.995605 box
274426850 0.997314 box
274426950 0.997131 box
274427050 0.996948 box
274427150 0.995483 box
274427250 0.996399 box
274427350 0.995056 box
274427450 0.996094 box
274427550 0.996094 box
274427650 0.995483 box
274427750 0.988464 box
274427850 1.006226 box
274427950 0.995361 box
274428050 0.996399 box
274428150 0.996887 box
274428250 0.994446 box
274428350 0.997009 box
274428450 0.994873 box
274428550 0.987610 box
274428650 1.007812 box
274428750 0.994995 box
274428850 0.995422 box
274428950 0.996216 box
274429050 0.997253 box
274429150 0.998596 box
274429250 0.996399 box
274429350 0.995850 box
274429450 0.996338 box
274429550 0.996704 box
274429650 0.996033 box
274429750 0.995667 box
274429850 0.994873 box
274429950 0.996460 box
274430050 0.998657 box
274430150 0.995667 box
274430250 0.994995 box
274430350 0.994446 box
274430450 0.998596 box
274430550 0.994568 box
274430650 0.998169 box
274430750 0.995911 box
274430850 0.997314 box
274430950 0.997131 box
274431050 0.995911 box
274431150 0.995605 box
274431250 0.985962 box
274431350 1.004883 box
274431450 0.997009 box
274431550 0.997070 box
274431650 0.986938 box
274431750 1.005981 box
274431850 0.996826 box
274431950 0.995239 box
274432050 0.995667 box
274432150 0.996277 box
274432250 0.993713 box
274432350 0.999512 box
274432450 0.997498 box
274432550 0.993347 box
274432650 0.996338 box
274432750 0.987122 box
274432850 1.005127 box
274432950 0.997253 box
274433050 0.997375 box
274433150 0.995850 box
274433250 0.996094 box
274433350 0.996155 box
274433450 0.985962 box
274433550 1.006165 box
274433650 0.994873 box
274433750 0.997009 box
274433850 0.998352 box
274433950 0.995361 box
274434050 0.996399 box
274434150 0.996033 box
274434250 0.994507 box
274434350 0.996887 box
274434450 0.996216 box
274434550 0.995422 box
274434650 0.998596 box
274434750 0.996277 box
274434850 0.993835 box
274434950 0.997375 box
274435050 0.995728 box
274435150 0.994812 box
274435250 0.996399 box
274435350 0.987915 box
274435450 1.005920 box
274435550 0.996765 box
274435650 0.996094 box
274435750 0.993713 box
274435850 0.996033 box
274435950 0.996033 box
274436050 0.995483 box
274436150 0.998718 box
274436250 0.996155 box
274436350 0.993591 box
274436450 0.996033 box
274436550 0.997681 box
274436650 0.995972 box
274436750 0.996094 box
274436850 0.995544 box
274436950 0.997192 box
274437050 0.997803 box
274437150 0.995605 box
274437250 0.995544 box
274437350 0.995728 box
274437450 0.985840 box
274437550 1.005920 box
274437650 0.998169 box
274437750 0.985901 box
274437850 1.006470 box
274437950 0.996033 box
274438050 0.984680 box
274438150 1.006226 box
274438250 0.995667 box
274438350 0.994690 box
274438450 0.998352 box
274438550 0.987610 box
274438650 1.002808 box
274438750 0.997131 box
274438850 0.997253 box
274438950 0.994507 box
274439050 0.996704 box
274439150 0.996643 box
274439250 0.987976 box
274439350 1.006348 box
274439450 0.985474 box
274439550 0.994629 box
274439650 1.004883 box
274439750 0.995544 box
274439850 0.987915 box
274439950 1.006287 box
274440050 0.997009 box
274440150 0.995178 box
274440250 0.996948 box
274440350 0.994446 box
274440450 0.997375 box
274440550 0.984558 box
274440650 1.005127 box
274440750 0.998657 box
274440850 0.997192 box
274440950 0.994263 box
274441050 0.996704 box
274441150 0.998596 box
274441250 0.995178 box
274441350 0.985352 box
274441450 0.997314 box
274441550 1.008179 box
274441650 0.996460 box
274441750 0.996033 box
274441850 0.995483 box
274441950 0.996765 box
274442050 0.994629 box
274442150 0.993835 box
274442250 1.000244 box
274442350 0.985229 box
274442450 1.005798 box
274442550 0.986755 box
274442650 1.006470 box
274442750 0.995544 box
274442850 0.986755 box
274442950 1.005310 box
274443050 0.998108 box
274443150 0.997559 box
274443250 0.994812 box
274443350 0.995911 box
274443450 0.995483 box
274443550 0.995789 box
274443650 0.996887 box
274443750 0.997803 box
274443850 0.996582 box
274443950 0.995850 box
274444050 0.986572 box
274444150 1.005371 box
274444250 0.995850 box
274444350 0.996277 box
274444450 0.995056 box
274444550 0.988831 box
274444650 1.007385 box
274444750 0.992432 box
274444850 0.996948 box
274444950 0.996460 box
274445050 0.995056 box
274445150 0.997437 box
274445250 0.997009 box
274445350 0.995422 box
274445450 0.996643 box
274445550 0.996216 box
274445650 0.995544 box
274445750 0.987122 box
274445850 1.003662 box
274445950 0.997192 box
274446050 0.997681 box
274446150 0.996094 box
274446250 0.995483 box
274446350 0.995911 box
274446450 0.995361 box
274446550 0.995361 box
274446650 0.988281 box
274446750 1.004028 box
274446850 0.998901 box
274446950 0.995911 box
274447050 0.993835 box
274447150 0.997009 box
274447250 0.996155 box
274447350 0.994873 box
274447450 0.987549 box
274447550 0.997925 box
274447650 0.995911 box
274447750 1.006165 box
274447850 0.996277 box
274447950 0.995483 box
274448050 0.994812 box
274448150 0.995422 box
274448250 0.997498 box
274448350 0.997864 box
274448450 0.996094 box
274448550 0.994751 box
274448650 0.997375 box
274448750 0.985352 box
274448850 0.995178 box
274448950 1.006042 box
274449050 0.995972 box
274449150 0.996826 box
274449250 0.997437 box
274449350 0.995483 box
274449450 0.995483 box
274449550 0.995422 box
274449650 0.994507 box
274449750 0.998108 box
274449850 0.996216 box
274449950 0.987671 box
274450050 1.005127 box
274450150 0.995972 box
274450250 0.995117 box
274450350 0.996338 box
274450450 0.986267 box
274450550 1.004456 box
274450650 0.998901 box
274450750 0.994385 box
274450850 0.995483 box
274450950 0.996399 box
274451050 0.997437 box
274451150 0.994080 box
274451250 0.996887 box
274451350 0.997620 box
274451450 0.997009 box
274451550 0.995789 box
274451650 0.996643 box
274451750 0.995300 box
274451850 0.996216 box
274451950 0.995300 box
274452050 0.985901 box
274452150 1.008423 box
274452250 0.994812 box
274452350 0.996155 box
274452450 0.996948 box
274452550 0.995422 box
274452650 0.994385 box
274452750 0.997620 box
274452850 0.994385 box
274452950 0.999146 box
274453050 0.997009 box
274453150 0.994690 box
274453250 0.985046 box
274453350 1.005859 box
274453450 0.985962 box
274453550 0.997742 box
274453650 0.996521 box
274453750 0.995361 box
274453850 1.007080 box
274453950 0.996094 box
274454050 0.985352 box
274454150 1.008606 box
274454250 0.996033 box
274454350 0.993835 box
274454450 0.987061 box
274454550 0.997070 box
274454650 1.006104 box
274454750 0.996765 box
274454850 0.996521 box
274454950 0.994934 box
274455050 0.987610 box
274455150 1.008118 box
274455250 0.995483 box
274455350 0.995544 box
274455450 0.996887 box
274455550 0.995728 box
274455650 0.996155 box
274455750 0.984924 box
274455850 1.007141 box
274455950 0.996765 box
274456050 0.997009 box
274456150 0.995728 box
274456250 0.996887 box
274456350 0.996094 box
274456450 0.995178 box
274456550 0.997131 box
274456650 0.995056 box
274456750 0.988159 box
274456850 1.008118 box
274456950 0.993652 box
274457050 0.996033 box
274457150 0.995728 box
274457250 0.995361 box
274457350 0.987549 box
274457450 1.006897 box
274457550 0.997009 box
274457650 0.996033 box
274457750 0.985840 box
274457850 1.004272 box
274457950 0.985046 box
274458050 0.997192 box
274458150 1.003967 box
274458250 0.998657 box
274458350 0.997070 box
274458450 0.993103 box
274458550 0.987793 box
274458650 0.996826 box
274458750 1.004272 box
274458850 0.996643 box
274458950 0.997009 box
274459050 0.996643 box
274459150 0.996338 box
274459250 0.986206 box
274459350 1.005005 box
274459450 0.995789 box
274459550 0.994873 box
274459650 0.986084 box
274459750 0.998596 box
274459850 1.005310 box
274459950 0.994751 box
274460050 0.986084 box
274460150 1.007874 box
274460250 0.984558 box
274460350 1.007080 box
274460450 0.996338 box
274460550 0.996399 box
274460650 0.987305 box
274460750 1.004944 box
274460850 0.995850 box
274460950 0.985657 box
274461050 1.006348 box
274461150 0.994324 box
274461250 0.998962 box
274461350 0.996887 box
274461450 0.993408 box
274461550 0.997498 box
274461650 0.995911 box
274461750 0.984802 box
274461850 0.997375 box
274461950 1.006897 box
274462050 0.996521 box
274462150 0.995056 box
274462250 0.996277 box
274462350 0.995972 box
274462450 0.995178 box
274462550 0.996826 box
274462650 0.995789 box
274462750 0.987610 box
274462850 1.006409 box
274462950 0.996338 box
274463050 0.994507 box
274463150 0.996277 box
274463250 0.995605 box
274463350 0.995239 box
274463450 0.999023 box
274463550 0.996704 box
274463650 0.994080 box
274463750 0.987427 box
274463850 0.994202 box
274463950 1.005066 box
274464050 0.997131 box
274464150 0.997131 box
274464250 0.986206 box
274464350 1.005737 box
274464450 0.996338 box
274464550 0.995483 box
274464650 0.994385 box
274464750 0.996826 box
274464850 0.994568 box
274464950 0.989197 box
274465050 1.006165 box
274465150 0.995911 box
274465250 0.995605 box
274465350 0.997253 box
274465450 0.995300 box
274465550 0.994202 box
274465650 0.998413 box
274465750 0.997864 box
274465850 0.993469 box
274465950 0.997437 box
274466050 0.996216 box
274466150 0.994873 box
274466250 0.997314 box
274466350 0.996765 box
274466450 0.994995 box
274466550 0.996155 box
274466650 0.987000 box
274466750 1.007446 box
274466850 0.982056 box
274466950 1.010315 box
274467050 0.994690 box
274467150 0.997498 box
274467250 0.997009 box
274467350 0.984192 box
274467450 1.007812 box
274467550 0.984009 box
274467650 1.007507 box
274467750 0.994812 box
274467850 0.988525 box
274467950 0.997314 box
274468050 1.003662 box
274468150 0.997986 box
274468250 0.996399 box
274468350 0.994995 box
274468450 0.997742 box
274468550 0.996216 box
274468650 0.986511 box
274468750 1.006653 box
274468850 0.996094 box
274468950 0.994934 box
274469050 0.995178 box
274469150 0.987915 box
274469250 1.004639 box
274469350 0.988281 box
274469450 1.006531 box
274469550 0.995544 box
274469650 0.995667 box
274469750 0.995850 box
274469850 0.985474 box
274469950 1.005249 box
274470050 0.999329 box
274470150 0.995728 box
274470250 0.995239 box
274470350 0.995728 box
274470450 0.997253 box
274470550 0.994568 box
274470650 0.988220 box
274470750 1.006226 box
274470850 0.996948 box
274470950 0.995972 box
274471050 0.987061 box
274471150 0.994385 box
274471250 0.995728 box
274471350 1.006592 box
274471450 0.995544 box
274471550 0.997559 box
274471650 0.996216 box
274471750 0.996460 box
274471850 0.995422 box
274471950 0.996216 box
274472050 0.986023 box
274472150 1.004028 box
274472250 0.990356 box
274472350 0.996765 box
274472450 1.002502 box
274472550 0.987000 box
274472650 1.006287 box
274472750 0.983826 box
274472850 0.997864 box
274472950 1.006836 box
274473050 0.996155 box
274473150 0.996216 box
274473250 0.984741 box
274473350 1.006897 box
274473450 0.996155 box
274473550 0.987488 box
274473650 0.997559 box
274473750 1.005798 box
274473850 0.996826 box
274473950 0.996460 box
274474050 0.994446 box
274474150 0.996704 box
274474250 0.995850 box
274474350 0.994629 box
274474450 0.999512 box
274474550 0.995972 box
274474650 0.993347 box
274474750 0.997253 box
274474850 0.986267 box
274474950 0.995056 box
274475050 0.997498 box
274475150 1.007507 box
274475250 0.996033 box
274475350 0.994446 box
274475450 0.995422 box
274475550 0.987061 box
274475650 1.004700 box
274475750 0.987122 box
274475850 1.006287 box
274475950 0.996521 box
274476050 0.995972 box
274476150 0.986450 box
274476250 0.995239 box
274476350 1.005493 box
274476450 0.986816 box
274476550 1.004578 box
274476650 0.997559 box
274476750 0.996826 box
274476850 0.995605 box
274476950 0.995605 box
274477050 0.994629 box
274477150 0.985962 box
274477250 1.006226 box
274477350 0.997925 box
274477450 0.994446 box
274477550 0.994690 box
274477650 0.995789 box
274477750 0.988159 box
274477850 1.004456 box
274477950 0.987793 box
274478050 1.007385 box
274478150 0.996094 box
274478250 0.996216 box
274478350 0.996216 box
274478450 0.995911 box
274478550 0.995361 box
274478650 0.996399 box
274478750 0.994751 box
274478850 0.998413 box
274478950 0.996399 box
274479050 0.995422 box
274479150 0.985718 box
274479250 1.006836 box
274479350 0.995605 box
274479450 0.994812 box
274479550 0.988525 box
274479650 1.005798 box
274479750 0.994507 box
274479850 0.997986 box
274479950 0.998840 box
274480050 0.983032 box
274480150 1.008972 box
274480250 0.997314 box
274480350 0.982910 box
274480450 1.008545 box
274480550 0.996582 box
274480650 0.995605 box
274480750 0.994751 box
274480850 0.997620 box
274480950 0.995911 box
274481050 0.986694 box
274481150 1.006165 box
274481250 0.996826 box
274481350 0.985596 box
274481450 1.006104 box
274481550 0.984314 box
274481650 1.005188 box
274481750 0.999023 box
274481850 0.998352 box
274481950 0.993347 box
274482050 0.996460 box
274482150 0.996582 box
274482250 0.994995 box
274482350 0.986511 box
274482450 0.997253 box
274482550 1.006531 box
274482650 0.995972 box
274482750 0.996155 box
274482850 0.996643 box
274482950 0.995605 box
274483050 0.996521 box
274483150 0.987549 box
274483250 0.995422 box
274483350 1.006714 box
274483450 0.996155 box
274483550 0.994934 box
274483650 0.985168 box
274483750 1.006775 box
274483850 0.984924 box
274483950 1.008362 box
274484050 0.987732 box
274484150 1.004883 box
274484250 0.995667 box
274484350 0.986816 box
274484450 1.003723 box
274484550 0.986572 box
274484650 1.007996 box
274484750 0.996582 box
274484850 0.983887 box
274484950 1.005676 box
274485050 0.997559 box
274485150 0.995483 box
274485250 0.996704 box
274485350 0.997986 box
274485450 0.986389 box
274485550 1.005859 box
274485650 0.996094 box
274485750 0.995422 box
274485850 0.995178 box
274485950 0.997375 box
274486050 0.994934 box
274486150 0.998047 box
274486250 0.997437 box
274486350 0.995178 box
274486450 0.995300 box
274486550 0.996216 box
274486650 0.995728 box
274486750 0.994385 box
274486850 0.999268 box
274486950 0.996948 box
274487050 0.994507 box
274487150 0.996338 box
274487250 0.997070 box
274487350 0.984192 box
274487450 1.007019 box
274487550 0.997620 box
274487650 0.996155 box
274487750 0.983765 box
274487850 1.006165 box
274487950 0.998352 box
274488050 0.984863 box
274488150 1.006409 box
274488250 0.997620 box
274488350 0.987000 box
274488450 1.005737 box
274488550 0.985779 box
274488650 1.004333 box
274488750 0.985718 box
274488850 1.007507 box
274488950 0.986084 box
274489050 1.006287 box
274489150 0.997070 box
274489250 0.994995 box
274489350 0.995911 box
274489450 0.986267 box
274489550 1.005554 box
274489650 0.995483 box
274489750 0.998779 box
274489850 0.996521 box
274489950 0.994141 box
274490050 0.997925 box
274490150 0.995117 box
274490250 0.995056 box
274490350 0.997559 box
274490450 0.997375 box
274490550 0.997009 box
274490650 0.993896 box
274490750 0.996521 box
274490850 0.996216 box
274490950 0.994507 box
274491050 0.997620 box
274491150 0.988220 box
274491250 1.005432 box
274491350 0.996948 box
274491450 0.995483 box
274491550 0.995544 box
274491650 0.986938 box
274491750 1.005188 box
274491850 0.995483 box
274491950 0.998779 box
274492050 0.997375 box
274492150 0.995178 box
274492250 0.985291 box
274492350 1.006165 box
274492450 0.995117 box
274492550 0.985046 box
274492650 1.008728 box
274492750 0.996033 box
274492850 0.993652 box
274492950 0.998230 box
274493050 0.994934 box
274493150 0.995911 box
274493250 0.997559 box
274493350 0.996399 box
274493450 0.997314 box
274493550 0.984741 box
274493650 1.007568 box
274493750 0.996521 box
274493850 0.995239 box
274493950 0.997498 box
274494050 0.985535 box
274494150 0.996155 box
274494250 1.006958 box
274494350 0.985229 box
274494450 0.995667 box
274494550 1.007812 box
274494650 0.996277 box
274494750 0.994629 box
274494850 0.998901 box
274494950 0.996887 box
274495050 0.995422 box
274495150 0.985229 box
274495250 0.996155 box
274495350 1.005676 box
274495450 0.995483 box
274495550 0.998413 box
274495650 0.996033 box
274495750 0.994873 box
274495850 0.997559 box
274495950 0.986450 box
274496050 1.004944 box
274496150 0.997009 box
274496250 0.997253 box
274496350 0.996582 box
274496450 0.995911 box
274496550 0.996155 box
274496650 0.986023 box
274496750 1.004883 box
274496850 0.987244 box
274496950 0.996765 box
274497050 0.995728 box
274497150 1.006897 box
274497250 0.996094 box
274497350 0.984741 box
274497450 1.005127 box
274497550 0.986328 box
274497650 1.004456 box
274497750 0.998901 box
274497850 0.996948 box
274497950 0.995605 box
274498050 0.985779 box
274498150 1.005798 box
274498250 0.993896 box
274498350 0.995911 box
274498450 0.999329 box
274498550 0.995544 box
274498650 0.993958 box
274498750 0.997192 box
274498850 0.996887 box
274498950 0.994995 box
274499050 0.996460 box
274499150 0.997131 box
274499250 0.986328 box
274499350 1.005493 box
274499450 0.994812 box
274499550 0.987000 box
274499650 1.004944 box
274499750 0.996704 box
274499850 0.987732 box
274499950 0.996643 box
274500050 1.005676 box
274500150 0.986938 box
274500250 1.004028 box
274500350 0.996094 box
274500450 0.996033 box
274500550 0.995850 box
274500650 0.996948 box
274500750 0.996277 box
274500850 0.996033 box
274500950 0.985535 box
274501050 1.005920 box
274501150 0.986450 box
274501250 1.003601 box
274501350 1.000366 box
274501450 0.986206 box
274501550 1.004089 box
274501650 0.996338 box
274501750 0.995605 box
274501850 0.995422 box
274501950 0.996826 box
274502050 0.997681 box
274502150 0.995789 box
274502250 0.984619 box
274502350 1.006897 box
274502450 0.997009 box
274502550 0.992859 box
274502650 0.987671 box
274502750 1.006775 box
274502850 0.986633 box
274502950 1.005249 box
274503050 0.985535 box
274503150 1.007019 box
274503250 0.994873 box
274503350 0.997314 box
274503450 0.996704 box
274503550 0.987122 box
274503650 1.006409 box
274503750 0.995239 box
274503850 0.994873 box
274503950 0.996155 box
274504050 0.995850 box
274504150 0.995056 box
274504250 0.998291 box
274504350 0.997131 box
274504450 0.995605 box
274504550 0.985718 box
274504650 1.005615 box
274504750 0.995483 box
274504850 0.995544 box
274504950 0.998352 box
274505050 0.996704 box
274505150 0.993042 box
274505250 0.997070 box
274505350 0.994812 box
274505450 0.995544 box
274505550 0.997681 box
274505650 0.987122 box
274505750 1.005676 box
274505850 0.994446 box
274505950 0.996033 box
274506050 0.997375 box
274506150 0.984924 box
274506250 0.997925 box
274506350 1.005981 box
274506450 0.997009 box
274506550 0.995300 box
274506650 0.986816 box
274506750 1.006470 box
274506850 0.993774 box
274506950 0.997864 box
274507050 0.986816 box
274507150 1.006165 box
274507250 0.996460 box
274507350 0.985413 box
274507450 1.005554 box
274507550 0.985901 box
274507650 1.005066 box
274507750 0.994934 box
274507850 0.988647 box
274507950 0.996948 box
274508050 1.007263 box
274508150 0.996216 box
274508250 0.996460 box
274508350 0.995056 box
274508450 0.994995 box
274508550 0.998901 box
274508650 0.997498 box
274508750 0.993713 box
274508850 0.997437 box
274508950 0.995544 box
274509050 0.983521 box
274509150 1.008606 box
274509250 0.985413 box
274509350 1.008789 box
274509450 0.994019 box
274509550 0.997192 box
274509650 0.996399 box
274509750 0.994934 box
274509850 0.997864 box
274509950 0.996887 box
274510050 0.995850 box
274510150 0.996521 box
274510250 0.984131 box
274510350 1.006958 box
274510450 0.995422 box
274510550 0.998047 box
274510650 0.996094 box
274510750 0.987122 box
274510850 1.005127 box
274510950 0.996704 box
274511050 0.995850 box
274511150 0.995178 box
274511250 0.996887 box
274511350 0.995056 box
274511450 0.998657 box
274511550 0.987244 box
274511650 1.005493 box
274511750 0.995728 box
274511850 0.997192 box
274511950 0.994263 box
274512050 0.995605 box
274512150 0.989380 box
274512250 1.007751 box
274512350 0.992615 box
274512450 0.997009 box
274512550 0.996948 box
274512650 0.994202 box
274512750 0.996155 box
274512850 0.997803 box
274512950 0.995544 box
274513050 0.985046 box
274513150 1.005493 box
274513250 0.988037 box
274513350 0.994995 box
274513450 0.996399 box
274513550 1.007568 box
274513650 0.986633 box
274513750 0.995667 box
274513850 0.996826 box
274513950 1.004700 box
274514050 0.996155 box
274514150 0.996704 box
274514250 0.996216 box
274514350 0.996826 box
274514450 0.996765 box
274514550 0.987000 box
274514650 1.004883 box
274514750 0.996765 box
274514850 0.995850 box
274514950 0.995544 box
274515050 0.998657 box
274515150 0.995361 box
274515250 0.986206 box
274515350 1.005676 box
274515450 0.995972 box
274515550 0.994446 box
274515650 0.986023 box
274515750 1.008728 box
274515850 0.987488 box
274515950 1.002502 box
274516050 0.997864 box
274516150 0.986755 box
274516250 0.992798 box
274516350 1.007568 box
274516450 0.987305 box
274516550 1.005676 box
274516650 0.984375 box
274516750 0.996338 box
274516850 1.007202 box
274516950 0.994324 box
274517050 0.997253 box
274517150 0.997559 box
274517250 0.996521 box
274517350 0.996704 box
274517450 0.995056 box
274517550 0.985168 box
274517650 1.005737 box
274517750 0.987366 box
274517850 1.005737 box
274517950 0.996155 box
274518050 0.996704 box
274518150 0.996704 box
274518250 0.984924 box
274518350 1.006042 box
274518450 0.996460 box
274518550 0.996094 box
274518650 0.988098 box
274518750 1.007141 box
274518850 0.995605 box
274518950 0.994812 box
274519050 0.987183 box
274519150 1.004517 box
274519250 0.985779 box
274519350 0.998901 box
274519450 1.007263 box
274519550 0.994019 box
274519650 0.995972 box
274519750 0.996094 box
274519850 0.996033 box
274519950 0.987488 box
274520050 1.007019 box
274520150 0.995178 box
274520250 0.984375 box
274520350 1.007812 box
274520450 0.994812 box
274520550 0.995117 box
274520650 0.987976 box
274520750 0.998108 box
274520850 0.995911 box
274520950 1.005127 box
274521050 0.995117 box
274521150 0.987244 box
274521250 1.004456 box
274521350 0.987732 box
274521450 1.006958 box
274521550 0.997009 box
274521650 0.994995 box
274521750 0.997498 box
274521850 0.995178 box
274521950 0.994690 box
274522050 0.997498 box
274522150 0.986938 box
274522250 1.006653 box
274522350 0.996643 box
274522450 0.995972 box
274522550 0.985779 box
274522650 1.005981 box
274522750 0.986267 box
274522850 1.003906 box
274522950 0.998779 box
274523050 0.998230 box
274523150 0.995544 box
274523250 0.995728 box
274523350 0.996643 box
274523450 0.995361 box
274523550 0.994934 box
274523650 0.986877 box
274523750 0.996887 box
274523850 1.006470 box
274523950 0.995789 box
274524050 0.997375 box
274524150 0.995422 box
274524250 0.984192 box
274524350 1.010193 box
274524450 0.986145 box
274524550 1.004578 box
274524650 0.996155 box
274524750 0.996826 box
274524850 0.994629 box
274524950 0.996887 box
274525050 0.997131 box
274525150 0.996399 box
274525250 0.983704 box
274525350 1.006714 box
274525450 0.986938 box
274525550 1.004211 box
274525650 0.997559 box
274525750 0.986816 box
274525850 1.006531 box
274525950 0.994995 box
274526050 0.984802 box
274526150 1.007690 box
274526250 0.985596 box
274526350 1.007263 box
274526450 0.987610 box
274526550 0.995789 box
274526650 0.995972 box
274526750 1.006836 box
274526850 0.984985 box
274526950 0.996094 box
274527050 1.006836 box
274527150 0.995544 box
274527250 0.997498 box
274527350 0.996521 box
274527450 0.986877 box
274527550 1.004578 box
274527650 0.995056 box
274527750 0.987366 box
274527850 1.005371 box
274527950 0.998901 box
274528050 0.996033 box
274528150 0.995667 box
274528250 0.995178 box
274528350 0.986267 box
274528450 1.005127 box
274528550 0.985535 box
274528650 0.999634 box
274528750 1.006042 box
274528850 0.995117 box
274528950 0.996826 box
274529050 0.996521 box
274529150 0.994263 box
274529250 0.997253 box
274529350 0.997925 box
274529450 0.996460 box
274529550 0.993469 box
274529650 0.987915 box
274529750 1.006104 box
274529850 0.994568 box
274529950 0.997803 box
274530050 0.997375 box
274530150 0.986755 box
274530250 1.003967 box
274530350 0.994873 box
274530450 0.998413 box
274530550 0.985657 box
274530650 1.006653 box
274530750 0.987915 box
274530850 1.005798 box
274530950 0.996338 box
274531050 0.985535 box
274531150 0.996582 box
274531250 0.994141 box
274531350 1.006042 box
274531450 0.997192 box
274531550 0.986816 box
274531650 0.996765 box
274531750 0.994202 box
274531850 1.005859 box
274531950 0.995361 box
274532050 0.996521 box
274532150 0.987000 box
274532250 1.007324 box
274532350 0.996216 box
274532450 0.986816 box
274532550 0.995422 box
274532650 0.997559 box
274532750 0.996216 box
274532850 1.004150 box
274532950 0.998474 box
274533050 0.997070 box
274533150 0.995239 box
274533250 0.985107 box
274533350 1.005737 box
274533450 0.995544 box
274533550 0.995544 box
274533650 0.988831 box
274533750 1.007690 box
274533850 0.994263 box
274533950 0.995850 box
274534050 0.996216 box
274534150 0.995911 box
274534250 0.985901 box
274534350 1.008545 box
274534450 0.986755 box
274534550 1.004272 box
274534650 0.997253 box
274534750 0.995667 box
274534850 0.985657 box
274534950 1.008118 box
274535050 0.987000 box
274535150 1.005493 box
274535250 0.994629 box
274535350 0.995361 box
274535450 0.996704 box
274535550 0.985229 box
274535650 1.009644 box
274535750 0.985413 box
274535850 1.007751 box
274535950 0.995239 box
274536050 0.997314 box
274536150 0.996277 box
274536250 0.983215 box
274536350 1.009888 box
274536450 0.984558 box
274536550 1.008850 box
274536650 0.996216 box
274536750 0.985901 box
274536850 1.005981 box
274536950 0.994629 box
274537050 0.987610 box
274537150 0.997070 box
274537250 1.006042 box
274537350 0.984985 box
274537450 1.007324 box
274537550 0.995605 box
274537650 0.994751 box
274537750 0.997192 box
274537850 0.995117 box
274537950 0.988342 box
274538050 0.995850 box
274538150 1.006714 box
274538250 0.995300 box
274538350 0.996155 box
274538450 0.996277 box
274538550 0.994873 box
274538650 0.988403 box
274538750 1.007324 box
274538850 0.995361 box
274538950 0.985901 box
274539050 1.005554 box
274539150 0.994934 box
274539250 0.995789 box
274539350 0.998962 box
274539450 0.997314 box
274539550 0.994507 box
274539650 0.996155 box
274539750 0.996216 box
274539850 0.994202 box
274539950 0.997131 box
274540050 0.988647 box
274540150 1.006897 box
274540250 0.993713 box
274540350 0.997314 box
274540450 0.996338 box
274540550 0.995361 box
274540650 0.996765 box
274540750 0.987549 box
274540850 1.005554 box
274540950 0.984985 box
274541050 1.004883 box
274541150 0.997986 box
274541250 0.994995 box
274541350 0.987976 box
274541450 0.997620 box
274541550 1.005249 box
274541650 0.996521 box
274541750 0.994385 box
274541850 0.997070 box
274541950 0.995361 box
274542050 0.996582 box
274542150 0.988403 box
274542250 0.996216 box
274542350 1.006287 box
274542450 0.996887 box
274542550 0.995178 box
274542650 0.995178 box
274542750 0.987427 box
274542850 1.006531 box
274542950 0.996826 box
274543050 0.995911 box
274543150 0.987000 box
274543250 0.994507 box
274543350 1.005493 box
274543450 0.997375 box
274543550 0.996094 box
274543650 0.987183 box
274543750 1.006226 box
274543850 0.986755 box
274543950 0.994812 box
274544050 1.006226 box
274544150 0.996033 box
274544250 0.995239 box
274544350 0.997742 box
274544450 0.996765 box
274544550 0.986572 box
274544650 1.004578 box
274544750 0.995850 box
274544850 0.987305 box
274544950 1.005493 box
274545050 0.997192 box
274545150 0.997131 box
274545250 0.995728 box
274545350 0.994934 box
274545450 0.997498 box
274545550 0.995667 box
274545650 0.995911 box
274545750 0.988831 box
274545850 1.007202 box
274545950 0.986694 box
274546050 0.994324 box
274546150 0.996643 box
274546250 0.995300 box
274546350 0.996033 box
274546450 0.998718 box
274546550 0.997070 box
274546650 1.005249 box
274546750 0.995178 box
274546850 0.996765 box
274546950 0.995178 box
274547050 0.984863 box
274547150 1.008850 box
274547250 0.996887 box
274547350 0.994446 box
274547450 0.996948 box
274547550 0.995361 box
274547650 0.995728 box
274547750 0.985901 box
274547850 1.008850 box
274547950 0.997070 box
274548050 0.994019 box
274548150 0.996094 box
274548250 0.997192 box
274548350 0.995361 box
274548450 0.985718 box
274548550 1.008423 box
274548650 0.987244 box
274548750 1.003723 box
274548850 0.988037 box
274548950 1.008911 box
274549050 0.982727 box
274549150 0.997375 box
274549250 1.008484 box
274549350 0.996094 box
274549450 0.983337 box
274549550 1.009033 box
274549650 0.996460 box
274549750 0.994995 box
274549850 0.997620 box
274549950 0.985474 box
274550050 1.008606 box
274550150 0.983887 box
274550250 1.008240 box
274550350 0.995972 box
274550450 0.994995 box
274550550 0.986633 box
274550650 1.007324 box
274550750 0.985779 box
274550850 1.005920 box
274550950 0.996399 box
274551050 0.996826 box
274551150 0.995667 box
274551250 0.997192 box
274551350 0.996948 box
274551450 0.996704 box
274551550 0.984985 box
274551650 1.005249 box
274551750 0.998352 box
274551850 0.994934 box
274551950 0.986389 box
274552050 0.997009 box
274552150 0.996155 box
274552250 1.005798 box
274552350 0.993713 box
274552450 0.998169 box
274552550 0.994995 box
274552650 0.997437 box
274552750 0.997864 box
274552850 0.986572 box
274552950 1.005188 box
274553050 0.984314 box
274553150 1.007812 box
274553250 0.995361 box
274553350 0.986572 box
274553450 1.007324 box
274553550 0.995178 box
274553650 0.996338 box
274553750 0.984375 box
274553850 1.007996 box
274553950 0.995300 box
274554050 0.987854 box
274554150 0.996521 box
274554250 1.006470 box
274554350 0.996704 box
274554450 0.994568 box
274554550 0.997375 box
274554650 0.984924 box
274554750 1.006470 box
274554850 0.997437 box
274554950 0.996399 box
274555050 0.996216 box
274555150 0.994995 box
274555250 0.995544 box
274555350 0.985413 box
274555450 0.997620 box
274555550 0.997314 box
274555650 1.005737 box
274555750 0.986755 box
274555850 1.005188 box
274555950 0.986877 box
274556050 0.994080 box
274556150 1.006287 box
274556250 0.997437 box
274556350 0.987122 box
274556450 1.006409 box
274556550 0.995544 box
274556650 0.986084 box
274556750 0.995117 box
274556850 0.996216 box
274556950 0.998169 box
274557050 1.005432 box
274557150 0.986694 box
274557250 0.994812 box
274557350 1.005615 box
274557450 0.996277 box
274557550 0.986450 box
274557650 1.006958 box
274557750 0.986267 box
274557850 1.006836 box
274557950 0.995728 box
274558050 0.986328 box
274558150 0.995361 box
274558250 1.006897 box
274558350 0.996155 box
274558450 0.987732 box
274558550 1.005798 box
274558650 0.986816 box
274558750 0.994202 box
274558850 1.006714 box
274558950 0.986633 box
274559050 0.996521 box
274559150 0.996460 box
274559250 1.006775 box
274559350 0.996277 box
274559450 0.984863 box
274559550 0.996277 box
274559650 0.997070 box
274559750 1.004211 box
274559850 0.987976 box
274559950 1.005859 box
274560050 0.996277 box
274560150 0.996094 box
274560250 0.986938 box
274560350 1.005127 box
274560450 0.995605 box
274560550 0.998108 box
274560650 0.996887 box
274560750 0.985779 box
274560850 0.995361 box
274560950 1.006775 box
274561050 0.995117 box
274561150 0.994934 box
274561250 0.998779 box
274561350 0.996155 box
274561450 0.985901 box
274561550 0.995361 box
274561650 0.997437 box
274561750 0.996155 box
274561850 1.005188 box
274561950 0.988647 box
274562050 0.995728 box
274562150 1.005371 box
274562250 0.986511 box
274562350 0.997009 box
274562450 0.993896 box
274562550 0.996094 box
274562650 0.997803 box
274562750 1.009094 box
274562850 0.982910 box
274562950 1.008179 box
274563050 0.996582 box
274563150 0.995728 box
274563250 0.983398 box
274563350 0.998352 box
274563450 1.007935 box
274563550 0.983154 box
274563650 0.995300 box
274563750 1.008850 box
274563850 0.996094 box
274563950 0.995422 box
274564050 0.999146 box
274564150 0.997253 box
274564250 0.995605 box
274564350 0.985229 box
274564450 1.006653 box
274564550 0.984985 box
274564650 1.005127 box
274564750 0.999878 box
274564850 0.996826 box
274564950 0.994690 box
274565050 0.986938 box
274565150 0.996155 box
274565250 0.995361 box
274565350 1.006104 box
274565450 0.988159 box
274565550 1.006165 box
274565650 0.994568 box
274565750 0.996338 box
274565850 0.986328 box
274565950 1.005127 box
274566050 0.986023 box
274566150 0.998474 box
274566250 0.996948 box
274566350 1.003723 box
274566450 0.997681 box
274566550 0.995605 box
274566650 0.995789 box
274566750 0.986511 box
274566850 0.998901 box
274566950 0.996704 box
274567050 1.003296 box
274567150 0.996399 box
274567250 0.987061 box
274567350 0.994995 box
274567450 0.996338 box
274567550 0.998474 box
274567650 1.006165 box
274567750 0.993896 box
274567850 0.987488 box
274567950 1.006287 box
274568050 0.985046 box
274568150 0.997498 box
274568250 1.007629 box
274568350 0.995483 box
274568450 0.994080 box
274568550 0.988220 box
274568650 1.005615 box
274568750 0.994202 box
274568850 0.997620 box
274568950 0.997742 box
274569050 0.986816 box
274569150 1.004028 box
274569250 0.997070 box
274569350 0.996887 box
274569450 0.985291 box
274569550 1.007202 box
274569650 0.997314 box
274569750 0.986694 box
274569850 1.004822 box
274569950 0.994995 box
274570050 0.988464 box
274570150 1.004456 box
274570250 0.998047 box
274570350 0.997620 box
274570450 0.986328 box
274570550 1.005432 box
274570650 0.984619 box
274570750 0.998169 box
274570850 0.994446 box
274570950 1.006836 box
274571050 0.988037 box
274571150 0.995972 box
274571250 0.995667 box
274571350 1.004517 box
274571450 0.998413 box
274571550 0.994202 box
274571650 0.997803 box
274571750 0.996948 box
274571850 0.996216 box
274571950 0.995667 box
274572050 0.984741 box
274572150 1.008728 box
274572250 0.993835 box
274572350 0.988037 box
274572450 0.997803 box
274572550 1.005859 box
274572650 0.986267 box
274572750 0.994019 box
274572850 1.008179 box
274572950 0.984924 box
274573050 1.007935 box
274573150 0.996399 box
274573250 0.996216 box
274573350 0.994934 box
274573450 0.996338 box
274573550 0.995972 box
274573650 0.994263 box
274573750 0.997925 box
274573850 0.987366 box
274573950 0.995789 box
274574050 0.995911 box
274574150 0.994568 box
274574250 1.007935 box
274574350 0.985291 box
274574450 1.007385 box
274574550 0.987366 box
274574650 1.005920 box
274574750 0.995850 box
274574850 0.996460 box
274574950 0.995850 box
274575050 0.984924 box
274575150 0.997437 box
274575250 0.996704 box
274575350 0.996277 box
274575450 0.994934 box
274575550 1.006042 box
274575650 0.996277 box
274575750 0.984802 box
274575850 1.007812 box
274575950 0.996277 box
274576050 0.997314 box
274576150 0.996582 box
274576250 0.996338 box
274576350 0.995239 box
274576450 0.995178 box
274576550 0.987000 box
274576650 1.005676 box
274576750 0.988281 box
274576850 1.008423 box
274576950 0.997192 box
274577050 0.982666 box
274577150 1.008362 box
274577250 0.996033 box
274577350 0.994873 box
274577450 0.986328 box
274577550 1.007568 box
274577650 0.997314 box
274577750 0.995422 box
274577850 0.995728 box
274577950 0.997192 box
274578050 0.995422 box
274578150 0.987366 box
274578250 1.007324 box
274578350 0.985962 box
274578450 0.995178 box
274578550 0.995300 box
274578650 1.007568 box
274578750 0.995300 box
274578850 0.988708 box
274578950 0.996033 box
274579050 0.996887 box
274579150 0.995911 box
274579250 0.995239 box
274579350 1.006775 box
274579450 0.995911 box
274579550 0.987671 box
274579650 0.995850 box
274579750 1.007019 box
274579850 0.985535 box
274579950 1.005859 box
274580050 0.987000 box
274580150 1.004822 box
274580250 0.988403 box
274580350 0.995056 box
274580450 1.006165 box
274580550 0.986206 box
274580650 0.995483 box
274580750 0.996826 box
274580850 1.005249 box
274580950 0.998230 box
274581050 0.996521 box
274581150 0.985657 box
274581250 0.996094 box
274581350 0.995361 box
274581450 1.005859 box
274581550 0.985718 box
274581650 0.998779 box
274581750 1.005920 box
274581850 0.985352 box
274581950 0.995850 box
274582050 0.995667 box
274582150 1.006287 box
274582250 0.995117 box
274582350 0.998962 box
274582450 0.996643 box
274582550 0.995361 box
274582650 0.996033 box
274582750 0.986145 box
274582850 0.995972 box
274582950 0.995117 box
274583050 1.008484 box
274583150 0.986023 box
274583250 1.005249 box
274583350 0.995850 box
274583450 0.986084 box
274583550 1.004883 box
274583650 0.994934 box
274583750 0.990601 box
274583850 1.005066 box
274583950 0.985107 box
274584050 1.005554 box
274584150 0.996277 box
274584250 0.995789 box
274584350 0.986145 box
274584450 1.008789 box
274584550 0.995972 box
274584650 0.985962 box
274584750 0.995483 box
274584850 0.995789 box
274584950 1.005066 box
274585050 0.985352 box
274383270 0.997559 box
274383370 0.994385 box
274383470 0.995728 box
274383570 0.996704 box
274383670 0.995544 box
274383770 0.995178 box
