/dev/cpu/msr_batch: No such file or directory
terminate called after throwing an instance of 'std::bad_alloc'
  what():  std::bad_alloc
[box:04717] *** Process received signal ***
[box:04717] Signal: Aborted (6)
[box:04717] Signal code:  (-6)
[box:04717] [ 0] /lib/libpthread.so.0(+0x10030)[0x7fcc93d30030]
[box:04717] [ 1] /lib/libc.so.6(gsignal+0xbb)[0x7fcc939d685e]
[box:04717] [ 2] /lib/libc.so.6(abort+0x139)[0x7fcc939d799d]
[box:04717] [ 3] /usr/lib/libstdc++.so.6(_ZN9__gnu_cxx27__verbose_terminate_handlerEv+0xbc)[0x7fcc945119ad]
[box:04717] [ 4] /usr/lib/libstdc++.so.6(+0x94081)[0x7fcc94510081]
[box:04717] [ 5] /usr/lib/libstdc++.so.6(+0x940ba)[0x7fcc945100ba]
[box:04717] [ 6] /usr/lib/libstdc++.so.6(__cxa_rethrow+0x0)[0x7fcc9451029c]
[box:04717] [ 7] /usr/lib/libstdc++.so.6(_Znwm+0x53)[0x7fcc9451063a]
[box:04717] [ 8] /mnt/sda1/miniFE/src/miniFE.x[0x412849]
[box:04717] [ 9] /mnt/sda1/miniFE/src/miniFE.x[0x419c53]
[box:04717] [10] /mnt/sda1/miniFE/src/miniFE.x[0x404d2a]
[box:04717] [11] /lib/libc.so.6(__libc_start_main+0x15a)[0x7fcc939c709d]
[box:04717] [12] /mnt/sda1/miniFE/src/miniFE.x[0x406b6a]
[box:04717] *** End of error message ***
--------------------------------------------------------------------------
mpirun noticed that process rank 0 with PID 0 on node box exited on signal 6 (Aborted).
--------------------------------------------------------------------------
Command exited with non-zero status 134
real	0m 58.43s
user	1m 36.93s
sys	0m 6.67s
